##TITLE= Audit trail, TOPSPIN		Version 2.1
##JCAMPDX= 5.01
##ORIGIN= Bruker BioSpin GmbH
##OWNER= Administrator
$$ T:/data/MJD/nmr/C02404/49/audita.txt
##AUDIT TRAIL=  $$ (NUMBER, WHEN, WHO, WHERE, PROCESS, VERSION, WHAT)
(   1,<2013-06-14 10:27:40.703 +0100>,<Administrator>,<GH001606>,<go>,<TOPSPIN 2.1>,
      <created by zg
	started at 2013-06-14 09:26:17.203 +0100,
	POWCHK disabled, PULCHK disabled,
       configuration hash MD5:
       3E 28 56 27 A3 E6 96 EB AB A8 47 E1 FE 66 6F 96
       data hash MD5: 32K
       EC B3 3E 04 5E 8C 57 62 1F 0C 85 09 CD 26 B9 84>)
(   2,<2013-06-14 10:27:50.453 +0100>,<Administrator>,<GH001606>,<audit>,<TOPSPIN 2.1>,
      <user comment:
       ICON-NMR User ID: MJD
       data hash MD5: 32K
       EC B3 3E 04 5E 8C 57 62 1F 0C 85 09 CD 26 B9 84>)
(   3,<2013-06-14 10:27:50.625 +0100>,<Administrator>,<GH001606>,<dirdata>,<TOPSPIN 2.1>,
      <wrpa from 1 49 "C02404" "MJD" "C:\NMRdata"
       data hash MD5: 32K
       EC B3 3E 04 5E 8C 57 62 1F 0C 85 09 CD 26 B9 84>)
##END=

$$ hash MD5
$$ F4 3C 46 00 63 AE 74 15 5E 19 5B F8 AB DC E8 BD
