##TITLE= Audit trail, TOPSPIN		Version 2.1
##JCAMPDX= 5.01
##ORIGIN= Bruker BioSpin GmbH
##OWNER= Administrator
$$ T:/data/MJD/nmr/C02404/38/audita.txt
##AUDIT TRAIL=  $$ (NUMBER, WHEN, WHO, WHERE, PROCESS, VERSION, WHAT)
(   1,<2013-06-13 23:55:58.046 +0100>,<Administrator>,<GH001606>,<go>,<TOPSPIN 2.1>,
      <created by zg
	started at 2013-06-13 22:54:34.500 +0100,
	POWCHK disabled, PULCHK disabled,
       configuration hash MD5:
       3E 28 56 27 A3 E6 96 EB AB A8 47 E1 FE 66 6F 96
       data hash MD5: 32K
       89 45 FC D1 31 BC C0 98 E5 54 82 3F 2B E3 BA 79>)
(   2,<2013-06-13 23:56:07.531 +0100>,<Administrator>,<GH001606>,<audit>,<TOPSPIN 2.1>,
      <user comment:
       ICON-NMR User ID: MJD
       data hash MD5: 32K
       89 45 FC D1 31 BC C0 98 E5 54 82 3F 2B E3 BA 79>)
(   3,<2013-06-13 23:56:07.687 +0100>,<Administrator>,<GH001606>,<dirdata>,<TOPSPIN 2.1>,
      <wrpa from 1 38 "C02404" "MJD" "C:\NMRdata"
       data hash MD5: 32K
       89 45 FC D1 31 BC C0 98 E5 54 82 3F 2B E3 BA 79>)
##END=

$$ hash MD5
$$ 25 A1 60 A3 BD D9 19 60 5D 1B B2 69 0D ED B5 73
