10.678100,0.130000,3.000000
10.663800,0.130000,3.000000
10.588400,0.130000,3.000000
10.486200,0.090000,3.000000
10.462700,0.090000,3.000000
10.436100,0.080000,3.000000
8.238100,0.080000,3.000000
8.212900,0.080000,3.000000
8.180200,0.080000,3.000000
8.135000,0.080000,3.000000
8.015300,0.100000,3.000000
7.946400,0.130000,3.000000
7.925800,0.110000,3.000000
7.917600,0.100000,3.000000
7.910000,0.090000,3.000000
7.895300,0.100000,3.000000
7.876600,0.110000,3.000000
7.861900,0.110000,3.000000
7.839700,0.120000,3.000000
7.818700,0.100000,3.000000
7.774900,0.100000,3.000000
7.743800,0.110000,3.000000
7.722600,0.120000,3.000000
7.695600,0.310000,3.000000
7.681600,0.310000,3.000000
7.638300,0.130000,3.000000
7.611700,0.120000,3.000000
7.569400,0.230000,3.000000
7.536100,0.660000,3.000000
7.518900,0.600000,3.000000
7.504400,0.490000,3.000000
7.489900,0.250000,3.000000
7.474400,0.210000,3.000000
7.463100,0.180000,3.000000
7.455100,0.180000,3.000000
7.437000,0.170000,3.000000
7.416600,0.180000,3.000000
7.397800,0.190000,3.000000
7.352000,0.200000,3.000000
7.328200,0.230000,3.000000
7.287600,0.390000,3.000000
7.277100,0.300000,3.000000
7.266200,0.340000,3.000000
7.253100,0.430000,3.000000
7.239500,0.410000,3.000000
7.223600,0.760000,3.000000
7.210700,0.330000,3.000000
7.176100,11.620000,3.000000
7.161500,13.980000,3.000000
7.156800,2.650000,3.000000
7.141900,0.710000,3.000000
7.136800,0.450000,3.000000
7.129300,0.320000,3.000000
7.120700,0.290000,3.000000
7.101100,0.240000,3.000000
7.089000,0.220000,3.000000
7.041800,0.240000,3.000000
7.025600,0.330000,3.000000
6.939600,0.280000,3.000000
6.933800,0.350000,3.000000
6.910900,0.830000,3.000000
6.901100,2.540000,3.000000
6.896300,15.000000,3.000000
6.892900,3.530000,3.000000
6.885100,3.310000,3.000000
6.881800,12.210000,3.000000
6.876900,1.740000,3.000000
6.862100,0.330000,3.000000
6.856300,0.420000,3.000000
6.850100,0.300000,3.000000
6.841400,0.320000,3.000000
6.761900,0.190000,3.000000
6.728300,0.150000,3.000000
6.723800,0.120000,3.000000
6.697200,0.080000,3.000000
6.674800,0.080000,3.000000
4.708800,0.300000,3.000000
4.703300,0.590000,3.000000
4.684100,0.810000,3.000000
4.680000,0.700000,3.000000
4.674300,0.390000,3.000000
4.187900,0.080000,3.000000
4.139100,0.210000,3.000000
4.126900,0.220000,3.000000
4.108600,0.190000,3.000000
4.105200,0.170000,3.000000
4.100700,0.190000,3.000000
4.086600,0.200000,3.000000
4.061700,0.180000,3.000000
4.032500,0.250000,3.000000
4.020200,0.850000,3.000000
4.006300,0.420000,3.000000
3.981200,4.490000,3.000000
3.968300,6.660000,3.000000
3.956600,4.410000,3.000000
3.945000,4.210000,3.000000
3.916900,13.450000,3.000000
3.889500,13.370000,3.000000
3.876200,0.450000,3.000000
3.861400,4.260000,3.000000
3.847900,0.350000,3.000000
3.835100,0.290000,3.000000
3.824300,1.220000,3.000000
3.812100,0.420000,3.000000
3.799100,1.640000,3.000000
3.769800,0.580000,3.000000
3.740500,9.450000,3.000000
3.678500,0.180000,3.000000
3.643700,0.150000,3.000000
3.632000,0.170000,3.000000
3.616400,0.240000,3.000000
3.586900,0.100000,3.000000
3.198200,0.240000,3.000000
3.185200,0.170000,3.000000
3.173500,0.140000,3.000000
3.159600,0.130000,3.000000
3.150900,0.090000,3.000000
3.137300,0.090000,3.000000
3.112700,0.080000,3.000000
3.103100,0.110000,3.000000
3.065200,1.920000,3.000000
3.053600,2.070000,3.000000
3.042100,5.750000,3.000000
3.030500,5.800000,3.000000
3.019900,6.010000,3.000000
3.006700,5.930000,3.000000
2.996800,2.070000,3.000000
2.983600,1.930000,3.000000
2.966400,0.170000,3.000000
2.741800,0.110000,3.000000
2.733800,0.120000,3.000000
2.671500,3.770000,3.000000
2.646400,8.390000,3.000000
2.618700,0.190000,3.000000
2.606700,0.210000,3.000000
2.579300,0.240000,3.000000
2.561500,8.680000,3.000000
2.536400,4.010000,3.000000
2.372200,0.120000,3.000000
2.368000,0.220000,3.000000
2.359400,0.150000,3.000000
2.319800,0.120000,3.000000
2.309700,0.370000,3.000000
2.303600,0.350000,3.000000
2.291300,0.130000,3.000000
2.279400,0.110000,3.000000
2.255800,0.100000,3.000000
2.244200,0.120000,3.000000
2.225000,0.160000,3.000000
2.209400,0.210000,3.000000
2.199300,0.200000,3.000000
2.186800,0.190000,3.000000
2.161400,0.210000,3.000000
2.147700,0.290000,3.000000
2.134700,0.330000,3.000000
2.115400,0.500000,3.000000
2.097600,0.340000,3.000000
2.080600,2.080000,3.000000
2.045300,0.620000,3.000000
2.025300,0.400000,3.000000
2.011100,0.390000,3.000000
1.988500,0.270000,3.000000
1.965100,0.200000,3.000000
1.950300,0.190000,3.000000
1.941500,0.190000,3.000000
1.929900,0.210000,3.000000
1.920500,0.220000,3.000000
1.875600,0.180000,3.000000
1.858500,0.280000,3.000000
1.844000,0.210000,3.000000
1.829100,0.200000,3.000000
1.815400,0.220000,3.000000
1.800100,0.240000,3.000000
1.777400,0.230000,3.000000
1.769700,0.240000,3.000000
1.714900,0.300000,3.000000
1.699200,0.310000,3.000000
1.679100,0.390000,3.000000
1.667800,0.380000,3.000000
1.650300,0.340000,3.000000
1.565000,0.120000,3.000000
1.547000,0.130000,3.000000
1.542600,0.120000,3.000000
1.522900,0.110000,3.000000
1.509100,0.130000,3.000000
1.488300,0.160000,3.000000
1.461400,0.160000,3.000000
1.437700,0.170000,3.000000
1.424600,0.210000,3.000000
1.410700,0.210000,3.000000
1.352900,0.120000,3.000000
1.337200,0.450000,3.000000
1.325500,0.440000,3.000000
1.308500,0.110000,3.000000
1.292600,0.120000,3.000000
1.283100,0.120000,3.000000
1.253600,0.180000,3.000000
1.230600,0.190000,3.000000
1.214500,0.220000,3.000000
1.200800,0.240000,3.000000
1.162300,0.200000,3.000000
1.152200,0.190000,3.000000
1.141900,0.150000,3.000000
1.121600,0.080000,3.000000
1.108800,0.130000,3.000000
1.096500,0.190000,3.000000
1.058800,0.170000,3.000000
1.038300,0.200000,3.000000
0.983200,0.530000,3.000000
0.970900,0.590000,3.000000
0.947200,1.340000,3.000000
0.941100,0.950000,3.000000
0.935800,1.340000,3.000000
0.929800,1.000000,3.000000
0.910400,0.910000,3.000000
0.898300,0.890000,3.000000
0.892000,0.920000,3.000000
0.877400,0.920000,3.000000
0.863200,0.850000,3.000000
0.836000,0.470000,3.000000
0.814400,0.470000,3.000000
0.771100,0.310000,3.000000
0.671700,0.110000,3.000000
0.666700,0.100000,3.000000
0.097000,0.330000,3.000000
0.037000,0.160000,3.000000
0.035700,0.170000,3.000000
0.029700,0.290000,3.000000
0.028300,0.140000,3.000000
0.016400,0.220000,3.000000
0.013500,0.170000,3.000000
0.012000,0.260000,3.000000
0.010500,0.390000,3.000000
0.009000,0.630000,3.000000
0.007400,1.100000,3.000000
0.004800,3.960000,3.000000
-0.000200,101.810000,3.000000
-0.005100,3.600000,3.000000
-0.007800,1.080000,3.000000
-0.009400,0.520000,3.000000
-0.010800,0.350000,3.000000
-0.012300,0.220000,3.000000
-0.013800,0.120000,3.000000
-0.022900,0.140000,3.000000
-0.024400,0.500000,3.000000
-0.025600,0.560000,3.000000
-0.040600,0.180000,3.000000
-0.100600,0.330000,3.000000
-0.938700,0.100000,3.000000
-1.009400,0.130000,3.000000
-1.089300,0.150000,3.000000
-1.097500,0.150000,3.000000
-1.134100,0.180000,3.000000
-1.157200,0.180000,3.000000
-1.195500,0.190000,3.000000
-1.209000,0.220000,3.000000
-1.233900,0.220000,3.000000
-1.265200,0.240000,3.000000
