10.689700,0.140000,8.000000
10.497900,0.100000,8.000000
10.485300,0.090000,8.000000
10.464100,0.080000,8.000000
10.456100,0.080000,8.000000
10.449200,0.080000,8.000000
10.432700,0.080000,8.000000
8.195100,0.070000,8.000000
8.120300,0.070000,8.000000
8.099600,0.070000,8.000000
8.087600,0.070000,8.000000
8.052800,0.070000,8.000000
8.026900,0.070000,8.000000
8.008300,0.090000,8.000000
7.999000,0.090000,8.000000
7.986100,0.090000,8.000000
7.953100,0.120000,8.000000
7.892700,0.100000,8.000000
7.854400,0.110000,8.000000
7.838700,0.130000,8.000000
7.825000,0.100000,8.000000
7.786400,0.070000,8.000000
7.773500,0.080000,8.000000
7.742500,0.100000,8.000000
7.721100,0.120000,8.000000
7.708400,0.140000,8.000000
7.695400,0.310000,8.000000
7.681800,0.320000,8.000000
7.642300,0.130000,8.000000
7.617500,0.110000,8.000000
7.603700,0.130000,8.000000
7.574200,0.200000,8.000000
7.535500,0.640000,8.000000
7.518000,0.550000,8.000000
7.503800,0.500000,8.000000
7.487800,0.260000,8.000000
7.476800,0.190000,8.000000
7.462200,0.190000,8.000000
7.441000,0.180000,8.000000
7.412300,0.180000,8.000000
7.395400,0.200000,8.000000
7.354200,0.190000,8.000000
7.346700,0.210000,8.000000
7.304400,0.290000,8.000000
7.295900,0.280000,8.000000
7.288100,0.370000,8.000000
7.266700,0.320000,8.000000
7.252100,0.420000,8.000000
7.238300,0.400000,8.000000
7.223500,0.670000,8.000000
7.180900,2.070000,8.000000
7.176100,11.560000,8.000000
7.161600,13.790000,8.000000
7.156700,2.610000,8.000000
7.141700,0.760000,8.000000
7.112000,0.320000,8.000000
7.024600,0.320000,8.000000
6.981800,0.200000,8.000000
6.951300,0.210000,8.000000
6.941500,0.250000,8.000000
6.928400,0.300000,8.000000
6.910900,0.900000,8.000000
6.901200,2.500000,8.000000
6.896300,15.000000,8.000000
6.892900,3.570000,8.000000
6.885200,3.140000,8.000000
6.881800,12.140000,8.000000
6.876900,1.770000,8.000000
6.862300,0.430000,8.000000
6.856600,0.390000,8.000000
6.842900,0.340000,8.000000
6.801800,0.230000,8.000000
6.783600,0.220000,8.000000
6.553600,0.070000,8.000000
6.540000,0.070000,8.000000
4.720500,0.100000,8.000000
4.711500,0.400000,8.000000
4.705800,0.870000,8.000000
4.702100,0.370000,8.000000
4.699400,0.340000,8.000000
4.697900,0.200000,8.000000
4.686100,0.140000,8.000000
4.682800,0.500000,8.000000
4.678300,0.480000,8.000000
4.672000,0.490000,8.000000
4.141200,0.210000,8.000000
4.123000,0.230000,8.000000
4.108400,0.200000,8.000000
4.088900,0.170000,8.000000
4.077500,0.160000,8.000000
4.031700,0.220000,8.000000
4.020200,1.000000,8.000000
4.004400,0.420000,8.000000
3.982100,4.400000,8.000000
3.969200,6.450000,8.000000
3.957500,4.250000,8.000000
3.945100,4.060000,8.000000
3.917000,13.280000,8.000000
3.889400,13.340000,8.000000
3.861300,4.350000,8.000000
3.824200,1.780000,8.000000
3.812200,0.410000,8.000000
3.799500,2.290000,8.000000
3.768900,0.570000,8.000000
3.740400,9.060000,8.000000
3.710900,0.450000,8.000000
3.692400,0.200000,8.000000
3.678600,0.190000,8.000000
3.646100,0.150000,8.000000
3.616200,0.280000,8.000000
3.593000,0.080000,8.000000
3.586800,0.140000,8.000000
3.450300,0.360000,8.000000
3.198400,0.220000,8.000000
3.185600,0.170000,8.000000
3.172700,0.110000,8.000000
3.159100,0.100000,8.000000
3.149500,0.070000,8.000000
3.137700,0.100000,8.000000
3.113000,0.090000,8.000000
3.103200,0.120000,8.000000
3.065600,1.890000,8.000000
3.054000,2.030000,8.000000
3.042500,5.620000,8.000000
3.030900,5.650000,8.000000
3.020300,5.900000,8.000000
3.007100,5.760000,8.000000
2.997200,2.020000,8.000000
2.983900,1.890000,8.000000
2.954400,0.140000,8.000000
2.742000,0.120000,8.000000
2.733500,0.130000,8.000000
2.671500,3.860000,8.000000
2.646500,8.480000,8.000000
2.618700,0.260000,8.000000
2.606700,0.250000,8.000000
2.579700,0.290000,8.000000
2.561500,8.950000,8.000000
2.536400,4.090000,8.000000
2.376600,0.070000,8.000000
2.368400,0.180000,8.000000
2.359300,0.140000,8.000000
2.342200,0.070000,8.000000
2.319300,0.130000,8.000000
2.309700,0.360000,8.000000
2.303100,0.340000,8.000000
2.290600,0.110000,8.000000
2.280000,0.120000,8.000000
2.263400,0.110000,8.000000
2.242500,0.130000,8.000000
2.227300,0.160000,8.000000
2.211800,0.190000,8.000000
2.199100,0.210000,8.000000
2.186400,0.190000,8.000000
2.166900,0.190000,8.000000
2.147600,0.280000,8.000000
2.134800,0.370000,8.000000
2.129700,0.440000,8.000000
2.118800,0.510000,8.000000
2.097400,0.350000,8.000000
2.080600,2.090000,8.000000
2.064100,0.480000,8.000000
2.045400,0.630000,8.000000
2.032500,0.430000,8.000000
2.025300,0.400000,8.000000
2.011700,0.410000,8.000000
1.988900,0.280000,8.000000
1.964900,0.210000,8.000000
1.940100,0.200000,8.000000
1.920400,0.240000,8.000000
1.906200,0.190000,8.000000
1.857400,0.290000,8.000000
1.830700,0.190000,8.000000
1.801600,0.230000,8.000000
1.790700,0.220000,8.000000
1.781300,0.240000,8.000000
1.769700,0.240000,8.000000
1.742600,0.250000,8.000000
1.687300,0.390000,8.000000
1.677700,0.390000,8.000000
1.666300,0.390000,8.000000
1.659200,0.370000,8.000000
1.578300,0.140000,8.000000
1.549200,0.140000,8.000000
1.512100,0.120000,8.000000
1.499100,0.140000,8.000000
1.490800,0.150000,8.000000
1.478600,0.180000,8.000000
1.462200,0.160000,8.000000
1.452100,0.160000,8.000000
1.420500,0.220000,8.000000
1.411200,0.230000,8.000000
1.399000,0.170000,8.000000
1.369000,0.100000,8.000000
1.337300,0.470000,8.000000
1.325500,0.460000,8.000000
1.307200,0.110000,8.000000
1.253200,0.190000,8.000000
1.240300,0.220000,8.000000
1.229600,0.200000,8.000000
1.203100,0.230000,8.000000
1.191200,0.180000,8.000000
1.173500,0.210000,8.000000
1.162800,0.190000,8.000000
1.152600,0.190000,8.000000
1.108600,0.190000,8.000000
1.096500,0.220000,8.000000
1.049800,0.200000,8.000000
1.038000,0.180000,8.000000
1.018500,0.220000,8.000000
1.006100,0.310000,8.000000
0.969800,0.670000,8.000000
0.947200,1.600000,8.000000
0.941400,1.050000,8.000000
0.935800,1.580000,8.000000
0.928400,1.050000,8.000000
0.919700,1.010000,8.000000
0.908400,1.000000,8.000000
0.898200,0.970000,8.000000
0.891100,0.960000,8.000000
0.876800,0.980000,8.000000
0.863000,0.830000,8.000000
0.814600,0.450000,8.000000
0.804400,0.430000,8.000000
0.744600,0.270000,8.000000
0.672900,0.110000,8.000000
0.096900,0.330000,8.000000
0.022400,0.120000,8.000000
0.020900,0.150000,8.000000
0.019500,0.150000,8.000000
0.018000,0.190000,8.000000
0.016500,0.390000,8.000000
0.015100,0.340000,8.000000
0.013600,0.320000,8.000000
0.012100,0.400000,8.000000
0.010600,0.500000,8.000000
0.009100,0.680000,8.000000
0.007600,1.110000,8.000000
0.004900,4.070000,8.000000
-0.000200,103.440000,8.000000
-0.005200,3.280000,8.000000
-0.009300,0.330000,8.000000
-0.010800,0.160000,8.000000
-0.027000,0.370000,8.000000
-0.031400,0.070000,8.000000
-0.100600,0.340000,8.000000
-0.838200,0.060000,8.000000
-0.865300,0.070000,8.000000
-0.959000,0.100000,8.000000
-0.967500,0.100000,8.000000
-0.985300,0.100000,8.000000
-0.993100,0.120000,8.000000
-1.095700,0.150000,8.000000
-1.121200,0.160000,8.000000
-1.143500,0.170000,8.000000
-1.161100,0.170000,8.000000
-1.251400,0.220000,8.000000
