##TITLE= Audit trail, TOPSPIN		Version 2.1
##JCAMPDX= 5.01
##ORIGIN= Bruker BioSpin GmbH
##OWNER= Administrator
$$ T:/data/MJD/nmr/C02404/55/audita.txt
##AUDIT TRAIL=  $$ (NUMBER, WHEN, WHO, WHERE, PROCESS, VERSION, WHAT)
(   1,<2013-06-15 00:49:23.140 +0100>,<Administrator>,<GH001606>,<go>,<TOPSPIN 2.1>,
      <created by zg
	started at 2013-06-14 19:47:59.406 +0100,
	POWCHK disabled, PULCHK disabled,
       configuration hash MD5:
       3E 28 56 27 A3 E6 96 EB AB A8 47 E1 FE 66 6F 96
       data hash MD5: 32K
       58 A7 20 F3 F5 8C EB 6A 38 9A F2 8D B7 59 05 02>)
(   2,<2013-06-15 00:49:32.515 +0100>,<Administrator>,<GH001606>,<audit>,<TOPSPIN 2.1>,
      <user comment:
       ICON-NMR User ID: MJD
       data hash MD5: 32K
       58 A7 20 F3 F5 8C EB 6A 38 9A F2 8D B7 59 05 02>)
(   3,<2013-06-15 00:49:32.687 +0100>,<Administrator>,<GH001606>,<dirdata>,<TOPSPIN 2.1>,
      <wrpa from 1 55 "C02404" "MJD" "C:\NMRdata"
       data hash MD5: 32K
       58 A7 20 F3 F5 8C EB 6A 38 9A F2 8D B7 59 05 02>)
##END=

$$ hash MD5
$$ BF EC F4 DE 37 1B F8 07 60 72 B1 A0 8B CA C1 9F
