10.683700,0.130000,15.000000
10.659900,0.130000,15.000000
10.557200,0.120000,15.000000
10.546200,0.110000,15.000000
10.500900,0.100000,15.000000
10.483500,0.100000,15.000000
10.436400,0.080000,15.000000
10.414700,0.080000,15.000000
10.403800,0.070000,15.000000
10.368100,0.070000,15.000000
10.317400,0.060000,15.000000
10.290200,0.060000,15.000000
8.482600,0.060000,15.000000
8.477600,0.070000,15.000000
8.457800,0.060000,15.000000
8.447400,0.060000,15.000000
8.405800,0.060000,15.000000
8.393600,0.060000,15.000000
8.382200,0.060000,15.000000
8.323700,0.060000,15.000000
8.266200,0.060000,15.000000
8.252100,0.070000,15.000000
8.226200,0.080000,15.000000
8.194300,0.090000,15.000000
8.158300,0.070000,15.000000
8.107900,0.090000,15.000000
8.069700,0.080000,15.000000
7.978700,0.100000,15.000000
7.957400,0.120000,15.000000
7.946600,0.120000,15.000000
7.919100,0.120000,15.000000
7.898800,0.120000,15.000000
7.837700,0.130000,15.000000
7.778000,0.120000,15.000000
7.747200,0.110000,15.000000
7.729400,0.120000,15.000000
7.722300,0.140000,15.000000
7.695300,0.320000,15.000000
7.681200,0.320000,15.000000
7.637700,0.180000,15.000000
7.536100,0.630000,15.000000
7.518300,0.540000,15.000000
7.504100,0.510000,15.000000
7.488600,0.250000,15.000000
7.389500,0.230000,15.000000
7.378400,0.250000,15.000000
7.340600,0.240000,15.000000
7.301600,0.350000,15.000000
7.288700,0.420000,15.000000
7.264300,0.370000,15.000000
7.252700,0.490000,15.000000
7.238800,0.440000,15.000000
7.223500,0.770000,15.000000
7.202100,0.510000,15.000000
7.181000,2.470000,15.000000
7.176200,11.790000,15.000000
7.161600,13.890000,15.000000
7.156800,2.420000,15.000000
7.141600,0.720000,15.000000
7.128600,0.290000,15.000000
7.112600,0.300000,15.000000
7.064400,0.190000,15.000000
7.027200,0.320000,15.000000
6.994900,0.200000,15.000000
6.922900,0.530000,15.000000
6.910800,1.100000,15.000000
6.901100,2.660000,15.000000
6.896400,15.000000,15.000000
6.893000,3.280000,15.000000
6.885300,3.240000,15.000000
6.881900,12.020000,15.000000
6.877000,1.710000,15.000000
6.862600,0.500000,15.000000
6.850900,0.290000,15.000000
6.834600,0.280000,15.000000
6.796400,0.190000,15.000000
6.781900,0.180000,15.000000
6.773100,0.190000,15.000000
6.760200,0.170000,15.000000
6.750100,0.150000,15.000000
6.744200,0.140000,15.000000
6.709900,0.080000,15.000000
6.681700,0.060000,15.000000
4.704500,0.560000,15.000000
4.680800,0.240000,15.000000
4.675100,0.310000,15.000000
4.667500,0.080000,15.000000
4.253900,0.090000,15.000000
4.229500,0.090000,15.000000
4.221800,0.080000,15.000000
4.162000,0.190000,15.000000
4.137400,0.260000,15.000000
4.123400,0.260000,15.000000
4.097000,0.190000,15.000000
4.080200,0.200000,15.000000
4.059200,0.180000,15.000000
4.031100,0.280000,15.000000
4.020300,1.240000,15.000000
4.007900,0.440000,15.000000
3.995800,0.640000,15.000000
3.982700,4.590000,15.000000
3.969900,6.600000,15.000000
3.958100,4.470000,15.000000
3.945200,4.190000,15.000000
3.917200,13.590000,15.000000
3.889400,13.370000,15.000000
3.861300,4.290000,15.000000
3.841200,0.370000,15.000000
3.824300,2.440000,15.000000
3.812600,0.450000,15.000000
3.799800,3.270000,15.000000
3.769900,0.740000,15.000000
3.740500,9.220000,15.000000
3.717200,0.340000,15.000000
3.678000,0.190000,15.000000
3.666900,0.150000,15.000000
3.633800,0.150000,15.000000
3.616400,0.250000,15.000000
3.587100,0.100000,15.000000
3.450200,0.830000,15.000000
3.227500,0.100000,15.000000
3.217100,0.160000,15.000000
3.198300,0.270000,15.000000
3.185500,0.190000,15.000000
3.173600,0.130000,15.000000
3.160500,0.150000,15.000000
3.138200,0.110000,15.000000
3.112400,0.100000,15.000000
3.066000,1.950000,15.000000
3.054300,2.110000,15.000000
3.042800,5.750000,15.000000
3.031200,5.850000,15.000000
3.020600,6.030000,15.000000
3.007400,5.900000,15.000000
2.997500,2.090000,15.000000
2.984200,1.930000,15.000000
2.967900,0.150000,15.000000
2.768300,0.070000,15.000000
2.760000,0.080000,15.000000
2.741900,0.120000,15.000000
2.733700,0.140000,15.000000
2.686300,0.070000,15.000000
2.671600,3.980000,15.000000
2.646500,8.610000,15.000000
2.622500,0.100000,15.000000
2.618700,0.230000,15.000000
2.606800,0.290000,15.000000
2.588300,0.160000,15.000000
2.579000,0.290000,15.000000
2.561500,9.030000,15.000000
2.536400,4.070000,15.000000
2.427600,0.060000,15.000000
2.377100,0.090000,15.000000
2.367300,0.190000,15.000000
2.359700,0.130000,15.000000
2.319300,0.160000,15.000000
2.310100,0.410000,15.000000
2.303400,0.330000,15.000000
2.287100,0.130000,15.000000
2.272700,0.110000,15.000000
2.264200,0.100000,15.000000
2.242600,0.160000,15.000000
2.223600,0.170000,15.000000
2.211700,0.230000,15.000000
2.199200,0.240000,15.000000
2.187900,0.190000,15.000000
2.164500,0.200000,15.000000
2.148000,0.300000,15.000000
2.129400,0.520000,15.000000
2.115600,0.580000,15.000000
2.098300,0.390000,15.000000
2.080600,2.020000,15.000000
2.064000,0.530000,15.000000
2.044900,0.640000,15.000000
2.033600,0.440000,15.000000
2.013900,0.420000,15.000000
1.996600,0.290000,15.000000
1.987400,0.270000,15.000000
1.964700,0.220000,15.000000
1.952700,0.220000,15.000000
1.942300,0.240000,15.000000
1.928400,0.240000,15.000000
1.920500,0.250000,15.000000
1.907600,0.210000,15.000000
1.857500,0.300000,15.000000
1.816900,0.220000,15.000000
1.800700,0.230000,15.000000
1.768700,0.250000,15.000000
1.760700,0.220000,15.000000
1.751300,0.230000,15.000000
1.688000,0.420000,15.000000
1.680400,0.430000,15.000000
1.665800,0.420000,15.000000
1.657100,0.390000,15.000000
1.536600,0.120000,15.000000
1.490400,0.200000,15.000000
1.477300,0.220000,15.000000
1.460500,0.170000,15.000000
1.445500,0.180000,15.000000
1.435700,0.220000,15.000000
1.423800,0.250000,15.000000
1.411600,0.250000,15.000000
1.356300,0.140000,15.000000
1.337300,0.470000,15.000000
1.325600,0.490000,15.000000
1.253600,0.200000,15.000000
1.241600,0.240000,15.000000
1.210900,0.230000,15.000000
1.202600,0.240000,15.000000
1.183700,0.220000,15.000000
1.173200,0.210000,15.000000
1.152200,0.200000,15.000000
1.121500,0.100000,15.000000
1.108800,0.240000,15.000000
1.096500,0.270000,15.000000
1.080500,0.140000,15.000000
1.050600,0.200000,15.000000
1.038700,0.190000,15.000000
0.983700,0.690000,15.000000
0.971900,0.780000,15.000000
0.947200,1.930000,15.000000
0.942000,1.180000,15.000000
0.935800,1.860000,15.000000
0.922100,1.110000,15.000000
0.919700,1.130000,15.000000
0.910900,1.160000,15.000000
0.908500,1.160000,15.000000
0.898200,1.110000,15.000000
0.892700,1.060000,15.000000
0.878700,1.050000,15.000000
0.863300,0.870000,15.000000
0.815700,0.460000,15.000000
0.803900,0.430000,15.000000
0.773700,0.290000,15.000000
0.747800,0.250000,15.000000
0.673900,0.090000,15.000000
0.641500,0.080000,15.000000
0.096900,0.340000,15.000000
0.026500,0.670000,15.000000
0.016600,0.290000,15.000000
0.015400,0.260000,15.000000
0.013800,0.210000,15.000000
0.012300,0.240000,15.000000
0.010800,0.330000,15.000000
0.009300,0.500000,15.000000
0.005000,3.830000,15.000000
-0.000200,101.690000,15.000000
-0.005700,3.530000,15.000000
-0.008900,0.450000,15.000000
-0.010500,0.190000,15.000000
-0.024000,0.240000,15.000000
-0.100500,0.350000,15.000000
-0.831200,0.060000,15.000000
-0.845100,0.060000,15.000000
-0.891300,0.080000,15.000000
-0.903000,0.090000,15.000000
-0.970700,0.120000,15.000000
-1.066800,0.150000,15.000000
-1.094200,0.160000,15.000000
-1.235500,0.220000,15.000000
