10.688000,0.130000,21.000000
10.631400,0.130000,21.000000
10.579600,0.130000,21.000000
10.520600,0.120000,21.000000
10.487400,0.100000,21.000000
10.451900,0.090000,21.000000
10.442000,0.080000,21.000000
10.404900,0.080000,21.000000
10.381000,0.070000,21.000000
10.323100,0.070000,21.000000
8.466300,0.090000,21.000000
8.428400,0.080000,21.000000
8.396900,0.070000,21.000000
8.305300,0.080000,21.000000
8.278900,0.060000,21.000000
8.200300,0.080000,21.000000
8.168000,0.080000,21.000000
8.117800,0.070000,21.000000
8.090500,0.080000,21.000000
8.064300,0.070000,21.000000
8.001600,0.110000,21.000000
7.948500,0.160000,21.000000
7.898600,0.130000,21.000000
7.869700,0.140000,21.000000
7.859700,0.140000,21.000000
7.840600,0.150000,21.000000
7.809400,0.120000,21.000000
7.772500,0.120000,21.000000
7.747400,0.130000,21.000000
7.722500,0.150000,21.000000
7.707200,0.160000,21.000000
7.695000,0.340000,21.000000
7.682000,0.330000,21.000000
7.659800,0.160000,21.000000
7.637200,0.170000,21.000000
7.536900,0.660000,21.000000
7.519500,0.560000,21.000000
7.504200,0.520000,21.000000
7.489500,0.260000,21.000000
7.473100,0.240000,21.000000
7.426300,0.200000,21.000000
7.377400,0.260000,21.000000
7.345100,0.280000,21.000000
7.287400,0.410000,21.000000
7.277300,0.350000,21.000000
7.265100,0.400000,21.000000
7.253100,0.510000,21.000000
7.239100,0.460000,21.000000
7.223800,0.790000,21.000000
7.201600,0.540000,21.000000
7.176300,11.930000,21.000000
7.161800,13.990000,21.000000
7.156800,2.330000,21.000000
7.141800,0.730000,21.000000
7.124000,0.380000,21.000000
7.108900,0.270000,21.000000
7.059800,0.200000,21.000000
7.026000,0.350000,21.000000
6.936600,0.330000,21.000000
6.921600,0.570000,21.000000
6.911000,1.190000,21.000000
6.901100,2.870000,21.000000
6.896500,15.000000,21.000000
6.893100,3.110000,21.000000
6.885300,3.420000,21.000000
6.881900,11.980000,21.000000
6.877000,1.740000,21.000000
6.862700,0.660000,21.000000
6.843900,0.360000,21.000000
6.839500,0.350000,21.000000
6.785200,0.180000,21.000000
6.659300,0.060000,21.000000
4.710200,0.180000,21.000000
4.705700,0.680000,21.000000
4.702100,0.570000,21.000000
4.699500,0.160000,21.000000
4.680900,0.230000,21.000000
4.675000,0.280000,21.000000
4.667100,0.090000,21.000000
4.261100,0.080000,21.000000
4.223000,0.090000,21.000000
4.137700,0.240000,21.000000
4.122900,0.260000,21.000000
4.101600,0.220000,21.000000
4.088400,0.200000,21.000000
4.077300,0.210000,21.000000
4.056700,0.180000,21.000000
4.032300,0.300000,21.000000
4.020400,1.270000,21.000000
4.003700,0.460000,21.000000
3.983100,4.620000,21.000000
3.970300,6.690000,21.000000
3.958500,4.500000,21.000000
3.945300,4.200000,21.000000
3.917300,13.740000,21.000000
3.889500,13.520000,21.000000
3.861400,4.390000,21.000000
3.824300,3.060000,21.000000
3.812300,0.470000,21.000000
3.800000,3.990000,21.000000
3.770200,0.810000,21.000000
3.740700,9.410000,21.000000
3.710000,0.450000,21.000000
3.678200,0.260000,21.000000
3.655100,0.160000,21.000000
3.632800,0.170000,21.000000
3.616000,0.290000,21.000000
3.587000,0.150000,21.000000
3.565600,0.110000,21.000000
3.450300,1.280000,21.000000
3.198600,0.280000,21.000000
3.185700,0.190000,21.000000
3.173500,0.130000,21.000000
3.161600,0.110000,21.000000
3.138500,0.090000,21.000000
3.128100,0.090000,21.000000
3.066200,1.960000,21.000000
3.054600,2.140000,21.000000
3.043000,5.860000,21.000000
3.031500,6.010000,21.000000
3.020800,6.100000,21.000000
3.007600,6.010000,21.000000
2.997700,2.120000,21.000000
2.984500,1.990000,21.000000
2.968200,0.240000,21.000000
2.955800,0.160000,21.000000
2.760100,0.080000,21.000000
2.741900,0.160000,21.000000
2.733400,0.160000,21.000000
2.671600,4.090000,21.000000
2.646600,8.740000,21.000000
2.618700,0.280000,21.000000
2.606800,0.380000,21.000000
2.580100,0.290000,21.000000
2.561500,9.140000,21.000000
2.536400,4.030000,21.000000
2.377600,0.070000,21.000000
2.368200,0.190000,21.000000
2.359500,0.140000,21.000000
2.326200,0.080000,21.000000
2.319600,0.140000,21.000000
2.310000,0.440000,21.000000
2.303300,0.330000,21.000000
2.287900,0.120000,21.000000
2.280300,0.100000,21.000000
2.242400,0.120000,21.000000
2.208500,0.200000,21.000000
2.199500,0.240000,21.000000
2.187600,0.200000,21.000000
2.165300,0.180000,21.000000
2.148300,0.290000,21.000000
2.129600,0.630000,21.000000
2.115400,0.560000,21.000000
2.097700,0.360000,21.000000
2.080600,2.020000,21.000000
2.064600,0.550000,21.000000
2.045600,0.690000,21.000000
2.032800,0.460000,21.000000
2.025000,0.460000,21.000000
2.014600,0.430000,21.000000
1.997800,0.310000,21.000000
1.940600,0.240000,21.000000
1.920400,0.290000,21.000000
1.897700,0.200000,21.000000
1.856400,0.300000,21.000000
1.827800,0.210000,21.000000
1.804700,0.230000,21.000000
1.790600,0.230000,21.000000
1.769400,0.250000,21.000000
1.680300,0.470000,21.000000
1.666400,0.450000,21.000000
1.657100,0.420000,21.000000
1.626700,0.300000,21.000000
1.597400,0.230000,21.000000
1.551300,0.130000,21.000000
1.514300,0.120000,21.000000
1.490400,0.200000,21.000000
1.476700,0.210000,21.000000
1.460200,0.190000,21.000000
1.424300,0.290000,21.000000
1.411300,0.250000,21.000000
1.400300,0.190000,21.000000
1.337400,0.490000,21.000000
1.325600,0.460000,21.000000
1.292500,0.100000,21.000000
1.253500,0.200000,21.000000
1.240500,0.250000,21.000000
1.213400,0.250000,21.000000
1.201700,0.260000,21.000000
1.172300,0.210000,21.000000
1.157200,0.200000,21.000000
1.133200,0.090000,21.000000
1.121300,0.090000,21.000000
1.108900,0.290000,21.000000
1.096700,0.300000,21.000000
1.055300,0.150000,21.000000
1.050000,0.190000,21.000000
1.038100,0.210000,21.000000
1.017700,0.230000,21.000000
0.983500,0.710000,21.000000
0.947200,2.140000,21.000000
0.941700,1.270000,21.000000
0.935800,2.050000,21.000000
0.929000,1.300000,21.000000
0.919400,1.280000,21.000000
0.908500,1.270000,21.000000
0.898100,1.210000,21.000000
0.892600,1.150000,21.000000
0.877400,1.120000,21.000000
0.864200,0.900000,21.000000
0.817800,0.480000,21.000000
0.804500,0.470000,21.000000
0.660500,0.090000,21.000000
0.096900,0.270000,21.000000
0.027400,0.250000,21.000000
0.024900,0.590000,21.000000
0.005100,3.320000,21.000000
-0.000200,101.640000,21.000000
-0.005600,4.110000,21.000000
-0.030300,0.260000,21.000000
-0.035400,0.270000,21.000000
-0.038100,0.640000,21.000000
-0.042600,0.140000,21.000000
-0.100500,0.350000,21.000000
-0.807800,0.070000,21.000000
-0.869300,0.080000,21.000000
-0.892500,0.090000,21.000000
-0.907500,0.110000,21.000000
-0.950800,0.110000,21.000000
-1.014500,0.130000,21.000000
-1.044400,0.140000,21.000000
-1.067300,0.150000,21.000000
-1.110100,0.160000,21.000000
-1.145400,0.180000,21.000000
-1.151400,0.190000,21.000000
-1.195200,0.200000,21.000000
-1.215900,0.220000,21.000000
