10.637500,0.110000,26.000000
10.590900,0.120000,26.000000
10.575200,0.120000,26.000000
10.510500,0.090000,26.000000
10.486500,0.100000,26.000000
10.440300,0.080000,26.000000
10.405500,0.090000,26.000000
10.394900,0.080000,26.000000
8.243100,0.080000,26.000000
8.185600,0.080000,26.000000
8.086700,0.080000,26.000000
8.055500,0.110000,26.000000
7.956500,0.120000,26.000000
7.908400,0.120000,26.000000
7.904300,0.120000,26.000000
7.861800,0.140000,26.000000
7.839500,0.130000,26.000000
7.747600,0.130000,26.000000
7.722800,0.150000,26.000000
7.709200,0.160000,26.000000
7.695600,0.330000,26.000000
7.682400,0.320000,26.000000
7.662500,0.160000,26.000000
7.645500,0.160000,26.000000
7.611700,0.160000,26.000000
7.590600,0.220000,26.000000
7.574600,0.240000,26.000000
7.535800,0.600000,26.000000
7.519300,0.510000,26.000000
7.504200,0.500000,26.000000
7.489500,0.260000,26.000000
7.380900,0.260000,26.000000
7.354400,0.250000,26.000000
7.340300,0.270000,26.000000
7.304800,0.360000,26.000000
7.287700,0.420000,26.000000
7.276800,0.360000,26.000000
7.265400,0.400000,26.000000
7.252400,0.490000,26.000000
7.239500,0.480000,26.000000
7.223700,0.780000,26.000000
7.210200,0.400000,26.000000
7.181200,2.780000,26.000000
7.176300,11.510000,26.000000
7.172900,3.230000,26.000000
7.165200,3.890000,26.000000
7.161700,13.510000,26.000000
7.156800,2.180000,26.000000
7.141500,0.700000,26.000000
7.135300,0.430000,26.000000
7.120800,0.380000,26.000000
7.024800,0.300000,26.000000
6.940300,0.280000,26.000000
6.935400,0.280000,26.000000
6.929600,0.380000,26.000000
6.910900,1.110000,26.000000
6.901300,2.720000,26.000000
6.896400,15.000000,26.000000
6.892900,3.100000,26.000000
6.885400,3.320000,26.000000
6.881900,11.910000,26.000000
6.877000,1.920000,26.000000
6.862600,0.760000,26.000000
6.855500,0.460000,26.000000
6.851500,0.260000,26.000000
6.840600,0.340000,26.000000
6.798400,0.130000,26.000000
6.778700,0.130000,26.000000
6.763800,0.140000,26.000000
4.710500,0.220000,26.000000
4.706200,0.570000,26.000000
4.680200,0.430000,26.000000
4.674200,0.320000,26.000000
4.264400,0.100000,26.000000
4.159600,0.220000,26.000000
4.137200,0.280000,26.000000
4.122600,0.280000,26.000000
4.077100,0.250000,26.000000
4.065600,0.230000,26.000000
4.034300,0.290000,26.000000
4.020400,1.340000,26.000000
4.004500,0.510000,26.000000
3.983400,4.360000,26.000000
3.970500,6.250000,26.000000
3.958800,4.150000,26.000000
3.945400,4.160000,26.000000
3.933000,0.450000,26.000000
3.917300,13.340000,26.000000
3.903400,0.690000,26.000000
3.889500,13.210000,26.000000
3.876400,0.540000,26.000000
3.861400,4.320000,26.000000
3.848300,0.520000,26.000000
3.824300,3.610000,26.000000
3.812700,0.440000,26.000000
3.800100,4.800000,26.000000
3.770400,0.700000,26.000000
3.740600,8.500000,26.000000
3.707600,0.350000,26.000000
3.677600,0.150000,26.000000
3.667700,0.130000,26.000000
3.649200,0.100000,26.000000
3.631200,0.120000,26.000000
3.616000,0.230000,26.000000
3.587000,0.110000,26.000000
3.565400,0.110000,26.000000
3.450200,1.830000,26.000000
3.218300,0.170000,26.000000
3.198300,0.260000,26.000000
3.185300,0.180000,26.000000
3.173400,0.160000,26.000000
3.159900,0.140000,26.000000
3.138300,0.130000,26.000000
3.115100,0.110000,26.000000
3.087900,0.230000,26.000000
3.077400,0.320000,26.000000
3.066300,1.910000,26.000000
3.054700,2.060000,26.000000
3.043100,5.480000,26.000000
3.031600,5.590000,26.000000
3.020900,5.720000,26.000000
3.007700,5.660000,26.000000
2.997800,1.920000,26.000000
2.984500,1.830000,26.000000
2.966600,0.190000,26.000000
2.955800,0.110000,26.000000
2.759800,0.090000,26.000000
2.752000,0.080000,26.000000
2.741900,0.160000,26.000000
2.733400,0.190000,26.000000
2.727100,0.110000,26.000000
2.671700,4.180000,26.000000
2.646600,9.100000,26.000000
2.618700,0.410000,26.000000
2.606700,0.430000,26.000000
2.579500,0.310000,26.000000
2.561500,9.580000,26.000000
2.536400,4.360000,26.000000
2.376900,0.070000,26.000000
2.368300,0.200000,26.000000
2.359600,0.150000,26.000000
2.319900,0.150000,26.000000
2.309900,0.390000,26.000000
2.303200,0.350000,26.000000
2.277600,0.110000,26.000000
2.242200,0.130000,26.000000
2.212000,0.210000,26.000000
2.199000,0.220000,26.000000
2.186600,0.180000,26.000000
2.167400,0.180000,26.000000
2.148100,0.270000,26.000000
2.134500,0.430000,26.000000
2.129600,0.700000,26.000000
2.115200,0.550000,26.000000
2.098600,0.370000,26.000000
2.080500,2.050000,26.000000
2.064300,0.550000,26.000000
2.044700,0.640000,26.000000
2.033000,0.420000,26.000000
2.025100,0.400000,26.000000
1.952100,0.220000,26.000000
1.940800,0.230000,26.000000
1.925100,0.220000,26.000000
1.920600,0.250000,26.000000
1.906700,0.210000,26.000000
1.870300,0.220000,26.000000
1.856500,0.280000,26.000000
1.842500,0.210000,26.000000
1.828400,0.200000,26.000000
1.818400,0.210000,26.000000
1.799600,0.230000,26.000000
1.790900,0.210000,26.000000
1.775600,0.250000,26.000000
1.769000,0.230000,26.000000
1.750500,0.220000,26.000000
1.680100,0.450000,26.000000
1.666300,0.440000,26.000000
1.656000,0.420000,26.000000
1.549600,0.120000,26.000000
1.541400,0.110000,26.000000
1.512800,0.130000,26.000000
1.490300,0.250000,26.000000
1.478100,0.250000,26.000000
1.471600,0.190000,26.000000
1.458200,0.170000,26.000000
1.449300,0.180000,26.000000
1.436200,0.210000,26.000000
1.424300,0.270000,26.000000
1.412600,0.250000,26.000000
1.400200,0.170000,26.000000
1.368900,0.110000,26.000000
1.337300,0.540000,26.000000
1.325600,0.500000,26.000000
1.268800,0.120000,26.000000
1.253300,0.230000,26.000000
1.240800,0.230000,26.000000
1.230700,0.230000,26.000000
1.212400,0.250000,26.000000
1.202400,0.250000,26.000000
1.173000,0.220000,26.000000
1.133200,0.080000,26.000000
1.108600,0.390000,26.000000
1.096700,0.420000,26.000000
1.080200,0.130000,26.000000
1.050300,0.230000,26.000000
1.038000,0.250000,26.000000
1.018000,0.260000,26.000000
1.000300,0.480000,26.000000
0.983600,0.710000,26.000000
0.969200,0.850000,26.000000
0.947100,2.390000,26.000000
0.941300,1.250000,26.000000
0.935800,2.230000,26.000000
0.929700,1.290000,26.000000
0.919400,1.360000,26.000000
0.910600,1.230000,26.000000
0.908300,1.310000,26.000000
0.898300,1.260000,26.000000
0.892600,1.090000,26.000000
0.885600,1.070000,26.000000
0.878400,1.050000,26.000000
0.864000,0.870000,26.000000
0.814400,0.400000,26.000000
0.754000,0.210000,26.000000
0.096800,0.360000,26.000000
0.032800,0.080000,26.000000
0.028000,0.120000,26.000000
0.022400,0.150000,26.000000
0.021000,0.150000,26.000000
0.019500,0.150000,26.000000
0.018000,0.200000,26.000000
0.016500,0.420000,26.000000
0.015100,0.330000,26.000000
0.013600,0.340000,26.000000
0.012100,0.420000,26.000000
0.010600,0.560000,26.000000
0.009100,0.770000,26.000000
0.007600,1.150000,26.000000
0.004900,4.200000,26.000000
0.003100,4.550000,26.000000
-0.000200,109.360000,26.000000
-0.005300,3.100000,26.000000
-0.005900,3.160000,26.000000
-0.007700,0.870000,26.000000
-0.009300,0.340000,26.000000
-0.010700,0.170000,26.000000
-0.025700,0.180000,26.000000
-0.026800,0.150000,26.000000
-0.030100,0.120000,26.000000
-0.041400,1.360000,26.000000
-0.100700,0.340000,26.000000
-0.885100,0.070000,26.000000
-0.929700,0.110000,26.000000
-0.948700,0.120000,26.000000
-1.102400,0.160000,26.000000
-1.202600,0.200000,26.000000
