10.580200,0.150000,36.000000
10.490500,0.130000,36.000000
10.363400,0.080000,36.000000
10.326100,0.080000,36.000000
8.462100,0.090000,36.000000
8.416800,0.080000,36.000000
8.351600,0.090000,36.000000
8.327200,0.090000,36.000000
8.236400,0.120000,36.000000
8.205400,0.120000,36.000000
8.103300,0.110000,36.000000
8.067600,0.130000,36.000000
8.052100,0.120000,36.000000
8.015200,0.160000,36.000000
7.977600,0.170000,36.000000
7.964500,0.170000,36.000000
7.937200,0.170000,36.000000
7.904100,0.190000,36.000000
7.892700,0.180000,36.000000
7.747800,0.170000,36.000000
7.722500,0.220000,36.000000
7.695700,0.430000,36.000000
7.682200,0.410000,36.000000
7.644400,0.220000,36.000000
7.537900,0.710000,36.000000
7.518700,0.630000,36.000000
7.504000,0.580000,36.000000
7.489000,0.330000,36.000000
7.460300,0.250000,36.000000
7.412500,0.280000,36.000000
7.390200,0.360000,36.000000
7.304800,0.530000,36.000000
7.289000,0.560000,36.000000
7.265900,0.540000,36.000000
7.252400,0.650000,36.000000
7.239300,0.620000,36.000000
7.223900,1.060000,36.000000
7.208600,0.860000,36.000000
7.194100,1.270000,36.000000
7.181400,3.940000,36.000000
7.176500,12.180000,36.000000
7.161900,14.300000,36.000000
7.157000,2.350000,36.000000
7.141800,0.770000,36.000000
7.123200,0.290000,36.000000
7.098900,0.190000,36.000000
7.082100,0.210000,36.000000
7.026100,0.330000,36.000000
6.915200,1.120000,36.000000
6.911100,1.330000,36.000000
6.896600,15.000000,36.000000
6.893200,2.980000,36.000000
6.885200,3.700000,36.000000
6.882100,12.060000,36.000000
6.877300,2.870000,36.000000
6.862700,1.550000,36.000000
6.834300,0.290000,36.000000
6.820000,0.210000,36.000000
6.775100,0.160000,36.000000
6.764700,0.160000,36.000000
4.720400,0.370000,36.000000
4.707200,1.050000,36.000000
4.699000,2.380000,36.000000
4.697800,2.780000,36.000000
4.695500,1.250000,36.000000
4.691500,21.780000,36.000000
4.686400,1.520000,36.000000
4.683400,2.450000,36.000000
4.679600,2.500000,36.000000
4.674200,0.990000,36.000000
4.666700,0.260000,36.000000
4.664600,0.250000,36.000000
4.246800,0.160000,36.000000
4.203500,0.160000,36.000000
4.139000,0.370000,36.000000
4.115500,0.340000,36.000000
4.097800,0.300000,36.000000
4.058100,0.270000,36.000000
4.020500,1.460000,36.000000
4.005100,0.630000,36.000000
3.984500,4.850000,36.000000
3.971600,6.990000,36.000000
3.959900,4.820000,36.000000
3.945600,4.530000,36.000000
3.932200,0.730000,36.000000
3.917600,13.920000,36.000000
3.889600,13.800000,36.000000
3.861500,4.630000,36.000000
3.842300,0.570000,36.000000
3.824400,7.440000,36.000000
3.812700,0.620000,36.000000
3.800600,10.090000,36.000000
3.770700,0.930000,36.000000
3.740900,9.660000,36.000000
3.711100,0.480000,36.000000
3.689000,0.210000,36.000000
3.678600,0.430000,36.000000
3.671100,0.210000,36.000000
3.633500,0.170000,36.000000
3.617700,0.300000,36.000000
3.610400,0.150000,36.000000
3.593500,0.120000,36.000000
3.587000,0.180000,36.000000
3.565700,0.320000,36.000000
3.540200,0.120000,36.000000
3.450300,4.660000,36.000000
3.247700,0.200000,36.000000
3.236700,0.160000,36.000000
3.219100,0.350000,36.000000
3.210500,0.250000,36.000000
3.198700,0.400000,36.000000
3.185700,0.430000,36.000000
3.176100,0.210000,36.000000
3.161100,0.240000,36.000000
3.151600,0.190000,36.000000
3.138100,0.200000,36.000000
3.126700,0.150000,36.000000
3.075100,0.540000,36.000000
3.066800,2.110000,36.000000
3.061400,0.650000,36.000000
3.055200,2.310000,36.000000
3.043700,6.060000,36.000000
3.032100,6.250000,36.000000
3.021500,6.370000,36.000000
3.008300,6.280000,36.000000
2.998400,2.230000,36.000000
2.985100,2.020000,36.000000
2.768200,0.090000,36.000000
2.752700,0.130000,36.000000
2.739500,0.290000,36.000000
2.733500,0.230000,36.000000
2.727000,0.240000,36.000000
2.701400,0.100000,36.000000
2.671800,4.490000,36.000000
2.646700,9.950000,36.000000
2.618800,0.570000,36.000000
2.606900,0.570000,36.000000
2.579100,0.370000,36.000000
2.561600,10.190000,36.000000
2.536400,4.630000,36.000000
2.368400,0.240000,36.000000
2.363400,0.200000,36.000000
2.358600,0.190000,36.000000
2.326500,0.110000,36.000000
2.319400,0.180000,36.000000
2.309900,0.530000,36.000000
2.302800,0.450000,36.000000
2.287800,0.180000,36.000000
2.242900,0.200000,36.000000
2.210300,0.260000,36.000000
2.199200,0.330000,36.000000
2.186100,0.280000,36.000000
2.161600,0.250000,36.000000
2.144600,0.450000,36.000000
2.129600,1.140000,36.000000
2.114900,0.720000,36.000000
2.097600,0.480000,36.000000
2.080500,2.080000,36.000000
2.064400,0.830000,36.000000
2.051700,0.800000,36.000000
2.045100,0.860000,36.000000
2.025100,0.580000,36.000000
1.989300,0.380000,36.000000
1.955300,0.300000,36.000000
1.920400,0.420000,36.000000
1.906600,0.400000,36.000000
1.897400,0.320000,36.000000
1.858200,0.430000,36.000000
1.800300,0.280000,36.000000
1.782400,0.310000,36.000000
1.769200,0.340000,36.000000
1.732500,0.470000,36.000000
1.718300,0.560000,36.000000
1.707200,0.590000,36.000000
1.687700,0.620000,36.000000
1.679700,0.680000,36.000000
1.667200,0.620000,36.000000
1.657000,0.590000,36.000000
1.596100,0.290000,36.000000
1.526700,0.170000,36.000000
1.513500,0.210000,36.000000
1.490500,0.470000,36.000000
1.478000,0.510000,36.000000
1.436500,0.310000,36.000000
1.425100,0.430000,36.000000
1.411500,0.340000,36.000000
1.373300,0.190000,36.000000
1.368900,0.190000,36.000000
1.361000,0.210000,36.000000
1.337600,0.730000,36.000000
1.326200,0.610000,36.000000
1.279300,0.140000,36.000000
1.268400,0.210000,36.000000
1.253200,0.280000,36.000000
1.240400,0.370000,36.000000
1.230200,0.340000,36.000000
1.212500,0.360000,36.000000
1.202200,0.360000,36.000000
1.182900,0.290000,36.000000
1.108900,0.400000,36.000000
1.096700,0.470000,36.000000
1.050500,0.400000,36.000000
1.044700,0.250000,36.000000
1.038000,0.490000,36.000000
1.018000,0.680000,36.000000
1.005900,0.830000,36.000000
1.000200,0.900000,36.000000
0.988400,1.110000,36.000000
0.983500,1.130000,36.000000
0.964200,1.700000,36.000000
0.954000,1.890000,36.000000
0.947200,3.320000,36.000000
0.941400,2.160000,36.000000
0.935700,3.080000,36.000000
0.929200,2.050000,36.000000
0.919600,2.320000,36.000000
0.908300,2.190000,36.000000
0.898400,1.740000,36.000000
0.892900,1.490000,36.000000
0.885500,1.520000,36.000000
0.863900,1.100000,36.000000
0.850100,0.850000,36.000000
0.816300,0.490000,36.000000
0.096900,0.390000,36.000000
0.011300,0.130000,36.000000
0.009800,0.240000,36.000000
0.005300,3.990000,36.000000
-0.000200,112.400000,36.000000
-0.005600,4.500000,36.000000
-0.009900,0.550000,36.000000
-0.011400,0.360000,36.000000
-0.012900,0.240000,36.000000
-0.014400,0.140000,36.000000
-0.015900,0.180000,36.000000
-0.017400,0.160000,36.000000
-0.018900,0.110000,36.000000
-0.023300,0.160000,36.000000
-0.025800,0.500000,36.000000
-0.027900,0.180000,36.000000
-0.100500,0.370000,36.000000
-0.917900,0.130000,36.000000
-0.949400,0.140000,36.000000
-0.964500,0.170000,36.000000
-1.002300,0.150000,36.000000
-1.085000,0.190000,36.000000
-1.119400,0.220000,36.000000
