10.684800,0.130000,54.000000
7.969800,0.110000,54.000000
7.875000,0.090000,54.000000
7.846000,0.180000,54.000000
7.723000,0.080000,54.000000
7.695900,0.230000,54.000000
7.681700,0.230000,54.000000
7.650000,0.090000,54.000000
7.533100,0.260000,54.000000
7.518800,0.320000,54.000000
7.503600,0.350000,54.000000
7.488900,0.160000,54.000000
7.389000,0.240000,54.000000
7.377900,0.250000,54.000000
7.344700,0.160000,54.000000
7.317300,0.280000,54.000000
7.302300,0.310000,54.000000
7.277800,0.210000,54.000000
7.252500,0.330000,54.000000
7.239300,0.250000,54.000000
7.223200,0.470000,54.000000
7.208200,0.610000,54.000000
7.193800,0.770000,54.000000
7.181400,3.090000,54.000000
7.176100,4.790000,54.000000
7.172400,1.820000,54.000000
7.166500,3.400000,54.000000
7.161400,6.310000,54.000000
7.141600,0.960000,54.000000
7.121100,0.390000,54.000000
7.081700,0.340000,54.000000
7.057700,0.220000,54.000000
7.023100,0.230000,54.000000
6.915100,0.830000,54.000000
6.911100,0.820000,54.000000
6.900600,1.500000,54.000000
6.896200,6.200000,54.000000
6.881600,5.200000,54.000000
6.877200,4.150000,54.000000
6.862700,3.210000,54.000000
6.775000,0.280000,54.000000
4.707300,0.180000,54.000000
4.683000,0.440000,54.000000
4.678500,0.580000,54.000000
4.672000,0.320000,54.000000
4.663900,0.100000,54.000000
4.142900,0.110000,54.000000
4.116300,0.130000,54.000000
4.096300,0.090000,54.000000
4.077300,0.080000,54.000000
4.020500,1.140000,54.000000
4.006700,0.270000,54.000000
3.992000,0.420000,54.000000
3.981600,1.830000,54.000000
3.968700,2.740000,54.000000
3.956900,1.940000,54.000000
3.944900,1.870000,54.000000
3.932000,0.450000,54.000000
3.916800,5.500000,54.000000
3.889300,5.510000,54.000000
3.861300,1.940000,54.000000
3.843800,0.450000,54.000000
3.838100,0.510000,54.000000
3.824200,11.350000,54.000000
3.799100,15.000000,54.000000
3.784800,0.600000,54.000000
3.777800,0.670000,54.000000
3.767700,0.860000,54.000000
3.757300,0.800000,54.000000
3.740400,4.210000,54.000000
3.678000,0.720000,54.000000
3.671200,0.570000,54.000000
3.656000,0.380000,54.000000
3.633900,0.230000,54.000000
3.617800,0.550000,54.000000
3.610400,0.420000,54.000000
3.592700,0.320000,54.000000
3.584800,0.360000,54.000000
3.565200,1.040000,54.000000
3.540100,0.500000,54.000000
3.450200,8.720000,54.000000
3.247300,0.130000,54.000000
3.229400,0.190000,54.000000
3.218700,0.370000,54.000000
3.209900,0.250000,54.000000
3.194800,0.370000,54.000000
3.185800,0.470000,54.000000
3.160900,0.230000,54.000000
3.147700,0.180000,54.000000
3.137200,0.180000,54.000000
3.120900,0.150000,54.000000
3.076100,0.490000,54.000000
3.065000,1.110000,54.000000
3.053700,0.960000,54.000000
3.049600,0.900000,54.000000
3.042200,2.440000,54.000000
3.035900,0.970000,54.000000
3.030700,2.630000,54.000000
3.020000,2.830000,54.000000
3.006700,2.620000,54.000000
2.996900,1.090000,54.000000
2.983600,0.920000,54.000000
2.943200,0.150000,54.000000
2.934900,0.170000,54.000000
2.859900,0.080000,54.000000
2.827300,0.110000,54.000000
2.805100,0.080000,54.000000
2.798000,0.090000,54.000000
2.780000,0.110000,54.000000
2.768100,0.120000,54.000000
2.759200,0.140000,54.000000
2.752000,0.230000,54.000000
2.739400,0.490000,54.000000
2.733900,0.240000,54.000000
2.726700,0.390000,54.000000
2.701500,0.150000,54.000000
2.682800,0.130000,54.000000
2.671800,2.860000,54.000000
2.646700,6.120000,54.000000
2.618700,0.690000,54.000000
2.606800,0.630000,54.000000
2.579700,0.300000,54.000000
2.561200,6.240000,54.000000
2.536100,2.830000,54.000000
2.500500,0.170000,54.000000
2.488200,0.300000,54.000000
2.475600,0.130000,54.000000
2.454400,0.100000,54.000000
2.438400,0.110000,54.000000
2.427500,0.110000,54.000000
2.368400,0.190000,54.000000
2.358700,0.290000,54.000000
2.345800,0.180000,54.000000
2.319600,0.170000,54.000000
2.310100,0.380000,54.000000
2.302700,0.350000,54.000000
2.278000,0.200000,54.000000
2.261500,0.190000,54.000000
2.247800,0.190000,54.000000
2.234800,0.190000,54.000000
2.225000,0.200000,54.000000
2.210500,0.250000,54.000000
2.199300,0.270000,54.000000
2.186500,0.240000,54.000000
2.172900,0.220000,54.000000
2.144600,0.570000,54.000000
2.129600,1.480000,54.000000
2.125800,0.650000,54.000000
2.098200,0.430000,54.000000
2.080300,1.110000,54.000000
2.064200,0.980000,54.000000
2.051700,1.140000,54.000000
2.047200,0.680000,54.000000
2.025500,0.460000,54.000000
2.014000,0.450000,54.000000
1.991000,0.380000,54.000000
1.979800,0.360000,54.000000
1.967500,0.390000,54.000000
1.955700,0.420000,54.000000
1.934300,0.450000,54.000000
1.924600,0.470000,54.000000
1.920300,0.500000,54.000000
1.907000,0.520000,54.000000
1.896700,0.370000,54.000000
1.889700,0.380000,54.000000
1.856900,0.370000,54.000000
1.842500,0.320000,54.000000
1.801500,0.240000,54.000000
1.760800,0.320000,54.000000
1.744500,0.400000,54.000000
1.732800,0.550000,54.000000
1.718900,0.600000,54.000000
1.707400,0.540000,54.000000
1.687700,0.540000,54.000000
1.679900,0.580000,54.000000
1.665900,0.520000,54.000000
1.657000,0.490000,54.000000
1.626100,0.360000,54.000000
1.617200,0.300000,54.000000
1.601700,0.270000,54.000000
1.525200,0.320000,54.000000
1.513200,0.300000,54.000000
1.505400,0.260000,54.000000
1.490300,0.920000,54.000000
1.477900,0.960000,54.000000
1.464600,0.320000,54.000000
1.444900,0.260000,54.000000
1.435600,0.320000,54.000000
1.423800,0.380000,54.000000
1.412600,0.290000,54.000000
1.373300,0.350000,54.000000
1.369000,0.290000,54.000000
1.360800,0.320000,54.000000
1.356900,0.320000,54.000000
1.337900,0.950000,54.000000
1.326900,0.830000,54.000000
1.291500,0.190000,54.000000
1.284100,0.190000,54.000000
1.274700,0.210000,54.000000
1.268100,0.280000,54.000000
1.256900,0.340000,54.000000
1.240300,0.350000,54.000000
1.212000,0.350000,54.000000
1.201900,0.290000,54.000000
1.180500,0.260000,54.000000
1.169300,0.260000,54.000000
1.108600,0.490000,54.000000
1.096600,0.530000,54.000000
1.055700,0.420000,54.000000
1.050100,0.910000,54.000000
1.044000,0.440000,54.000000
1.038000,1.040000,54.000000
1.024200,0.490000,54.000000
1.017900,1.420000,54.000000
1.005900,1.540000,54.000000
1.000200,1.370000,54.000000
0.988100,1.530000,54.000000
0.974700,1.520000,54.000000
0.964100,1.970000,54.000000
0.953800,2.070000,54.000000
0.947100,3.110000,54.000000
0.941300,2.350000,54.000000
0.935700,2.860000,54.000000
0.928800,1.970000,54.000000
0.919500,3.190000,54.000000
0.908200,3.070000,54.000000
0.898200,1.490000,54.000000
0.892600,1.110000,54.000000
0.885600,1.250000,54.000000
0.878500,1.080000,54.000000
0.861400,0.890000,54.000000
0.848600,0.680000,54.000000
0.097100,0.270000,54.000000
0.026300,0.200000,54.000000
0.022100,0.080000,54.000000
0.020600,0.090000,54.000000
0.019100,0.130000,54.000000
0.016200,0.290000,54.000000
0.014700,0.190000,54.000000
0.013200,0.220000,54.000000
0.011700,0.250000,54.000000
0.010200,0.360000,54.000000
0.008600,0.540000,54.000000
-0.000200,70.180000,54.000000
-0.005400,2.570000,54.000000
-0.008100,0.510000,54.000000
-0.009700,0.230000,54.000000
-0.011200,0.120000,54.000000
-0.100300,0.250000,54.000000
