10.646300,0.050000,63.000000
8.140200,0.060000,63.000000
7.996300,0.070000,63.000000
7.986000,0.060000,63.000000
7.969700,0.080000,63.000000
7.939500,0.070000,63.000000
7.899800,0.070000,63.000000
7.859500,0.070000,63.000000
7.846500,0.190000,63.000000
7.722300,0.070000,63.000000
7.708200,0.070000,63.000000
7.696100,0.150000,63.000000
7.681100,0.160000,63.000000
7.650300,0.090000,63.000000
7.636600,0.090000,63.000000
7.608700,0.060000,63.000000
7.587100,0.070000,63.000000
7.538400,0.130000,63.000000
7.525000,0.150000,63.000000
7.518300,0.180000,63.000000
7.512100,0.110000,63.000000
7.504100,0.210000,63.000000
7.490600,0.090000,63.000000
7.467500,0.070000,63.000000
7.424600,0.100000,63.000000
7.411700,0.110000,63.000000
7.402700,0.160000,63.000000
7.390200,0.260000,63.000000
7.377700,0.270000,63.000000
7.343800,0.130000,63.000000
7.318100,0.320000,63.000000
7.311300,0.270000,63.000000
7.304700,0.280000,63.000000
7.290100,0.180000,63.000000
7.276600,0.180000,63.000000
7.254100,0.320000,63.000000
7.239700,0.220000,63.000000
7.223300,0.370000,63.000000
7.208400,0.360000,63.000000
7.193600,0.530000,63.000000
7.181500,3.280000,63.000000
7.176000,1.590000,63.000000
7.166900,3.520000,63.000000
7.161200,2.220000,63.000000
7.156300,0.780000,63.000000
7.141700,0.510000,63.000000
7.135800,0.190000,63.000000
7.119700,0.140000,63.000000
7.111100,0.120000,63.000000
7.081300,0.240000,63.000000
7.038000,0.100000,63.000000
7.024700,0.100000,63.000000
7.011400,0.100000,63.000000
6.995900,0.100000,63.000000
6.981100,0.090000,63.000000
6.915200,0.470000,63.000000
6.911200,0.650000,63.000000
6.907600,0.260000,63.000000
6.900500,0.740000,63.000000
6.896100,2.240000,63.000000
6.892500,0.600000,63.000000
6.881500,2.080000,63.000000
6.877500,4.160000,63.000000
6.874000,0.970000,63.000000
6.866400,0.960000,63.000000
6.862900,3.490000,63.000000
6.857900,0.480000,63.000000
6.831500,0.170000,63.000000
6.820500,0.120000,63.000000
6.772800,0.100000,63.000000
6.761400,0.080000,63.000000
4.712900,0.050000,63.000000
4.707400,0.200000,63.000000
4.703900,0.170000,63.000000
4.685100,0.130000,63.000000
4.680700,0.190000,63.000000
4.674600,0.170000,63.000000
4.266600,0.060000,63.000000
4.254900,0.070000,63.000000
4.245700,0.110000,63.000000
4.231200,0.070000,63.000000
4.216500,0.060000,63.000000
4.176600,0.120000,63.000000
4.163700,0.100000,63.000000
4.147800,0.110000,63.000000
4.137800,0.110000,63.000000
4.116600,0.140000,63.000000
4.107900,0.110000,63.000000
4.092600,0.120000,63.000000
4.079100,0.120000,63.000000
4.067500,0.090000,63.000000
4.059100,0.100000,63.000000
4.047700,0.090000,63.000000
4.034500,0.130000,63.000000
4.020500,0.950000,63.000000
4.008600,0.230000,63.000000
4.005800,0.250000,63.000000
4.001500,0.220000,63.000000
3.991600,0.490000,63.000000
3.985100,0.520000,63.000000
3.978800,0.760000,63.000000
3.966100,1.130000,63.000000
3.954200,0.780000,63.000000
3.944400,0.690000,63.000000
3.936600,0.290000,63.000000
3.931700,0.280000,63.000000
3.916000,1.930000,63.000000
3.902900,0.410000,63.000000
3.889200,1.890000,63.000000
3.875300,0.330000,63.000000
3.861200,0.790000,63.000000
3.853300,0.580000,63.000000
3.847000,0.440000,63.000000
3.843600,0.430000,63.000000
3.837200,0.540000,63.000000
3.824000,11.050000,63.000000
3.809100,0.400000,63.000000
3.797700,15.000000,63.000000
3.787900,0.400000,63.000000
3.784500,0.520000,63.000000
3.777300,0.590000,63.000000
3.771200,0.460000,63.000000
3.766900,0.640000,63.000000
3.762700,0.370000,63.000000
3.756500,0.660000,63.000000
3.745600,1.260000,63.000000
3.740200,1.300000,63.000000
3.725900,0.240000,63.000000
3.721200,0.230000,63.000000
3.706000,0.220000,63.000000
3.677800,0.570000,63.000000
3.671100,0.530000,63.000000
3.663000,0.150000,63.000000
3.655600,0.350000,63.000000
3.633800,0.130000,63.000000
3.627500,0.120000,63.000000
3.617700,0.570000,63.000000
3.610300,0.530000,63.000000
3.605100,0.140000,63.000000
3.592500,0.410000,63.000000
3.584300,0.480000,63.000000
3.565100,2.310000,63.000000
3.554900,0.050000,63.000000
3.540000,0.680000,63.000000
3.450200,10.360000,63.000000
3.430300,0.070000,63.000000
3.251100,0.080000,63.000000
3.239600,0.050000,63.000000
3.230300,0.160000,63.000000
3.218300,0.190000,63.000000
3.210000,0.140000,63.000000
3.204100,0.130000,63.000000
3.197800,0.180000,63.000000
3.194200,0.170000,63.000000
3.185300,0.250000,63.000000
3.171600,0.110000,63.000000
3.160000,0.180000,63.000000
3.146400,0.200000,63.000000
3.133200,0.120000,63.000000
3.120300,0.130000,63.000000
3.109300,0.090000,63.000000
3.097700,0.100000,63.000000
3.076400,0.450000,63.000000
3.063600,0.930000,63.000000
3.048800,0.750000,63.000000
3.040800,0.830000,63.000000
3.035700,0.840000,63.000000
3.029400,0.920000,63.000000
3.022600,0.730000,63.000000
3.018400,1.060000,63.000000
3.005100,0.900000,63.000000
2.995300,0.390000,63.000000
2.982000,0.280000,63.000000
2.970400,0.110000,63.000000
2.963300,0.120000,63.000000
2.942400,0.160000,63.000000
2.935000,0.180000,63.000000
2.872500,0.120000,63.000000
2.859300,0.130000,63.000000
2.844600,0.050000,63.000000
2.833900,0.050000,63.000000
2.827000,0.090000,63.000000
2.804700,0.130000,63.000000
2.797800,0.150000,63.000000
2.778800,0.090000,63.000000
2.768100,0.090000,63.000000
2.759100,0.080000,63.000000
2.752200,0.310000,63.000000
2.739300,0.590000,63.000000
2.733500,0.180000,63.000000
2.726800,0.410000,63.000000
2.723700,0.410000,63.000000
2.712900,0.090000,63.000000
2.697700,0.170000,63.000000
2.682800,0.210000,63.000000
2.672000,1.820000,63.000000
2.646900,3.910000,63.000000
2.618800,0.510000,63.000000
2.612800,0.100000,63.000000
2.606900,0.500000,63.000000
2.589400,0.110000,63.000000
2.579400,0.190000,63.000000
2.560800,4.060000,63.000000
2.535700,1.830000,63.000000
2.500500,0.270000,63.000000
2.488100,0.430000,63.000000
2.475700,0.160000,63.000000
2.466000,0.060000,63.000000
2.453900,0.100000,63.000000
2.439100,0.090000,63.000000
2.427900,0.060000,63.000000
2.419700,0.070000,63.000000
2.403700,0.070000,63.000000
2.374900,0.150000,63.000000
2.369900,0.140000,63.000000
2.361700,0.280000,63.000000
2.358300,0.270000,63.000000
2.348500,0.190000,63.000000
2.345300,0.210000,63.000000
2.326300,0.100000,63.000000
2.320100,0.110000,63.000000
2.309600,0.250000,63.000000
2.302100,0.240000,63.000000
2.290000,0.160000,63.000000
2.282500,0.160000,63.000000
2.277700,0.170000,63.000000
2.270500,0.160000,63.000000
2.265700,0.140000,63.000000
2.258600,0.160000,63.000000
2.247200,0.140000,63.000000
2.237000,0.150000,63.000000
2.223700,0.150000,63.000000
2.211700,0.160000,63.000000
2.199300,0.180000,63.000000
2.186600,0.170000,63.000000
2.176500,0.150000,63.000000
2.158200,0.150000,63.000000
2.144700,0.390000,63.000000
2.133700,0.400000,63.000000
2.129600,1.680000,63.000000
2.120500,0.330000,63.000000
2.110800,0.280000,63.000000
2.098500,0.270000,63.000000
2.086300,0.330000,63.000000
2.080300,0.560000,63.000000
2.072500,0.470000,63.000000
2.064100,1.030000,63.000000
2.051600,1.400000,63.000000
2.025500,0.310000,63.000000
2.011500,0.280000,63.000000
1.995400,0.230000,63.000000
1.991000,0.270000,63.000000
1.983500,0.220000,63.000000
1.979100,0.300000,63.000000
1.967500,0.360000,63.000000
1.955600,0.400000,63.000000
1.944000,0.390000,63.000000
1.934000,0.430000,63.000000
1.924300,0.410000,63.000000
1.920400,0.430000,63.000000
1.917000,0.360000,63.000000
1.906800,0.430000,63.000000
1.900200,0.290000,63.000000
1.896400,0.300000,63.000000
1.889400,0.260000,63.000000
1.879000,0.220000,63.000000
1.866000,0.220000,63.000000
1.855000,0.240000,63.000000
1.842500,0.210000,63.000000
1.829800,0.180000,63.000000
1.814600,0.150000,63.000000
1.800900,0.150000,63.000000
1.787100,0.160000,63.000000
1.778300,0.180000,63.000000
1.759800,0.210000,63.000000
1.747200,0.300000,63.000000
1.732200,0.440000,63.000000
1.719300,0.450000,63.000000
1.706300,0.350000,63.000000
1.697300,0.280000,63.000000
1.692700,0.280000,63.000000
1.686100,0.280000,63.000000
1.679400,0.340000,63.000000
1.666200,0.270000,63.000000
1.656400,0.240000,63.000000
1.643400,0.200000,63.000000
1.625700,0.190000,63.000000
1.613500,0.180000,63.000000
1.600700,0.160000,63.000000
1.564500,0.060000,63.000000
1.534400,0.140000,63.000000
1.524000,0.250000,63.000000
1.512100,0.240000,63.000000
1.503900,0.210000,63.000000
1.499800,0.190000,63.000000
1.490200,1.490000,63.000000
1.477800,1.510000,63.000000
1.464400,0.260000,63.000000
1.456100,0.240000,63.000000
1.448100,0.190000,63.000000
1.434300,0.160000,63.000000
1.422700,0.180000,63.000000
1.411200,0.160000,63.000000
1.395800,0.140000,63.000000
1.383700,0.130000,63.000000
1.373100,0.180000,63.000000
1.369000,0.180000,63.000000
1.360900,0.180000,63.000000
1.356700,0.200000,63.000000
1.347900,0.120000,63.000000
1.337800,1.290000,63.000000
1.326800,1.200000,63.000000
1.303800,0.050000,63.000000
1.290900,0.130000,63.000000
1.287100,0.100000,63.000000
1.278200,0.170000,63.000000
1.267100,0.230000,63.000000
1.262500,0.140000,63.000000
1.256100,0.250000,63.000000
1.252700,0.170000,63.000000
1.243500,0.190000,63.000000
1.239900,0.230000,63.000000
1.233500,0.170000,63.000000
1.211000,0.200000,63.000000
1.201100,0.170000,63.000000
1.179400,0.130000,63.000000
1.169700,0.120000,63.000000
1.152600,0.100000,63.000000
1.133200,0.070000,63.000000
1.121400,0.080000,63.000000
1.108600,0.430000,63.000000
1.096600,0.440000,63.000000
1.071300,0.170000,63.000000
1.055600,0.810000,63.000000
1.050000,1.380000,63.000000
1.043800,0.750000,63.000000
1.037900,1.440000,63.000000
1.032800,0.420000,63.000000
1.017700,1.580000,63.000000
1.005700,1.600000,63.000000
1.000100,1.690000,63.000000
0.988000,1.730000,63.000000
0.974500,0.930000,63.000000
0.968500,0.740000,63.000000
0.963800,1.220000,63.000000
0.953700,1.520000,63.000000
0.947100,2.240000,63.000000
0.941200,1.970000,63.000000
0.935700,2.090000,63.000000
0.928600,1.410000,63.000000
0.919400,3.940000,63.000000
0.908200,3.720000,63.000000
0.898200,0.960000,63.000000
0.893200,0.620000,63.000000
0.885400,0.720000,63.000000
0.878100,0.620000,63.000000
0.874000,0.740000,63.000000
0.861300,0.940000,63.000000
0.848500,0.550000,63.000000
0.813600,0.150000,63.000000
0.800200,0.140000,63.000000
0.788100,0.100000,63.000000
0.761300,0.060000,63.000000
0.096900,0.170000,63.000000
0.009400,0.090000,63.000000
0.007700,0.190000,63.000000
0.005100,1.590000,63.000000
-0.000200,48.160000,63.000000
-0.005800,1.900000,63.000000
-0.008800,0.370000,63.000000
-0.010400,0.250000,63.000000
-0.012000,0.180000,63.000000
-0.013500,0.130000,63.000000
-0.014900,0.120000,63.000000
-0.016400,0.090000,63.000000
-0.017900,0.070000,63.000000
-0.019400,0.070000,63.000000
-0.023900,0.050000,63.000000
-0.025300,0.050000,63.000000
-0.040900,0.080000,63.000000
-0.100600,0.190000,63.000000
-1.040100,0.050000,63.000000
-1.093800,0.060000,63.000000
-1.124000,0.070000,63.000000
-1.139300,0.070000,63.000000
