##TITLE= Audit trail, TOPSPIN		Version 2.1
##JCAMPDX= 5.01
##ORIGIN= Bruker BioSpin GmbH
##OWNER= Administrator
$$ T:/data/MJD/nmr/C02404/8/audita.txt
##AUDIT TRAIL=  $$ (NUMBER, WHEN, WHO, WHERE, PROCESS, VERSION, WHAT)
(   1,<2013-06-13 13:51:33.640 +0100>,<Administrator>,<GH001606>,<go>,<TOPSPIN 2.1>,
      <created by zg
	started at 2013-06-13 13:45:10.015 +0100,
	POWCHK disabled, PULCHK disabled,
       configuration hash MD5:
       3E 28 56 27 A3 E6 96 EB AB A8 47 E1 FE 66 6F 96
       data hash MD5: 32K
       42 C2 53 46 EC 21 05 0D E9 88 2F 7C CC 45 E1 59>)
(   2,<2013-06-13 13:51:42.890 +0100>,<Administrator>,<GH001606>,<audit>,<TOPSPIN 2.1>,
      <user comment:
       ICON-NMR User ID: MJD
       data hash MD5: 32K
       42 C2 53 46 EC 21 05 0D E9 88 2F 7C CC 45 E1 59>)
(   3,<2013-06-13 13:51:43.078 +0100>,<Administrator>,<GH001606>,<dirdata>,<TOPSPIN 2.1>,
      <wrpa from 1 8 "C02404" "MJD" "C:\NMRdata"
       data hash MD5: 32K
       42 C2 53 46 EC 21 05 0D E9 88 2F 7C CC 45 E1 59>)
##END=

$$ hash MD5
$$ 35 D7 A9 9D E5 89 EB 9B 86 96 E4 24 F8 39 D1 EA
