##TITLE= Audit trail, TOPSPIN		Version 2.1
##JCAMPDX= 5.01
##ORIGIN= Bruker BioSpin GmbH
##OWNER= Administrator
$$ T:/data/MJD/nmr/C02404/53/audita.txt
##AUDIT TRAIL=  $$ (NUMBER, WHEN, WHO, WHERE, PROCESS, VERSION, WHAT)
(   1,<2013-06-14 14:41:28.687 +0100>,<Administrator>,<GH001606>,<go>,<TOPSPIN 2.1>,
      <created by zg
	started at 2013-06-14 13:40:03.500 +0100,
	POWCHK disabled, PULCHK disabled,
       configuration hash MD5:
       3E 28 56 27 A3 E6 96 EB AB A8 47 E1 FE 66 6F 96
       data hash MD5: 32K
       60 C4 72 C0 76 D2 AF 1B 98 E1 2C EA 35 D6 8C DD>)
(   2,<2013-06-14 14:41:54.859 +0100>,<Administrator>,<GH001606>,<audit>,<TOPSPIN 2.1>,
      <user comment:
       ICON-NMR User ID: MJD
       data hash MD5: 32K
       60 C4 72 C0 76 D2 AF 1B 98 E1 2C EA 35 D6 8C DD>)
(   3,<2013-06-14 14:41:55.890 +0100>,<Administrator>,<GH001606>,<dirdata>,<TOPSPIN 2.1>,
      <wrpa from 1 53 "C02404" "MJD" "C:\NMRdata"
       data hash MD5: 32K
       60 C4 72 C0 76 D2 AF 1B 98 E1 2C EA 35 D6 8C DD>)
##END=

$$ hash MD5
$$ 55 71 E6 9C 95 0A 8B F4 A0 AE 4C D8 F9 09 16 4B
