0,3.917,13.5600004196167,-0.45
1,3.917,13.760000228881836,-0.45
2,3.917,13.75,-0.45
3,3.917,13.449999809265137,-0.45
4,3.917,13.4399995803833,-0.45
5,3.917,13.579999923706055,-0.45
6,3.917,13.069999694824219,-0.45
7,3.917,13.539999961853027,-0.45
8,3.889,13.34000015258789,-0.45
9,3.917,13.390000343322754,-0.45
10,3.917,13.369999885559082,-0.45
11,3.917,13.4399995803833,-0.45
12,3.917,13.359999656677246,-0.45
13,3.917,13.390000343322754,-0.45
14,3.917,13.3100004196167,-0.45
15,3.917,13.59000015258789,-0.45
16,3.917,13.550000190734863,-0.45
17,3.917,13.069999694824219,-0.45
18,3.889,13.369999885559082,-0.45
19,3.917,13.369999885559082,-0.45
20,3.917,13.40999984741211,-0.45
21,3.917,13.739999771118164,-0.45
22,3.917,13.640000343322754,-0.45
23,3.889,13.470000267028809,-0.45
24,3.917,13.4399995803833,-0.45
25,3.917,13.6899995803833,-0.45
26,3.917,13.34000015258789,-0.45
27,3.917,13.600000381469727,-0.45
28,3.917,13.489999771118164,-0.45
29,3.917,13.880000114440918,-0.45
30,3.918,13.40999984741211,-0.45
31,3.917,14.09000015258789,-0.45
32,3.918,13.649999618530273,-0.45
33,3.917,13.829999923706055,-0.45
34,3.918,13.739999771118164,-0.45
35,3.889,13.350000381469727,-0.45
36,3.918,13.920000076293945,-0.45
37,3.918,13.59000015258789,-0.45
38,3.918,13.699999809265137,-0.45
39,3.918,13.229999542236328,-0.45
40,3.918,13.470000267028809,-0.45
41,3.801,14.199999809265137,-0.45
42,3.801,14.770000457763672,-0.45
43,3.8,15.0,-0.45
44,3.8,15.0,-0.45
45,3.801,15.0,-0.45
46,3.801,15.0,-0.45
47,3.8,15.0,-0.45
48,3.8,15.0,-0.45
49,3.8,15.0,-0.45
50,3.8,15.0,-0.45
51,3.8,15.0,-0.45
52,3.8,15.0,-0.45
53,3.799,15.0,-0.45
54,3.799,15.0,-0.45
55,3.799,15.0,-0.45
56,3.798,15.0,-0.45
57,3.798,15.0,-0.45
58,3.798,15.0,-0.45
59,3.798,15.0,-0.45
60,3.798,15.0,-0.45
61,3.798,15.0,-0.45
62,3.798,15.0,-0.45
63,3.798,15.0,-0.45
0,10.507,0.12999999523162842,-0.45
1,10.639,0.12999999523162842,-0.45
2,10.668,0.12999999523162842,-0.45
3,10.588,0.12999999523162842,-0.45
4,10.625,0.10999999940395355,-0.45
5,10.59,0.12999999523162842,-0.45
6,10.525,0.10999999940395355,-0.45
7,10.653,0.11999999731779099,-0.45
8,10.69,0.14000000059604645,-0.45
9,10.594,0.12999999523162842,-0.45
10,10.65,0.14000000059604645,-0.45
11,10.557,0.11999999731779099,-0.45
12,10.572,0.11999999731779099,-0.45
13,10.666,0.12999999523162842,-0.45
14,10.68,0.12999999523162842,-0.45
15,10.66,0.12999999523162842,-0.45
16,10.619,0.12999999523162842,-0.45
17,10.684,0.14000000059604645,-0.45
18,10.631,0.11999999731779099,-0.45
19,10.51,0.11999999731779099,-0.45
20,10.625,0.11999999731779099,-0.45
21,10.58,0.12999999523162842,-0.45
22,10.542,0.11999999731779099,-0.45
23,10.689,0.14000000059604645,-0.45
24,10.605,0.10999999940395355,-0.45
25,10.572,0.12999999523162842,-0.45
26,10.575,0.11999999731779099,-0.45
27,10.608,0.12999999523162842,-0.45
28,10.671,0.15000000596046448,-0.45
29,10.513,0.12999999523162842,-0.45
30,10.528,0.12999999523162842,-0.45
31,10.589,0.15000000596046448,-0.45
32,10.573,0.12999999523162842,-0.45
33,10.577,0.14000000059604645,-0.45
34,10.605,0.15000000596046448,-0.45
35,10.674,0.15000000596046448,-0.45
36,10.58,0.15000000596046448,-0.45
37,10.57,0.14000000059604645,-0.45
38,10.529,0.15000000596046448,-0.45
39,10.494,0.11999999731779099,-0.45
40,10.597,0.14000000059604645,-0.45
41,10.52,0.14000000059604645,-0.45
42,10.57,0.12999999523162842,-0.45
43,10.662,0.15000000596046448,-0.45
44,10.571,0.1599999964237213,-0.45
45,10.62,0.12999999523162842,-0.45
46,10.55,0.14000000059604645,-0.45
47,10.655,0.10999999940395355,-0.45
48,10.652,0.11999999731779099,-0.45
49,10.528,0.10999999940395355,-0.45
50,10.606,0.11999999731779099,-0.45
51,10.647,0.10999999940395355,-0.45
52,10.517,0.09000000357627869,-0.45
54,10.685,0.12999999523162842,-0.45
55,10.616,0.07999999821186066,-0.45
56,10.687,0.10999999940395355,-0.45
57,10.688,0.10000000149011612,-0.45
58,10.69,0.10999999940395355,-0.45
59,10.686,0.07999999821186066,-0.45
60,10.692,0.09000000357627869,-0.45
61,10.672,0.07999999821186066,-0.45
62,10.691,0.09000000357627869,-0.45
63,10.646,0.05000000074505806,-0.45
63,0.0,0.0,-0.45
