0,3.917,13.5600004196167,-0.52
1,3.917,13.760000228881836,-0.52
2,3.917,13.75,-0.52
3,3.917,13.449999809265137,-0.52
4,3.917,13.4399995803833,-0.52
5,3.917,13.579999923706055,-0.52
6,3.917,13.069999694824219,-0.52
7,3.917,13.539999961853027,-0.52
8,3.889,13.34000015258789,-0.52
9,3.917,13.390000343322754,-0.52
10,3.917,13.369999885559082,-0.52
11,3.917,13.4399995803833,-0.52
12,3.917,13.359999656677246,-0.52
13,3.917,13.390000343322754,-0.52
14,3.917,13.3100004196167,-0.52
15,3.917,13.59000015258789,-0.52
16,3.917,13.550000190734863,-0.52
17,3.917,13.069999694824219,-0.52
18,3.889,13.369999885559082,-0.52
19,3.917,13.369999885559082,-0.52
20,3.917,13.40999984741211,-0.52
21,3.917,13.739999771118164,-0.52
22,3.917,13.640000343322754,-0.52
23,3.889,13.470000267028809,-0.52
24,3.917,13.4399995803833,-0.52
25,3.917,13.6899995803833,-0.52
26,3.917,13.34000015258789,-0.52
27,3.917,13.600000381469727,-0.52
28,3.917,13.489999771118164,-0.52
29,3.917,13.880000114440918,-0.52
30,3.918,13.40999984741211,-0.52
31,3.917,14.09000015258789,-0.52
32,3.918,13.649999618530273,-0.52
33,3.917,13.829999923706055,-0.52
34,3.918,13.739999771118164,-0.52
35,3.889,13.350000381469727,-0.52
36,3.918,13.920000076293945,-0.52
37,3.918,13.59000015258789,-0.52
38,3.918,13.699999809265137,-0.52
39,3.918,13.229999542236328,-0.52
40,3.918,13.470000267028809,-0.52
41,3.801,14.199999809265137,-0.52
42,3.801,14.770000457763672,-0.52
43,3.8,15.0,-0.52
44,3.8,15.0,-0.52
45,3.801,15.0,-0.52
46,3.801,15.0,-0.52
47,3.8,15.0,-0.52
48,3.8,15.0,-0.52
49,3.8,15.0,-0.52
50,3.8,15.0,-0.52
51,3.8,15.0,-0.52
52,3.8,15.0,-0.52
53,3.799,15.0,-0.52
54,3.799,15.0,-0.52
55,3.799,15.0,-0.52
56,3.798,15.0,-0.52
57,3.798,15.0,-0.52
58,3.798,15.0,-0.52
59,3.798,15.0,-0.52
60,3.798,15.0,-0.52
61,3.798,15.0,-0.52
62,3.798,15.0,-0.52
63,3.798,15.0,-0.52
0,8.191,0.09000000357627869,-0.52
1,8.098,0.09000000357627869,-0.52
2,8.006,0.07999999821186066,-0.52
3,8.015,0.10000000149011612,-0.52
4,8.007,0.07999999821186066,-0.52
5,8.0,0.10000000149011612,-0.52
7,8.19,0.10999999940395355,-0.52
8,8.008,0.09000000357627869,-0.52
9,8.015,0.07999999821186066,-0.52
10,8.179,0.09000000357627869,-0.52
11,8.182,0.09000000357627869,-0.52
12,8.045,0.09000000357627869,-0.52
13,8.096,0.09000000357627869,-0.52
14,8.194,0.09000000357627869,-0.52
15,8.108,0.09000000357627869,-0.52
16,8.117,0.09000000357627869,-0.52
19,8.212,0.09000000357627869,-0.52
20,8.252,0.10000000149011612,-0.52
21,8.002,0.10999999940395355,-0.52
22,8.22,0.11999999731779099,-0.52
23,8.21,0.09000000357627869,-0.52
24,8.101,0.09000000357627869,-0.52
25,8.224,0.10000000149011612,-0.52
26,8.056,0.10999999940395355,-0.52
27,8.196,0.10999999940395355,-0.52
28,8.246,0.10000000149011612,-0.52
29,8.003,0.12999999523162842,-0.52
30,8.063,0.10999999940395355,-0.52
31,8.182,0.12999999523162842,-0.52
32,8.037,0.10999999940395355,-0.52
33,8.204,0.11999999731779099,-0.52
34,8.028,0.10999999940395355,-0.52
35,8.006,0.10999999940395355,-0.52
36,8.015,0.1599999964237213,-0.52
37,8.005,0.14000000059604645,-0.52
38,8.03,0.12999999523162842,-0.52
39,8.072,0.10999999940395355,-0.52
40,8.059,0.11999999731779099,-0.52
41,8.016,0.18000000715255737,-0.52
42,8.005,0.14000000059604645,-0.52
43,8.012,0.15000000596046448,-0.52
44,8.056,0.11999999731779099,-0.52
45,8.192,0.11999999731779099,-0.52
46,8.014,0.14000000059604645,-0.52
47,8.075,0.10000000149011612,-0.52
48,8.072,0.10999999940395355,-0.52
49,8.027,0.10000000149011612,-0.52
50,8.018,0.12999999523162842,-0.52
51,8.003,0.11999999731779099,-0.52
52,8.019,0.10000000149011612,-0.52
55,8.068,0.07999999821186066,-0.52
56,8.069,0.05000000074505806,-0.52
57,8.014,0.05000000074505806,-0.52
58,8.141,0.05999999865889549,-0.52
59,8.141,0.03999999910593033,-0.52
60,8.005,0.05000000074505806,-0.52
61,8.067,0.03999999910593033,-0.52
62,8.138,0.03999999910593033,-0.52
63,8.14,0.05999999865889549,-0.52
63,0.0,0.0,-0.52
63,0.0,0.0,-0.52
63,0.0,0.0,-0.52
63,0.0,0.0,-0.52
63,0.0,0.0,-0.52
