0,0.0,96.20999908447266,-0.54
1,0.0,97.80999755859375,-0.54
2,0.0,99.4800033569336,-0.54
3,0.0,101.80999755859375,-0.54
4,0.0,101.58999633789062,-0.54
5,0.0,98.95999908447266,-0.54
6,0.0,107.0999984741211,-0.54
7,0.0,99.45999908447266,-0.54
8,0.0,103.44000244140625,-0.54
9,0.0,103.44000244140625,-0.54
10,0.0,102.98999786376953,-0.54
11,0.0,103.9000015258789,-0.54
12,0.0,104.45999908447266,-0.54
13,0.0,102.23999786376953,-0.54
14,0.0,105.68000030517578,-0.54
15,0.0,101.69000244140625,-0.54
16,0.0,101.23999786376953,-0.54
17,0.0,109.45999908447266,-0.54
18,0.0,104.29000091552734,-0.54
19,0.0,104.02999877929688,-0.54
20,0.0,106.1500015258789,-0.54
21,0.0,101.63999938964844,-0.54
22,0.0,100.05999755859375,-0.54
23,0.0,105.75,-0.54
24,0.0,105.41000366210938,-0.54
25,0.0,102.22000122070312,-0.54
26,0.0,109.36000061035156,-0.54
27,0.0,106.16999816894531,-0.54
28,0.0,109.19000244140625,-0.54
29,0.0,104.16999816894531,-0.54
30,0.0,114.19000244140625,-0.54
31,0.0,102.33999633789062,-0.54
32,0.0,113.31999969482422,-0.54
33,0.0,107.79000091552734,-0.54
34,0.0,112.18000030517578,-0.54
35,0.0,117.7300033569336,-0.54
36,0.0,112.4000015258789,-0.54
37,0.0,116.75,-0.54
38,0.0,118.30000305175781,-0.54
39,0.0,129.9199981689453,-0.54
40,0.0,126.79000091552734,-0.54
41,0.0,121.80000305175781,-0.54
42,0.0,132.49000549316406,-0.54
43,0.0,117.20999908447266,-0.54
44,0.0,113.8499984741211,-0.54
45,0.0,119.0999984741211,-0.54
46,0.0,108.06999969482422,-0.54
47,0.0,108.83999633789062,-0.54
48,0.0,107.5999984741211,-0.54
49,0.0,96.81999969482422,-0.54
50,0.0,99.55000305175781,-0.54
51,0.0,99.43000030517578,-0.54
52,0.0,86.55999755859375,-0.54
53,0.0,85.45999908447266,-0.54
54,0.0,70.18000030517578,-0.54
55,0.0,68.0999984741211,-0.54
56,0.0,64.94000244140625,-0.54
57,0.0,62.66999816894531,-0.54
58,0.0,51.52000045776367,-0.54
59,0.0,55.189998626708984,-0.54
60,0.0,52.70000076293945,-0.54
61,0.0,50.689998626708984,-0.54
62,0.0,50.31999969482422,-0.54
63,0.0,48.15999984741211,-0.54
0,3.917,13.5600004196167,-0.54
1,3.917,13.760000228881836,-0.54
2,3.917,13.75,-0.54
3,3.917,13.449999809265137,-0.54
4,3.917,13.4399995803833,-0.54
5,3.917,13.579999923706055,-0.54
6,3.917,13.069999694824219,-0.54
7,3.917,13.539999961853027,-0.54
8,3.889,13.34000015258789,-0.54
9,3.917,13.390000343322754,-0.54
10,3.917,13.369999885559082,-0.54
11,3.917,13.4399995803833,-0.54
12,3.917,13.359999656677246,-0.54
13,3.917,13.390000343322754,-0.54
14,3.917,13.3100004196167,-0.54
15,3.917,13.59000015258789,-0.54
16,3.917,13.550000190734863,-0.54
17,3.917,13.069999694824219,-0.54
18,3.889,13.369999885559082,-0.54
19,3.917,13.369999885559082,-0.54
20,3.917,13.40999984741211,-0.54
21,3.917,13.739999771118164,-0.54
22,3.917,13.640000343322754,-0.54
23,3.889,13.470000267028809,-0.54
24,3.917,13.4399995803833,-0.54
25,3.917,13.6899995803833,-0.54
26,3.917,13.34000015258789,-0.54
27,3.917,13.600000381469727,-0.54
28,3.917,13.489999771118164,-0.54
29,3.917,13.880000114440918,-0.54
30,3.918,13.40999984741211,-0.54
31,3.917,14.09000015258789,-0.54
32,3.918,13.649999618530273,-0.54
33,3.917,13.829999923706055,-0.54
34,3.918,13.739999771118164,-0.54
35,3.889,13.350000381469727,-0.54
36,3.918,13.920000076293945,-0.54
37,3.918,13.59000015258789,-0.54
38,3.918,13.699999809265137,-0.54
39,3.918,13.229999542236328,-0.54
40,3.918,13.470000267028809,-0.54
41,3.801,14.199999809265137,-0.54
42,3.801,14.770000457763672,-0.54
43,3.8,15.0,-0.54
44,3.8,15.0,-0.54
45,3.801,15.0,-0.54
46,3.801,15.0,-0.54
47,3.8,15.0,-0.54
48,3.8,15.0,-0.54
49,3.8,15.0,-0.54
50,3.8,15.0,-0.54
51,3.8,15.0,-0.54
52,3.8,15.0,-0.54
53,3.799,15.0,-0.54
54,3.799,15.0,-0.54
55,3.799,15.0,-0.54
56,3.798,15.0,-0.54
57,3.798,15.0,-0.54
58,3.798,15.0,-0.54
59,3.798,15.0,-0.54
60,3.798,15.0,-0.54
61,3.798,15.0,-0.54
62,3.798,15.0,-0.54
63,3.798,15.0,-0.54
