0,1.337,0.4399999976158142,-0.5
1,1.326,0.4399999976158142,-0.5
2,1.326,0.44999998807907104,-0.5
3,1.337,0.44999998807907104,-0.5
4,1.337,0.4399999976158142,-0.5
5,1.326,0.4399999976158142,-0.5
6,1.337,0.4699999988079071,-0.5
7,1.337,0.46000000834465027,-0.5
8,1.337,0.4699999988079071,-0.5
9,1.337,0.4699999988079071,-0.5
10,1.337,0.49000000953674316,-0.5
11,1.337,0.4699999988079071,-0.5
12,1.326,0.5,-0.5
13,1.337,0.5099999904632568,-0.5
14,1.337,0.5299999713897705,-0.5
15,1.326,0.49000000953674316,-0.5
16,1.326,0.47999998927116394,-0.5
17,1.337,0.5199999809265137,-0.5
18,1.337,0.5,-0.5
19,1.326,0.5199999809265137,-0.5
20,1.337,0.5099999904632568,-0.5
21,1.337,0.49000000953674316,-0.5
22,1.337,0.550000011920929,-0.5
23,1.337,0.5400000214576721,-0.5
24,1.337,0.5099999904632568,-0.5
25,1.337,0.5199999809265137,-0.5
26,1.337,0.5400000214576721,-0.5
27,1.337,0.5600000023841858,-0.5
28,1.0,0.550000011920929,-0.5
29,1.0,0.6299999952316284,-0.5
30,1.0,0.5899999737739563,-0.5
31,1.0,0.7300000190734863,-0.5
32,1.0,0.6499999761581421,-0.5
33,1.0,0.7300000190734863,-0.5
34,1.0,0.7099999785423279,-0.5
35,1.0,0.7200000286102295,-0.5
36,1.0,0.8999999761581421,-0.5
37,1.0,0.9100000262260437,-0.5
38,1.0,0.9700000286102295,-0.5
39,1.006,1.0199999809265137,-0.5
40,1.006,1.1100000143051147,-0.5
41,1.006,1.2300000190734863,-0.5
42,1.006,1.2200000286102295,-0.5
43,1.006,1.340000033378601,-0.5
44,1.006,1.3600000143051147,-0.5
45,1.006,1.309999942779541,-0.5
46,1.006,1.3200000524520874,-0.5
47,1.006,1.3200000524520874,-0.5
48,1.006,1.350000023841858,-0.5
49,1.006,1.3300000429153442,-0.5
50,1.006,1.3200000524520874,-0.5
51,1.006,1.340000033378601,-0.5
52,1.006,1.3799999952316284,-0.5
53,1.006,1.4600000381469727,-0.5
54,1.006,1.5399999618530273,-0.5
55,1.006,1.4600000381469727,-0.5
56,1.006,1.4900000095367432,-0.5
57,1.006,1.5399999618530273,-0.5
58,1.006,1.5299999713897705,-0.5
59,1.018,1.559999942779541,-0.5
60,1.0,1.600000023841858,-0.5
61,1.0,1.6100000143051147,-0.5
62,1.0,1.690000057220459,-0.5
63,1.0,1.690000057220459,-0.5
0,8.191,0.09000000357627869,-0.5
1,8.098,0.09000000357627869,-0.5
2,8.006,0.07999999821186066,-0.5
3,8.015,0.10000000149011612,-0.5
4,8.007,0.07999999821186066,-0.5
5,8.0,0.10000000149011612,-0.5
7,8.19,0.10999999940395355,-0.5
8,8.008,0.09000000357627869,-0.5
9,8.015,0.07999999821186066,-0.5
10,8.179,0.09000000357627869,-0.5
11,8.182,0.09000000357627869,-0.5
12,8.045,0.09000000357627869,-0.5
13,8.096,0.09000000357627869,-0.5
14,8.194,0.09000000357627869,-0.5
15,8.108,0.09000000357627869,-0.5
16,8.117,0.09000000357627869,-0.5
19,8.212,0.09000000357627869,-0.5
20,8.252,0.10000000149011612,-0.5
21,8.002,0.10999999940395355,-0.5
22,8.22,0.11999999731779099,-0.5
23,8.21,0.09000000357627869,-0.5
24,8.101,0.09000000357627869,-0.5
25,8.224,0.10000000149011612,-0.5
26,8.056,0.10999999940395355,-0.5
27,8.196,0.10999999940395355,-0.5
28,8.246,0.10000000149011612,-0.5
29,8.003,0.12999999523162842,-0.5
30,8.063,0.10999999940395355,-0.5
31,8.182,0.12999999523162842,-0.5
32,8.037,0.10999999940395355,-0.5
33,8.204,0.11999999731779099,-0.5
34,8.028,0.10999999940395355,-0.5
35,8.006,0.10999999940395355,-0.5
36,8.015,0.1599999964237213,-0.5
37,8.005,0.14000000059604645,-0.5
38,8.03,0.12999999523162842,-0.5
39,8.072,0.10999999940395355,-0.5
40,8.059,0.11999999731779099,-0.5
41,8.016,0.18000000715255737,-0.5
42,8.005,0.14000000059604645,-0.5
43,8.012,0.15000000596046448,-0.5
44,8.056,0.11999999731779099,-0.5
45,8.192,0.11999999731779099,-0.5
46,8.014,0.14000000059604645,-0.5
47,8.075,0.10000000149011612,-0.5
48,8.072,0.10999999940395355,-0.5
49,8.027,0.10000000149011612,-0.5
50,8.018,0.12999999523162842,-0.5
51,8.003,0.11999999731779099,-0.5
52,8.019,0.10000000149011612,-0.5
55,8.068,0.07999999821186066,-0.5
56,8.069,0.05000000074505806,-0.5
57,8.014,0.05000000074505806,-0.5
58,8.141,0.05999999865889549,-0.5
59,8.141,0.03999999910593033,-0.5
60,8.005,0.05000000074505806,-0.5
61,8.067,0.03999999910593033,-0.5
62,8.138,0.03999999910593033,-0.5
63,8.14,0.05999999865889549,-0.5
63,0.0,0.0,-0.5
63,0.0,0.0,-0.5
63,0.0,0.0,-0.5
63,0.0,0.0,-0.5
63,0.0,0.0,-0.5
