0,2.562,8.539999961853027,-0.51
1,2.562,8.430000305175781,-0.51
2,2.562,8.5600004196167,-0.51
3,2.562,8.680000305175781,-0.51
4,2.562,8.75,-0.51
5,2.562,8.609999656677246,-0.51
6,2.562,9.050000190734863,-0.51
7,2.562,8.739999771118164,-0.51
8,2.562,8.949999809265137,-0.51
9,2.562,8.9399995803833,-0.51
10,2.562,8.9399995803833,-0.51
11,2.562,8.979999542236328,-0.51
12,2.562,9.029999732971191,-0.51
13,2.562,9.029999732971191,-0.51
14,2.562,9.229999542236328,-0.51
15,2.562,9.029999732971191,-0.51
16,2.562,9.020000457763672,-0.51
17,2.562,9.369999885559082,-0.51
18,2.562,9.15999984741211,-0.51
19,2.562,9.210000038146973,-0.51
20,2.562,9.270000457763672,-0.51
21,2.562,9.140000343322754,-0.51
22,2.562,9.119999885559082,-0.51
23,2.562,9.369999885559082,-0.51
24,2.562,9.329999923706055,-0.51
25,2.562,9.1899995803833,-0.51
26,2.562,9.579999923706055,-0.51
27,2.562,9.569999694824219,-0.51
28,2.562,9.670000076293945,-0.51
29,2.562,9.569999694824219,-0.51
30,2.562,9.90999984741211,-0.51
31,2.562,9.579999923706055,-0.51
32,2.562,9.979999542236328,-0.51
33,2.562,9.949999809265137,-0.51
34,2.562,10.079999923706055,-0.51
35,2.562,10.359999656677246,-0.51
36,2.562,10.1899995803833,-0.51
37,2.562,10.479999542236328,-0.51
38,2.562,10.59000015258789,-0.51
39,2.562,11.180000305175781,-0.51
40,2.562,11.170000076293945,-0.51
41,2.562,11.0600004196167,-0.51
42,2.562,11.609999656677246,-0.51
43,2.562,10.770000457763672,-0.51
44,2.561,10.40999984741211,-0.51
45,2.562,10.40999984741211,-0.51
46,2.562,9.760000228881836,-0.51
47,2.561,9.529999732971191,-0.51
48,2.561,9.460000038146973,-0.51
49,2.561,8.75,-0.51
50,2.561,8.760000228881836,-0.51
51,2.561,8.619999885559082,-0.51
52,2.561,7.599999904632568,-0.51
53,2.561,7.25,-0.51
54,2.561,6.239999771118164,-0.51
55,2.561,5.880000114440918,-0.51
56,2.561,5.679999828338623,-0.51
57,2.561,5.380000114440918,-0.51
58,2.561,4.710000038146973,-0.51
59,2.561,4.739999771118164,-0.51
60,2.561,4.550000190734863,-0.51
61,2.561,4.360000133514404,-0.51
62,2.561,4.260000228881836,-0.51
63,2.561,4.059999942779541,-0.51
0,3.917,13.5600004196167,-0.51
1,3.917,13.760000228881836,-0.51
2,3.917,13.75,-0.51
3,3.917,13.449999809265137,-0.51
4,3.917,13.4399995803833,-0.51
5,3.917,13.579999923706055,-0.51
6,3.917,13.069999694824219,-0.51
7,3.917,13.539999961853027,-0.51
8,3.889,13.34000015258789,-0.51
9,3.917,13.390000343322754,-0.51
10,3.917,13.369999885559082,-0.51
11,3.917,13.4399995803833,-0.51
12,3.917,13.359999656677246,-0.51
13,3.917,13.390000343322754,-0.51
14,3.917,13.3100004196167,-0.51
15,3.917,13.59000015258789,-0.51
16,3.917,13.550000190734863,-0.51
17,3.917,13.069999694824219,-0.51
18,3.889,13.369999885559082,-0.51
19,3.917,13.369999885559082,-0.51
20,3.917,13.40999984741211,-0.51
21,3.917,13.739999771118164,-0.51
22,3.917,13.640000343322754,-0.51
23,3.889,13.470000267028809,-0.51
24,3.917,13.4399995803833,-0.51
25,3.917,13.6899995803833,-0.51
26,3.917,13.34000015258789,-0.51
27,3.917,13.600000381469727,-0.51
28,3.917,13.489999771118164,-0.51
29,3.917,13.880000114440918,-0.51
30,3.918,13.40999984741211,-0.51
31,3.917,14.09000015258789,-0.51
32,3.918,13.649999618530273,-0.51
33,3.917,13.829999923706055,-0.51
34,3.918,13.739999771118164,-0.51
35,3.889,13.350000381469727,-0.51
36,3.918,13.920000076293945,-0.51
37,3.918,13.59000015258789,-0.51
38,3.918,13.699999809265137,-0.51
39,3.918,13.229999542236328,-0.51
40,3.918,13.470000267028809,-0.51
41,3.801,14.199999809265137,-0.51
42,3.801,14.770000457763672,-0.51
43,3.8,15.0,-0.51
44,3.8,15.0,-0.51
45,3.801,15.0,-0.51
46,3.801,15.0,-0.51
47,3.8,15.0,-0.51
48,3.8,15.0,-0.51
49,3.8,15.0,-0.51
50,3.8,15.0,-0.51
51,3.8,15.0,-0.51
52,3.8,15.0,-0.51
53,3.799,15.0,-0.51
54,3.799,15.0,-0.51
55,3.799,15.0,-0.51
56,3.798,15.0,-0.51
57,3.798,15.0,-0.51
58,3.798,15.0,-0.51
59,3.798,15.0,-0.51
60,3.798,15.0,-0.51
61,3.798,15.0,-0.51
62,3.798,15.0,-0.51
63,3.798,15.0,-0.51
