0,1.337,0.4399999976158142,-0.84
1,1.326,0.4399999976158142,-0.84
2,1.326,0.44999998807907104,-0.84
3,1.337,0.44999998807907104,-0.84
4,1.337,0.4399999976158142,-0.84
5,1.326,0.4399999976158142,-0.84
6,1.337,0.4699999988079071,-0.84
7,1.337,0.46000000834465027,-0.84
8,1.337,0.4699999988079071,-0.84
9,1.337,0.4699999988079071,-0.84
10,1.337,0.49000000953674316,-0.84
11,1.337,0.4699999988079071,-0.84
12,1.326,0.5,-0.84
13,1.337,0.5099999904632568,-0.84
14,1.337,0.5299999713897705,-0.84
15,1.326,0.49000000953674316,-0.84
16,1.326,0.47999998927116394,-0.84
17,1.337,0.5199999809265137,-0.84
18,1.337,0.5,-0.84
19,1.326,0.5199999809265137,-0.84
20,1.337,0.5099999904632568,-0.84
21,1.337,0.49000000953674316,-0.84
22,1.337,0.550000011920929,-0.84
23,1.337,0.5400000214576721,-0.84
24,1.337,0.5099999904632568,-0.84
25,1.337,0.5199999809265137,-0.84
26,1.337,0.5400000214576721,-0.84
27,1.337,0.5600000023841858,-0.84
28,1.0,0.550000011920929,-0.84
29,1.0,0.6299999952316284,-0.84
30,1.0,0.5899999737739563,-0.84
31,1.0,0.7300000190734863,-0.84
32,1.0,0.6499999761581421,-0.84
33,1.0,0.7300000190734863,-0.84
34,1.0,0.7099999785423279,-0.84
35,1.0,0.7200000286102295,-0.84
36,1.0,0.8999999761581421,-0.84
37,1.0,0.9100000262260437,-0.84
38,1.0,0.9700000286102295,-0.84
39,1.006,1.0199999809265137,-0.84
40,1.006,1.1100000143051147,-0.84
41,1.006,1.2300000190734863,-0.84
42,1.006,1.2200000286102295,-0.84
43,1.006,1.340000033378601,-0.84
44,1.006,1.3600000143051147,-0.84
45,1.006,1.309999942779541,-0.84
46,1.006,1.3200000524520874,-0.84
47,1.006,1.3200000524520874,-0.84
48,1.006,1.350000023841858,-0.84
49,1.006,1.3300000429153442,-0.84
50,1.006,1.3200000524520874,-0.84
51,1.006,1.340000033378601,-0.84
52,1.006,1.3799999952316284,-0.84
53,1.006,1.4600000381469727,-0.84
54,1.006,1.5399999618530273,-0.84
55,1.006,1.4600000381469727,-0.84
56,1.006,1.4900000095367432,-0.84
57,1.006,1.5399999618530273,-0.84
58,1.006,1.5299999713897705,-0.84
59,1.018,1.559999942779541,-0.84
60,1.0,1.600000023841858,-0.84
61,1.0,1.6100000143051147,-0.84
62,1.0,1.690000057220459,-0.84
63,1.0,1.690000057220459,-0.84
0,6.896,15.0,-0.84
1,6.896,15.0,-0.84
2,6.896,15.0,-0.84
3,6.896,15.0,-0.84
4,6.896,15.0,-0.84
5,6.896,15.0,-0.84
6,6.896,15.0,-0.84
7,6.896,15.0,-0.84
8,6.896,15.0,-0.84
9,6.896,15.0,-0.84
10,6.896,15.0,-0.84
11,6.896,15.0,-0.84
12,6.896,15.0,-0.84
13,6.896,15.0,-0.84
14,6.896,15.0,-0.84
15,6.896,15.0,-0.84
16,6.896,15.0,-0.84
17,6.896,15.0,-0.84
18,6.896,15.0,-0.84
19,6.896,15.0,-0.84
20,6.897,15.0,-0.84
21,6.897,15.0,-0.84
22,6.897,15.0,-0.84
23,6.896,15.0,-0.84
24,6.897,15.0,-0.84
25,6.897,15.0,-0.84
26,6.896,15.0,-0.84
27,6.896,15.0,-0.84
28,6.896,15.0,-0.84
29,6.897,15.0,-0.84
30,6.897,15.0,-0.84
31,6.897,15.0,-0.84
32,6.897,15.0,-0.84
33,6.897,15.0,-0.84
34,6.897,15.0,-0.84
35,6.896,15.0,-0.84
36,6.897,15.0,-0.84
37,6.897,15.0,-0.84
38,6.897,15.0,-0.84
39,6.897,15.0,-0.84
40,6.897,15.0,-0.84
41,6.897,15.0,-0.84
42,6.897,15.0,-0.84
43,6.897,14.199999809265137,-0.84
44,6.897,13.470000267028809,-0.84
45,6.897,12.949999809265137,-0.84
46,6.897,12.199999809265137,-0.84
47,6.897,11.619999885559082,-0.84
48,6.897,11.229999542236328,-0.84
49,6.897,10.5600004196167,-0.84
50,6.897,10.359999656677246,-0.84
51,6.896,9.949999809265137,-0.84
52,6.896,8.319999694824219,-0.84
53,6.896,7.349999904632568,-0.84
54,6.896,6.199999809265137,-0.84
55,6.896,5.480000019073486,-0.84
56,6.896,4.71999979019165,-0.84
57,6.896,4.239999771118164,-0.84
58,6.877,3.940000057220459,-0.84
59,6.877,4.0,-0.84
60,6.877,4.079999923706055,-0.84
61,6.877,4.110000133514404,-0.84
62,6.877,4.159999847412109,-0.84
63,6.878,4.159999847412109,-0.84
