0,4.686,4.619999885559082,0.12
1,4.702,0.7599999904632568,0.12
2,4.02,0.800000011920929,0.12
3,4.02,0.8500000238418579,0.12
4,4.02,0.8700000047683716,0.12
5,4.02,1.0299999713897705,0.12
6,4.02,0.9100000262260437,0.12
7,4.02,1.0399999618530273,0.12
8,4.02,1.0,0.12
9,4.02,1.059999942779541,0.12
10,4.02,1.059999942779541,0.12
11,4.02,1.1200000047683716,0.12
12,4.02,1.1799999475479126,0.12
13,4.02,1.1100000143051147,0.12
14,4.02,1.1100000143051147,0.12
15,4.02,1.2400000095367432,0.12
16,4.02,1.2300000190734863,0.12
17,4.02,1.1200000047683716,0.12
18,4.02,1.2300000190734863,0.12
19,4.02,1.2200000286102295,0.12
20,4.021,1.2699999809265137,0.12
21,4.02,1.2699999809265137,0.12
22,4.02,1.3600000143051147,0.12
23,4.02,1.2100000381469727,0.12
24,4.02,1.3600000143051147,0.12
25,4.021,1.3600000143051147,0.12
26,4.02,1.340000033378601,0.12
27,4.02,1.350000023841858,0.12
28,4.02,1.2300000190734863,0.12
29,4.02,1.350000023841858,0.12
30,4.02,1.2799999713897705,0.12
31,4.02,1.4199999570846558,0.12
32,4.021,1.3300000429153442,0.12
33,4.02,1.350000023841858,0.12
34,4.02,1.3300000429153442,0.12
35,4.02,1.2799999713897705,0.12
36,4.692,21.780000686645508,0.12
37,4.692,15.279999732971191,0.12
38,4.691,14.489999771118164,0.12
39,4.691,14.210000038146973,0.12
40,4.691,17.260000228881836,0.12
41,4.692,18.25,0.12
42,4.691,21.309999465942383,0.12
43,4.692,31.829999923706055,0.12
44,4.692,25.489999771118164,0.12
45,4.692,26.479999542236328,0.12
46,4.692,14.960000038146973,0.12
47,4.692,21.020000457763672,0.12
48,4.691,18.700000762939453,0.12
49,4.692,18.770000457763672,0.12
50,4.692,14.010000228881836,0.12
51,4.691,7.940000057220459,0.12
52,4.021,1.2000000476837158,0.12
53,4.021,1.2300000190734863,0.12
54,4.021,1.1399999856948853,0.12
55,4.021,1.25,0.12
56,4.02,1.0800000429153442,0.12
57,4.02,1.090000033378601,0.12
58,4.02,1.090000033378601,0.12
59,4.02,1.0499999523162842,0.12
60,4.02,1.0199999809265137,0.12
61,4.02,0.9800000190734863,0.12
62,4.02,0.9200000166893005,0.12
63,4.021,0.949999988079071,0.12
0,7.161,14.069999694824219,0.12
1,7.161,14.149999618530273,0.12
2,7.162,14.09000015258789,0.12
3,7.161,13.979999542236328,0.12
4,7.162,13.800000190734863,0.12
5,7.161,13.90999984741211,0.12
6,7.162,13.510000228881836,0.12
7,7.162,13.989999771118164,0.12
8,7.162,13.789999961853027,0.12
9,7.162,13.8100004196167,0.12
10,7.162,13.829999923706055,0.12
11,7.162,13.729999542236328,0.12
12,7.162,13.59000015258789,0.12
13,7.162,13.930000305175781,0.12
14,7.162,13.779999732971191,0.12
15,7.162,13.890000343322754,0.12
16,7.162,13.979999542236328,0.12
17,7.162,13.520000457763672,0.12
18,7.162,13.800000190734863,0.12
19,7.162,13.75,0.12
20,7.162,13.619999885559082,0.12
21,7.162,13.989999771118164,0.12
22,7.162,13.949999809265137,0.12
23,7.162,13.930000305175781,0.12
24,7.162,13.630000114440918,0.12
25,7.162,13.979999542236328,0.12
26,7.162,13.510000228881836,0.12
27,7.162,13.970000267028809,0.12
28,7.162,14.010000228881836,0.12
29,7.162,14.210000038146973,0.12
30,7.162,13.65999984741211,0.12
31,7.162,14.4399995803833,0.12
32,7.162,13.869999885559082,0.12
33,7.162,14.180000305175781,0.12
34,7.162,14.0,0.12
35,7.162,13.890000343322754,0.12
36,7.162,14.300000190734863,0.12
37,7.162,13.970000267028809,0.12
38,7.162,13.90999984741211,0.12
39,7.162,13.579999923706055,0.12
40,7.162,13.859999656677246,0.12
41,7.162,14.140000343322754,0.12
42,7.162,13.779999732971191,0.12
43,7.162,13.630000114440918,0.12
44,7.162,12.869999885559082,0.12
45,7.162,11.960000038146973,0.12
46,7.162,11.539999961853027,0.12
47,7.162,10.920000076293945,0.12
48,7.162,10.510000228881836,0.12
49,7.162,10.050000190734863,0.12
50,7.162,9.510000228881836,0.12
51,7.162,9.239999771118164,0.12
52,7.162,7.78000020980835,0.12
53,7.162,6.639999866485596,0.12
54,7.161,6.309999942779541,0.12
55,7.161,4.960000038146973,0.12
56,7.161,4.75,0.12
57,7.161,4.199999809265137,0.12
58,7.161,3.8499999046325684,0.12
59,7.161,3.4000000953674316,0.12
60,7.167,3.380000114440918,0.12
61,7.167,3.4000000953674316,0.12
62,7.167,3.4100000858306885,0.12
63,7.167,3.5199999809265137,0.12
