0,3.917,13.5600004196167,0.39
1,3.917,13.760000228881836,0.39
2,3.917,13.75,0.39
3,3.917,13.449999809265137,0.39
4,3.917,13.4399995803833,0.39
5,3.917,13.579999923706055,0.39
6,3.917,13.069999694824219,0.39
7,3.917,13.539999961853027,0.39
8,3.889,13.34000015258789,0.39
9,3.917,13.390000343322754,0.39
10,3.917,13.369999885559082,0.39
11,3.917,13.4399995803833,0.39
12,3.917,13.359999656677246,0.39
13,3.917,13.390000343322754,0.39
14,3.917,13.3100004196167,0.39
15,3.917,13.59000015258789,0.39
16,3.917,13.550000190734863,0.39
17,3.917,13.069999694824219,0.39
18,3.889,13.369999885559082,0.39
19,3.917,13.369999885559082,0.39
20,3.917,13.40999984741211,0.39
21,3.917,13.739999771118164,0.39
22,3.917,13.640000343322754,0.39
23,3.889,13.470000267028809,0.39
24,3.917,13.4399995803833,0.39
25,3.917,13.6899995803833,0.39
26,3.917,13.34000015258789,0.39
27,3.917,13.600000381469727,0.39
28,3.917,13.489999771118164,0.39
29,3.917,13.880000114440918,0.39
30,3.918,13.40999984741211,0.39
31,3.917,14.09000015258789,0.39
32,3.918,13.649999618530273,0.39
33,3.917,13.829999923706055,0.39
34,3.918,13.739999771118164,0.39
35,3.889,13.350000381469727,0.39
36,3.918,13.920000076293945,0.39
37,3.918,13.59000015258789,0.39
38,3.918,13.699999809265137,0.39
39,3.918,13.229999542236328,0.39
40,3.918,13.470000267028809,0.39
41,3.801,14.199999809265137,0.39
42,3.801,14.770000457763672,0.39
43,3.8,15.0,0.39
44,3.8,15.0,0.39
45,3.801,15.0,0.39
46,3.801,15.0,0.39
47,3.8,15.0,0.39
48,3.8,15.0,0.39
49,3.8,15.0,0.39
50,3.8,15.0,0.39
51,3.8,15.0,0.39
52,3.8,15.0,0.39
53,3.799,15.0,0.39
54,3.799,15.0,0.39
55,3.799,15.0,0.39
56,3.798,15.0,0.39
57,3.798,15.0,0.39
58,3.798,15.0,0.39
59,3.798,15.0,0.39
60,3.798,15.0,0.39
61,3.798,15.0,0.39
62,3.798,15.0,0.39
63,3.798,15.0,0.39
0,4.686,4.619999885559082,0.39
1,4.702,0.7599999904632568,0.39
2,4.02,0.800000011920929,0.39
3,4.02,0.8500000238418579,0.39
4,4.02,0.8700000047683716,0.39
5,4.02,1.0299999713897705,0.39
6,4.02,0.9100000262260437,0.39
7,4.02,1.0399999618530273,0.39
8,4.02,1.0,0.39
9,4.02,1.059999942779541,0.39
10,4.02,1.059999942779541,0.39
11,4.02,1.1200000047683716,0.39
12,4.02,1.1799999475479126,0.39
13,4.02,1.1100000143051147,0.39
14,4.02,1.1100000143051147,0.39
15,4.02,1.2400000095367432,0.39
16,4.02,1.2300000190734863,0.39
17,4.02,1.1200000047683716,0.39
18,4.02,1.2300000190734863,0.39
19,4.02,1.2200000286102295,0.39
20,4.021,1.2699999809265137,0.39
21,4.02,1.2699999809265137,0.39
22,4.02,1.3600000143051147,0.39
23,4.02,1.2100000381469727,0.39
24,4.02,1.3600000143051147,0.39
25,4.021,1.3600000143051147,0.39
26,4.02,1.340000033378601,0.39
27,4.02,1.350000023841858,0.39
28,4.02,1.2300000190734863,0.39
29,4.02,1.350000023841858,0.39
30,4.02,1.2799999713897705,0.39
31,4.02,1.4199999570846558,0.39
32,4.021,1.3300000429153442,0.39
33,4.02,1.350000023841858,0.39
34,4.02,1.3300000429153442,0.39
35,4.02,1.2799999713897705,0.39
36,4.692,21.780000686645508,0.39
37,4.692,15.279999732971191,0.39
38,4.691,14.489999771118164,0.39
39,4.691,14.210000038146973,0.39
40,4.691,17.260000228881836,0.39
41,4.692,18.25,0.39
42,4.691,21.309999465942383,0.39
43,4.692,31.829999923706055,0.39
44,4.692,25.489999771118164,0.39
45,4.692,26.479999542236328,0.39
46,4.692,14.960000038146973,0.39
47,4.692,21.020000457763672,0.39
48,4.691,18.700000762939453,0.39
49,4.692,18.770000457763672,0.39
50,4.692,14.010000228881836,0.39
51,4.691,7.940000057220459,0.39
52,4.021,1.2000000476837158,0.39
53,4.021,1.2300000190734863,0.39
54,4.021,1.1399999856948853,0.39
55,4.021,1.25,0.39
56,4.02,1.0800000429153442,0.39
57,4.02,1.090000033378601,0.39
58,4.02,1.090000033378601,0.39
59,4.02,1.0499999523162842,0.39
60,4.02,1.0199999809265137,0.39
61,4.02,0.9800000190734863,0.39
62,4.02,0.9200000166893005,0.39
63,4.021,0.949999988079071,0.39
