0,1.337,0.4399999976158142,0.4
1,1.326,0.4399999976158142,0.4
2,1.326,0.44999998807907104,0.4
3,1.337,0.44999998807907104,0.4
4,1.337,0.4399999976158142,0.4
5,1.326,0.4399999976158142,0.4
6,1.337,0.4699999988079071,0.4
7,1.337,0.46000000834465027,0.4
8,1.337,0.4699999988079071,0.4
9,1.337,0.4699999988079071,0.4
10,1.337,0.49000000953674316,0.4
11,1.337,0.4699999988079071,0.4
12,1.326,0.5,0.4
13,1.337,0.5099999904632568,0.4
14,1.337,0.5299999713897705,0.4
15,1.326,0.49000000953674316,0.4
16,1.326,0.47999998927116394,0.4
17,1.337,0.5199999809265137,0.4
18,1.337,0.5,0.4
19,1.326,0.5199999809265137,0.4
20,1.337,0.5099999904632568,0.4
21,1.337,0.49000000953674316,0.4
22,1.337,0.550000011920929,0.4
23,1.337,0.5400000214576721,0.4
24,1.337,0.5099999904632568,0.4
25,1.337,0.5199999809265137,0.4
26,1.337,0.5400000214576721,0.4
27,1.337,0.5600000023841858,0.4
28,1.0,0.550000011920929,0.4
29,1.0,0.6299999952316284,0.4
30,1.0,0.5899999737739563,0.4
31,1.0,0.7300000190734863,0.4
32,1.0,0.6499999761581421,0.4
33,1.0,0.7300000190734863,0.4
34,1.0,0.7099999785423279,0.4
35,1.0,0.7200000286102295,0.4
36,1.0,0.8999999761581421,0.4
37,1.0,0.9100000262260437,0.4
38,1.0,0.9700000286102295,0.4
39,1.006,1.0199999809265137,0.4
40,1.006,1.1100000143051147,0.4
41,1.006,1.2300000190734863,0.4
42,1.006,1.2200000286102295,0.4
43,1.006,1.340000033378601,0.4
44,1.006,1.3600000143051147,0.4
45,1.006,1.309999942779541,0.4
46,1.006,1.3200000524520874,0.4
47,1.006,1.3200000524520874,0.4
48,1.006,1.350000023841858,0.4
49,1.006,1.3300000429153442,0.4
50,1.006,1.3200000524520874,0.4
51,1.006,1.340000033378601,0.4
52,1.006,1.3799999952316284,0.4
53,1.006,1.4600000381469727,0.4
54,1.006,1.5399999618530273,0.4
55,1.006,1.4600000381469727,0.4
56,1.006,1.4900000095367432,0.4
57,1.006,1.5399999618530273,0.4
58,1.006,1.5299999713897705,0.4
59,1.018,1.559999942779541,0.4
60,1.0,1.600000023841858,0.4
61,1.0,1.6100000143051147,0.4
62,1.0,1.690000057220459,0.4
63,1.0,1.690000057220459,0.4
0,4.686,4.619999885559082,0.4
1,4.702,0.7599999904632568,0.4
2,4.02,0.800000011920929,0.4
3,4.02,0.8500000238418579,0.4
4,4.02,0.8700000047683716,0.4
5,4.02,1.0299999713897705,0.4
6,4.02,0.9100000262260437,0.4
7,4.02,1.0399999618530273,0.4
8,4.02,1.0,0.4
9,4.02,1.059999942779541,0.4
10,4.02,1.059999942779541,0.4
11,4.02,1.1200000047683716,0.4
12,4.02,1.1799999475479126,0.4
13,4.02,1.1100000143051147,0.4
14,4.02,1.1100000143051147,0.4
15,4.02,1.2400000095367432,0.4
16,4.02,1.2300000190734863,0.4
17,4.02,1.1200000047683716,0.4
18,4.02,1.2300000190734863,0.4
19,4.02,1.2200000286102295,0.4
20,4.021,1.2699999809265137,0.4
21,4.02,1.2699999809265137,0.4
22,4.02,1.3600000143051147,0.4
23,4.02,1.2100000381469727,0.4
24,4.02,1.3600000143051147,0.4
25,4.021,1.3600000143051147,0.4
26,4.02,1.340000033378601,0.4
27,4.02,1.350000023841858,0.4
28,4.02,1.2300000190734863,0.4
29,4.02,1.350000023841858,0.4
30,4.02,1.2799999713897705,0.4
31,4.02,1.4199999570846558,0.4
32,4.021,1.3300000429153442,0.4
33,4.02,1.350000023841858,0.4
34,4.02,1.3300000429153442,0.4
35,4.02,1.2799999713897705,0.4
36,4.692,21.780000686645508,0.4
37,4.692,15.279999732971191,0.4
38,4.691,14.489999771118164,0.4
39,4.691,14.210000038146973,0.4
40,4.691,17.260000228881836,0.4
41,4.692,18.25,0.4
42,4.691,21.309999465942383,0.4
43,4.692,31.829999923706055,0.4
44,4.692,25.489999771118164,0.4
45,4.692,26.479999542236328,0.4
46,4.692,14.960000038146973,0.4
47,4.692,21.020000457763672,0.4
48,4.691,18.700000762939453,0.4
49,4.692,18.770000457763672,0.4
50,4.692,14.010000228881836,0.4
51,4.691,7.940000057220459,0.4
52,4.021,1.2000000476837158,0.4
53,4.021,1.2300000190734863,0.4
54,4.021,1.1399999856948853,0.4
55,4.021,1.25,0.4
56,4.02,1.0800000429153442,0.4
57,4.02,1.090000033378601,0.4
58,4.02,1.090000033378601,0.4
59,4.02,1.0499999523162842,0.4
60,4.02,1.0199999809265137,0.4
61,4.02,0.9800000190734863,0.4
62,4.02,0.9200000166893005,0.4
63,4.021,0.949999988079071,0.4
