0,8.191,0.09000000357627869,0.75
1,8.098,0.09000000357627869,0.75
2,8.006,0.07999999821186066,0.75
3,8.015,0.10000000149011612,0.75
4,8.007,0.07999999821186066,0.75
5,8.0,0.10000000149011612,0.75
7,8.19,0.10999999940395355,0.75
8,8.008,0.09000000357627869,0.75
9,8.015,0.07999999821186066,0.75
10,8.179,0.09000000357627869,0.75
11,8.182,0.09000000357627869,0.75
12,8.045,0.09000000357627869,0.75
13,8.096,0.09000000357627869,0.75
14,8.194,0.09000000357627869,0.75
15,8.108,0.09000000357627869,0.75
16,8.117,0.09000000357627869,0.75
19,8.212,0.09000000357627869,0.75
20,8.252,0.10000000149011612,0.75
21,8.002,0.10999999940395355,0.75
22,8.22,0.11999999731779099,0.75
23,8.21,0.09000000357627869,0.75
24,8.101,0.09000000357627869,0.75
25,8.224,0.10000000149011612,0.75
26,8.056,0.10999999940395355,0.75
27,8.196,0.10999999940395355,0.75
28,8.246,0.10000000149011612,0.75
29,8.003,0.12999999523162842,0.75
30,8.063,0.10999999940395355,0.75
31,8.182,0.12999999523162842,0.75
32,8.037,0.10999999940395355,0.75
33,8.204,0.11999999731779099,0.75
34,8.028,0.10999999940395355,0.75
35,8.006,0.10999999940395355,0.75
36,8.015,0.1599999964237213,0.75
37,8.005,0.14000000059604645,0.75
38,8.03,0.12999999523162842,0.75
39,8.072,0.10999999940395355,0.75
40,8.059,0.11999999731779099,0.75
41,8.016,0.18000000715255737,0.75
42,8.005,0.14000000059604645,0.75
43,8.012,0.15000000596046448,0.75
44,8.056,0.11999999731779099,0.75
45,8.192,0.11999999731779099,0.75
46,8.014,0.14000000059604645,0.75
47,8.075,0.10000000149011612,0.75
48,8.072,0.10999999940395355,0.75
49,8.027,0.10000000149011612,0.75
50,8.018,0.12999999523162842,0.75
51,8.003,0.11999999731779099,0.75
52,8.019,0.10000000149011612,0.75
55,8.068,0.07999999821186066,0.75
56,8.069,0.05000000074505806,0.75
57,8.014,0.05000000074505806,0.75
58,8.141,0.05999999865889549,0.75
59,8.141,0.03999999910593033,0.75
60,8.005,0.05000000074505806,0.75
61,8.067,0.03999999910593033,0.75
62,8.138,0.03999999910593033,0.75
63,8.14,0.05999999865889549,0.75
63,0.0,0.0,0.75
63,0.0,0.0,0.75
63,0.0,0.0,0.75
63,0.0,0.0,0.75
63,0.0,0.0,0.75
0,10.507,0.12999999523162842,0.75
1,10.639,0.12999999523162842,0.75
2,10.668,0.12999999523162842,0.75
3,10.588,0.12999999523162842,0.75
4,10.625,0.10999999940395355,0.75
5,10.59,0.12999999523162842,0.75
6,10.525,0.10999999940395355,0.75
7,10.653,0.11999999731779099,0.75
8,10.69,0.14000000059604645,0.75
9,10.594,0.12999999523162842,0.75
10,10.65,0.14000000059604645,0.75
11,10.557,0.11999999731779099,0.75
12,10.572,0.11999999731779099,0.75
13,10.666,0.12999999523162842,0.75
14,10.68,0.12999999523162842,0.75
15,10.66,0.12999999523162842,0.75
16,10.619,0.12999999523162842,0.75
17,10.684,0.14000000059604645,0.75
18,10.631,0.11999999731779099,0.75
19,10.51,0.11999999731779099,0.75
20,10.625,0.11999999731779099,0.75
21,10.58,0.12999999523162842,0.75
22,10.542,0.11999999731779099,0.75
23,10.689,0.14000000059604645,0.75
24,10.605,0.10999999940395355,0.75
25,10.572,0.12999999523162842,0.75
26,10.575,0.11999999731779099,0.75
27,10.608,0.12999999523162842,0.75
28,10.671,0.15000000596046448,0.75
29,10.513,0.12999999523162842,0.75
30,10.528,0.12999999523162842,0.75
31,10.589,0.15000000596046448,0.75
32,10.573,0.12999999523162842,0.75
33,10.577,0.14000000059604645,0.75
34,10.605,0.15000000596046448,0.75
35,10.674,0.15000000596046448,0.75
36,10.58,0.15000000596046448,0.75
37,10.57,0.14000000059604645,0.75
38,10.529,0.15000000596046448,0.75
39,10.494,0.11999999731779099,0.75
40,10.597,0.14000000059604645,0.75
41,10.52,0.14000000059604645,0.75
42,10.57,0.12999999523162842,0.75
43,10.662,0.15000000596046448,0.75
44,10.571,0.1599999964237213,0.75
45,10.62,0.12999999523162842,0.75
46,10.55,0.14000000059604645,0.75
47,10.655,0.10999999940395355,0.75
48,10.652,0.11999999731779099,0.75
49,10.528,0.10999999940395355,0.75
50,10.606,0.11999999731779099,0.75
51,10.647,0.10999999940395355,0.75
52,10.517,0.09000000357627869,0.75
54,10.685,0.12999999523162842,0.75
55,10.616,0.07999999821186066,0.75
56,10.687,0.10999999940395355,0.75
57,10.688,0.10000000149011612,0.75
58,10.69,0.10999999940395355,0.75
59,10.686,0.07999999821186066,0.75
60,10.692,0.09000000357627869,0.75
61,10.672,0.07999999821186066,0.75
62,10.691,0.09000000357627869,0.75
63,10.646,0.05000000074505806,0.75
63,0.0,0.0,0.75
