0,6.896,15.0,0.75
1,6.896,15.0,0.75
2,6.896,15.0,0.75
3,6.896,15.0,0.75
4,6.896,15.0,0.75
5,6.896,15.0,0.75
6,6.896,15.0,0.75
7,6.896,15.0,0.75
8,6.896,15.0,0.75
9,6.896,15.0,0.75
10,6.896,15.0,0.75
11,6.896,15.0,0.75
12,6.896,15.0,0.75
13,6.896,15.0,0.75
14,6.896,15.0,0.75
15,6.896,15.0,0.75
16,6.896,15.0,0.75
17,6.896,15.0,0.75
18,6.896,15.0,0.75
19,6.896,15.0,0.75
20,6.897,15.0,0.75
21,6.897,15.0,0.75
22,6.897,15.0,0.75
23,6.896,15.0,0.75
24,6.897,15.0,0.75
25,6.897,15.0,0.75
26,6.896,15.0,0.75
27,6.896,15.0,0.75
28,6.896,15.0,0.75
29,6.897,15.0,0.75
30,6.897,15.0,0.75
31,6.897,15.0,0.75
32,6.897,15.0,0.75
33,6.897,15.0,0.75
34,6.897,15.0,0.75
35,6.896,15.0,0.75
36,6.897,15.0,0.75
37,6.897,15.0,0.75
38,6.897,15.0,0.75
39,6.897,15.0,0.75
40,6.897,15.0,0.75
41,6.897,15.0,0.75
42,6.897,15.0,0.75
43,6.897,14.199999809265137,0.75
44,6.897,13.470000267028809,0.75
45,6.897,12.949999809265137,0.75
46,6.897,12.199999809265137,0.75
47,6.897,11.619999885559082,0.75
48,6.897,11.229999542236328,0.75
49,6.897,10.5600004196167,0.75
50,6.897,10.359999656677246,0.75
51,6.896,9.949999809265137,0.75
52,6.896,8.319999694824219,0.75
53,6.896,7.349999904632568,0.75
54,6.896,6.199999809265137,0.75
55,6.896,5.480000019073486,0.75
56,6.896,4.71999979019165,0.75
57,6.896,4.239999771118164,0.75
58,6.877,3.940000057220459,0.75
59,6.877,4.0,0.75
60,6.877,4.079999923706055,0.75
61,6.877,4.110000133514404,0.75
62,6.877,4.159999847412109,0.75
63,6.878,4.159999847412109,0.75
0,10.507,0.12999999523162842,0.75
1,10.639,0.12999999523162842,0.75
2,10.668,0.12999999523162842,0.75
3,10.588,0.12999999523162842,0.75
4,10.625,0.10999999940395355,0.75
5,10.59,0.12999999523162842,0.75
6,10.525,0.10999999940395355,0.75
7,10.653,0.11999999731779099,0.75
8,10.69,0.14000000059604645,0.75
9,10.594,0.12999999523162842,0.75
10,10.65,0.14000000059604645,0.75
11,10.557,0.11999999731779099,0.75
12,10.572,0.11999999731779099,0.75
13,10.666,0.12999999523162842,0.75
14,10.68,0.12999999523162842,0.75
15,10.66,0.12999999523162842,0.75
16,10.619,0.12999999523162842,0.75
17,10.684,0.14000000059604645,0.75
18,10.631,0.11999999731779099,0.75
19,10.51,0.11999999731779099,0.75
20,10.625,0.11999999731779099,0.75
21,10.58,0.12999999523162842,0.75
22,10.542,0.11999999731779099,0.75
23,10.689,0.14000000059604645,0.75
24,10.605,0.10999999940395355,0.75
25,10.572,0.12999999523162842,0.75
26,10.575,0.11999999731779099,0.75
27,10.608,0.12999999523162842,0.75
28,10.671,0.15000000596046448,0.75
29,10.513,0.12999999523162842,0.75
30,10.528,0.12999999523162842,0.75
31,10.589,0.15000000596046448,0.75
32,10.573,0.12999999523162842,0.75
33,10.577,0.14000000059604645,0.75
34,10.605,0.15000000596046448,0.75
35,10.674,0.15000000596046448,0.75
36,10.58,0.15000000596046448,0.75
37,10.57,0.14000000059604645,0.75
38,10.529,0.15000000596046448,0.75
39,10.494,0.11999999731779099,0.75
40,10.597,0.14000000059604645,0.75
41,10.52,0.14000000059604645,0.75
42,10.57,0.12999999523162842,0.75
43,10.662,0.15000000596046448,0.75
44,10.571,0.1599999964237213,0.75
45,10.62,0.12999999523162842,0.75
46,10.55,0.14000000059604645,0.75
47,10.655,0.10999999940395355,0.75
48,10.652,0.11999999731779099,0.75
49,10.528,0.10999999940395355,0.75
50,10.606,0.11999999731779099,0.75
51,10.647,0.10999999940395355,0.75
52,10.517,0.09000000357627869,0.75
54,10.685,0.12999999523162842,0.75
55,10.616,0.07999999821186066,0.75
56,10.687,0.10999999940395355,0.75
57,10.688,0.10000000149011612,0.75
58,10.69,0.10999999940395355,0.75
59,10.686,0.07999999821186066,0.75
60,10.692,0.09000000357627869,0.75
61,10.672,0.07999999821186066,0.75
62,10.691,0.09000000357627869,0.75
63,10.646,0.05000000074505806,0.75
63,0.0,0.0,0.75
