0,0.0,96.20999908447266,0.78
1,0.0,97.80999755859375,0.78
2,0.0,99.4800033569336,0.78
3,0.0,101.80999755859375,0.78
4,0.0,101.58999633789062,0.78
5,0.0,98.95999908447266,0.78
6,0.0,107.0999984741211,0.78
7,0.0,99.45999908447266,0.78
8,0.0,103.44000244140625,0.78
9,0.0,103.44000244140625,0.78
10,0.0,102.98999786376953,0.78
11,0.0,103.9000015258789,0.78
12,0.0,104.45999908447266,0.78
13,0.0,102.23999786376953,0.78
14,0.0,105.68000030517578,0.78
15,0.0,101.69000244140625,0.78
16,0.0,101.23999786376953,0.78
17,0.0,109.45999908447266,0.78
18,0.0,104.29000091552734,0.78
19,0.0,104.02999877929688,0.78
20,0.0,106.1500015258789,0.78
21,0.0,101.63999938964844,0.78
22,0.0,100.05999755859375,0.78
23,0.0,105.75,0.78
24,0.0,105.41000366210938,0.78
25,0.0,102.22000122070312,0.78
26,0.0,109.36000061035156,0.78
27,0.0,106.16999816894531,0.78
28,0.0,109.19000244140625,0.78
29,0.0,104.16999816894531,0.78
30,0.0,114.19000244140625,0.78
31,0.0,102.33999633789062,0.78
32,0.0,113.31999969482422,0.78
33,0.0,107.79000091552734,0.78
34,0.0,112.18000030517578,0.78
35,0.0,117.7300033569336,0.78
36,0.0,112.4000015258789,0.78
37,0.0,116.75,0.78
38,0.0,118.30000305175781,0.78
39,0.0,129.9199981689453,0.78
40,0.0,126.79000091552734,0.78
41,0.0,121.80000305175781,0.78
42,0.0,132.49000549316406,0.78
43,0.0,117.20999908447266,0.78
44,0.0,113.8499984741211,0.78
45,0.0,119.0999984741211,0.78
46,0.0,108.06999969482422,0.78
47,0.0,108.83999633789062,0.78
48,0.0,107.5999984741211,0.78
49,0.0,96.81999969482422,0.78
50,0.0,99.55000305175781,0.78
51,0.0,99.43000030517578,0.78
52,0.0,86.55999755859375,0.78
53,0.0,85.45999908447266,0.78
54,0.0,70.18000030517578,0.78
55,0.0,68.0999984741211,0.78
56,0.0,64.94000244140625,0.78
57,0.0,62.66999816894531,0.78
58,0.0,51.52000045776367,0.78
59,0.0,55.189998626708984,0.78
60,0.0,52.70000076293945,0.78
61,0.0,50.689998626708984,0.78
62,0.0,50.31999969482422,0.78
63,0.0,48.15999984741211,0.78
0,10.507,0.12999999523162842,0.78
1,10.639,0.12999999523162842,0.78
2,10.668,0.12999999523162842,0.78
3,10.588,0.12999999523162842,0.78
4,10.625,0.10999999940395355,0.78
5,10.59,0.12999999523162842,0.78
6,10.525,0.10999999940395355,0.78
7,10.653,0.11999999731779099,0.78
8,10.69,0.14000000059604645,0.78
9,10.594,0.12999999523162842,0.78
10,10.65,0.14000000059604645,0.78
11,10.557,0.11999999731779099,0.78
12,10.572,0.11999999731779099,0.78
13,10.666,0.12999999523162842,0.78
14,10.68,0.12999999523162842,0.78
15,10.66,0.12999999523162842,0.78
16,10.619,0.12999999523162842,0.78
17,10.684,0.14000000059604645,0.78
18,10.631,0.11999999731779099,0.78
19,10.51,0.11999999731779099,0.78
20,10.625,0.11999999731779099,0.78
21,10.58,0.12999999523162842,0.78
22,10.542,0.11999999731779099,0.78
23,10.689,0.14000000059604645,0.78
24,10.605,0.10999999940395355,0.78
25,10.572,0.12999999523162842,0.78
26,10.575,0.11999999731779099,0.78
27,10.608,0.12999999523162842,0.78
28,10.671,0.15000000596046448,0.78
29,10.513,0.12999999523162842,0.78
30,10.528,0.12999999523162842,0.78
31,10.589,0.15000000596046448,0.78
32,10.573,0.12999999523162842,0.78
33,10.577,0.14000000059604645,0.78
34,10.605,0.15000000596046448,0.78
35,10.674,0.15000000596046448,0.78
36,10.58,0.15000000596046448,0.78
37,10.57,0.14000000059604645,0.78
38,10.529,0.15000000596046448,0.78
39,10.494,0.11999999731779099,0.78
40,10.597,0.14000000059604645,0.78
41,10.52,0.14000000059604645,0.78
42,10.57,0.12999999523162842,0.78
43,10.662,0.15000000596046448,0.78
44,10.571,0.1599999964237213,0.78
45,10.62,0.12999999523162842,0.78
46,10.55,0.14000000059604645,0.78
47,10.655,0.10999999940395355,0.78
48,10.652,0.11999999731779099,0.78
49,10.528,0.10999999940395355,0.78
50,10.606,0.11999999731779099,0.78
51,10.647,0.10999999940395355,0.78
52,10.517,0.09000000357627869,0.78
54,10.685,0.12999999523162842,0.78
55,10.616,0.07999999821186066,0.78
56,10.687,0.10999999940395355,0.78
57,10.688,0.10000000149011612,0.78
58,10.69,0.10999999940395355,0.78
59,10.686,0.07999999821186066,0.78
60,10.692,0.09000000357627869,0.78
61,10.672,0.07999999821186066,0.78
62,10.691,0.09000000357627869,0.78
63,10.646,0.05000000074505806,0.78
63,0.0,0.0,0.78
