0,2.562,8.539999961853027,0.89
1,2.562,8.430000305175781,0.89
2,2.562,8.5600004196167,0.89
3,2.562,8.680000305175781,0.89
4,2.562,8.75,0.89
5,2.562,8.609999656677246,0.89
6,2.562,9.050000190734863,0.89
7,2.562,8.739999771118164,0.89
8,2.562,8.949999809265137,0.89
9,2.562,8.9399995803833,0.89
10,2.562,8.9399995803833,0.89
11,2.562,8.979999542236328,0.89
12,2.562,9.029999732971191,0.89
13,2.562,9.029999732971191,0.89
14,2.562,9.229999542236328,0.89
15,2.562,9.029999732971191,0.89
16,2.562,9.020000457763672,0.89
17,2.562,9.369999885559082,0.89
18,2.562,9.15999984741211,0.89
19,2.562,9.210000038146973,0.89
20,2.562,9.270000457763672,0.89
21,2.562,9.140000343322754,0.89
22,2.562,9.119999885559082,0.89
23,2.562,9.369999885559082,0.89
24,2.562,9.329999923706055,0.89
25,2.562,9.1899995803833,0.89
26,2.562,9.579999923706055,0.89
27,2.562,9.569999694824219,0.89
28,2.562,9.670000076293945,0.89
29,2.562,9.569999694824219,0.89
30,2.562,9.90999984741211,0.89
31,2.562,9.579999923706055,0.89
32,2.562,9.979999542236328,0.89
33,2.562,9.949999809265137,0.89
34,2.562,10.079999923706055,0.89
35,2.562,10.359999656677246,0.89
36,2.562,10.1899995803833,0.89
37,2.562,10.479999542236328,0.89
38,2.562,10.59000015258789,0.89
39,2.562,11.180000305175781,0.89
40,2.562,11.170000076293945,0.89
41,2.562,11.0600004196167,0.89
42,2.562,11.609999656677246,0.89
43,2.562,10.770000457763672,0.89
44,2.561,10.40999984741211,0.89
45,2.562,10.40999984741211,0.89
46,2.562,9.760000228881836,0.89
47,2.561,9.529999732971191,0.89
48,2.561,9.460000038146973,0.89
49,2.561,8.75,0.89
50,2.561,8.760000228881836,0.89
51,2.561,8.619999885559082,0.89
52,2.561,7.599999904632568,0.89
53,2.561,7.25,0.89
54,2.561,6.239999771118164,0.89
55,2.561,5.880000114440918,0.89
56,2.561,5.679999828338623,0.89
57,2.561,5.380000114440918,0.89
58,2.561,4.710000038146973,0.89
59,2.561,4.739999771118164,0.89
60,2.561,4.550000190734863,0.89
61,2.561,4.360000133514404,0.89
62,2.561,4.260000228881836,0.89
63,2.561,4.059999942779541,0.89
0,6.896,15.0,0.89
1,6.896,15.0,0.89
2,6.896,15.0,0.89
3,6.896,15.0,0.89
4,6.896,15.0,0.89
5,6.896,15.0,0.89
6,6.896,15.0,0.89
7,6.896,15.0,0.89
8,6.896,15.0,0.89
9,6.896,15.0,0.89
10,6.896,15.0,0.89
11,6.896,15.0,0.89
12,6.896,15.0,0.89
13,6.896,15.0,0.89
14,6.896,15.0,0.89
15,6.896,15.0,0.89
16,6.896,15.0,0.89
17,6.896,15.0,0.89
18,6.896,15.0,0.89
19,6.896,15.0,0.89
20,6.897,15.0,0.89
21,6.897,15.0,0.89
22,6.897,15.0,0.89
23,6.896,15.0,0.89
24,6.897,15.0,0.89
25,6.897,15.0,0.89
26,6.896,15.0,0.89
27,6.896,15.0,0.89
28,6.896,15.0,0.89
29,6.897,15.0,0.89
30,6.897,15.0,0.89
31,6.897,15.0,0.89
32,6.897,15.0,0.89
33,6.897,15.0,0.89
34,6.897,15.0,0.89
35,6.896,15.0,0.89
36,6.897,15.0,0.89
37,6.897,15.0,0.89
38,6.897,15.0,0.89
39,6.897,15.0,0.89
40,6.897,15.0,0.89
41,6.897,15.0,0.89
42,6.897,15.0,0.89
43,6.897,14.199999809265137,0.89
44,6.897,13.470000267028809,0.89
45,6.897,12.949999809265137,0.89
46,6.897,12.199999809265137,0.89
47,6.897,11.619999885559082,0.89
48,6.897,11.229999542236328,0.89
49,6.897,10.5600004196167,0.89
50,6.897,10.359999656677246,0.89
51,6.896,9.949999809265137,0.89
52,6.896,8.319999694824219,0.89
53,6.896,7.349999904632568,0.89
54,6.896,6.199999809265137,0.89
55,6.896,5.480000019073486,0.89
56,6.896,4.71999979019165,0.89
57,6.896,4.239999771118164,0.89
58,6.877,3.940000057220459,0.89
59,6.877,4.0,0.89
60,6.877,4.079999923706055,0.89
61,6.877,4.110000133514404,0.89
62,6.877,4.159999847412109,0.89
63,6.878,4.159999847412109,0.89
