0,0.0,96.20999908447266,0.89
1,0.0,97.80999755859375,0.89
2,0.0,99.4800033569336,0.89
3,0.0,101.80999755859375,0.89
4,0.0,101.58999633789062,0.89
5,0.0,98.95999908447266,0.89
6,0.0,107.0999984741211,0.89
7,0.0,99.45999908447266,0.89
8,0.0,103.44000244140625,0.89
9,0.0,103.44000244140625,0.89
10,0.0,102.98999786376953,0.89
11,0.0,103.9000015258789,0.89
12,0.0,104.45999908447266,0.89
13,0.0,102.23999786376953,0.89
14,0.0,105.68000030517578,0.89
15,0.0,101.69000244140625,0.89
16,0.0,101.23999786376953,0.89
17,0.0,109.45999908447266,0.89
18,0.0,104.29000091552734,0.89
19,0.0,104.02999877929688,0.89
20,0.0,106.1500015258789,0.89
21,0.0,101.63999938964844,0.89
22,0.0,100.05999755859375,0.89
23,0.0,105.75,0.89
24,0.0,105.41000366210938,0.89
25,0.0,102.22000122070312,0.89
26,0.0,109.36000061035156,0.89
27,0.0,106.16999816894531,0.89
28,0.0,109.19000244140625,0.89
29,0.0,104.16999816894531,0.89
30,0.0,114.19000244140625,0.89
31,0.0,102.33999633789062,0.89
32,0.0,113.31999969482422,0.89
33,0.0,107.79000091552734,0.89
34,0.0,112.18000030517578,0.89
35,0.0,117.7300033569336,0.89
36,0.0,112.4000015258789,0.89
37,0.0,116.75,0.89
38,0.0,118.30000305175781,0.89
39,0.0,129.9199981689453,0.89
40,0.0,126.79000091552734,0.89
41,0.0,121.80000305175781,0.89
42,0.0,132.49000549316406,0.89
43,0.0,117.20999908447266,0.89
44,0.0,113.8499984741211,0.89
45,0.0,119.0999984741211,0.89
46,0.0,108.06999969482422,0.89
47,0.0,108.83999633789062,0.89
48,0.0,107.5999984741211,0.89
49,0.0,96.81999969482422,0.89
50,0.0,99.55000305175781,0.89
51,0.0,99.43000030517578,0.89
52,0.0,86.55999755859375,0.89
53,0.0,85.45999908447266,0.89
54,0.0,70.18000030517578,0.89
55,0.0,68.0999984741211,0.89
56,0.0,64.94000244140625,0.89
57,0.0,62.66999816894531,0.89
58,0.0,51.52000045776367,0.89
59,0.0,55.189998626708984,0.89
60,0.0,52.70000076293945,0.89
61,0.0,50.689998626708984,0.89
62,0.0,50.31999969482422,0.89
63,0.0,48.15999984741211,0.89
0,6.896,15.0,0.89
1,6.896,15.0,0.89
2,6.896,15.0,0.89
3,6.896,15.0,0.89
4,6.896,15.0,0.89
5,6.896,15.0,0.89
6,6.896,15.0,0.89
7,6.896,15.0,0.89
8,6.896,15.0,0.89
9,6.896,15.0,0.89
10,6.896,15.0,0.89
11,6.896,15.0,0.89
12,6.896,15.0,0.89
13,6.896,15.0,0.89
14,6.896,15.0,0.89
15,6.896,15.0,0.89
16,6.896,15.0,0.89
17,6.896,15.0,0.89
18,6.896,15.0,0.89
19,6.896,15.0,0.89
20,6.897,15.0,0.89
21,6.897,15.0,0.89
22,6.897,15.0,0.89
23,6.896,15.0,0.89
24,6.897,15.0,0.89
25,6.897,15.0,0.89
26,6.896,15.0,0.89
27,6.896,15.0,0.89
28,6.896,15.0,0.89
29,6.897,15.0,0.89
30,6.897,15.0,0.89
31,6.897,15.0,0.89
32,6.897,15.0,0.89
33,6.897,15.0,0.89
34,6.897,15.0,0.89
35,6.896,15.0,0.89
36,6.897,15.0,0.89
37,6.897,15.0,0.89
38,6.897,15.0,0.89
39,6.897,15.0,0.89
40,6.897,15.0,0.89
41,6.897,15.0,0.89
42,6.897,15.0,0.89
43,6.897,14.199999809265137,0.89
44,6.897,13.470000267028809,0.89
45,6.897,12.949999809265137,0.89
46,6.897,12.199999809265137,0.89
47,6.897,11.619999885559082,0.89
48,6.897,11.229999542236328,0.89
49,6.897,10.5600004196167,0.89
50,6.897,10.359999656677246,0.89
51,6.896,9.949999809265137,0.89
52,6.896,8.319999694824219,0.89
53,6.896,7.349999904632568,0.89
54,6.896,6.199999809265137,0.89
55,6.896,5.480000019073486,0.89
56,6.896,4.71999979019165,0.89
57,6.896,4.239999771118164,0.89
58,6.877,3.940000057220459,0.89
59,6.877,4.0,0.89
60,6.877,4.079999923706055,0.89
61,6.877,4.110000133514404,0.89
62,6.877,4.159999847412109,0.89
63,6.878,4.159999847412109,0.89
