0,1.337,0.4399999976158142,0.92
1,1.326,0.4399999976158142,0.92
2,1.326,0.44999998807907104,0.92
3,1.337,0.44999998807907104,0.92
4,1.337,0.4399999976158142,0.92
5,1.326,0.4399999976158142,0.92
6,1.337,0.4699999988079071,0.92
7,1.337,0.46000000834465027,0.92
8,1.337,0.4699999988079071,0.92
9,1.337,0.4699999988079071,0.92
10,1.337,0.49000000953674316,0.92
11,1.337,0.4699999988079071,0.92
12,1.326,0.5,0.92
13,1.337,0.5099999904632568,0.92
14,1.337,0.5299999713897705,0.92
15,1.326,0.49000000953674316,0.92
16,1.326,0.47999998927116394,0.92
17,1.337,0.5199999809265137,0.92
18,1.337,0.5,0.92
19,1.326,0.5199999809265137,0.92
20,1.337,0.5099999904632568,0.92
21,1.337,0.49000000953674316,0.92
22,1.337,0.550000011920929,0.92
23,1.337,0.5400000214576721,0.92
24,1.337,0.5099999904632568,0.92
25,1.337,0.5199999809265137,0.92
26,1.337,0.5400000214576721,0.92
27,1.337,0.5600000023841858,0.92
28,1.0,0.550000011920929,0.92
29,1.0,0.6299999952316284,0.92
30,1.0,0.5899999737739563,0.92
31,1.0,0.7300000190734863,0.92
32,1.0,0.6499999761581421,0.92
33,1.0,0.7300000190734863,0.92
34,1.0,0.7099999785423279,0.92
35,1.0,0.7200000286102295,0.92
36,1.0,0.8999999761581421,0.92
37,1.0,0.9100000262260437,0.92
38,1.0,0.9700000286102295,0.92
39,1.006,1.0199999809265137,0.92
40,1.006,1.1100000143051147,0.92
41,1.006,1.2300000190734863,0.92
42,1.006,1.2200000286102295,0.92
43,1.006,1.340000033378601,0.92
44,1.006,1.3600000143051147,0.92
45,1.006,1.309999942779541,0.92
46,1.006,1.3200000524520874,0.92
47,1.006,1.3200000524520874,0.92
48,1.006,1.350000023841858,0.92
49,1.006,1.3300000429153442,0.92
50,1.006,1.3200000524520874,0.92
51,1.006,1.340000033378601,0.92
52,1.006,1.3799999952316284,0.92
53,1.006,1.4600000381469727,0.92
54,1.006,1.5399999618530273,0.92
55,1.006,1.4600000381469727,0.92
56,1.006,1.4900000095367432,0.92
57,1.006,1.5399999618530273,0.92
58,1.006,1.5299999713897705,0.92
59,1.018,1.559999942779541,0.92
60,1.0,1.600000023841858,0.92
61,1.0,1.6100000143051147,0.92
62,1.0,1.690000057220459,0.92
63,1.0,1.690000057220459,0.92
0,3.917,13.5600004196167,0.92
1,3.917,13.760000228881836,0.92
2,3.917,13.75,0.92
3,3.917,13.449999809265137,0.92
4,3.917,13.4399995803833,0.92
5,3.917,13.579999923706055,0.92
6,3.917,13.069999694824219,0.92
7,3.917,13.539999961853027,0.92
8,3.889,13.34000015258789,0.92
9,3.917,13.390000343322754,0.92
10,3.917,13.369999885559082,0.92
11,3.917,13.4399995803833,0.92
12,3.917,13.359999656677246,0.92
13,3.917,13.390000343322754,0.92
14,3.917,13.3100004196167,0.92
15,3.917,13.59000015258789,0.92
16,3.917,13.550000190734863,0.92
17,3.917,13.069999694824219,0.92
18,3.889,13.369999885559082,0.92
19,3.917,13.369999885559082,0.92
20,3.917,13.40999984741211,0.92
21,3.917,13.739999771118164,0.92
22,3.917,13.640000343322754,0.92
23,3.889,13.470000267028809,0.92
24,3.917,13.4399995803833,0.92
25,3.917,13.6899995803833,0.92
26,3.917,13.34000015258789,0.92
27,3.917,13.600000381469727,0.92
28,3.917,13.489999771118164,0.92
29,3.917,13.880000114440918,0.92
30,3.918,13.40999984741211,0.92
31,3.917,14.09000015258789,0.92
32,3.918,13.649999618530273,0.92
33,3.917,13.829999923706055,0.92
34,3.918,13.739999771118164,0.92
35,3.889,13.350000381469727,0.92
36,3.918,13.920000076293945,0.92
37,3.918,13.59000015258789,0.92
38,3.918,13.699999809265137,0.92
39,3.918,13.229999542236328,0.92
40,3.918,13.470000267028809,0.92
41,3.801,14.199999809265137,0.92
42,3.801,14.770000457763672,0.92
43,3.8,15.0,0.92
44,3.8,15.0,0.92
45,3.801,15.0,0.92
46,3.801,15.0,0.92
47,3.8,15.0,0.92
48,3.8,15.0,0.92
49,3.8,15.0,0.92
50,3.8,15.0,0.92
51,3.8,15.0,0.92
52,3.8,15.0,0.92
53,3.799,15.0,0.92
54,3.799,15.0,0.92
55,3.799,15.0,0.92
56,3.798,15.0,0.92
57,3.798,15.0,0.92
58,3.798,15.0,0.92
59,3.798,15.0,0.92
60,3.798,15.0,0.92
61,3.798,15.0,0.92
62,3.798,15.0,0.92
63,3.798,15.0,0.92
