0,6.896,15.0,1.0
1,6.896,15.0,1.0
2,6.896,15.0,1.0
3,6.896,15.0,1.0
4,6.896,15.0,1.0
5,6.896,15.0,1.0
6,6.896,15.0,1.0
7,6.896,15.0,1.0
8,6.896,15.0,1.0
9,6.896,15.0,1.0
10,6.896,15.0,1.0
11,6.896,15.0,1.0
12,6.896,15.0,1.0
13,6.896,15.0,1.0
14,6.896,15.0,1.0
15,6.896,15.0,1.0
16,6.896,15.0,1.0
17,6.896,15.0,1.0
18,6.896,15.0,1.0
19,6.896,15.0,1.0
20,6.897,15.0,1.0
21,6.897,15.0,1.0
22,6.897,15.0,1.0
23,6.896,15.0,1.0
24,6.897,15.0,1.0
25,6.897,15.0,1.0
26,6.896,15.0,1.0
27,6.896,15.0,1.0
28,6.896,15.0,1.0
29,6.897,15.0,1.0
30,6.897,15.0,1.0
31,6.897,15.0,1.0
32,6.897,15.0,1.0
33,6.897,15.0,1.0
34,6.897,15.0,1.0
35,6.896,15.0,1.0
36,6.897,15.0,1.0
37,6.897,15.0,1.0
38,6.897,15.0,1.0
39,6.897,15.0,1.0
40,6.897,15.0,1.0
41,6.897,15.0,1.0
42,6.897,15.0,1.0
43,6.897,14.199999809265137,1.0
44,6.897,13.470000267028809,1.0
45,6.897,12.949999809265137,1.0
46,6.897,12.199999809265137,1.0
47,6.897,11.619999885559082,1.0
48,6.897,11.229999542236328,1.0
49,6.897,10.5600004196167,1.0
50,6.897,10.359999656677246,1.0
51,6.896,9.949999809265137,1.0
52,6.896,8.319999694824219,1.0
53,6.896,7.349999904632568,1.0
54,6.896,6.199999809265137,1.0
55,6.896,5.480000019073486,1.0
56,6.896,4.71999979019165,1.0
57,6.896,4.239999771118164,1.0
58,6.877,3.940000057220459,1.0
59,6.877,4.0,1.0
60,6.877,4.079999923706055,1.0
61,6.877,4.110000133514404,1.0
62,6.877,4.159999847412109,1.0
63,6.878,4.159999847412109,1.0
0,7.161,14.069999694824219,1.0
1,7.161,14.149999618530273,1.0
2,7.162,14.09000015258789,1.0
3,7.161,13.979999542236328,1.0
4,7.162,13.800000190734863,1.0
5,7.161,13.90999984741211,1.0
6,7.162,13.510000228881836,1.0
7,7.162,13.989999771118164,1.0
8,7.162,13.789999961853027,1.0
9,7.162,13.8100004196167,1.0
10,7.162,13.829999923706055,1.0
11,7.162,13.729999542236328,1.0
12,7.162,13.59000015258789,1.0
13,7.162,13.930000305175781,1.0
14,7.162,13.779999732971191,1.0
15,7.162,13.890000343322754,1.0
16,7.162,13.979999542236328,1.0
17,7.162,13.520000457763672,1.0
18,7.162,13.800000190734863,1.0
19,7.162,13.75,1.0
20,7.162,13.619999885559082,1.0
21,7.162,13.989999771118164,1.0
22,7.162,13.949999809265137,1.0
23,7.162,13.930000305175781,1.0
24,7.162,13.630000114440918,1.0
25,7.162,13.979999542236328,1.0
26,7.162,13.510000228881836,1.0
27,7.162,13.970000267028809,1.0
28,7.162,14.010000228881836,1.0
29,7.162,14.210000038146973,1.0
30,7.162,13.65999984741211,1.0
31,7.162,14.4399995803833,1.0
32,7.162,13.869999885559082,1.0
33,7.162,14.180000305175781,1.0
34,7.162,14.0,1.0
35,7.162,13.890000343322754,1.0
36,7.162,14.300000190734863,1.0
37,7.162,13.970000267028809,1.0
38,7.162,13.90999984741211,1.0
39,7.162,13.579999923706055,1.0
40,7.162,13.859999656677246,1.0
41,7.162,14.140000343322754,1.0
42,7.162,13.779999732971191,1.0
43,7.162,13.630000114440918,1.0
44,7.162,12.869999885559082,1.0
45,7.162,11.960000038146973,1.0
46,7.162,11.539999961853027,1.0
47,7.162,10.920000076293945,1.0
48,7.162,10.510000228881836,1.0
49,7.162,10.050000190734863,1.0
50,7.162,9.510000228881836,1.0
51,7.162,9.239999771118164,1.0
52,7.162,7.78000020980835,1.0
53,7.162,6.639999866485596,1.0
54,7.161,6.309999942779541,1.0
55,7.161,4.960000038146973,1.0
56,7.161,4.75,1.0
57,7.161,4.199999809265137,1.0
58,7.161,3.8499999046325684,1.0
59,7.161,3.4000000953674316,1.0
60,7.167,3.380000114440918,1.0
61,7.167,3.4000000953674316,1.0
62,7.167,3.4100000858306885,1.0
63,7.167,3.5199999809265137,1.0
