10.674200,0.150000,35.000000
10.587600,0.140000,35.000000
10.556200,0.130000,35.000000
10.547300,0.120000,35.000000
10.505300,0.120000,35.000000
8.006000,0.110000,35.000000
7.968600,0.130000,35.000000
7.948400,0.150000,35.000000
7.933300,0.120000,35.000000
7.921100,0.140000,35.000000
7.883100,0.130000,35.000000
7.872100,0.140000,35.000000
7.847000,0.170000,35.000000
7.829000,0.120000,35.000000
7.781000,0.110000,35.000000
7.759200,0.110000,35.000000
7.750300,0.120000,35.000000
7.723000,0.160000,35.000000
7.695300,0.350000,35.000000
7.682300,0.320000,35.000000
7.643600,0.160000,35.000000
7.536100,0.610000,35.000000
7.518800,0.580000,35.000000
7.503900,0.560000,35.000000
7.489900,0.270000,35.000000
7.445900,0.170000,35.000000
7.440200,0.200000,35.000000
7.397700,0.260000,35.000000
7.388100,0.280000,35.000000
7.377600,0.310000,35.000000
7.369700,0.270000,35.000000
7.357000,0.260000,35.000000
7.340700,0.260000,35.000000
7.316200,0.340000,35.000000
7.302100,0.420000,35.000000
7.287900,0.440000,35.000000
7.277600,0.370000,35.000000
7.264400,0.410000,35.000000
7.252200,0.530000,35.000000
7.239600,0.480000,35.000000
7.223400,0.830000,35.000000
7.208600,0.580000,35.000000
7.193800,0.890000,35.000000
7.181300,3.130000,35.000000
7.176300,11.570000,35.000000
7.173000,3.490000,35.000000
7.165400,4.080000,35.000000
7.161700,13.890000,35.000000
7.156800,2.630000,35.000000
7.141600,0.890000,35.000000
7.130100,0.410000,35.000000
7.113200,0.350000,35.000000
7.082300,0.260000,35.000000
7.074300,0.220000,35.000000
7.024300,0.330000,35.000000
6.981200,0.220000,35.000000
6.938400,0.320000,35.000000
6.915100,0.840000,35.000000
6.911100,1.080000,35.000000
6.901200,2.750000,35.000000
6.896400,15.000000,35.000000
6.893000,3.440000,35.000000
6.885400,3.260000,35.000000
6.881900,12.160000,35.000000
6.877100,3.060000,35.000000
6.866300,0.730000,35.000000
6.862600,1.610000,35.000000
6.857300,0.510000,35.000000
6.843200,0.410000,35.000000
6.804400,0.250000,35.000000
6.774700,0.210000,35.000000
6.761100,0.230000,35.000000
6.751600,0.190000,35.000000
6.744100,0.180000,35.000000
6.732400,0.140000,35.000000
4.713000,0.160000,35.000000
4.707000,0.610000,35.000000
4.703300,0.340000,35.000000
4.700700,0.380000,35.000000
4.683100,0.210000,35.000000
4.678500,0.480000,35.000000
4.672000,0.430000,35.000000
4.175000,0.160000,35.000000
4.155300,0.200000,35.000000
4.139500,0.260000,35.000000
4.123400,0.250000,35.000000
4.108500,0.210000,35.000000
4.099200,0.170000,35.000000
4.085700,0.190000,35.000000
4.078200,0.210000,35.000000
4.055000,0.150000,35.000000
4.030800,0.240000,35.000000
4.020300,1.280000,35.000000
4.006400,0.430000,35.000000
3.996900,0.560000,35.000000
3.984200,4.480000,35.000000
3.971300,6.460000,35.000000
3.959600,4.350000,35.000000
3.945500,4.200000,35.000000
3.932500,0.600000,35.000000
3.917400,13.310000,35.000000
3.889400,13.350000,35.000000
3.861300,4.530000,35.000000
3.839500,0.470000,35.000000
3.824200,6.580000,35.000000
3.812800,0.550000,35.000000
3.800400,8.890000,35.000000
3.785200,0.450000,35.000000
3.779100,0.470000,35.000000
3.769500,0.810000,35.000000
3.740400,8.830000,35.000000
3.709400,0.530000,35.000000
3.691200,0.240000,35.000000
3.678400,0.400000,35.000000
3.671000,0.260000,35.000000
3.663200,0.190000,35.000000
3.656600,0.190000,35.000000
3.646600,0.160000,35.000000
3.633000,0.190000,35.000000
3.616000,0.340000,35.000000
3.610600,0.190000,35.000000
3.592900,0.120000,35.000000
3.586200,0.200000,35.000000
3.565400,0.340000,35.000000
3.540100,0.120000,35.000000
3.450200,3.990000,35.000000
3.247800,0.180000,35.000000
3.235800,0.130000,35.000000
3.228700,0.140000,35.000000
3.218100,0.280000,35.000000
3.210400,0.210000,35.000000
3.198700,0.320000,35.000000
3.185300,0.370000,35.000000
3.174000,0.170000,35.000000
3.159800,0.180000,35.000000
3.151300,0.140000,35.000000
3.138800,0.140000,35.000000
3.103700,0.160000,35.000000
3.075000,0.420000,35.000000
3.066600,1.930000,35.000000
3.055000,2.060000,35.000000
3.043400,5.590000,35.000000
3.031900,5.720000,35.000000
3.021200,5.920000,35.000000
3.008000,5.830000,35.000000
2.998100,2.120000,35.000000
2.984900,1.910000,35.000000
2.741900,0.260000,35.000000
2.739800,0.270000,35.000000
2.733400,0.200000,35.000000
2.727000,0.190000,35.000000
2.671700,4.510000,35.000000
2.646600,9.780000,35.000000
2.618800,0.590000,35.000000
2.606800,0.550000,35.000000
2.579600,0.320000,35.000000
2.561500,10.360000,35.000000
2.536400,4.670000,35.000000
2.368300,0.250000,35.000000
2.363800,0.180000,35.000000
2.359100,0.210000,35.000000
2.319500,0.150000,35.000000
2.310300,0.450000,35.000000
2.303100,0.390000,35.000000
2.280300,0.140000,35.000000
2.273300,0.130000,35.000000
2.240400,0.140000,35.000000
2.223300,0.180000,35.000000
2.209700,0.220000,35.000000
2.199100,0.270000,35.000000
2.192600,0.220000,35.000000
2.187400,0.240000,35.000000
2.173300,0.220000,35.000000
2.147700,0.330000,35.000000
2.144900,0.380000,35.000000
2.129600,1.080000,35.000000
2.125700,0.610000,35.000000
2.115000,0.660000,35.000000
2.098600,0.440000,35.000000
2.080500,2.130000,35.000000
2.064200,0.750000,35.000000
2.051800,0.710000,35.000000
2.044900,0.770000,35.000000
2.024900,0.500000,35.000000
2.010700,0.490000,35.000000
1.996000,0.330000,35.000000
1.938800,0.310000,35.000000
1.920600,0.370000,35.000000
1.906700,0.360000,35.000000
1.858100,0.350000,35.000000
1.842700,0.260000,35.000000
1.829300,0.240000,35.000000
1.803700,0.290000,35.000000
1.790800,0.240000,35.000000
1.763400,0.270000,35.000000
1.732400,0.410000,35.000000
1.728100,0.410000,35.000000
1.720100,0.460000,35.000000
1.704200,0.500000,35.000000
1.687800,0.540000,35.000000
1.679800,0.600000,35.000000
1.666000,0.560000,35.000000
1.657400,0.530000,35.000000
1.596700,0.240000,35.000000
1.572900,0.130000,35.000000
1.565400,0.130000,35.000000
1.552700,0.130000,35.000000
1.525800,0.150000,35.000000
1.514300,0.190000,35.000000
1.490400,0.420000,35.000000
1.478100,0.440000,35.000000
1.436700,0.270000,35.000000
1.424300,0.360000,35.000000
1.412800,0.320000,35.000000
1.400400,0.220000,35.000000
1.385500,0.130000,35.000000
1.369300,0.160000,35.000000
1.356500,0.180000,35.000000
1.337300,0.660000,35.000000
1.325600,0.570000,35.000000
1.307800,0.120000,35.000000
1.281500,0.120000,35.000000
1.268500,0.150000,35.000000
1.253500,0.270000,35.000000
1.240400,0.350000,35.000000
1.230300,0.300000,35.000000
1.212200,0.320000,35.000000
1.203600,0.290000,35.000000
1.173700,0.270000,35.000000
1.152600,0.220000,35.000000
1.108600,0.460000,35.000000
1.096700,0.460000,35.000000
1.075600,0.140000,35.000000
1.071500,0.150000,35.000000
1.055600,0.220000,35.000000
1.050200,0.380000,35.000000
1.044200,0.200000,35.000000
1.038100,0.440000,35.000000
1.033600,0.230000,35.000000
1.018000,0.590000,35.000000
1.006000,0.700000,35.000000
1.000300,0.720000,35.000000
0.988100,0.960000,35.000000
0.983800,0.990000,35.000000
0.971400,1.220000,35.000000
0.964200,1.440000,35.000000
0.953800,1.610000,35.000000
0.947200,3.100000,35.000000
0.941400,1.860000,35.000000
0.935800,2.900000,35.000000
0.929100,1.770000,35.000000
0.919500,2.070000,35.000000
0.908300,1.960000,35.000000
0.898200,1.540000,35.000000
0.892900,1.320000,35.000000
0.885500,1.350000,35.000000
0.861700,0.950000,35.000000
0.849400,0.750000,35.000000
0.816300,0.440000,35.000000
0.783100,0.280000,35.000000
0.769900,0.250000,35.000000
0.759600,0.240000,35.000000
0.096900,0.420000,35.000000
0.023900,0.140000,35.000000
0.022500,0.180000,35.000000
0.018000,0.120000,35.000000
0.016500,0.330000,35.000000
0.015100,0.260000,35.000000
0.013600,0.250000,35.000000
0.012100,0.300000,35.000000
0.010700,0.420000,35.000000
0.009200,0.560000,35.000000
0.007600,0.900000,35.000000
0.004900,4.160000,35.000000
0.003200,4.160000,35.000000
-0.000200,117.730000,35.000000
-0.005700,3.770000,35.000000
-0.007600,1.240000,35.000000
-0.009200,0.510000,35.000000
-0.010800,0.290000,35.000000
-0.027200,0.280000,35.000000
-0.028500,0.340000,35.000000
-0.100600,0.380000,35.000000
-0.955400,0.110000,35.000000
-0.962800,0.130000,35.000000
-0.990700,0.110000,35.000000
-1.023800,0.140000,35.000000
-1.061700,0.140000,35.000000
-1.075000,0.170000,35.000000
-1.124300,0.190000,35.000000
-1.135100,0.180000,35.000000
-1.157400,0.190000,35.000000
-1.170600,0.210000,35.000000
