10.571400,0.160000,44.000000
10.498700,0.130000,44.000000
10.485400,0.120000,44.000000
10.457500,0.130000,44.000000
8.196000,0.120000,44.000000
8.056000,0.120000,44.000000
8.027700,0.110000,44.000000
7.992200,0.170000,44.000000
7.944400,0.190000,44.000000
7.901700,0.180000,44.000000
7.846400,0.240000,44.000000
7.838000,0.220000,44.000000
7.794500,0.130000,44.000000
7.782200,0.140000,44.000000
7.770400,0.130000,44.000000
7.753900,0.160000,44.000000
7.720200,0.190000,44.000000
7.709600,0.210000,44.000000
7.695500,0.430000,44.000000
7.681500,0.430000,44.000000
7.646400,0.210000,44.000000
7.537300,0.690000,44.000000
7.517900,0.590000,44.000000
7.504100,0.610000,44.000000
7.490200,0.290000,44.000000
7.436400,0.250000,44.000000
7.401000,0.360000,44.000000
7.389200,0.420000,44.000000
7.378100,0.390000,44.000000
7.355600,0.340000,44.000000
7.344400,0.380000,44.000000
7.303900,0.590000,44.000000
7.289200,0.520000,44.000000
7.276800,0.500000,44.000000
7.265400,0.540000,44.000000
7.252700,0.680000,44.000000
7.239600,0.610000,44.000000
7.223600,1.040000,44.000000
7.208300,1.030000,44.000000
7.193800,1.480000,44.000000
7.181300,4.610000,44.000000
7.176300,10.880000,44.000000
7.165600,5.040000,44.000000
7.161700,12.870000,44.000000
7.141700,0.790000,44.000000
7.124100,0.320000,44.000000
7.113900,0.320000,44.000000
7.082700,0.270000,44.000000
7.025800,0.340000,44.000000
6.984700,0.240000,44.000000
6.915000,1.320000,44.000000
6.911100,1.340000,44.000000
6.900700,3.240000,44.000000
6.896500,13.470000,44.000000
6.885300,3.180000,44.000000
6.881900,11.000000,44.000000
6.877200,4.200000,44.000000
6.862600,2.760000,44.000000
6.856800,0.550000,44.000000
6.772400,0.200000,44.000000
6.761900,0.190000,44.000000
4.704900,1.030000,44.000000
4.700800,1.530000,44.000000
4.698700,1.660000,44.000000
4.697600,2.390000,44.000000
4.691500,25.490000,44.000000
4.684200,2.460000,44.000000
4.680500,2.110000,44.000000
4.675500,0.930000,44.000000
4.664600,0.260000,44.000000
4.245600,0.150000,44.000000
4.229700,0.160000,44.000000
4.203900,0.180000,44.000000
4.180800,0.250000,44.000000
4.139200,0.360000,44.000000
4.122900,0.340000,44.000000
4.099400,0.300000,44.000000
4.086400,0.290000,44.000000
4.079400,0.310000,44.000000
4.049600,0.270000,44.000000
4.020300,1.400000,44.000000
4.005100,0.650000,44.000000
3.984500,4.440000,44.000000
3.971700,6.300000,44.000000
3.959900,4.240000,44.000000
3.945500,4.090000,44.000000
3.931300,0.780000,44.000000
3.917400,12.300000,44.000000
3.889400,12.260000,44.000000
3.861300,4.250000,44.000000
3.847600,0.670000,44.000000
3.839200,0.760000,44.000000
3.824200,11.130000,44.000000
3.812700,0.760000,44.000000
3.800500,15.000000,44.000000
3.768400,1.120000,44.000000
3.740400,8.740000,44.000000
3.710700,0.470000,44.000000
3.688400,0.270000,44.000000
3.678400,0.610000,44.000000
3.671400,0.400000,44.000000
3.655600,0.240000,44.000000
3.635300,0.190000,44.000000
3.616200,0.400000,44.000000
3.610700,0.300000,44.000000
3.593200,0.160000,44.000000
3.585500,0.260000,44.000000
3.565400,0.600000,44.000000
3.540100,0.310000,44.000000
3.450100,8.080000,44.000000
3.259500,0.180000,44.000000
3.247600,0.410000,44.000000
3.235600,0.300000,44.000000
3.218900,0.460000,44.000000
3.210500,0.330000,44.000000
3.198100,0.420000,44.000000
3.185300,0.530000,44.000000
3.172900,0.250000,44.000000
3.160700,0.260000,44.000000
3.149000,0.200000,44.000000
3.137900,0.230000,44.000000
3.114800,0.200000,44.000000
3.074100,0.630000,44.000000
3.066700,1.920000,44.000000
3.061100,0.730000,44.000000
3.055000,2.080000,44.000000
3.043500,5.440000,44.000000
3.031900,5.640000,44.000000
3.021400,5.720000,44.000000
3.008100,5.560000,44.000000
2.998300,2.020000,44.000000
2.985100,1.780000,44.000000
2.767800,0.140000,44.000000
2.759600,0.130000,44.000000
2.752000,0.250000,44.000000
2.739500,0.490000,44.000000
2.733600,0.290000,44.000000
2.726600,0.320000,44.000000
2.723400,0.300000,44.000000
2.701700,0.160000,44.000000
2.671800,4.560000,44.000000
2.646600,9.850000,44.000000
2.618800,0.750000,44.000000
2.606800,0.730000,44.000000
2.579400,0.440000,44.000000
2.561400,10.410000,44.000000
2.536300,4.600000,44.000000
2.488100,0.120000,44.000000
2.376900,0.110000,44.000000
2.368200,0.250000,44.000000
2.358600,0.250000,44.000000
2.346000,0.140000,44.000000
2.319500,0.200000,44.000000
2.309700,0.530000,44.000000
2.303000,0.480000,44.000000
2.277700,0.200000,44.000000
2.262200,0.210000,44.000000
2.223900,0.250000,44.000000
2.208100,0.300000,44.000000
2.198600,0.320000,44.000000
2.186100,0.320000,44.000000
2.144800,0.600000,44.000000
2.129700,1.610000,44.000000
2.112400,0.760000,44.000000
2.098400,0.600000,44.000000
2.080500,2.030000,44.000000
2.064200,1.100000,44.000000
2.051700,1.090000,44.000000
2.044800,0.910000,44.000000
2.011700,0.610000,44.000000
1.979400,0.380000,44.000000
1.968100,0.360000,44.000000
1.954700,0.360000,44.000000
1.934800,0.440000,44.000000
1.924600,0.510000,44.000000
1.916500,0.520000,44.000000
1.906400,0.560000,44.000000
1.895800,0.400000,44.000000
1.877200,0.370000,44.000000
1.857700,0.430000,44.000000
1.848500,0.350000,44.000000
1.841200,0.340000,44.000000
1.830400,0.300000,44.000000
1.815900,0.300000,44.000000
1.800200,0.310000,44.000000
1.761800,0.360000,44.000000
1.731900,0.590000,44.000000
1.718500,0.690000,44.000000
1.708400,0.670000,44.000000
1.687900,0.700000,44.000000
1.678800,0.770000,44.000000
1.666400,0.730000,44.000000
1.657100,0.680000,44.000000
1.626800,0.430000,44.000000
1.598500,0.300000,44.000000
1.525900,0.270000,44.000000
1.514200,0.270000,44.000000
1.490300,0.730000,44.000000
1.477900,0.770000,44.000000
1.436600,0.380000,44.000000
1.424600,0.480000,44.000000
1.412500,0.370000,44.000000
1.372900,0.310000,44.000000
1.369200,0.290000,44.000000
1.356900,0.340000,44.000000
1.337500,0.920000,44.000000
1.325900,0.760000,44.000000
1.278500,0.190000,44.000000
1.268900,0.210000,44.000000
1.253000,0.350000,44.000000
1.240600,0.440000,44.000000
1.229800,0.410000,44.000000
1.211500,0.420000,44.000000
1.202000,0.360000,44.000000
1.180400,0.320000,44.000000
1.169300,0.340000,44.000000
1.151600,0.260000,44.000000
1.108600,0.580000,44.000000
1.096600,0.630000,44.000000
1.086300,0.160000,44.000000
1.071400,0.190000,44.000000
1.055500,0.420000,44.000000
1.050100,0.720000,44.000000
1.044100,0.350000,44.000000
1.038000,0.840000,44.000000
1.017900,1.230000,44.000000
1.005800,1.360000,44.000000
1.000100,1.280000,44.000000
0.988000,1.550000,44.000000
0.983600,1.390000,44.000000
0.973800,1.770000,44.000000
0.964000,2.270000,44.000000
0.953800,2.440000,44.000000
0.947100,4.100000,44.000000
0.941200,2.780000,44.000000
0.935700,3.680000,44.000000
0.928800,2.440000,44.000000
0.919500,3.270000,44.000000
0.908300,3.060000,44.000000
0.898100,1.980000,44.000000
0.892700,1.620000,44.000000
0.885300,1.660000,44.000000
0.861700,1.120000,44.000000
0.849200,0.880000,44.000000
0.804400,0.420000,44.000000
0.096800,0.420000,44.000000
0.022600,0.150000,44.000000
0.021200,0.250000,44.000000
0.019700,0.230000,44.000000
0.018200,0.290000,44.000000
0.016700,0.550000,44.000000
0.015300,0.490000,44.000000
0.013800,0.460000,44.000000
0.012300,0.520000,44.000000
0.010800,0.630000,44.000000
0.009400,0.860000,44.000000
0.007900,1.230000,44.000000
0.005000,4.910000,44.000000
0.003400,5.230000,44.000000
-0.000200,113.850000,44.000000
-0.005900,4.140000,44.000000
-0.007300,1.740000,44.000000
-0.009000,0.600000,44.000000
-0.026800,0.210000,44.000000
-0.028200,0.130000,44.000000
-0.100700,0.400000,44.000000
-0.911300,0.130000,44.000000
-0.938400,0.140000,44.000000
-0.990300,0.160000,44.000000
-1.012400,0.160000,44.000000
-1.090700,0.180000,44.000000
-1.122400,0.230000,44.000000
