10.651700,0.120000,48.000000
10.555000,0.110000,48.000000
10.511000,0.110000,48.000000
8.072300,0.110000,48.000000
7.971900,0.160000,48.000000
7.949800,0.160000,48.000000
7.907400,0.140000,48.000000
7.883000,0.160000,48.000000
7.846400,0.200000,48.000000
7.774200,0.110000,48.000000
7.723500,0.150000,48.000000
7.707700,0.140000,48.000000
7.695600,0.340000,48.000000
7.681400,0.330000,48.000000
7.662000,0.140000,48.000000
7.649300,0.160000,48.000000
7.609900,0.150000,48.000000
7.604500,0.150000,48.000000
7.538100,0.510000,48.000000
7.518300,0.470000,48.000000
7.503900,0.490000,48.000000
7.489300,0.230000,48.000000
7.470200,0.180000,48.000000
7.437400,0.190000,48.000000
7.412300,0.250000,48.000000
7.400800,0.280000,48.000000
7.388400,0.350000,48.000000
7.377300,0.360000,48.000000
7.372300,0.280000,48.000000
7.344500,0.290000,48.000000
7.302800,0.460000,48.000000
7.289400,0.420000,48.000000
7.276900,0.380000,48.000000
7.265800,0.420000,48.000000
7.254200,0.540000,48.000000
7.239300,0.460000,48.000000
7.223300,0.820000,48.000000
7.208500,0.930000,48.000000
7.193900,1.310000,48.000000
7.181500,4.100000,48.000000
7.176400,8.800000,48.000000
7.172900,2.610000,48.000000
7.166000,4.240000,48.000000
7.161800,10.510000,48.000000
7.156800,1.890000,48.000000
7.141800,0.640000,48.000000
7.121300,0.290000,48.000000
7.081500,0.270000,48.000000
7.055800,0.210000,48.000000
7.030400,0.260000,48.000000
6.982300,0.200000,48.000000
6.915200,1.180000,48.000000
6.911100,1.090000,48.000000
6.901000,2.670000,48.000000
6.896500,11.230000,48.000000
6.893000,2.430000,48.000000
6.885400,2.720000,48.000000
6.882000,9.300000,48.000000
6.877200,4.070000,48.000000
6.873800,0.980000,48.000000
6.866200,0.950000,48.000000
6.862700,2.860000,48.000000
6.857800,0.480000,48.000000
6.845800,0.300000,48.000000
6.840200,0.280000,48.000000
6.834200,0.300000,48.000000
6.775500,0.190000,48.000000
6.761200,0.150000,48.000000
4.732800,0.190000,48.000000
4.707100,1.020000,48.000000
4.702600,1.040000,48.000000
4.697700,1.600000,48.000000
4.691300,18.700000,48.000000
4.685900,1.810000,48.000000
4.682900,2.520000,48.000000
4.678900,2.030000,48.000000
4.673300,0.700000,48.000000
4.247600,0.120000,48.000000
4.229200,0.110000,48.000000
4.202900,0.130000,48.000000
4.164200,0.210000,48.000000
4.138000,0.240000,48.000000
4.122500,0.260000,48.000000
4.098900,0.210000,48.000000
4.080400,0.210000,48.000000
4.059600,0.180000,48.000000
4.020500,1.080000,48.000000
4.004900,0.460000,48.000000
3.997300,0.580000,48.000000
3.984500,3.500000,48.000000
3.971600,4.860000,48.000000
3.959900,3.350000,48.000000
3.945600,3.390000,48.000000
3.932200,0.670000,48.000000
3.917500,10.090000,48.000000
3.904500,0.730000,48.000000
3.889400,10.010000,48.000000
3.877400,0.570000,48.000000
3.861300,3.490000,48.000000
3.848800,0.610000,48.000000
3.844300,0.530000,48.000000
3.839200,0.660000,48.000000
3.824300,11.140000,48.000000
3.813000,0.610000,48.000000
3.800500,15.000000,48.000000
3.784300,0.500000,48.000000
3.779000,0.560000,48.000000
3.768400,1.000000,48.000000
3.740600,6.660000,48.000000
3.708700,0.410000,48.000000
3.691600,0.260000,48.000000
3.678400,0.630000,48.000000
3.671300,0.460000,48.000000
3.655400,0.230000,48.000000
3.634000,0.200000,48.000000
3.618000,0.410000,48.000000
3.610700,0.320000,48.000000
3.601400,0.110000,48.000000
3.593000,0.230000,48.000000
3.586000,0.260000,48.000000
3.565400,0.700000,48.000000
3.540000,0.340000,48.000000
3.450200,8.270000,48.000000
3.259400,0.180000,48.000000
3.247500,0.440000,48.000000
3.235800,0.270000,48.000000
3.219000,0.400000,48.000000
3.210700,0.270000,48.000000
3.205500,0.250000,48.000000
3.198200,0.370000,48.000000
3.194500,0.390000,48.000000
3.185500,0.530000,48.000000
3.175000,0.170000,48.000000
3.161500,0.260000,48.000000
3.149000,0.170000,48.000000
3.138000,0.190000,48.000000
3.102500,0.150000,48.000000
3.074400,0.530000,48.000000
3.066700,1.490000,48.000000
3.061300,0.590000,48.000000
3.055100,1.640000,48.000000
3.043600,4.270000,48.000000
3.032000,4.470000,48.000000
3.021400,4.600000,48.000000
3.008200,4.450000,48.000000
2.998400,1.640000,48.000000
2.985100,1.470000,48.000000
2.963800,0.170000,48.000000
2.781600,0.100000,48.000000
2.768100,0.110000,48.000000
2.759900,0.120000,48.000000
2.751900,0.210000,48.000000
2.739500,0.480000,48.000000
2.733500,0.250000,48.000000
2.727000,0.380000,48.000000
2.723700,0.270000,48.000000
2.701500,0.110000,48.000000
2.684300,0.130000,48.000000
2.671800,4.240000,48.000000
2.646700,8.970000,48.000000
2.618800,0.680000,48.000000
2.606800,0.730000,48.000000
2.598500,0.140000,48.000000
2.579400,0.350000,48.000000
2.561400,9.460000,48.000000
2.536300,4.190000,48.000000
2.500500,0.140000,48.000000
2.488200,0.210000,48.000000
2.427900,0.100000,48.000000
2.368100,0.230000,48.000000
2.358800,0.250000,48.000000
2.345600,0.120000,48.000000
2.319700,0.170000,48.000000
2.309800,0.440000,48.000000
2.303300,0.400000,48.000000
2.277200,0.180000,48.000000
2.262500,0.190000,48.000000
2.248000,0.180000,48.000000
2.223800,0.210000,48.000000
2.211800,0.280000,48.000000
2.199200,0.270000,48.000000
2.186900,0.240000,48.000000
2.144800,0.560000,48.000000
2.129600,1.580000,48.000000
2.125500,0.690000,48.000000
2.115200,0.620000,48.000000
2.098400,0.480000,48.000000
2.080400,1.770000,48.000000
2.071800,0.710000,48.000000
2.064200,1.030000,48.000000
2.051800,1.080000,48.000000
2.045200,0.770000,48.000000
2.026800,0.500000,48.000000
1.989600,0.360000,48.000000
1.979700,0.350000,48.000000
1.968000,0.360000,48.000000
1.954900,0.300000,48.000000
1.940200,0.340000,48.000000
1.934300,0.380000,48.000000
1.924900,0.440000,48.000000
1.920500,0.470000,48.000000
1.917000,0.470000,48.000000
1.907000,0.550000,48.000000
1.896800,0.370000,48.000000
1.875600,0.290000,48.000000
1.857200,0.340000,48.000000
1.843200,0.290000,48.000000
1.830000,0.250000,48.000000
1.804200,0.240000,48.000000
1.772700,0.290000,48.000000
1.760900,0.310000,48.000000
1.744800,0.370000,48.000000
1.732900,0.540000,48.000000
1.719100,0.590000,48.000000
1.706900,0.580000,48.000000
1.687800,0.590000,48.000000
1.680300,0.670000,48.000000
1.666200,0.590000,48.000000
1.657900,0.550000,48.000000
1.625600,0.380000,48.000000
1.601600,0.250000,48.000000
1.549000,0.130000,48.000000
1.538400,0.140000,48.000000
1.525800,0.270000,48.000000
1.513900,0.260000,48.000000
1.490300,0.760000,48.000000
1.478000,0.770000,48.000000
1.459900,0.270000,48.000000
1.448300,0.250000,48.000000
1.436700,0.330000,48.000000
1.424700,0.420000,48.000000
1.413400,0.340000,48.000000
1.387600,0.160000,48.000000
1.373300,0.250000,48.000000
1.369100,0.270000,48.000000
1.361100,0.310000,48.000000
1.356700,0.260000,48.000000
1.348800,0.260000,48.000000
1.337800,0.850000,48.000000
1.327000,0.700000,48.000000
1.291500,0.140000,48.000000
1.278400,0.170000,48.000000
1.268300,0.220000,48.000000
1.257900,0.260000,48.000000
1.253300,0.280000,48.000000
1.240500,0.390000,48.000000
1.233200,0.330000,48.000000
1.229400,0.360000,48.000000
1.211000,0.350000,48.000000
1.202300,0.320000,48.000000
1.176600,0.250000,48.000000
1.169900,0.270000,48.000000
1.152400,0.220000,48.000000
1.108600,0.560000,48.000000
1.096700,0.580000,48.000000
1.075700,0.110000,48.000000
1.071400,0.160000,48.000000
1.059300,0.220000,48.000000
1.055700,0.350000,48.000000
1.050200,0.720000,48.000000
1.044000,0.350000,48.000000
1.038000,0.850000,48.000000
1.024800,0.390000,48.000000
1.017900,1.240000,48.000000
1.005900,1.350000,48.000000
1.000200,1.230000,48.000000
0.988200,1.420000,48.000000
0.984200,1.160000,48.000000
0.974600,1.510000,48.000000
0.964200,1.970000,48.000000
0.953800,2.140000,48.000000
0.947100,3.760000,48.000000
0.941400,2.470000,48.000000
0.935700,3.370000,48.000000
0.928900,2.150000,48.000000
0.919500,3.230000,48.000000
0.908200,3.050000,48.000000
0.898200,1.760000,48.000000
0.892900,1.360000,48.000000
0.885500,1.450000,48.000000
0.878300,1.300000,48.000000
0.861500,0.960000,48.000000
0.849000,0.790000,48.000000
0.749600,0.160000,48.000000
0.096900,0.310000,48.000000
0.025300,0.420000,48.000000
0.016500,0.170000,48.000000
0.010600,0.160000,48.000000
0.009100,0.270000,48.000000
0.007500,0.620000,48.000000
0.005000,3.380000,48.000000
-0.000200,107.600000,48.000000
-0.005400,3.820000,48.000000
-0.009300,0.660000,48.000000
-0.010800,0.430000,48.000000
-0.012300,0.320000,48.000000
-0.013800,0.220000,48.000000
-0.015200,0.210000,48.000000
-0.016700,0.130000,48.000000
-0.029900,0.140000,48.000000
-0.040500,0.360000,48.000000
-0.100700,0.420000,48.000000
-0.955300,0.100000,48.000000
-0.999400,0.140000,48.000000
-1.052400,0.130000,48.000000
-1.125700,0.180000,48.000000
