10.644300,0.110000,6.000000
10.524600,0.110000,6.000000
7.944400,0.100000,6.000000
7.860000,0.110000,6.000000
7.845600,0.110000,6.000000
7.707100,0.130000,6.000000
7.695300,0.280000,6.000000
7.681900,0.290000,6.000000
7.662400,0.130000,6.000000
7.658300,0.130000,6.000000
7.636900,0.140000,6.000000
7.625600,0.110000,6.000000
7.588200,0.180000,6.000000
7.534100,0.570000,6.000000
7.519200,0.540000,6.000000
7.503900,0.450000,6.000000
7.489800,0.230000,6.000000
7.469500,0.170000,6.000000
7.438800,0.150000,6.000000
7.418500,0.170000,6.000000
7.382900,0.200000,6.000000
7.355900,0.200000,6.000000
7.304600,0.280000,6.000000
7.287500,0.350000,6.000000
7.277900,0.300000,6.000000
7.265900,0.310000,6.000000
7.252700,0.390000,6.000000
7.238400,0.370000,6.000000
7.223200,0.680000,6.000000
7.203200,0.390000,6.000000
7.181000,1.960000,6.000000
7.176200,11.300000,6.000000
7.172800,3.240000,6.000000
7.165000,3.400000,6.000000
7.161600,13.510000,6.000000
7.156600,2.370000,6.000000
7.141500,0.700000,6.000000
7.124600,0.290000,6.000000
7.107800,0.240000,6.000000
7.084000,0.170000,6.000000
7.054100,0.190000,6.000000
7.029600,0.300000,6.000000
7.026800,0.290000,6.000000
6.994300,0.180000,6.000000
6.960300,0.190000,6.000000
6.936200,0.290000,6.000000
6.923500,0.450000,6.000000
6.910900,0.890000,6.000000
6.907200,0.740000,6.000000
6.901200,2.430000,6.000000
6.896300,15.000000,6.000000
6.892800,3.310000,6.000000
6.885300,3.210000,6.000000
6.881800,12.100000,6.000000
6.876900,1.640000,6.000000
6.862100,0.380000,6.000000
6.844700,0.300000,6.000000
6.837000,0.250000,6.000000
6.824400,0.260000,6.000000
6.782100,0.180000,6.000000
6.762800,0.180000,6.000000
6.743800,0.170000,6.000000
4.712700,0.310000,6.000000
4.706600,0.550000,6.000000
4.702900,0.680000,6.000000
4.682400,0.180000,6.000000
4.678000,0.350000,6.000000
4.671600,0.290000,6.000000
4.139200,0.210000,6.000000
4.121700,0.200000,6.000000
4.100900,0.160000,6.000000
4.074800,0.180000,6.000000
4.062200,0.140000,6.000000
4.060200,0.150000,6.000000
4.053400,0.130000,6.000000
4.032500,0.220000,6.000000
4.020400,0.910000,6.000000
4.006800,0.370000,6.000000
3.981900,4.090000,6.000000
3.969000,5.980000,6.000000
3.957300,3.980000,6.000000
3.945100,4.130000,6.000000
3.931900,0.390000,6.000000
3.917000,13.070000,6.000000
3.889500,13.000000,6.000000
3.861400,4.130000,6.000000
3.841700,0.290000,6.000000
3.837600,0.300000,6.000000
3.824300,1.520000,6.000000
3.812700,0.370000,6.000000
3.799400,1.990000,6.000000
3.785200,0.300000,6.000000
3.769100,0.620000,6.000000
3.740500,8.470000,6.000000
3.710400,0.340000,6.000000
3.678400,0.160000,6.000000
3.643900,0.130000,6.000000
3.629400,0.150000,6.000000
3.616100,0.260000,6.000000
3.587500,0.110000,6.000000
3.450400,0.230000,6.000000
3.198100,0.210000,6.000000
3.185000,0.150000,6.000000
3.172700,0.120000,6.000000
3.093200,0.150000,6.000000
3.065500,1.760000,6.000000
3.054000,1.930000,6.000000
3.042400,5.250000,6.000000
3.030800,5.380000,6.000000
3.020200,5.630000,6.000000
3.007000,5.560000,6.000000
2.997100,1.940000,6.000000
2.983900,1.850000,6.000000
2.953700,0.110000,6.000000
2.950300,0.100000,6.000000
2.741800,0.140000,6.000000
2.671600,3.930000,6.000000
2.646500,8.530000,6.000000
2.618600,0.160000,6.000000
2.606800,0.230000,6.000000
2.589900,0.100000,6.000000
2.579400,0.220000,6.000000
2.561500,9.050000,6.000000
2.536400,4.100000,6.000000
2.368100,0.200000,6.000000
2.359100,0.140000,6.000000
2.319700,0.140000,6.000000
2.310400,0.350000,6.000000
2.303500,0.290000,6.000000
2.227200,0.140000,6.000000
2.222900,0.150000,6.000000
2.206900,0.170000,6.000000
2.199000,0.200000,6.000000
2.185700,0.170000,6.000000
2.160300,0.170000,6.000000
2.148200,0.240000,6.000000
2.135000,0.330000,6.000000
2.118600,0.430000,6.000000
2.115100,0.450000,6.000000
2.098600,0.300000,6.000000
2.080600,2.140000,6.000000
2.044900,0.580000,6.000000
2.025600,0.380000,6.000000
2.011300,0.350000,6.000000
1.988200,0.260000,6.000000
1.964300,0.190000,6.000000
1.951900,0.180000,6.000000
1.927900,0.180000,6.000000
1.920500,0.200000,6.000000
1.899000,0.150000,6.000000
1.857800,0.260000,6.000000
1.842600,0.190000,6.000000
1.827500,0.180000,6.000000
1.821000,0.190000,6.000000
1.800900,0.210000,6.000000
1.771700,0.210000,6.000000
1.762300,0.200000,6.000000
1.749300,0.190000,6.000000
1.740200,0.190000,6.000000
1.679800,0.360000,6.000000
1.667600,0.350000,6.000000
1.657600,0.320000,6.000000
1.638500,0.280000,6.000000
1.624100,0.240000,6.000000
1.569000,0.110000,6.000000
1.549700,0.110000,6.000000
1.490300,0.140000,6.000000
1.486800,0.140000,6.000000
1.470800,0.160000,6.000000
1.446400,0.140000,6.000000
1.425500,0.200000,6.000000
1.412000,0.200000,6.000000
1.337200,0.470000,6.000000
1.325600,0.420000,6.000000
1.253100,0.170000,6.000000
1.230000,0.180000,6.000000
1.214800,0.190000,6.000000
1.211300,0.190000,6.000000
1.202700,0.210000,6.000000
1.173800,0.160000,6.000000
1.152300,0.170000,6.000000
1.108600,0.190000,6.000000
1.096700,0.190000,6.000000
1.079700,0.120000,6.000000
1.056700,0.160000,6.000000
1.050100,0.160000,6.000000
1.038100,0.160000,6.000000
1.024200,0.170000,6.000000
0.984300,0.480000,6.000000
0.971100,0.560000,6.000000
0.947200,1.460000,6.000000
0.941200,0.920000,6.000000
0.935800,1.430000,6.000000
0.929600,0.930000,6.000000
0.922100,0.880000,6.000000
0.919400,0.860000,6.000000
0.908700,0.900000,6.000000
0.898200,0.890000,6.000000
0.892600,0.890000,6.000000
0.877600,0.890000,6.000000
0.863300,0.750000,6.000000
0.813000,0.430000,6.000000
0.804900,0.410000,6.000000
0.793800,0.350000,6.000000
0.749100,0.250000,6.000000
0.742200,0.250000,6.000000
0.734500,0.230000,6.000000
0.673900,0.100000,6.000000
0.660700,0.100000,6.000000
0.097000,0.310000,6.000000
0.041600,0.130000,6.000000
0.029500,0.220000,6.000000
0.028100,0.390000,6.000000
0.027000,0.420000,6.000000
0.025500,0.190000,6.000000
0.016400,0.170000,6.000000
0.010600,0.240000,6.000000
0.009100,0.390000,6.000000
0.007500,0.720000,6.000000
0.004900,3.300000,6.000000
0.003100,3.940000,6.000000
-0.000200,107.100000,6.000000
-0.005200,3.950000,6.000000
-0.005900,3.640000,6.000000
-0.007800,1.490000,6.000000
-0.009300,0.910000,6.000000
-0.010800,0.680000,6.000000
-0.012300,0.490000,6.000000
-0.013800,0.410000,6.000000
-0.015300,0.370000,6.000000
-0.016800,0.310000,6.000000
-0.018200,0.270000,6.000000
-0.019700,0.240000,6.000000
-0.021200,0.210000,6.000000
-0.022700,0.250000,6.000000
-0.024000,0.220000,6.000000
-0.036000,0.290000,6.000000
-0.037400,0.300000,6.000000
-0.100700,0.390000,6.000000
-0.997400,0.110000,6.000000
-1.020300,0.110000,6.000000
-1.028600,0.110000,6.000000
-1.080000,0.130000,6.000000
-1.103700,0.140000,6.000000
-1.112800,0.140000,6.000000
-1.139200,0.150000,6.000000
-1.152900,0.160000,6.000000
-1.161700,0.150000,6.000000
-1.169700,0.170000,6.000000
-1.210400,0.170000,6.000000
