10.661000,0.120000,18.000000
10.630600,0.120000,18.000000
10.598800,0.110000,18.000000
10.566600,0.110000,18.000000
10.560500,0.110000,18.000000
10.551300,0.100000,18.000000
10.496900,0.090000,18.000000
7.983200,0.120000,18.000000
7.961900,0.140000,18.000000
7.950500,0.130000,18.000000
7.913400,0.110000,18.000000
7.898600,0.110000,18.000000
7.879900,0.130000,18.000000
7.869700,0.130000,18.000000
7.837000,0.120000,18.000000
7.828900,0.120000,18.000000
7.820900,0.110000,18.000000
7.813700,0.100000,18.000000
7.780400,0.100000,18.000000
7.772600,0.110000,18.000000
7.749500,0.110000,18.000000
7.746300,0.120000,18.000000
7.724700,0.120000,18.000000
7.708700,0.140000,18.000000
7.695400,0.320000,18.000000
7.682000,0.340000,18.000000
7.653700,0.150000,18.000000
7.599500,0.170000,18.000000
7.589200,0.220000,18.000000
7.535100,0.620000,18.000000
7.519600,0.540000,18.000000
7.504100,0.510000,18.000000
7.489600,0.270000,18.000000
7.468300,0.190000,18.000000
7.462800,0.190000,18.000000
7.427400,0.190000,18.000000
7.412200,0.200000,18.000000
7.399600,0.210000,18.000000
7.381700,0.240000,18.000000
7.357300,0.230000,18.000000
7.350400,0.230000,18.000000
7.304300,0.340000,18.000000
7.287500,0.430000,18.000000
7.267300,0.380000,18.000000
7.252500,0.460000,18.000000
7.238700,0.450000,18.000000
7.223300,0.810000,18.000000
7.207600,0.400000,18.000000
7.181000,2.360000,18.000000
7.176200,11.570000,18.000000
7.173000,3.430000,18.000000
7.165000,3.670000,18.000000
7.161600,13.800000,18.000000
7.156800,2.480000,18.000000
7.141600,0.790000,18.000000
7.124700,0.320000,18.000000
7.108200,0.260000,18.000000
7.089500,0.180000,18.000000
7.050400,0.190000,18.000000
7.024800,0.310000,18.000000
6.995200,0.190000,18.000000
6.975600,0.190000,18.000000
6.938300,0.380000,18.000000
6.927400,0.370000,18.000000
6.911000,0.940000,18.000000
6.901200,2.540000,18.000000
6.896400,15.000000,18.000000
6.892900,3.300000,18.000000
6.885300,3.210000,18.000000
6.881900,12.050000,18.000000
6.877000,1.870000,18.000000
6.869800,0.460000,18.000000
6.862400,0.580000,18.000000
6.856500,0.380000,18.000000
6.842800,0.360000,18.000000
6.827300,0.250000,18.000000
6.822900,0.240000,18.000000
6.778700,0.160000,18.000000
6.763000,0.170000,18.000000
6.750400,0.130000,18.000000
4.711300,0.250000,18.000000
4.705800,0.400000,18.000000
4.683500,0.130000,18.000000
4.679200,0.170000,18.000000
4.672900,0.260000,18.000000
4.195000,0.100000,18.000000
4.137700,0.250000,18.000000
4.123600,0.270000,18.000000
4.108600,0.220000,18.000000
4.096600,0.210000,18.000000
4.087000,0.210000,18.000000
4.069800,0.200000,18.000000
4.032200,0.290000,18.000000
4.020300,1.230000,18.000000
4.004300,0.450000,18.000000
3.982900,4.490000,18.000000
3.970000,6.490000,18.000000
3.958300,4.430000,18.000000
3.945300,4.060000,18.000000
3.931100,0.600000,18.000000
3.917200,13.330000,18.000000
3.889400,13.370000,18.000000
3.861400,4.450000,18.000000
3.841500,0.310000,18.000000
3.833600,0.360000,18.000000
3.824300,2.700000,18.000000
3.812600,0.430000,18.000000
3.799900,3.600000,18.000000
3.769900,0.580000,18.000000
3.740500,8.910000,18.000000
3.710400,0.480000,18.000000
3.687400,0.140000,18.000000
3.679100,0.180000,18.000000
3.657900,0.110000,18.000000
3.634500,0.140000,18.000000
3.615900,0.240000,18.000000
3.586800,0.110000,18.000000
3.450200,1.060000,18.000000
3.215900,0.150000,18.000000
3.198200,0.260000,18.000000
3.185800,0.190000,18.000000
3.174600,0.120000,18.000000
3.161800,0.180000,18.000000
3.150200,0.110000,18.000000
3.137900,0.100000,18.000000
3.097500,0.190000,18.000000
3.086000,0.230000,18.000000
3.066000,1.930000,18.000000
3.054400,2.050000,18.000000
3.042900,5.600000,18.000000
3.031300,5.710000,18.000000
3.020700,5.900000,18.000000
3.007400,5.820000,18.000000
2.997500,2.060000,18.000000
2.984300,1.890000,18.000000
2.968200,0.200000,18.000000
2.953200,0.100000,18.000000
2.742300,0.160000,18.000000
2.733600,0.150000,18.000000
2.727000,0.100000,18.000000
2.671600,3.990000,18.000000
2.646500,8.770000,18.000000
2.618800,0.380000,18.000000
2.606800,0.400000,18.000000
2.579200,0.280000,18.000000
2.561500,9.160000,18.000000
2.536400,4.170000,18.000000
2.367900,0.200000,18.000000
2.358700,0.140000,18.000000
2.319600,0.130000,18.000000
2.310200,0.400000,18.000000
2.303400,0.340000,18.000000
2.290300,0.100000,18.000000
2.263700,0.100000,18.000000
2.242600,0.130000,18.000000
2.227300,0.170000,18.000000
2.223300,0.170000,18.000000
2.211500,0.210000,18.000000
2.198800,0.240000,18.000000
2.186100,0.200000,18.000000
2.164200,0.180000,18.000000
2.147800,0.290000,18.000000
2.134700,0.430000,18.000000
2.129600,0.570000,18.000000
2.124800,0.480000,18.000000
2.115300,0.540000,18.000000
2.098400,0.370000,18.000000
2.080500,2.050000,18.000000
2.064100,0.500000,18.000000
2.045400,0.660000,18.000000
2.024500,0.420000,18.000000
2.011400,0.380000,18.000000
1.989400,0.290000,18.000000
1.962300,0.190000,18.000000
1.941300,0.220000,18.000000
1.930100,0.220000,18.000000
1.920500,0.250000,18.000000
1.906500,0.200000,18.000000
1.892800,0.190000,18.000000
1.857300,0.280000,18.000000
1.842500,0.210000,18.000000
1.829900,0.190000,18.000000
1.816400,0.210000,18.000000
1.802100,0.230000,18.000000
1.790700,0.230000,18.000000
1.768500,0.250000,18.000000
1.728000,0.300000,18.000000
1.704600,0.350000,18.000000
1.680000,0.420000,18.000000
1.666600,0.430000,18.000000
1.656800,0.380000,18.000000
1.643600,0.370000,18.000000
1.553100,0.130000,18.000000
1.534000,0.110000,18.000000
1.490500,0.190000,18.000000
1.477900,0.190000,18.000000
1.472800,0.170000,18.000000
1.461100,0.170000,18.000000
1.423800,0.250000,18.000000
1.411700,0.230000,18.000000
1.383200,0.110000,18.000000
1.354100,0.100000,18.000000
1.337400,0.500000,18.000000
1.325600,0.470000,18.000000
1.291200,0.100000,18.000000
1.274600,0.110000,18.000000
1.253300,0.200000,18.000000
1.240200,0.240000,18.000000
1.229900,0.220000,18.000000
1.213200,0.250000,18.000000
1.201500,0.230000,18.000000
1.174200,0.190000,18.000000
1.156900,0.190000,18.000000
1.133000,0.100000,18.000000
1.121300,0.120000,18.000000
1.108700,0.280000,18.000000
1.096700,0.300000,18.000000
1.093100,0.140000,18.000000
1.057900,0.160000,18.000000
1.050300,0.210000,18.000000
1.037600,0.230000,18.000000
0.994700,0.440000,18.000000
0.983700,0.650000,18.000000
0.968600,0.760000,18.000000
0.957500,0.960000,18.000000
0.947200,1.980000,18.000000
0.941900,1.170000,18.000000
0.935800,1.930000,18.000000
0.929500,1.220000,18.000000
0.919400,1.200000,18.000000
0.911100,1.180000,18.000000
0.898300,1.120000,18.000000
0.892600,1.020000,18.000000
0.876700,1.040000,18.000000
0.863900,0.840000,18.000000
0.817800,0.410000,18.000000
0.768400,0.250000,18.000000
0.758800,0.240000,18.000000
0.742000,0.250000,18.000000
0.096800,0.370000,18.000000
0.041800,0.760000,18.000000
0.016500,0.180000,18.000000
0.015200,0.120000,18.000000
0.013600,0.110000,18.000000
0.012100,0.150000,18.000000
0.010600,0.250000,18.000000
0.009100,0.380000,18.000000
0.007600,0.740000,18.000000
0.005000,3.770000,18.000000
-0.000200,104.290000,18.000000
-0.005700,3.490000,18.000000
-0.009200,0.490000,18.000000
-0.010700,0.260000,18.000000
-0.012100,0.170000,18.000000
-0.026800,0.560000,18.000000
-0.028300,0.680000,18.000000
-0.039100,0.390000,18.000000
-0.100500,0.310000,18.000000
-0.928900,0.100000,18.000000
-0.959000,0.110000,18.000000
-0.983800,0.110000,18.000000
-1.003500,0.110000,18.000000
-1.014600,0.140000,18.000000
-1.029300,0.130000,18.000000
-1.042000,0.140000,18.000000
-1.087400,0.160000,18.000000
-1.145000,0.170000,18.000000
-1.147500,0.170000,18.000000
-1.158500,0.180000,18.000000
-1.192300,0.200000,18.000000
-1.222300,0.220000,18.000000
