10.651400,0.130000,27.000000
10.608000,0.130000,27.000000
10.526500,0.120000,27.000000
8.195500,0.110000,27.000000
7.983900,0.120000,27.000000
7.961300,0.130000,27.000000
7.949100,0.140000,27.000000
7.944000,0.130000,27.000000
7.938100,0.120000,27.000000
7.917900,0.120000,27.000000
7.903800,0.140000,27.000000
7.885200,0.130000,27.000000
7.853700,0.130000,27.000000
7.839500,0.160000,27.000000
7.829700,0.130000,27.000000
7.742500,0.120000,27.000000
7.722500,0.150000,27.000000
7.707300,0.160000,27.000000
7.695100,0.360000,27.000000
7.681800,0.340000,27.000000
7.650200,0.160000,27.000000
7.636400,0.160000,27.000000
7.537200,0.650000,27.000000
7.518700,0.580000,27.000000
7.503500,0.530000,27.000000
7.490000,0.260000,27.000000
7.470900,0.210000,27.000000
7.445400,0.200000,27.000000
7.423000,0.210000,27.000000
7.411200,0.230000,27.000000
7.390000,0.280000,27.000000
7.369000,0.260000,27.000000
7.351300,0.240000,27.000000
7.343600,0.280000,27.000000
7.338700,0.270000,27.000000
7.333800,0.260000,27.000000
7.303900,0.390000,27.000000
7.288100,0.450000,27.000000
7.277200,0.380000,27.000000
7.264700,0.400000,27.000000
7.252200,0.520000,27.000000
7.239000,0.470000,27.000000
7.223800,0.840000,27.000000
7.202500,0.470000,27.000000
7.181100,2.920000,27.000000
7.176300,11.830000,27.000000
7.165100,4.000000,27.000000
7.161700,13.970000,27.000000
7.156800,2.510000,27.000000
7.141600,0.790000,27.000000
7.130200,0.330000,27.000000
7.082000,0.190000,27.000000
7.025400,0.310000,27.000000
6.993800,0.210000,27.000000
6.958100,0.210000,27.000000
6.935600,0.380000,27.000000
6.923000,0.530000,27.000000
6.911000,1.190000,27.000000
6.901200,2.750000,27.000000
6.896400,15.000000,27.000000
6.893100,3.470000,27.000000
6.885300,3.260000,27.000000
6.881900,12.040000,27.000000
6.877100,2.200000,27.000000
6.862600,0.900000,27.000000
6.856500,0.330000,27.000000
6.850500,0.320000,27.000000
6.845400,0.310000,27.000000
6.840100,0.310000,27.000000
6.828700,0.300000,27.000000
6.801300,0.190000,27.000000
6.777000,0.180000,27.000000
6.761600,0.170000,27.000000
6.750400,0.160000,27.000000
6.743400,0.140000,27.000000
4.711200,0.260000,27.000000
4.705300,0.900000,27.000000
4.701700,0.250000,27.000000
4.684600,0.210000,27.000000
4.680200,0.550000,27.000000
4.674300,0.340000,27.000000
4.178800,0.150000,27.000000
4.146700,0.270000,27.000000
4.138300,0.260000,27.000000
4.124700,0.270000,27.000000
4.096800,0.220000,27.000000
4.082400,0.220000,27.000000
4.059300,0.200000,27.000000
4.032400,0.280000,27.000000
4.020300,1.350000,27.000000
4.005000,0.480000,27.000000
3.996600,0.610000,27.000000
3.983500,4.670000,27.000000
3.970600,6.790000,27.000000
3.958800,4.480000,27.000000
3.945300,4.190000,27.000000
3.917300,13.600000,27.000000
3.889400,13.500000,27.000000
3.861300,4.410000,27.000000
3.839000,0.440000,27.000000
3.824200,4.040000,27.000000
3.812500,0.480000,27.000000
3.800100,5.350000,27.000000
3.769000,0.780000,27.000000
3.740500,9.310000,27.000000
3.711500,0.380000,27.000000
3.678400,0.260000,27.000000
3.657000,0.150000,27.000000
3.648400,0.120000,27.000000
3.634100,0.150000,27.000000
3.615900,0.280000,27.000000
3.586200,0.150000,27.000000
3.565400,0.160000,27.000000
3.450200,2.210000,27.000000
3.227300,0.130000,27.000000
3.216300,0.200000,27.000000
3.199000,0.290000,27.000000
3.185300,0.220000,27.000000
3.172200,0.130000,27.000000
3.160000,0.150000,27.000000
3.151100,0.130000,27.000000
3.137600,0.140000,27.000000
3.066300,1.970000,27.000000
3.054700,2.120000,27.000000
3.043100,5.790000,27.000000
3.031500,5.890000,27.000000
3.020900,6.110000,27.000000
3.007700,5.980000,27.000000
2.997800,2.110000,27.000000
2.984500,1.960000,27.000000
2.741900,0.200000,27.000000
2.733800,0.170000,27.000000
2.726800,0.120000,27.000000
2.671700,4.140000,27.000000
2.646600,9.070000,27.000000
2.618800,0.400000,27.000000
2.606700,0.390000,27.000000
2.588200,0.130000,27.000000
2.579700,0.340000,27.000000
2.561500,9.570000,27.000000
2.536400,4.320000,27.000000
2.368000,0.230000,27.000000
2.359100,0.190000,27.000000
2.320100,0.130000,27.000000
2.309700,0.420000,27.000000
2.302400,0.360000,27.000000
2.286400,0.140000,27.000000
2.281200,0.130000,27.000000
2.243500,0.140000,27.000000
2.223400,0.190000,27.000000
2.212400,0.210000,27.000000
2.198300,0.240000,27.000000
2.186900,0.220000,27.000000
2.161600,0.210000,27.000000
2.148100,0.300000,27.000000
2.129600,0.790000,27.000000
2.124800,0.530000,27.000000
2.115900,0.610000,27.000000
2.098500,0.410000,27.000000
2.080600,1.990000,27.000000
2.064300,0.630000,27.000000
2.045200,0.720000,27.000000
2.023500,0.460000,27.000000
2.010800,0.450000,27.000000
1.963700,0.240000,27.000000
1.951000,0.230000,27.000000
1.941700,0.250000,27.000000
1.920700,0.320000,27.000000
1.907400,0.240000,27.000000
1.892000,0.230000,27.000000
1.884100,0.230000,27.000000
1.876700,0.240000,27.000000
1.856700,0.320000,27.000000
1.842400,0.250000,27.000000
1.829800,0.230000,27.000000
1.801200,0.260000,27.000000
1.783500,0.260000,27.000000
1.768900,0.270000,27.000000
1.756200,0.240000,27.000000
1.749100,0.270000,27.000000
1.716400,0.400000,27.000000
1.703500,0.430000,27.000000
1.679800,0.500000,27.000000
1.666500,0.480000,27.000000
1.657300,0.470000,27.000000
1.649700,0.440000,27.000000
1.565000,0.110000,27.000000
1.549800,0.130000,27.000000
1.535800,0.120000,27.000000
1.518800,0.150000,27.000000
1.490400,0.280000,27.000000
1.478000,0.280000,27.000000
1.459000,0.210000,27.000000
1.436400,0.220000,27.000000
1.424400,0.310000,27.000000
1.411200,0.300000,27.000000
1.400100,0.220000,27.000000
1.372700,0.110000,27.000000
1.368800,0.120000,27.000000
1.357600,0.130000,27.000000
1.337300,0.560000,27.000000
1.325600,0.530000,27.000000
1.284100,0.120000,27.000000
1.275400,0.120000,27.000000
1.268200,0.130000,27.000000
1.253700,0.210000,27.000000
1.240600,0.280000,27.000000
1.229700,0.280000,27.000000
1.212100,0.300000,27.000000
1.202400,0.280000,27.000000
1.178600,0.220000,27.000000
1.162900,0.200000,27.000000
1.108600,0.390000,27.000000
1.096700,0.440000,27.000000
1.071300,0.150000,27.000000
1.059900,0.200000,27.000000
1.055000,0.200000,27.000000
1.049900,0.240000,27.000000
1.037800,0.280000,27.000000
1.033300,0.220000,27.000000
1.017900,0.290000,27.000000
1.005900,0.390000,27.000000
0.997700,0.530000,27.000000
0.983600,0.800000,27.000000
0.971800,0.980000,27.000000
0.947100,2.570000,27.000000
0.941300,1.420000,27.000000
0.935800,2.380000,27.000000
0.929300,1.450000,27.000000
0.919500,1.580000,27.000000
0.910800,1.390000,27.000000
0.908400,1.490000,27.000000
0.898300,1.400000,27.000000
0.892600,1.180000,27.000000
0.885500,1.220000,27.000000
0.876800,1.200000,27.000000
0.863200,0.970000,27.000000
0.850600,0.710000,27.000000
0.817000,0.480000,27.000000
0.793900,0.360000,27.000000
0.789500,0.360000,27.000000
0.744600,0.260000,27.000000
0.714000,0.140000,27.000000
0.096800,0.340000,27.000000
0.038900,0.220000,27.000000
0.028600,0.120000,27.000000
0.026900,0.530000,27.000000
0.019600,0.170000,27.000000
0.018200,0.170000,27.000000
0.016600,0.350000,27.000000
0.015300,0.340000,27.000000
0.013800,0.300000,27.000000
0.012300,0.360000,27.000000
0.010800,0.450000,27.000000
0.009300,0.650000,27.000000
0.007800,0.980000,27.000000
0.005000,4.200000,27.000000
0.003300,4.340000,27.000000
-0.000200,106.170000,27.000000
-0.004500,3.650000,27.000000
-0.005900,3.690000,27.000000
-0.009000,0.530000,27.000000
-0.010600,0.300000,27.000000
-0.025300,0.230000,27.000000
-0.100600,0.340000,27.000000
-0.974200,0.130000,27.000000
-1.009500,0.150000,27.000000
-1.047500,0.160000,27.000000
-1.058600,0.160000,27.000000
-1.073800,0.180000,27.000000
-1.088100,0.170000,27.000000
-1.096600,0.180000,27.000000
-1.105300,0.180000,27.000000
-1.117400,0.180000,27.000000
-1.166100,0.200000,27.000000
-1.182200,0.200000,27.000000
-1.204300,0.220000,27.000000
