10.576700,0.140000,33.000000
10.528200,0.130000,33.000000
10.401300,0.100000,33.000000
10.361300,0.090000,33.000000
8.500200,0.080000,33.000000
8.456100,0.090000,33.000000
8.432100,0.080000,33.000000
8.414900,0.080000,33.000000
8.367400,0.080000,33.000000
8.329100,0.080000,33.000000
8.296100,0.080000,33.000000
8.204400,0.120000,33.000000
8.142100,0.100000,33.000000
8.104100,0.110000,33.000000
8.081900,0.110000,33.000000
7.991200,0.150000,33.000000
7.949900,0.170000,33.000000
7.908200,0.160000,33.000000
7.848700,0.170000,33.000000
7.773100,0.140000,33.000000
7.722800,0.190000,33.000000
7.696000,0.390000,33.000000
7.681200,0.400000,33.000000
7.663300,0.180000,33.000000
7.650400,0.190000,33.000000
7.613200,0.180000,33.000000
7.587900,0.260000,33.000000
7.538900,0.700000,33.000000
7.518800,0.580000,33.000000
7.504500,0.570000,33.000000
7.488500,0.300000,33.000000
7.412200,0.260000,33.000000
7.383500,0.330000,33.000000
7.371200,0.330000,33.000000
7.303900,0.500000,33.000000
7.287100,0.540000,33.000000
7.265600,0.500000,33.000000
7.252600,0.640000,33.000000
7.239400,0.590000,33.000000
7.223600,0.980000,33.000000
7.208100,0.770000,33.000000
7.194100,1.110000,33.000000
7.181300,3.630000,33.000000
7.176400,12.070000,33.000000
7.161800,14.180000,33.000000
7.156900,2.300000,33.000000
7.141500,0.720000,33.000000
7.124700,0.300000,33.000000
7.112700,0.270000,33.000000
7.082200,0.200000,33.000000
7.030300,0.330000,33.000000
6.991600,0.220000,33.000000
6.981200,0.210000,33.000000
6.915200,0.980000,33.000000
6.911000,1.330000,33.000000
6.901000,3.260000,33.000000
6.896500,15.000000,33.000000
6.893200,3.070000,33.000000
6.885300,3.490000,33.000000
6.882000,11.990000,33.000000
6.877200,2.550000,33.000000
6.862600,1.280000,33.000000
6.857300,0.310000,33.000000
6.845500,0.270000,33.000000
6.831600,0.260000,33.000000
6.799100,0.150000,33.000000
6.775600,0.150000,33.000000
6.764600,0.130000,33.000000
4.711200,0.170000,33.000000
4.705600,0.540000,33.000000
4.702200,0.340000,33.000000
4.684600,0.130000,33.000000
4.680300,0.340000,33.000000
4.674300,0.350000,33.000000
4.666600,0.140000,33.000000
4.254400,0.120000,33.000000
4.138900,0.350000,33.000000
4.122500,0.310000,33.000000
4.090500,0.270000,33.000000
4.078000,0.280000,33.000000
4.060400,0.260000,33.000000
4.020400,1.350000,33.000000
4.004600,0.570000,33.000000
3.984100,4.850000,33.000000
3.971200,6.980000,33.000000
3.959500,4.720000,33.000000
3.945500,4.380000,33.000000
3.930900,0.660000,33.000000
3.917400,13.830000,33.000000
3.889500,13.690000,33.000000
3.861400,4.550000,33.000000
3.839900,0.500000,33.000000
3.824300,6.120000,33.000000
3.800400,8.300000,33.000000
3.770300,0.910000,33.000000
3.740600,9.550000,33.000000
3.709900,0.430000,33.000000
3.678300,0.350000,33.000000
3.671800,0.180000,33.000000
3.656500,0.170000,33.000000
3.644000,0.140000,33.000000
3.634900,0.180000,33.000000
3.616100,0.260000,33.000000
3.610100,0.140000,33.000000
3.586700,0.180000,33.000000
3.565500,0.240000,33.000000
3.450200,3.700000,33.000000
3.247600,0.170000,33.000000
3.219000,0.280000,33.000000
3.198000,0.380000,33.000000
3.185500,0.380000,33.000000
3.175200,0.170000,33.000000
3.162800,0.190000,33.000000
3.138900,0.150000,33.000000
3.103800,0.200000,33.000000
3.066500,2.080000,33.000000
3.055000,2.240000,33.000000
3.043400,6.030000,33.000000
3.031800,6.160000,33.000000
3.021200,6.310000,33.000000
3.008000,6.160000,33.000000
2.998200,2.170000,33.000000
2.984900,2.000000,33.000000
2.767600,0.080000,33.000000
2.759500,0.090000,33.000000
2.752000,0.130000,33.000000
2.742000,0.260000,33.000000
2.733600,0.200000,33.000000
2.726900,0.190000,33.000000
2.701200,0.110000,33.000000
2.671700,4.370000,33.000000
2.646600,9.500000,33.000000
2.618700,0.490000,33.000000
2.606800,0.500000,33.000000
2.579300,0.330000,33.000000
2.561500,9.950000,33.000000
2.536400,4.430000,33.000000
2.368500,0.250000,33.000000
2.319900,0.150000,33.000000
2.310000,0.470000,33.000000
2.303200,0.420000,33.000000
2.262700,0.150000,33.000000
2.245200,0.170000,33.000000
2.212500,0.260000,33.000000
2.198700,0.280000,33.000000
2.186300,0.230000,33.000000
2.165400,0.230000,33.000000
2.144800,0.360000,33.000000
2.129600,0.990000,33.000000
2.115100,0.680000,33.000000
2.097700,0.460000,33.000000
2.080500,2.010000,33.000000
2.064400,0.800000,33.000000
2.051600,0.700000,33.000000
2.045200,0.820000,33.000000
2.024600,0.530000,33.000000
1.980300,0.300000,33.000000
1.920900,0.380000,33.000000
1.907100,0.350000,33.000000
1.856400,0.350000,33.000000
1.842000,0.270000,33.000000
1.817300,0.270000,33.000000
1.804600,0.270000,33.000000
1.777900,0.290000,33.000000
1.769800,0.300000,33.000000
1.731800,0.420000,33.000000
1.717700,0.510000,33.000000
1.705800,0.520000,33.000000
1.687700,0.570000,33.000000
1.680200,0.600000,33.000000
1.667100,0.560000,33.000000
1.656900,0.540000,33.000000
1.546000,0.170000,33.000000
1.513800,0.190000,33.000000
1.490300,0.430000,33.000000
1.477800,0.400000,33.000000
1.437000,0.290000,33.000000
1.425000,0.360000,33.000000
1.411400,0.340000,33.000000
1.373100,0.160000,33.000000
1.337400,0.690000,33.000000
1.325900,0.590000,33.000000
1.269100,0.150000,33.000000
1.253000,0.250000,33.000000
1.240300,0.340000,33.000000
1.229800,0.360000,33.000000
1.213500,0.330000,33.000000
1.183400,0.270000,33.000000
1.152200,0.230000,33.000000
1.121500,0.080000,33.000000
1.108700,0.410000,33.000000
1.096700,0.450000,33.000000
1.071200,0.160000,33.000000
1.050300,0.340000,33.000000
1.037800,0.430000,33.000000
1.018000,0.530000,33.000000
1.005900,0.660000,33.000000
1.000300,0.730000,33.000000
0.984000,1.000000,33.000000
0.972100,1.260000,33.000000
0.964100,1.440000,33.000000
0.953500,1.660000,33.000000
0.947200,3.010000,33.000000
0.941400,1.890000,33.000000
0.935700,2.790000,33.000000
0.929300,1.810000,33.000000
0.919500,2.030000,33.000000
0.910900,1.670000,33.000000
0.908300,1.940000,33.000000
0.898200,1.590000,33.000000
0.892500,1.390000,33.000000
0.885700,1.400000,33.000000
0.876600,1.360000,33.000000
0.737900,0.240000,33.000000
0.096800,0.370000,33.000000
0.016900,0.120000,33.000000
0.011000,0.160000,33.000000
0.009500,0.290000,33.000000
0.008000,0.550000,33.000000
0.005100,3.880000,33.000000
0.003600,3.710000,33.000000
-0.000200,107.790000,33.000000
-0.005800,4.550000,33.000000
-0.008700,0.970000,33.000000
-0.010300,0.620000,33.000000
-0.011800,0.440000,33.000000
-0.013300,0.290000,33.000000
-0.014800,0.250000,33.000000
-0.016300,0.190000,33.000000
-0.017800,0.150000,33.000000
-0.100600,0.420000,33.000000
-0.769300,0.070000,33.000000
-0.807500,0.080000,33.000000
-0.842200,0.090000,33.000000
-0.855100,0.090000,33.000000
-0.991500,0.140000,33.000000
-1.051500,0.170000,33.000000
-1.072400,0.170000,33.000000
-1.091100,0.190000,33.000000
