10.691400,0.090000,62.000000
8.138000,0.040000,62.000000
7.995900,0.060000,62.000000
7.967900,0.080000,62.000000
7.874600,0.060000,62.000000
7.845300,0.180000,62.000000
7.721700,0.050000,62.000000
7.695300,0.150000,62.000000
7.680600,0.140000,62.000000
7.649300,0.090000,62.000000
7.635800,0.080000,62.000000
7.523700,0.120000,62.000000
7.517700,0.160000,62.000000
7.511200,0.100000,62.000000
7.503500,0.190000,62.000000
7.488800,0.080000,62.000000
7.424100,0.080000,62.000000
7.402700,0.100000,62.000000
7.389800,0.190000,62.000000
7.377100,0.230000,62.000000
7.343600,0.090000,62.000000
7.317200,0.250000,62.000000
7.311100,0.220000,62.000000
7.303200,0.240000,62.000000
7.276800,0.120000,62.000000
7.252500,0.250000,62.000000
7.239600,0.160000,62.000000
7.223000,0.290000,62.000000
7.208000,0.250000,62.000000
7.193500,0.300000,62.000000
7.181200,3.000000,62.000000
7.175700,1.790000,62.000000
7.170600,0.980000,62.000000
7.166600,3.410000,62.000000
7.161000,2.720000,62.000000
7.156200,1.180000,62.000000
7.141300,0.710000,62.000000
7.120000,0.260000,62.000000
7.080700,0.300000,62.000000
7.038200,0.140000,62.000000
6.981000,0.100000,62.000000
6.914900,0.390000,62.000000
6.911000,0.570000,62.000000
6.900300,0.580000,62.000000
6.895800,2.370000,62.000000
6.881300,2.000000,62.000000
6.877200,4.160000,62.000000
6.874000,1.430000,62.000000
6.866300,0.870000,62.000000
6.862600,3.530000,62.000000
6.833700,0.330000,62.000000
6.819700,0.260000,62.000000
6.772200,0.190000,62.000000
6.759000,0.170000,62.000000
4.706700,0.150000,62.000000
4.703200,0.100000,62.000000
4.684600,0.140000,62.000000
4.680100,0.220000,62.000000
4.673800,0.160000,62.000000
4.246000,0.050000,62.000000
4.116000,0.080000,62.000000
4.093000,0.060000,62.000000
4.079300,0.080000,62.000000
4.059400,0.040000,62.000000
4.020300,0.920000,62.000000
4.005500,0.180000,62.000000
3.991600,0.410000,62.000000
3.985100,0.420000,62.000000
3.978700,0.760000,62.000000
3.965900,1.210000,62.000000
3.954100,0.810000,62.000000
3.944100,0.670000,62.000000
3.931500,0.230000,62.000000
3.915900,2.030000,62.000000
3.904600,0.350000,62.000000
3.889000,2.030000,62.000000
3.874800,0.300000,62.000000
3.861000,0.800000,62.000000
3.853200,0.450000,62.000000
3.846900,0.330000,62.000000
3.843700,0.340000,62.000000
3.837100,0.410000,62.000000
3.823800,10.840000,62.000000
3.805900,0.290000,62.000000
3.797600,15.000000,62.000000
3.784500,0.650000,62.000000
3.777200,0.670000,62.000000
3.770600,0.620000,62.000000
3.766900,0.750000,62.000000
3.762600,0.470000,62.000000
3.755900,0.690000,62.000000
3.739800,1.570000,62.000000
3.721200,0.330000,62.000000
3.677700,0.610000,62.000000
3.670900,0.570000,62.000000
3.663000,0.220000,62.000000
3.655400,0.390000,62.000000
3.633200,0.170000,62.000000
3.617600,0.570000,62.000000
3.610200,0.550000,62.000000
3.592400,0.410000,62.000000
3.584200,0.510000,62.000000
3.565000,2.170000,62.000000
3.539800,0.680000,62.000000
3.449900,10.110000,62.000000
3.429000,0.140000,62.000000
3.354600,0.040000,62.000000
3.261600,0.050000,62.000000
3.250600,0.090000,62.000000
3.229400,0.150000,62.000000
3.218800,0.200000,62.000000
3.203500,0.140000,62.000000
3.198100,0.210000,62.000000
3.185100,0.260000,62.000000
3.159300,0.200000,62.000000
3.146100,0.190000,62.000000
3.135000,0.130000,62.000000
3.119600,0.120000,62.000000
3.097700,0.100000,62.000000
3.076300,0.430000,62.000000
3.063400,0.930000,62.000000
3.048800,0.770000,62.000000
3.040700,0.930000,62.000000
3.035600,0.830000,62.000000
3.029300,1.020000,62.000000
3.022500,0.770000,62.000000
3.018200,1.200000,62.000000
3.005000,1.030000,62.000000
2.995200,0.480000,62.000000
2.982000,0.360000,62.000000
2.963100,0.170000,62.000000
2.942300,0.180000,62.000000
2.934800,0.200000,62.000000
2.921800,0.060000,62.000000
2.872400,0.130000,62.000000
2.859200,0.150000,62.000000
2.844200,0.060000,62.000000
2.827300,0.090000,62.000000
2.819000,0.060000,62.000000
2.804400,0.130000,62.000000
2.798000,0.140000,62.000000
2.778600,0.110000,62.000000
2.767600,0.080000,62.000000
2.751900,0.320000,62.000000
2.739300,0.580000,62.000000
2.733100,0.180000,62.000000
2.726800,0.410000,62.000000
2.723600,0.420000,62.000000
2.697600,0.150000,62.000000
2.682600,0.180000,62.000000
2.671800,1.870000,62.000000
2.646700,4.010000,62.000000
2.618700,0.570000,62.000000
2.606800,0.520000,62.000000
2.579300,0.210000,62.000000
2.560700,4.260000,62.000000
2.535600,1.940000,62.000000
2.500400,0.290000,62.000000
2.488100,0.450000,62.000000
2.475700,0.180000,62.000000
2.466000,0.070000,62.000000
2.453900,0.110000,62.000000
2.439600,0.100000,62.000000
2.417300,0.080000,62.000000
2.403800,0.090000,62.000000
2.392500,0.040000,62.000000
2.374600,0.150000,62.000000
2.370000,0.150000,62.000000
2.361500,0.270000,62.000000
2.358300,0.280000,62.000000
2.348100,0.190000,62.000000
2.345100,0.220000,62.000000
2.326300,0.110000,62.000000
2.319100,0.130000,62.000000
2.309600,0.260000,62.000000
2.301900,0.260000,62.000000
2.289900,0.160000,62.000000
2.282200,0.180000,62.000000
2.270500,0.190000,62.000000
2.258500,0.170000,62.000000
2.247100,0.160000,62.000000
2.235000,0.160000,62.000000
2.222900,0.170000,62.000000
2.211700,0.170000,62.000000
2.198800,0.210000,62.000000
2.186500,0.190000,62.000000
2.175300,0.160000,62.000000
2.144700,0.450000,62.000000
2.134400,0.400000,62.000000
2.129500,1.660000,62.000000
2.120500,0.360000,62.000000
2.111300,0.310000,62.000000
2.098200,0.290000,62.000000
2.080200,0.580000,62.000000
2.072800,0.480000,62.000000
2.064000,1.020000,62.000000
2.051500,1.390000,62.000000
2.025800,0.350000,62.000000
2.011100,0.300000,62.000000
1.988100,0.280000,62.000000
1.978800,0.330000,62.000000
1.967300,0.380000,62.000000
1.955100,0.410000,62.000000
1.943200,0.410000,62.000000
1.934000,0.450000,62.000000
1.923800,0.420000,62.000000
1.920400,0.450000,62.000000
1.906700,0.460000,62.000000
1.900300,0.310000,62.000000
1.896300,0.310000,62.000000
1.889600,0.280000,62.000000
1.878600,0.250000,62.000000
1.864600,0.270000,62.000000
1.855600,0.270000,62.000000
1.842000,0.240000,62.000000
1.830400,0.210000,62.000000
1.813200,0.180000,62.000000
1.800700,0.190000,62.000000
1.760700,0.240000,62.000000
1.745100,0.330000,62.000000
1.732300,0.470000,62.000000
1.718500,0.480000,62.000000
1.706800,0.380000,62.000000
1.686700,0.320000,62.000000
1.679500,0.360000,62.000000
1.666400,0.320000,62.000000
1.625100,0.220000,62.000000
1.613200,0.200000,62.000000
1.600600,0.180000,62.000000
1.534700,0.160000,62.000000
1.524200,0.260000,62.000000
1.512200,0.250000,62.000000
1.504100,0.220000,62.000000
1.499700,0.210000,62.000000
1.490100,1.470000,62.000000
1.477700,1.470000,62.000000
1.464200,0.280000,62.000000
1.456300,0.260000,62.000000
1.448000,0.210000,62.000000
1.422900,0.200000,62.000000
1.410000,0.180000,62.000000
1.396100,0.170000,62.000000
1.383700,0.150000,62.000000
1.373200,0.220000,62.000000
1.369000,0.210000,62.000000
1.360700,0.190000,62.000000
1.356700,0.210000,62.000000
1.337800,1.280000,62.000000
1.326800,1.150000,62.000000
1.290900,0.150000,62.000000
1.278400,0.180000,62.000000
1.267300,0.240000,62.000000
1.256000,0.270000,62.000000
1.240100,0.250000,62.000000
1.233000,0.210000,62.000000
1.211100,0.220000,62.000000
1.200300,0.190000,62.000000
1.180800,0.160000,62.000000
1.133300,0.090000,62.000000
1.121200,0.080000,62.000000
1.108600,0.430000,62.000000
1.096600,0.450000,62.000000
1.071300,0.170000,62.000000
1.059300,0.250000,62.000000
1.055600,0.800000,62.000000
1.049900,1.360000,62.000000
1.043800,0.730000,62.000000
1.037900,1.390000,62.000000
1.017700,1.600000,62.000000
1.005700,1.610000,62.000000
1.000000,1.690000,62.000000
0.988000,1.690000,62.000000
0.974500,0.970000,62.000000
0.963900,1.310000,62.000000
0.953700,1.600000,62.000000
0.947100,2.320000,62.000000
0.941100,2.030000,62.000000
0.935700,2.110000,62.000000
0.928500,1.470000,62.000000
0.919400,3.970000,62.000000
0.908200,3.680000,62.000000
0.898200,1.010000,62.000000
0.892800,0.680000,62.000000
0.885200,0.760000,62.000000
0.877600,0.670000,62.000000
0.874000,0.770000,62.000000
0.861200,0.940000,62.000000
0.848500,0.570000,62.000000
0.096800,0.190000,62.000000
0.038900,0.050000,62.000000
0.021100,0.070000,62.000000
0.019700,0.100000,62.000000
0.018100,0.120000,62.000000
0.016600,0.220000,62.000000
0.015200,0.200000,62.000000
0.013700,0.180000,62.000000
0.012300,0.230000,62.000000
0.010800,0.290000,62.000000
0.009300,0.360000,62.000000
0.007800,0.530000,62.000000
0.005000,2.050000,62.000000
0.003300,2.120000,62.000000
-0.000200,50.320000,62.000000
-0.004800,1.540000,62.000000
-0.006000,1.680000,62.000000
-0.009100,0.230000,62.000000
-0.010600,0.120000,62.000000
-0.027000,0.240000,62.000000
-0.029900,0.150000,62.000000
-0.100700,0.190000,62.000000
