##TITLE= Audit trail, TOPSPIN		Version 2.1
##JCAMPDX= 5.01
##ORIGIN= Bruker BioSpin GmbH
##OWNER= Administrator
$$ T:/data/MJD/nmr/C02404/44/audita.txt
##AUDIT TRAIL=  $$ (NUMBER, WHEN, WHO, WHERE, PROCESS, VERSION, WHAT)
(   1,<2013-06-14 06:14:26.187 +0100>,<Administrator>,<GH001606>,<go>,<TOPSPIN 2.1>,
      <created by zg
	started at 2013-06-14 05:13:02.406 +0100,
	POWCHK disabled, PULCHK disabled,
       configuration hash MD5:
       3E 28 56 27 A3 E6 96 EB AB A8 47 E1 FE 66 6F 96
       data hash MD5: 32K
       BD AC E8 DC 1C BB 1F 58 1C 42 C0 68 52 5D 34 7C>)
(   2,<2013-06-14 06:14:35.453 +0100>,<Administrator>,<GH001606>,<audit>,<TOPSPIN 2.1>,
      <user comment:
       ICON-NMR User ID: MJD
       data hash MD5: 32K
       BD AC E8 DC 1C BB 1F 58 1C 42 C0 68 52 5D 34 7C>)
(   3,<2013-06-14 06:14:35.625 +0100>,<Administrator>,<GH001606>,<dirdata>,<TOPSPIN 2.1>,
      <wrpa from 1 44 "C02404" "MJD" "C:\NMRdata"
       data hash MD5: 32K
       BD AC E8 DC 1C BB 1F 58 1C 42 C0 68 52 5D 34 7C>)
##END=

$$ hash MD5
$$ 5B C0 47 9A 69 DD 84 31 50 90 30 78 DD 97 BF 09
