<?xml version="1.0" encoding="UTF-8"?>
<session version="1.0">
<refactoring comment="Delete resource &apos;NMR-Project&apos;" deleteContents="false" description="Delete resource &apos;NMR-Project&apos;" element1="/NMR-Project" flags="7" id="org.eclipse.ltk.core.refactoring.delete.resources" resources="1" stamp="1427743851567"/>
</session>