##TITLE= Audit trail, TOPSPIN		Version 2.1
##JCAMPDX= 5.01
##ORIGIN= Bruker BioSpin GmbH
##OWNER= Administrator
$$ T:/data/MJD/nmr/C03519/65/audita.txt
##AUDIT TRAIL=  $$ (NUMBER, WHEN, WHO, WHERE, PROCESS, VERSION, WHAT)
(   1,<2014-12-16 21:17:52.468 +0000>,<Administrator>,<GH001606>,<go>,<TOPSPIN 2.1>,
      <created by zg
	started at 2014-12-16 21:16:36.906 +0000,
	POWCHK disabled, PULCHK disabled,
       configuration hash MD5:
       4F DB FE 01 64 29 F4 D5 05 17 18 DB FF 7C 08 05
       data hash MD5: 32K
       8A A0 C8 B9 F0 01 39 3F E9 15 14 D8 00 5D 76 5E>)
(   2,<2014-12-16 21:18:05.500 +0000>,<Administrator>,<GH001606>,<audit>,<TOPSPIN 2.1>,
      <user comment:
       ICON-NMR User ID: MJD
       data hash MD5: 32K
       8A A0 C8 B9 F0 01 39 3F E9 15 14 D8 00 5D 76 5E>)
(   3,<2014-12-16 21:18:06.546 +0000>,<Administrator>,<GH001606>,<dirdata>,<TOPSPIN 2.1>,
      <wrpa from 1 65 "C03519" "MJD" "C:\NMRdata"
       data hash MD5: 32K
       8A A0 C8 B9 F0 01 39 3F E9 15 14 D8 00 5D 76 5E>)
##END=

$$ hash MD5
$$ BC 76 D4 76 8F 21 9E A1 F8 74 83 6D 99 E7 15 39
