10,0,18
10,0,18
10,0,18
10,0,18
10,0,18
8,0,18
7,0,18
7,0,18
7,0,18
7,0,18
7,0,18
7,0,18
7,0,18
7,0,18
7,0,18
7,0,18
7,0,18
7,0,18
7,0,18
7,0,18
7,0,18
7,0,18
7,0,18
7,0,18
7,0,18
7,0,18
7,0,18
7,0,18
7,0,18
7,0,18
7,0,18
7,0,18
7,0,18
7,0,18
7,0,18
7,0,18
7,2,18
7,11,18
7,3,18
7,13,18
7,2,18
7,0,18
7,0,18
7,0,18
7,0,18
7,0,18
7,0,18
7,0,18
6,0,18
6,0,18
6,0,18
6,1,18
6,2,18
6,15,18
6,3,18
6,3,18
6,11,18
6,1,18
6,0,18
6,0,18
6,0,18
6,0,18
6,0,18
6,0,18
6,0,18
6,0,18
6,0,18
6,0,18
4,0,18
4,0,18
4,0,18
4,0,18
4,0,18
4,0,18
4,0,18
4,0,18
4,0,18
4,0,18
4,0,18
4,0,18
4,0,18
4,0,18
4,0,18
4,1,18
4,0,18
3,4,18
3,6,18
3,4,18
3,4,18
3,13,18
3,13,18
3,4,18
3,0,18
3,2,18
3,0,18
3,3,18
3,0,18
3,8,18
3,0,18
3,0,18
3,0,18
3,0,18
3,0,18
3,0,18
3,0,18
3,1,18
3,0,18
3,0,18
3,0,18
3,0,18
3,0,18
3,0,18
3,1,18
3,2,18
3,5,18
3,5,18
3,5,18
3,5,18
2,2,18
2,1,18
2,0,18
2,0,18
2,3,18
2,8,18
2,0,18
2,0,18
2,0,18
2,0,18
2,9,18
2,4,18
2,0,18
2,0,18
2,0,18
2,0,18
2,0,18
2,0,18
2,0,18
2,0,18
2,0,18
2,0,18
2,0,18
2,0,18
2,0,18
2,0,18
2,0,18
2,0,18
2,0,18
2,0,18
2,2,18
2,0,18
2,0,18
2,0,18
2,0,18
1,0,18
1,0,18
1,0,18
1,0,18
1,0,18
1,0,18
1,0,18
1,0,18
1,0,18
1,0,18
1,0,18
1,0,18
1,0,18
1,0,18
1,0,18
1,0,18
1,0,18
1,0,18
1,0,18
1,0,18
1,0,18
1,0,18
1,0,18
1,0,18
1,0,18
1,0,18
1,0,18
1,0,18
1,0,18
1,0,18
1,0,18
1,0,18
1,0,18
1,0,18
1,0,18
1,0,18
1,0,18
1,0,18
1,0,18
1,0,18
1,0,18
1,0,18
1,0,18
0,0,18
0,0,18
0,2,18
0,1,18
0,1,18
0,1,18
0,1,18
0,1,18
0,1,18
0,1,18
0,1,18
0,1,18
0,0,18
0,0,18
0,0,18
0,0,18
0,0,18
0,0,18
0,0,18
0,0,18
0,0,18
0,0,18
0,0,18
0,0,18
0,0,18
0,0,18
0,0,18
0,0,18
0,0,18
0,0,18
0,0,18
0,0,18
0,3,18
0,3,18
0,104,18
0,3,18
0,3,18
0,0,18
0,0,18
0,0,18
0,0,18
0,0,18
0,0,18
0,0,18
0,0,18
0,0,18
0,0,18
0,0,18
0,0,18
-1,0,18
-1,0,18
-1,0,18
-1,0,18
-1,0,18
-1,0,18
-1,0,18
-1,0,18
