10,0,37
10,0,37
10,0,37
10,0,37
10,0,37
10,0,37
8,0,37
8,0,37
8,0,37
8,0,37
8,0,37
8,0,37
8,0,37
8,0,37
7,0,37
7,0,37
7,0,37
7,0,37
7,0,37
7,0,37
7,0,37
7,0,37
7,0,37
7,0,37
7,0,37
7,0,37
7,0,37
7,0,37
7,0,37
7,0,37
7,0,37
7,0,37
7,0,37
7,0,37
7,0,37
7,0,37
7,0,37
7,0,37
7,1,37
7,0,37
7,1,37
7,4,37
7,11,37
7,4,37
7,13,37
7,2,37
7,0,37
7,0,37
7,0,37
7,0,37
6,0,37
6,1,37
6,1,37
6,3,37
6,15,37
6,2,37
6,3,37
6,11,37
6,3,37
6,1,37
6,0,37
6,0,37
6,0,37
6,0,37
6,0,37
4,1,37
4,1,37
4,2,37
4,0,37
4,1,37
4,14,37
4,2,37
4,2,37
4,2,37
4,2,37
4,1,37
4,0,37
4,0,37
4,0,37
4,0,37
4,0,37
4,0,37
4,0,37
4,0,37
4,0,37
4,1,37
4,0,37
3,0,37
3,4,37
3,6,37
3,4,37
3,4,37
3,13,37
3,13,37
3,4,37
3,0,37
3,0,37
3,8,37
3,0,37
3,11,37
3,1,37
3,9,37
3,0,37
3,0,37
3,0,37
3,0,37
3,0,37
3,0,37
3,0,37
3,0,37
3,0,37
3,0,37
3,0,37
3,5,37
3,0,37
3,0,37
3,0,37
3,0,37
3,0,37
3,0,37
3,0,37
3,0,37
3,0,37
3,0,37
3,2,37
3,0,37
3,2,37
3,5,37
3,6,37
3,6,37
3,6,37
2,2,37
2,1,37
2,0,37
2,0,37
2,0,37
2,0,37
2,0,37
2,0,37
2,0,37
2,0,37
2,4,37
2,10,37
2,0,37
2,0,37
2,0,37
2,0,37
2,10,37
2,4,37
2,0,37
2,0,37
2,0,37
2,0,37
2,0,37
2,0,37
2,0,37
2,0,37
2,0,37
2,0,37
2,0,37
2,0,37
2,0,37
2,0,37
2,1,37
2,0,37
2,0,37
2,2,37
2,0,37
2,0,37
2,0,37
2,0,37
1,0,37
1,0,37
1,0,37
1,0,37
1,0,37
1,0,37
1,0,37
1,0,37
1,0,37
1,0,37
1,0,37
1,0,37
1,0,37
1,0,37
1,0,37
1,0,37
1,0,37
1,0,37
1,0,37
1,0,37
1,0,37
1,0,37
1,0,37
1,0,37
1,0,37
1,0,37
1,0,37
1,0,37
1,0,37
1,0,37
1,0,37
1,0,37
1,0,37
1,0,37
1,0,37
1,0,37
1,0,37
1,0,37
1,0,37
1,0,37
1,0,37
1,0,37
1,0,37
1,0,37
1,0,37
1,0,37
1,0,37
1,0,37
0,1,37
0,1,37
0,1,37
0,1,37
0,2,37
0,3,37
0,2,37
0,3,37
0,2,37
0,2,37
0,2,37
0,1,37
0,1,37
0,1,37
0,1,37
0,0,37
0,0,37
0,0,37
0,0,37
0,0,37
0,0,37
0,0,37
0,4,37
0,118,37
0,4,37
0,0,37
0,0,37
0,0,37
-1,0,37
-1,0,37
-1,0,37
-1,0,37
