10,0,41
10,0,41
10,0,41
10,0,41
10,0,41
8,0,41
7,0,41
7,0,41
7,0,41
7,0,41
7,0,41
7,0,41
7,0,41
7,0,41
7,0,41
7,0,41
7,0,41
7,0,41
7,0,41
7,0,41
7,0,41
7,0,41
7,0,41
7,0,41
7,0,41
7,0,41
7,0,41
7,0,41
7,0,41
7,0,41
7,0,41
7,0,41
7,0,41
7,0,41
7,0,41
7,0,41
7,0,41
7,1,41
7,1,41
7,1,41
7,4,41
7,11,41
7,3,41
7,4,41
7,13,41
7,2,41
7,0,41
7,0,41
7,0,41
7,0,41
7,0,41
7,0,41
7,0,41
6,0,41
6,1,41
6,1,41
6,3,41
6,15,41
6,3,41
6,3,41
6,12,41
6,4,41
6,0,41
6,0,41
6,2,41
6,0,41
6,0,41
6,0,41
4,0,41
4,1,41
4,1,41
4,1,41
4,1,41
4,21,41
4,2,41
4,2,41
4,2,41
4,1,41
4,0,41
4,0,41
4,0,41
4,0,41
4,0,41
4,0,41
4,0,41
4,0,41
4,0,41
4,0,41
4,0,41
4,1,41
4,0,41
3,4,41
3,6,41
3,4,41
3,4,41
3,0,41
3,13,41
3,13,41
3,0,41
3,4,41
3,0,41
3,10,41
3,0,41
3,14,41
3,0,41
3,1,41
3,8,41
3,0,41
3,0,41
3,0,41
3,0,41
3,0,41
3,0,41
3,0,41
3,0,41
3,0,41
3,0,41
3,0,41
3,0,41
3,7,41
3,0,41
3,0,41
3,0,41
3,0,41
3,0,41
3,0,41
3,0,41
3,0,41
3,0,41
3,0,41
3,0,41
3,0,41
3,0,41
3,1,41
3,0,41
3,2,41
3,5,41
3,5,41
3,5,41
3,5,41
2,2,41
2,1,41
2,0,41
2,0,41
2,0,41
2,0,41
2,0,41
2,0,41
2,0,41
2,0,41
2,0,41
2,5,41
2,11,41
2,0,41
2,0,41
2,0,41
2,0,41
2,0,41
2,11,41
2,5,41
2,0,41
2,0,41
2,0,41
2,0,41
2,0,41
2,0,41
2,0,41
2,0,41
2,0,41
2,0,41
2,0,41
2,0,41
2,0,41
2,0,41
2,0,41
2,0,41
2,0,41
2,0,41
2,1,41
2,0,41
2,0,41
2,0,41
2,2,41
2,0,41
2,1,41
2,1,41
2,0,41
2,0,41
2,0,41
1,0,41
1,0,41
1,0,41
1,0,41
1,0,41
1,0,41
1,0,41
1,0,41
1,0,41
1,0,41
1,0,41
1,0,41
1,0,41
1,0,41
1,0,41
1,0,41
1,0,41
1,0,41
1,0,41
1,0,41
1,0,41
1,0,41
1,0,41
1,0,41
1,0,41
1,0,41
1,0,41
1,0,41
1,0,41
1,0,41
1,0,41
1,0,41
1,0,41
1,0,41
1,0,41
1,0,41
1,0,41
1,0,41
1,0,41
1,0,41
1,0,41
1,0,41
1,0,41
1,0,41
1,0,41
1,0,41
1,0,41
1,0,41
1,0,41
1,0,41
1,0,41
1,0,41
1,0,41
1,0,41
1,0,41
1,0,41
1,0,41
1,0,41
1,0,41
1,0,41
1,0,41
1,0,41
1,0,41
1,0,41
1,0,41
1,0,41
1,0,41
1,1,41
1,1,41
1,1,41
0,1,41
0,1,41
0,1,41
0,1,41
0,2,41
0,2,41
0,4,41
0,2,41
0,3,41
0,2,41
0,3,41
0,2,41
0,1,41
0,1,41
0,1,41
0,1,41
0,1,41
0,1,41
0,0,41
0,0,41
0,0,41
0,0,41
0,0,41
0,3,41
0,132,41
0,5,41
0,1,41
0,0,41
0,0,41
0,0,41
0,0,41
0,0,41
0,0,41
0,0,41
0,0,41
0,0,41
0,0,41
0,0,41
0,0,41
0,0,41
-1,0,41
-1,0,41
-1,0,41
-1,0,41
-1,0,41
-1,0,41
