7.800200,0.310000,32.000000
7.512100,0.700000,32.000000
7.329300,0.560000,32.000000
7.230400,1.620000,32.000000
7.215700,1.900000,32.000000
7.205300,2.260000,32.000000
7.189600,8.530000,32.000000
7.174700,7.840000,32.000000
6.936600,2.360000,32.000000
6.922100,2.780000,32.000000
6.910800,8.910000,32.000000
6.896400,6.630000,32.000000
6.889400,0.860000,32.000000
6.709300,0.220000,32.000000
4.698300,0.480000,32.000000
4.689000,0.490000,32.000000
4.219000,0.290000,32.000000
4.043100,2.010000,32.000000
3.965500,0.460000,32.000000
3.945400,1.430000,32.000000
3.917400,10.860000,32.000000
3.910500,11.100000,32.000000
3.884100,4.780000,32.000000
3.871800,6.740000,32.000000
3.859500,3.960000,32.000000
3.843600,10.330000,32.000000
3.790000,1.150000,32.000000
3.758800,10.050000,32.000000
3.745100,15.000000,32.000000
3.642700,0.580000,32.000000
3.584300,0.400000,32.000000
3.472600,4.840000,32.000000
3.224700,0.260000,32.000000
3.210000,0.430000,32.000000
3.201400,0.460000,32.000000
3.090300,0.450000,32.000000
3.076500,0.440000,32.000000
3.067200,0.520000,32.000000
3.052700,0.560000,32.000000
3.042000,0.590000,32.000000
3.030800,1.670000,32.000000
3.019100,1.760000,32.000000
3.007900,4.670000,32.000000
2.996200,4.700000,32.000000
2.983400,4.720000,32.000000
2.970000,4.750000,32.000000
2.960800,2.280000,32.000000
2.947200,2.010000,32.000000
2.790200,0.350000,32.000000
2.697200,2.630000,32.000000
2.671800,6.110000,32.000000
2.583000,6.510000,32.000000
2.557700,3.090000,32.000000
2.106400,1.020000,32.000000
2.069600,0.990000,32.000000
1.943000,0.640000,32.000000
1.853000,0.310000,32.000000
1.793000,0.510000,32.000000
1.672700,0.890000,32.000000
1.400400,0.780000,32.000000
1.344600,0.630000,32.000000
1.295500,0.400000,32.000000
1.231700,1.330000,32.000000
1.053700,0.750000,32.000000
0.997600,0.830000,32.000000
0.970100,1.540000,32.000000
0.942800,1.670000,32.000000
0.909500,2.080000,32.000000
0.880700,1.600000,32.000000
0.779400,1.820000,32.000000
0.610200,0.600000,32.000000
0.391500,0.270000,32.000000
