7.793500,0.190000,59.000000
7.618900,0.240000,59.000000
7.512900,0.420000,59.000000
7.321900,0.310000,59.000000
7.231400,2.200000,59.000000
7.216700,2.400000,59.000000
7.205700,1.720000,59.000000
7.190200,5.220000,59.000000
7.175300,4.640000,59.000000
6.937700,2.650000,59.000000
6.923100,2.500000,59.000000
6.911700,5.290000,59.000000
6.901300,2.660000,59.000000
6.897200,4.160000,59.000000
6.887300,1.370000,59.000000
4.708500,1.340000,59.000000
4.699500,0.370000,59.000000
4.687900,0.160000,59.000000
4.213500,0.180000,59.000000
4.043700,1.110000,59.000000
3.966500,0.800000,59.000000
3.957500,0.930000,59.000000
3.953200,0.940000,59.000000
3.944600,1.100000,59.000000
3.918300,6.050000,59.000000
3.911400,6.200000,59.000000
3.884400,2.360000,59.000000
3.872100,3.090000,59.000000
3.860100,1.820000,59.000000
3.844400,12.190000,59.000000
3.788800,0.650000,59.000000
3.758400,4.410000,59.000000
3.745600,15.000000,59.000000
3.626100,0.350000,59.000000
3.585900,0.340000,59.000000
3.473400,5.170000,59.000000
3.235600,0.380000,59.000000
3.226600,0.410000,59.000000
3.210900,0.770000,59.000000
3.201900,0.810000,59.000000
3.090900,0.900000,59.000000
3.077500,0.930000,59.000000
3.066500,0.550000,59.000000
3.053000,0.640000,59.000000
3.031200,0.970000,59.000000
3.019800,1.000000,59.000000
3.008400,2.450000,59.000000
2.996800,2.410000,59.000000
2.984100,2.550000,59.000000
2.970800,2.450000,59.000000
2.961100,1.170000,59.000000
2.947900,1.020000,59.000000
2.698100,2.010000,59.000000
2.672800,4.470000,59.000000
2.584000,5.150000,59.000000
2.558600,2.350000,59.000000
2.106100,0.660000,59.000000
2.087100,0.430000,59.000000
2.070300,0.630000,59.000000
1.954900,0.370000,59.000000
1.943900,0.500000,59.000000
1.793700,0.330000,59.000000
1.673200,0.510000,59.000000
1.586200,0.410000,59.000000
1.413000,0.480000,59.000000
1.346100,0.350000,59.000000
1.293900,0.220000,59.000000
1.231500,0.790000,59.000000
1.055500,0.440000,59.000000
1.010700,0.210000,59.000000
0.999000,0.550000,59.000000
0.986300,0.830000,59.000000
0.971100,0.980000,59.000000
0.954700,0.930000,59.000000
0.943100,1.080000,59.000000
0.910600,1.210000,59.000000
0.881700,0.920000,59.000000
0.786100,1.050000,59.000000
0.392600,0.160000,59.000000
-1.184100,0.130000,59.000000
