##TITLE= Audit trail, TOPSPIN		Version 2.1
##JCAMPDX= 5.01
##ORIGIN= Bruker BioSpin GmbH
##OWNER= Administrator
$$ T:/data/MJD/nmr/C02404/23/audita.txt
##AUDIT TRAIL=  $$ (NUMBER, WHEN, WHO, WHERE, PROCESS, VERSION, WHAT)
(   1,<2013-06-13 15:53:04.375 +0100>,<Administrator>,<GH001606>,<go>,<TOPSPIN 2.1>,
      <created by zg
	started at 2013-06-13 15:46:40.703 +0100,
	POWCHK disabled, PULCHK disabled,
       configuration hash MD5:
       3E 28 56 27 A3 E6 96 EB AB A8 47 E1 FE 66 6F 96
       data hash MD5: 32K
       C9 F7 30 E3 1D E1 B8 6E 87 95 9E 62 2A 8D 5D 6B>)
(   2,<2013-06-13 15:53:13.671 +0100>,<Administrator>,<GH001606>,<audit>,<TOPSPIN 2.1>,
      <user comment:
       ICON-NMR User ID: MJD
       data hash MD5: 32K
       C9 F7 30 E3 1D E1 B8 6E 87 95 9E 62 2A 8D 5D 6B>)
(   3,<2013-06-13 15:53:13.812 +0100>,<Administrator>,<GH001606>,<dirdata>,<TOPSPIN 2.1>,
      <wrpa from 1 23 "C02404" "MJD" "C:\NMRdata"
       data hash MD5: 32K
       C9 F7 30 E3 1D E1 B8 6E 87 95 9E 62 2A 8D 5D 6B>)
##END=

$$ hash MD5
$$ 55 66 CE 7A B0 67 1C 37 2C E7 FE 94 C0 2D C8 3B
