10.650300,0.140000,10.000000
10.551900,0.120000,10.000000
10.522100,0.100000,10.000000
10.510400,0.090000,10.000000
10.502500,0.090000,10.000000
10.464700,0.090000,10.000000
10.408500,0.090000,10.000000
10.362400,0.080000,10.000000
8.492600,0.060000,10.000000
8.461300,0.070000,10.000000
8.205500,0.080000,10.000000
8.179400,0.090000,10.000000
8.132500,0.070000,10.000000
7.990600,0.090000,10.000000
7.947200,0.110000,10.000000
7.901400,0.100000,10.000000
7.837000,0.120000,10.000000
7.829000,0.120000,10.000000
7.773200,0.090000,10.000000
7.743800,0.110000,10.000000
7.723900,0.120000,10.000000
7.695300,0.320000,10.000000
7.681500,0.290000,10.000000
7.644400,0.140000,10.000000
7.534200,0.610000,10.000000
7.518200,0.550000,10.000000
7.503500,0.500000,10.000000
7.489400,0.260000,10.000000
7.389300,0.210000,10.000000
7.341800,0.210000,10.000000
7.288400,0.370000,10.000000
7.266300,0.330000,10.000000
7.252000,0.430000,10.000000
7.238500,0.380000,10.000000
7.223300,0.690000,10.000000
7.176100,11.580000,10.000000
7.161600,13.830000,10.000000
7.156700,2.600000,10.000000
7.141600,0.760000,10.000000
7.136000,0.490000,10.000000
7.126200,0.380000,10.000000
7.025600,0.340000,10.000000
6.938900,0.240000,10.000000
6.930300,0.290000,10.000000
6.910900,0.890000,10.000000
6.901100,2.510000,10.000000
6.896300,15.000000,10.000000
6.892900,3.410000,10.000000
6.885200,3.160000,10.000000
6.881800,12.150000,10.000000
6.876900,1.780000,10.000000
6.862600,0.450000,10.000000
6.856200,0.430000,10.000000
6.762800,0.230000,10.000000
6.567100,0.060000,10.000000
4.718000,0.140000,10.000000
4.710100,0.090000,10.000000
4.704600,0.520000,10.000000
4.701200,0.830000,10.000000
4.699000,0.250000,10.000000
4.674500,0.160000,10.000000
4.138400,0.220000,10.000000
4.121100,0.220000,10.000000
4.108800,0.180000,10.000000
4.098300,0.170000,10.000000
4.085700,0.180000,10.000000
4.074000,0.180000,10.000000
4.020300,1.060000,10.000000
4.005000,0.410000,10.000000
3.982300,4.380000,10.000000
3.969400,6.470000,10.000000
3.957700,4.270000,10.000000
3.945100,4.060000,10.000000
3.917100,13.370000,10.000000
3.889400,13.360000,10.000000
3.861300,4.380000,10.000000
3.824200,1.980000,10.000000
3.812300,0.400000,10.000000
3.799600,2.590000,10.000000
3.769400,0.590000,10.000000
3.740500,9.020000,10.000000
3.710400,0.480000,10.000000
3.678200,0.230000,10.000000
3.632100,0.160000,10.000000
3.616200,0.270000,10.000000
3.592800,0.110000,10.000000
3.586700,0.100000,10.000000
3.450000,0.450000,10.000000
3.198500,0.260000,10.000000
3.184900,0.160000,10.000000
3.173100,0.110000,10.000000
3.161300,0.140000,10.000000
3.137800,0.080000,10.000000
3.103100,0.130000,10.000000
3.065700,1.910000,10.000000
3.054200,2.040000,10.000000
3.042600,5.620000,10.000000
3.031000,5.670000,10.000000
3.020400,5.950000,10.000000
3.007200,5.820000,10.000000
2.997300,2.060000,10.000000
2.984100,1.900000,10.000000
2.767500,0.070000,10.000000
2.759600,0.070000,10.000000
2.741700,0.140000,10.000000
2.733400,0.150000,10.000000
2.671600,3.860000,10.000000
2.646500,8.540000,10.000000
2.618900,0.280000,10.000000
2.606700,0.280000,10.000000
2.597400,0.070000,10.000000
2.579400,0.260000,10.000000
2.561500,8.940000,10.000000
2.536400,4.090000,10.000000
2.368100,0.210000,10.000000
2.359000,0.130000,10.000000
2.348400,0.060000,10.000000
2.319600,0.160000,10.000000
2.309900,0.370000,10.000000
2.302700,0.320000,10.000000
2.290200,0.120000,10.000000
2.264900,0.110000,10.000000
2.242400,0.140000,10.000000
2.209000,0.190000,10.000000
2.199300,0.220000,10.000000
2.163900,0.190000,10.000000
2.147900,0.290000,10.000000
2.134700,0.400000,10.000000
2.115500,0.500000,10.000000
2.097300,0.340000,10.000000
2.080600,2.060000,10.000000
2.064200,0.490000,10.000000
2.044600,0.650000,10.000000
2.010700,0.400000,10.000000
1.941200,0.210000,10.000000
1.929300,0.210000,10.000000
1.920600,0.230000,10.000000
1.908200,0.190000,10.000000
1.873600,0.200000,10.000000
1.858200,0.280000,10.000000
1.841100,0.210000,10.000000
1.802800,0.240000,10.000000
1.773700,0.240000,10.000000
1.750800,0.210000,10.000000
1.688000,0.410000,10.000000
1.680700,0.410000,10.000000
1.666000,0.410000,10.000000
1.656400,0.370000,10.000000
1.547800,0.130000,10.000000
1.490200,0.170000,10.000000
1.470600,0.170000,10.000000
1.457200,0.160000,10.000000
1.423600,0.230000,10.000000
1.337200,0.490000,10.000000
1.325500,0.480000,10.000000
1.262900,0.120000,10.000000
1.253300,0.230000,10.000000
1.229700,0.220000,10.000000
1.212400,0.260000,10.000000
1.180500,0.200000,10.000000
1.152300,0.180000,10.000000
1.121300,0.100000,10.000000
1.108700,0.230000,10.000000
1.096700,0.240000,10.000000
1.059500,0.180000,10.000000
1.037600,0.190000,10.000000
0.982200,0.580000,10.000000
0.947200,1.720000,10.000000
0.941400,1.060000,10.000000
0.935800,1.630000,10.000000
0.919300,1.030000,10.000000
0.910400,1.060000,10.000000
0.898200,1.000000,10.000000
0.892500,1.010000,10.000000
0.877700,1.010000,10.000000
0.864300,0.860000,10.000000
0.815400,0.460000,10.000000
0.096900,0.340000,10.000000
0.021000,0.110000,10.000000
0.019500,0.140000,10.000000
0.018000,0.150000,10.000000
0.016500,0.360000,10.000000
0.015200,0.270000,10.000000
0.013600,0.250000,10.000000
0.012100,0.320000,10.000000
0.010600,0.500000,10.000000
0.009100,0.660000,10.000000
0.005000,4.030000,10.000000
-0.000200,102.990000,10.000000
-0.005600,3.120000,10.000000
-0.009200,0.270000,10.000000
-0.025700,0.310000,10.000000
-0.026900,0.290000,10.000000
-0.031400,0.070000,10.000000
-0.040100,0.270000,10.000000
-0.100600,0.330000,10.000000
-0.849700,0.070000,10.000000
-0.869000,0.070000,10.000000
-0.916200,0.090000,10.000000
-0.996300,0.120000,10.000000
-1.140300,0.170000,10.000000
-1.173000,0.200000,10.000000
