10.619000,0.130000,16.000000
10.557900,0.120000,16.000000
10.513100,0.120000,16.000000
10.432800,0.110000,16.000000
10.389300,0.100000,16.000000
10.284300,0.060000,16.000000
8.461100,0.080000,16.000000
8.439000,0.060000,16.000000
8.295000,0.070000,16.000000
8.264300,0.060000,16.000000
8.226100,0.090000,16.000000
8.116900,0.090000,16.000000
8.068400,0.070000,16.000000
8.053200,0.080000,16.000000
7.958700,0.130000,16.000000
7.944600,0.120000,16.000000
7.867900,0.130000,16.000000
7.860600,0.140000,16.000000
7.771500,0.110000,16.000000
7.745900,0.140000,16.000000
7.722400,0.150000,16.000000
7.708300,0.170000,16.000000
7.695200,0.320000,16.000000
7.682200,0.330000,16.000000
7.656700,0.160000,16.000000
7.640900,0.170000,16.000000
7.635300,0.180000,16.000000
7.611500,0.140000,16.000000
7.537900,0.650000,16.000000
7.503900,0.520000,16.000000
7.489000,0.260000,16.000000
7.401300,0.240000,16.000000
7.359400,0.260000,16.000000
7.287800,0.430000,16.000000
7.276500,0.350000,16.000000
7.266600,0.400000,16.000000
7.253000,0.520000,16.000000
7.238700,0.480000,16.000000
7.223600,0.810000,16.000000
7.176200,11.820000,16.000000
7.161600,13.980000,16.000000
7.141600,0.780000,16.000000
7.134200,0.300000,16.000000
7.125800,0.320000,16.000000
7.113000,0.280000,16.000000
7.027400,0.320000,16.000000
6.969800,0.190000,16.000000
6.910900,1.110000,16.000000
6.901200,2.670000,16.000000
6.896400,15.000000,16.000000
6.893100,3.440000,16.000000
6.885300,3.230000,16.000000
6.881900,12.010000,16.000000
6.877000,1.790000,16.000000
6.868700,0.340000,16.000000
6.862600,0.550000,16.000000
6.845800,0.320000,16.000000
6.801900,0.190000,16.000000
6.763400,0.180000,16.000000
6.715700,0.080000,16.000000
4.720100,0.130000,16.000000
4.711100,0.140000,16.000000
4.705900,0.530000,16.000000
4.702200,0.670000,16.000000
4.679600,0.180000,16.000000
4.672900,0.230000,16.000000
4.264000,0.060000,16.000000
4.241700,0.090000,16.000000
4.230400,0.090000,16.000000
4.136900,0.240000,16.000000
4.121400,0.250000,16.000000
4.097400,0.220000,16.000000
4.089200,0.220000,16.000000
4.076600,0.210000,16.000000
4.060300,0.190000,16.000000
4.032200,0.290000,16.000000
4.020400,1.230000,16.000000
4.004100,0.470000,16.000000
3.982800,4.580000,16.000000
3.970000,6.770000,16.000000
3.958200,4.410000,16.000000
3.945200,4.120000,16.000000
3.917200,13.550000,16.000000
3.889400,13.530000,16.000000
3.861300,4.440000,16.000000
3.838800,0.350000,16.000000
3.824300,2.590000,16.000000
3.812400,0.460000,16.000000
3.799800,3.390000,16.000000
3.769100,0.750000,16.000000
3.740500,9.440000,16.000000
3.710900,0.410000,16.000000
3.678300,0.190000,16.000000
3.647600,0.140000,16.000000
3.630500,0.140000,16.000000
3.616100,0.260000,16.000000
3.587000,0.110000,16.000000
3.450200,0.890000,16.000000
3.198700,0.260000,16.000000
3.184500,0.190000,16.000000
3.173000,0.150000,16.000000
3.162300,0.150000,16.000000
3.138400,0.100000,16.000000
3.125600,0.080000,16.000000
3.066000,2.020000,16.000000
3.054400,2.120000,16.000000
3.042800,5.810000,16.000000
3.031200,5.920000,16.000000
3.020600,6.100000,16.000000
3.007400,5.950000,16.000000
2.997500,2.130000,16.000000
2.984300,1.930000,16.000000
2.768200,0.060000,16.000000
2.759500,0.090000,16.000000
2.752000,0.060000,16.000000
2.741900,0.140000,16.000000
2.733800,0.150000,16.000000
2.701200,0.060000,16.000000
2.671600,4.000000,16.000000
2.646500,8.550000,16.000000
2.618800,0.310000,16.000000
2.606800,0.290000,16.000000
2.590500,0.090000,16.000000
2.579600,0.280000,16.000000
2.561500,9.020000,16.000000
2.536400,4.020000,16.000000
2.376800,0.110000,16.000000
2.368200,0.220000,16.000000
2.364400,0.160000,16.000000
2.358400,0.150000,16.000000
2.318900,0.130000,16.000000
2.309900,0.420000,16.000000
2.303300,0.370000,16.000000
2.291300,0.120000,16.000000
2.280700,0.130000,16.000000
2.211700,0.230000,16.000000
2.198700,0.260000,16.000000
2.186700,0.190000,16.000000
2.166400,0.200000,16.000000
2.147900,0.310000,16.000000
2.134800,0.420000,16.000000
2.129700,0.550000,16.000000
2.115200,0.560000,16.000000
2.099100,0.350000,16.000000
2.080500,1.990000,16.000000
2.064500,0.530000,16.000000
2.044100,0.670000,16.000000
2.015000,0.430000,16.000000
2.010800,0.440000,16.000000
1.970500,0.240000,16.000000
1.940000,0.220000,16.000000
1.921100,0.240000,16.000000
1.885000,0.200000,16.000000
1.875500,0.230000,16.000000
1.858300,0.300000,16.000000
1.841600,0.220000,16.000000
1.828300,0.220000,16.000000
1.813700,0.230000,16.000000
1.778600,0.260000,16.000000
1.706500,0.390000,16.000000
1.680300,0.460000,16.000000
1.668700,0.430000,16.000000
1.655600,0.400000,16.000000
1.648000,0.410000,16.000000
1.587000,0.180000,16.000000
1.553200,0.130000,16.000000
1.496000,0.140000,16.000000
1.490700,0.220000,16.000000
1.478200,0.230000,16.000000
1.424300,0.250000,16.000000
1.412300,0.280000,16.000000
1.337300,0.480000,16.000000
1.325500,0.480000,16.000000
1.308200,0.120000,16.000000
1.283400,0.110000,16.000000
1.253600,0.190000,16.000000
1.240200,0.250000,16.000000
1.229700,0.250000,16.000000
1.212300,0.270000,16.000000
1.202600,0.260000,16.000000
1.173000,0.220000,16.000000
1.160700,0.200000,16.000000
1.152000,0.210000,16.000000
1.121500,0.090000,16.000000
1.108800,0.250000,16.000000
1.096700,0.280000,16.000000
1.050200,0.210000,16.000000
1.037600,0.210000,16.000000
1.017800,0.250000,16.000000
0.984100,0.670000,16.000000
0.947200,1.970000,16.000000
0.941400,1.230000,16.000000
0.935800,1.910000,16.000000
0.929400,1.260000,16.000000
0.919300,1.200000,16.000000
0.910900,1.230000,16.000000
0.904500,1.160000,16.000000
0.898200,1.140000,16.000000
0.892500,1.090000,16.000000
0.885700,1.050000,16.000000
0.878700,1.070000,16.000000
0.864000,0.900000,16.000000
0.815300,0.470000,16.000000
0.794000,0.370000,16.000000
0.650000,0.090000,16.000000
0.640500,0.070000,16.000000
0.096800,0.330000,16.000000
0.024300,0.270000,16.000000
0.016600,0.190000,16.000000
0.015400,0.170000,16.000000
0.013800,0.150000,16.000000
0.012300,0.160000,16.000000
0.010800,0.270000,16.000000
0.009300,0.420000,16.000000
0.005100,3.760000,16.000000
-0.000200,101.240000,16.000000
-0.005600,3.710000,16.000000
-0.010400,0.260000,16.000000
-0.012000,0.140000,16.000000
-0.013500,0.100000,16.000000
-0.028000,0.250000,16.000000
-0.036100,0.170000,16.000000
-0.100600,0.340000,16.000000
-0.786200,0.060000,16.000000
-0.926000,0.100000,16.000000
-0.951300,0.120000,16.000000
-0.993900,0.130000,16.000000
-1.055100,0.150000,16.000000
-1.061400,0.140000,16.000000
-1.116900,0.180000,16.000000
