10.625500,0.120000,20.000000
10.567300,0.110000,20.000000
10.422000,0.080000,20.000000
10.408100,0.070000,20.000000
10.386000,0.090000,20.000000
10.327700,0.060000,20.000000
8.462100,0.090000,20.000000
8.440600,0.070000,20.000000
8.394700,0.060000,20.000000
8.252100,0.100000,20.000000
8.244800,0.080000,20.000000
8.215500,0.080000,20.000000
8.180900,0.080000,20.000000
8.143200,0.060000,20.000000
8.065000,0.080000,20.000000
8.025600,0.090000,20.000000
7.987500,0.120000,20.000000
7.957400,0.130000,20.000000
7.920500,0.120000,20.000000
7.868600,0.130000,20.000000
7.842700,0.120000,20.000000
7.812700,0.100000,20.000000
7.770100,0.110000,20.000000
7.745000,0.130000,20.000000
7.724200,0.150000,20.000000
7.695400,0.320000,20.000000
7.682700,0.320000,20.000000
7.638000,0.160000,20.000000
7.533600,0.610000,20.000000
7.518200,0.510000,20.000000
7.504100,0.470000,20.000000
7.489100,0.260000,20.000000
7.439100,0.200000,20.000000
7.386000,0.240000,20.000000
7.349800,0.240000,20.000000
7.287500,0.420000,20.000000
7.277300,0.350000,20.000000
7.266000,0.390000,20.000000
7.252500,0.470000,20.000000
7.238600,0.440000,20.000000
7.223600,0.760000,20.000000
7.181200,2.700000,20.000000
7.176300,11.600000,20.000000
7.172900,3.170000,20.000000
7.165100,3.890000,20.000000
7.161800,13.620000,20.000000
7.156800,2.070000,20.000000
7.141600,0.620000,20.000000
7.134800,0.240000,20.000000
7.120300,0.260000,20.000000
7.060400,0.190000,20.000000
7.024900,0.290000,20.000000
7.013800,0.230000,20.000000
6.995600,0.190000,20.000000
6.981500,0.180000,20.000000
6.934700,0.400000,20.000000
6.911100,1.200000,20.000000
6.901300,2.850000,20.000000
6.896500,15.000000,20.000000
6.893000,3.010000,20.000000
6.885400,3.330000,20.000000
6.881900,11.910000,20.000000
6.877000,1.600000,20.000000
6.862500,0.490000,20.000000
6.853300,0.270000,20.000000
6.838700,0.290000,20.000000
6.801800,0.150000,20.000000
6.784800,0.140000,20.000000
6.775100,0.140000,20.000000
6.764200,0.130000,20.000000
6.750500,0.120000,20.000000
4.712000,0.160000,20.000000
4.706500,0.310000,20.000000
4.689600,0.220000,20.000000
4.687100,0.160000,20.000000
4.683800,0.360000,20.000000
4.679300,0.430000,20.000000
4.673300,0.380000,20.000000
4.665100,0.110000,20.000000
4.278300,0.060000,20.000000
4.263500,0.090000,20.000000
4.245900,0.080000,20.000000
4.230200,0.100000,20.000000
4.221800,0.090000,20.000000
4.189000,0.120000,20.000000
4.138700,0.270000,20.000000
4.123100,0.260000,20.000000
4.091300,0.210000,20.000000
4.068100,0.200000,20.000000
4.055500,0.200000,20.000000
4.033200,0.270000,20.000000
4.020500,1.270000,20.000000
4.007700,0.490000,20.000000
3.996100,0.590000,20.000000
3.983100,4.470000,20.000000
3.970200,6.310000,20.000000
3.958500,4.310000,20.000000
3.945300,4.100000,20.000000
3.917300,13.410000,20.000000
3.889500,13.260000,20.000000
3.861400,4.320000,20.000000
3.847700,0.400000,20.000000
3.824300,2.850000,20.000000
3.812800,0.450000,20.000000
3.800000,3.810000,20.000000
3.769400,0.750000,20.000000
3.740700,8.660000,20.000000
3.710900,0.300000,20.000000
3.698000,0.220000,20.000000
3.678300,0.190000,20.000000
3.648200,0.130000,20.000000
3.636700,0.140000,20.000000
3.616900,0.220000,20.000000
3.592200,0.080000,20.000000
3.586800,0.100000,20.000000
3.565500,0.060000,20.000000
3.450300,1.170000,20.000000
3.218000,0.150000,20.000000
3.198900,0.270000,20.000000
3.185600,0.180000,20.000000
3.172500,0.140000,20.000000
3.162000,0.140000,20.000000
3.150100,0.080000,20.000000
3.137600,0.110000,20.000000
3.127000,0.070000,20.000000
3.103800,0.120000,20.000000
3.066200,1.910000,20.000000
3.054600,2.060000,20.000000
3.043000,5.560000,20.000000
3.031500,5.650000,20.000000
3.020800,5.820000,20.000000
3.007600,5.720000,20.000000
2.997700,2.000000,20.000000
2.984500,1.860000,20.000000
2.966300,0.150000,20.000000
2.954400,0.110000,20.000000
2.768200,0.060000,20.000000
2.741400,0.140000,20.000000
2.733700,0.130000,20.000000
2.701000,0.060000,20.000000
2.671700,4.060000,20.000000
2.646600,8.880000,20.000000
2.618700,0.320000,20.000000
2.606800,0.310000,20.000000
2.598400,0.120000,20.000000
2.579400,0.280000,20.000000
2.561500,9.270000,20.000000
2.536400,4.180000,20.000000
2.377800,0.060000,20.000000
2.368200,0.200000,20.000000
2.359200,0.140000,20.000000
2.320000,0.130000,20.000000
2.310700,0.360000,20.000000
2.303200,0.340000,20.000000
2.277600,0.100000,20.000000
2.254700,0.100000,20.000000
2.243200,0.130000,20.000000
2.220300,0.180000,20.000000
2.212800,0.180000,20.000000
2.199400,0.220000,20.000000
2.163200,0.190000,20.000000
2.148400,0.280000,20.000000
2.134600,0.410000,20.000000
2.129500,0.560000,20.000000
2.115600,0.520000,20.000000
2.098400,0.330000,20.000000
2.080600,2.060000,20.000000
2.064600,0.520000,20.000000
2.045900,0.630000,20.000000
2.024900,0.410000,20.000000
2.014300,0.380000,20.000000
1.942400,0.210000,20.000000
1.920600,0.270000,20.000000
1.907100,0.200000,20.000000
1.874700,0.220000,20.000000
1.858200,0.270000,20.000000
1.847900,0.220000,20.000000
1.843600,0.220000,20.000000
1.802500,0.230000,20.000000
1.791500,0.220000,20.000000
1.768300,0.240000,20.000000
1.748600,0.220000,20.000000
1.693300,0.360000,20.000000
1.680700,0.440000,20.000000
1.665900,0.420000,20.000000
1.658100,0.380000,20.000000
1.614800,0.250000,20.000000
1.548600,0.130000,20.000000
1.529200,0.110000,20.000000
1.490700,0.220000,20.000000
1.477800,0.200000,20.000000
1.436400,0.200000,20.000000
1.424600,0.230000,20.000000
1.412800,0.230000,20.000000
1.360700,0.120000,20.000000
1.337300,0.510000,20.000000
1.325600,0.470000,20.000000
1.293400,0.100000,20.000000
1.253300,0.180000,20.000000
1.240100,0.220000,20.000000
1.229700,0.220000,20.000000
1.212200,0.230000,20.000000
1.202400,0.240000,20.000000
1.173300,0.210000,20.000000
1.152500,0.180000,20.000000
1.121300,0.090000,20.000000
1.108600,0.290000,20.000000
1.096700,0.290000,20.000000
1.080300,0.120000,20.000000
1.050100,0.180000,20.000000
1.037700,0.200000,20.000000
0.983700,0.650000,20.000000
0.969100,0.780000,20.000000
0.947200,2.040000,20.000000
0.942000,1.180000,20.000000
0.935800,1.970000,20.000000
0.929400,1.180000,20.000000
0.919400,1.180000,20.000000
0.911200,1.160000,20.000000
0.908300,1.150000,20.000000
0.898200,1.140000,20.000000
0.892700,1.030000,20.000000
0.885600,1.030000,20.000000
0.877700,1.040000,20.000000
0.849100,0.650000,20.000000
0.814700,0.440000,20.000000
0.802500,0.420000,20.000000
0.773900,0.290000,20.000000
0.659100,0.070000,20.000000
0.097000,0.290000,20.000000
0.038200,0.170000,20.000000
0.031300,0.180000,20.000000
0.022400,0.080000,20.000000
0.018000,0.100000,20.000000
0.016400,0.240000,20.000000
0.015200,0.140000,20.000000
0.013600,0.150000,20.000000
0.012100,0.190000,20.000000
0.010600,0.270000,20.000000
0.009100,0.400000,20.000000
0.007400,0.760000,20.000000
0.005000,3.710000,20.000000
-0.000200,106.150000,20.000000
-0.005500,3.500000,20.000000
-0.009300,0.420000,20.000000
-0.010800,0.260000,20.000000
-0.012300,0.140000,20.000000
-0.042000,0.390000,20.000000
-0.049200,0.090000,20.000000
-0.100500,0.380000,20.000000
-0.840500,0.060000,20.000000
-0.960400,0.100000,20.000000
-0.984100,0.100000,20.000000
-1.048400,0.140000,20.000000
-1.111000,0.140000,20.000000
-1.127300,0.170000,20.000000
