10.542200,0.120000,22.000000
10.509700,0.110000,22.000000
10.472900,0.100000,22.000000
8.461200,0.080000,22.000000
8.416000,0.070000,22.000000
8.401400,0.060000,22.000000
8.298100,0.070000,22.000000
8.220500,0.120000,22.000000
8.169100,0.080000,22.000000
8.145600,0.080000,22.000000
8.123200,0.080000,22.000000
8.101800,0.090000,22.000000
8.062000,0.090000,22.000000
7.991200,0.110000,22.000000
7.959500,0.150000,22.000000
7.946600,0.150000,22.000000
7.887400,0.150000,22.000000
7.866900,0.150000,22.000000
7.837700,0.170000,22.000000
7.800800,0.110000,22.000000
7.779800,0.140000,22.000000
7.722600,0.160000,22.000000
7.695400,0.380000,22.000000
7.681300,0.330000,22.000000
7.651200,0.180000,22.000000
7.642100,0.180000,22.000000
7.535600,0.680000,22.000000
7.518100,0.560000,22.000000
7.503800,0.520000,22.000000
7.489600,0.260000,22.000000
7.473500,0.210000,22.000000
7.371000,0.280000,22.000000
7.301500,0.410000,22.000000
7.289400,0.460000,22.000000
7.266400,0.450000,22.000000
7.252400,0.540000,22.000000
7.238400,0.530000,22.000000
7.223300,0.850000,22.000000
7.209500,0.440000,22.000000
7.176300,11.950000,22.000000
7.161700,13.950000,22.000000
7.156900,2.270000,22.000000
7.141400,0.660000,22.000000
7.136100,0.420000,22.000000
7.121600,0.350000,22.000000
7.110900,0.220000,22.000000
7.039900,0.260000,22.000000
7.029800,0.310000,22.000000
7.012500,0.250000,22.000000
6.939600,0.340000,22.000000
6.929400,0.430000,22.000000
6.911000,1.210000,22.000000
6.901200,2.920000,22.000000
6.896500,15.000000,22.000000
6.893200,3.200000,22.000000
6.885300,3.320000,22.000000
6.881900,11.880000,22.000000
6.877100,1.700000,22.000000
6.862600,0.540000,22.000000
6.856300,0.410000,22.000000
6.841900,0.330000,22.000000
6.831500,0.210000,22.000000
6.799100,0.120000,22.000000
6.762800,0.120000,22.000000
6.749300,0.100000,22.000000
4.704700,0.440000,22.000000
4.684800,0.150000,22.000000
4.680600,0.540000,22.000000
4.674700,0.370000,22.000000
4.666100,0.090000,22.000000
4.262400,0.120000,22.000000
4.241600,0.110000,22.000000
4.206500,0.140000,22.000000
4.137700,0.320000,22.000000
4.123400,0.310000,22.000000
4.107800,0.260000,22.000000
4.079100,0.260000,22.000000
4.032000,0.340000,22.000000
4.020400,1.360000,22.000000
4.004800,0.570000,22.000000
3.983100,4.720000,22.000000
3.970300,6.910000,22.000000
3.958500,4.530000,22.000000
3.945300,4.200000,22.000000
3.931300,0.570000,22.000000
3.917300,13.640000,22.000000
3.903800,0.750000,22.000000
3.889500,13.560000,22.000000
3.877300,0.580000,22.000000
3.861400,4.420000,22.000000
3.849200,0.540000,22.000000
3.842200,0.370000,22.000000
3.824200,3.100000,22.000000
3.812500,0.510000,22.000000
3.800000,4.160000,22.000000
3.769700,0.710000,22.000000
3.740600,9.500000,22.000000
3.709300,0.410000,22.000000
3.701500,0.280000,22.000000
3.678700,0.180000,22.000000
3.662900,0.140000,22.000000
3.645100,0.130000,22.000000
3.616200,0.240000,22.000000
3.586500,0.130000,22.000000
3.450200,1.370000,22.000000
3.218900,0.190000,22.000000
3.198100,0.270000,22.000000
3.184700,0.210000,22.000000
3.173300,0.160000,22.000000
3.160200,0.160000,22.000000
3.136600,0.120000,22.000000
3.086200,0.260000,22.000000
3.066100,2.030000,22.000000
3.054500,2.180000,22.000000
3.043000,5.910000,22.000000
3.031400,6.000000,22.000000
3.020700,6.150000,22.000000
3.007500,6.010000,22.000000
2.997700,2.090000,22.000000
2.984400,1.960000,22.000000
2.967800,0.220000,22.000000
2.957500,0.110000,22.000000
2.944100,0.070000,22.000000
2.769100,0.070000,22.000000
2.751800,0.070000,22.000000
2.742100,0.150000,22.000000
2.733600,0.170000,22.000000
2.726100,0.100000,22.000000
2.701400,0.090000,22.000000
2.671600,3.950000,22.000000
2.646500,8.690000,22.000000
2.618700,0.380000,22.000000
2.606600,0.420000,22.000000
2.595000,0.090000,22.000000
2.579600,0.300000,22.000000
2.561500,9.120000,22.000000
2.536400,4.130000,22.000000
2.427500,0.080000,22.000000
2.376900,0.070000,22.000000
2.367800,0.240000,22.000000
2.359100,0.160000,22.000000
2.318900,0.150000,22.000000
2.310500,0.410000,22.000000
2.302900,0.370000,22.000000
2.290400,0.130000,22.000000
2.279700,0.120000,22.000000
2.263000,0.130000,22.000000
2.242800,0.140000,22.000000
2.223800,0.180000,22.000000
2.207200,0.200000,22.000000
2.198800,0.260000,22.000000
2.187800,0.210000,22.000000
2.168000,0.210000,22.000000
2.148100,0.290000,22.000000
2.129600,0.630000,22.000000
2.114800,0.600000,22.000000
2.097900,0.370000,22.000000
2.080600,2.000000,22.000000
2.064300,0.560000,22.000000
2.045400,0.720000,22.000000
2.011500,0.440000,22.000000
1.997500,0.310000,22.000000
1.964300,0.220000,22.000000
1.953000,0.230000,22.000000
1.941700,0.230000,22.000000
1.920500,0.250000,22.000000
1.857500,0.300000,22.000000
1.843100,0.230000,22.000000
1.805000,0.260000,22.000000
1.769400,0.270000,22.000000
1.716600,0.380000,22.000000
1.704200,0.400000,22.000000
1.680600,0.470000,22.000000
1.666700,0.460000,22.000000
1.656500,0.440000,22.000000
1.536600,0.120000,22.000000
1.490200,0.210000,22.000000
1.477900,0.220000,22.000000
1.471900,0.210000,22.000000
1.424100,0.270000,22.000000
1.412300,0.250000,22.000000
1.372600,0.120000,22.000000
1.337300,0.550000,22.000000
1.325600,0.520000,22.000000
1.282700,0.110000,22.000000
1.253400,0.230000,22.000000
1.240400,0.270000,22.000000
1.228600,0.240000,22.000000
1.213400,0.260000,22.000000
1.201500,0.260000,22.000000
1.152300,0.210000,22.000000
1.121300,0.090000,22.000000
1.108800,0.320000,22.000000
1.096500,0.330000,22.000000
1.050600,0.210000,22.000000
1.037700,0.220000,22.000000
1.025100,0.220000,22.000000
1.018000,0.240000,22.000000
0.983400,0.720000,22.000000
0.947200,2.180000,22.000000
0.941400,1.320000,22.000000
0.935800,2.070000,22.000000
0.930000,1.340000,22.000000
0.919500,1.330000,22.000000
0.908300,1.320000,22.000000
0.898400,1.240000,22.000000
0.892600,1.160000,22.000000
0.885200,1.130000,22.000000
0.877300,1.130000,22.000000
0.863600,0.920000,22.000000
0.815800,0.470000,22.000000
0.746500,0.270000,22.000000
0.689400,0.080000,22.000000
0.663600,0.090000,22.000000
0.096800,0.330000,22.000000
0.042200,0.130000,22.000000
0.009400,0.220000,22.000000
0.007800,0.470000,22.000000
0.005100,3.440000,22.000000
0.003300,3.510000,22.000000
-0.000200,100.060000,22.000000
-0.005800,4.310000,22.000000
-0.008900,0.950000,22.000000
-0.010400,0.610000,22.000000
-0.011900,0.410000,22.000000
-0.013400,0.330000,22.000000
-0.014900,0.250000,22.000000
-0.016400,0.180000,22.000000
-0.017900,0.160000,22.000000
-0.019300,0.130000,22.000000
-0.020800,0.140000,22.000000
-0.026900,0.560000,22.000000
-0.029600,0.140000,22.000000
-0.040400,1.180000,22.000000
-0.100600,0.360000,22.000000
-0.808400,0.070000,22.000000
-0.870500,0.080000,22.000000
-0.894300,0.100000,22.000000
-0.918500,0.090000,22.000000
-0.981700,0.130000,22.000000
-0.998300,0.140000,22.000000
-1.055000,0.160000,22.000000
-1.124500,0.190000,22.000000
-1.174700,0.200000,22.000000
