10.608600,0.130000,25.000000
10.572400,0.130000,25.000000
10.498200,0.100000,25.000000
10.470400,0.100000,25.000000
10.428000,0.090000,25.000000
10.379500,0.080000,25.000000
10.371300,0.080000,25.000000
10.345400,0.070000,25.000000
8.455000,0.080000,25.000000
8.401400,0.070000,25.000000
8.242400,0.090000,25.000000
8.224000,0.100000,25.000000
8.191700,0.090000,25.000000
8.132700,0.080000,25.000000
8.089100,0.080000,25.000000
7.989600,0.120000,25.000000
7.942100,0.140000,25.000000
7.937900,0.140000,25.000000
7.897900,0.140000,25.000000
7.864600,0.150000,25.000000
7.840400,0.150000,25.000000
7.826300,0.140000,25.000000
7.773400,0.130000,25.000000
7.748400,0.140000,25.000000
7.736600,0.120000,25.000000
7.724900,0.130000,25.000000
7.709200,0.190000,25.000000
7.695600,0.350000,25.000000
7.681600,0.350000,25.000000
7.638300,0.200000,25.000000
7.572900,0.260000,25.000000
7.538600,0.660000,25.000000
7.518800,0.570000,25.000000
7.504400,0.550000,25.000000
7.488500,0.260000,25.000000
7.461700,0.210000,25.000000
7.420200,0.220000,25.000000
7.399400,0.240000,25.000000
7.388800,0.290000,25.000000
7.366200,0.260000,25.000000
7.357100,0.270000,25.000000
7.302800,0.410000,25.000000
7.288000,0.450000,25.000000
7.266700,0.420000,25.000000
7.253000,0.530000,25.000000
7.239600,0.500000,25.000000
7.223700,0.840000,25.000000
7.176400,11.930000,25.000000
7.161800,13.980000,25.000000
7.156900,2.310000,25.000000
7.142000,0.730000,25.000000
7.135700,0.330000,25.000000
7.110700,0.270000,25.000000
7.076900,0.180000,25.000000
7.053200,0.210000,25.000000
7.026800,0.340000,25.000000
6.935300,0.370000,25.000000
6.911000,1.160000,25.000000
6.901100,2.880000,25.000000
6.896500,15.000000,25.000000
6.893100,3.020000,25.000000
6.885300,3.450000,25.000000
6.882000,11.940000,25.000000
6.877100,1.850000,25.000000
6.862800,0.720000,25.000000
6.850100,0.330000,25.000000
6.830500,0.260000,25.000000
6.823500,0.220000,25.000000
4.711200,0.120000,25.000000
4.705800,0.230000,25.000000
4.685200,0.620000,25.000000
4.680700,0.330000,25.000000
4.674800,0.340000,25.000000
4.667200,0.140000,25.000000
4.243700,0.110000,25.000000
4.222400,0.110000,25.000000
4.138300,0.280000,25.000000
4.123300,0.290000,25.000000
4.089900,0.230000,25.000000
4.032700,0.320000,25.000000
4.020500,1.360000,25.000000
4.007600,0.510000,25.000000
3.983300,4.650000,25.000000
3.970500,6.690000,25.000000
3.958700,4.580000,25.000000
3.945400,4.240000,25.000000
3.917300,13.690000,25.000000
3.889500,13.610000,25.000000
3.861400,4.470000,25.000000
3.848800,0.390000,25.000000
3.836500,0.390000,25.000000
3.824400,3.350000,25.000000
3.812500,0.470000,25.000000
3.800100,4.520000,25.000000
3.769300,0.690000,25.000000
3.740700,9.370000,25.000000
3.710600,0.440000,25.000000
3.690800,0.170000,25.000000
3.678500,0.190000,25.000000
3.663200,0.140000,25.000000
3.631500,0.140000,25.000000
3.615900,0.250000,25.000000
3.586900,0.110000,25.000000
3.565400,0.080000,25.000000
3.450300,1.600000,25.000000
3.218200,0.180000,25.000000
3.198300,0.280000,25.000000
3.185400,0.200000,25.000000
3.175900,0.150000,25.000000
3.162500,0.170000,25.000000
3.137200,0.100000,25.000000
3.066300,2.030000,25.000000
3.054700,2.150000,25.000000
3.043200,5.870000,25.000000
3.031600,5.970000,25.000000
3.020900,6.150000,25.000000
3.007700,6.030000,25.000000
2.997800,2.140000,25.000000
2.984500,1.920000,25.000000
2.954400,0.090000,25.000000
2.759500,0.070000,25.000000
2.742000,0.180000,25.000000
2.733900,0.190000,25.000000
2.701200,0.060000,25.000000
2.671700,4.010000,25.000000
2.646600,8.910000,25.000000
2.618700,0.380000,25.000000
2.606800,0.350000,25.000000
2.599100,0.100000,25.000000
2.579500,0.290000,25.000000
2.561500,9.190000,25.000000
2.536400,4.210000,25.000000
2.368500,0.210000,25.000000
2.358900,0.160000,25.000000
2.327400,0.080000,25.000000
2.318900,0.150000,25.000000
2.310200,0.460000,25.000000
2.303300,0.370000,25.000000
2.280900,0.110000,25.000000
2.244200,0.160000,25.000000
2.211400,0.220000,25.000000
2.199200,0.240000,25.000000
2.165800,0.190000,25.000000
2.148400,0.300000,25.000000
2.134500,0.440000,25.000000
2.129500,0.690000,25.000000
2.115800,0.600000,25.000000
2.098000,0.390000,25.000000
2.080500,1.970000,25.000000
2.064500,0.600000,25.000000
2.045000,0.710000,25.000000
2.011300,0.440000,25.000000
1.964500,0.230000,25.000000
1.920600,0.300000,25.000000
1.908600,0.230000,25.000000
1.876300,0.230000,25.000000
1.857600,0.320000,25.000000
1.847500,0.230000,25.000000
1.816100,0.240000,25.000000
1.801800,0.250000,25.000000
1.791400,0.250000,25.000000
1.742300,0.250000,25.000000
1.688300,0.440000,25.000000
1.680200,0.480000,25.000000
1.666600,0.480000,25.000000
1.656100,0.460000,25.000000
1.650700,0.420000,25.000000
1.549700,0.130000,25.000000
1.513300,0.150000,25.000000
1.490400,0.230000,25.000000
1.478400,0.210000,25.000000
1.459800,0.190000,25.000000
1.424600,0.280000,25.000000
1.411700,0.250000,25.000000
1.368200,0.110000,25.000000
1.337300,0.520000,25.000000
1.325800,0.500000,25.000000
1.266200,0.110000,25.000000
1.252800,0.190000,25.000000
1.240500,0.270000,25.000000
1.229500,0.250000,25.000000
1.211000,0.270000,25.000000
1.202700,0.270000,25.000000
1.184200,0.220000,25.000000
1.152700,0.210000,25.000000
1.121300,0.110000,25.000000
1.108600,0.300000,25.000000
1.096700,0.330000,25.000000
1.053800,0.180000,25.000000
1.050300,0.200000,25.000000
1.038100,0.270000,25.000000
1.018500,0.260000,25.000000
1.005600,0.390000,25.000000
0.983300,0.760000,25.000000
0.970400,0.900000,25.000000
0.947200,2.290000,25.000000
0.941800,1.320000,25.000000
0.935800,2.210000,25.000000
0.929100,1.370000,25.000000
0.919600,1.370000,25.000000
0.911200,1.330000,25.000000
0.908200,1.360000,25.000000
0.898400,1.290000,25.000000
0.892100,1.140000,25.000000
0.885700,1.130000,25.000000
0.878900,1.150000,25.000000
0.814300,0.460000,25.000000
0.789800,0.350000,25.000000
0.756900,0.250000,25.000000
0.674700,0.080000,25.000000
0.097000,0.360000,25.000000
0.016000,0.140000,25.000000
0.005100,3.660000,25.000000
-0.000200,102.220000,25.000000
-0.005500,3.750000,25.000000
-0.025700,0.390000,25.000000
-0.032300,0.360000,25.000000
-0.100500,0.330000,25.000000
-0.853400,0.070000,25.000000
-0.925500,0.100000,25.000000
-0.959300,0.120000,25.000000
-0.991800,0.120000,25.000000
-1.036100,0.150000,25.000000
-1.069600,0.160000,25.000000
-1.095500,0.160000,25.000000
-1.128000,0.180000,25.000000
-1.173300,0.180000,25.000000
