10.670200,0.130000,34.000000
10.604700,0.150000,34.000000
10.585600,0.130000,34.000000
10.543200,0.120000,34.000000
10.520100,0.120000,34.000000
10.417600,0.090000,34.000000
10.371600,0.080000,34.000000
10.341000,0.070000,34.000000
10.332800,0.070000,34.000000
8.467900,0.080000,34.000000
8.430000,0.070000,34.000000
8.341200,0.080000,34.000000
8.235600,0.110000,34.000000
8.223000,0.110000,34.000000
8.170800,0.100000,34.000000
8.148200,0.100000,34.000000
8.077100,0.100000,34.000000
8.028400,0.110000,34.000000
7.966100,0.150000,34.000000
7.950100,0.150000,34.000000
7.901000,0.160000,34.000000
7.837800,0.170000,34.000000
7.773400,0.120000,34.000000
7.748600,0.150000,34.000000
7.722200,0.180000,34.000000
7.695700,0.390000,34.000000
7.682100,0.370000,34.000000
7.637900,0.180000,34.000000
7.588600,0.240000,34.000000
7.537500,0.660000,34.000000
7.519500,0.540000,34.000000
7.504200,0.550000,34.000000
7.488900,0.270000,34.000000
7.436800,0.230000,34.000000
7.424800,0.240000,34.000000
7.401300,0.290000,34.000000
7.384800,0.310000,34.000000
7.377600,0.310000,34.000000
7.303400,0.470000,34.000000
7.287800,0.480000,34.000000
7.253600,0.580000,34.000000
7.239200,0.520000,34.000000
7.223600,0.870000,34.000000
7.208800,0.690000,34.000000
7.193800,1.110000,34.000000
7.181300,3.560000,34.000000
7.176400,11.920000,34.000000
7.165300,4.460000,34.000000
7.161800,14.000000,34.000000
7.156900,2.250000,34.000000
7.141600,0.710000,34.000000
7.135000,0.340000,34.000000
7.119900,0.370000,34.000000
7.083800,0.210000,34.000000
7.025700,0.360000,34.000000
6.995400,0.220000,34.000000
6.943000,0.290000,34.000000
6.915200,0.980000,34.000000
6.911000,1.290000,34.000000
6.901100,3.160000,34.000000
6.896500,15.000000,34.000000
6.893100,3.090000,34.000000
6.885400,3.480000,34.000000
6.882000,12.020000,34.000000
6.877100,2.640000,34.000000
6.862700,1.370000,34.000000
6.854500,0.430000,34.000000
6.839800,0.400000,34.000000
6.744800,0.150000,34.000000
4.710800,0.220000,34.000000
4.684900,0.430000,34.000000
4.680600,0.570000,34.000000
4.674600,0.460000,34.000000
4.667000,0.160000,34.000000
4.261600,0.110000,34.000000
4.247200,0.110000,34.000000
4.230200,0.110000,34.000000
4.203600,0.130000,34.000000
4.138800,0.290000,34.000000
4.121000,0.290000,34.000000
4.115200,0.270000,34.000000
4.098500,0.240000,34.000000
4.077800,0.240000,34.000000
4.059900,0.230000,34.000000
4.033600,0.310000,34.000000
4.020400,1.330000,34.000000
4.005000,0.550000,34.000000
3.984200,4.680000,34.000000
3.971300,6.700000,34.000000
3.959500,4.460000,34.000000
3.945500,4.320000,34.000000
3.917500,13.740000,34.000000
3.889500,13.510000,34.000000
3.861400,4.510000,34.000000
3.847500,0.560000,34.000000
3.839500,0.560000,34.000000
3.824300,6.350000,34.000000
3.812900,0.580000,34.000000
3.800400,8.580000,34.000000
3.770000,0.930000,34.000000
3.740600,9.150000,34.000000
3.709100,0.340000,34.000000
3.678200,0.350000,34.000000
3.671700,0.220000,34.000000
3.633200,0.170000,34.000000
3.615900,0.330000,34.000000
3.610800,0.160000,34.000000
3.593300,0.100000,34.000000
3.586800,0.170000,34.000000
3.565600,0.270000,34.000000
3.539800,0.090000,34.000000
3.450200,3.850000,34.000000
3.247800,0.170000,34.000000
3.235500,0.150000,34.000000
3.218300,0.270000,34.000000
3.210000,0.250000,34.000000
3.198300,0.360000,34.000000
3.185400,0.380000,34.000000
3.175800,0.190000,34.000000
3.162100,0.170000,34.000000
3.137400,0.180000,34.000000
3.126400,0.100000,34.000000
3.103000,0.180000,34.000000
3.066600,2.020000,34.000000
3.055000,2.200000,34.000000
3.043500,5.880000,34.000000
3.031900,5.990000,34.000000
3.021300,6.120000,34.000000
3.008100,6.030000,34.000000
2.998200,2.120000,34.000000
2.985000,1.970000,34.000000
2.966200,0.180000,34.000000
2.955600,0.130000,34.000000
2.767900,0.100000,34.000000
2.760000,0.090000,34.000000
2.751900,0.130000,34.000000
2.741700,0.240000,34.000000
2.739500,0.240000,34.000000
2.733900,0.210000,34.000000
2.727100,0.190000,34.000000
2.701100,0.090000,34.000000
2.671700,4.450000,34.000000
2.646600,9.670000,34.000000
2.618800,0.490000,34.000000
2.606900,0.440000,34.000000
2.598300,0.130000,34.000000
2.589400,0.150000,34.000000
2.579500,0.330000,34.000000
2.561500,10.080000,34.000000
2.536400,4.550000,34.000000
2.427800,0.090000,34.000000
2.377100,0.080000,34.000000
2.368400,0.230000,34.000000
2.348200,0.070000,34.000000
2.326100,0.110000,34.000000
2.319600,0.160000,34.000000
2.310500,0.430000,34.000000
2.303400,0.400000,34.000000
2.289900,0.140000,34.000000
2.262400,0.130000,34.000000
2.217100,0.210000,34.000000
2.212000,0.260000,34.000000
2.199100,0.270000,34.000000
2.187400,0.240000,34.000000
2.173600,0.220000,34.000000
2.144800,0.390000,34.000000
2.129600,1.020000,34.000000
2.115000,0.670000,34.000000
2.098500,0.470000,34.000000
2.080500,2.050000,34.000000
2.064300,0.770000,34.000000
2.051800,0.700000,34.000000
2.044400,0.770000,34.000000
2.024900,0.510000,34.000000
1.968300,0.270000,34.000000
1.938400,0.280000,34.000000
1.920500,0.360000,34.000000
1.906600,0.350000,34.000000
1.858100,0.340000,34.000000
1.840300,0.260000,34.000000
1.826000,0.250000,34.000000
1.805700,0.280000,34.000000
1.774800,0.280000,34.000000
1.732000,0.400000,34.000000
1.718400,0.450000,34.000000
1.706300,0.500000,34.000000
1.680200,0.620000,34.000000
1.667000,0.560000,34.000000
1.657700,0.570000,34.000000
1.549000,0.140000,34.000000
1.525900,0.160000,34.000000
1.513400,0.180000,34.000000
1.490400,0.420000,34.000000
1.477900,0.400000,34.000000
1.460800,0.240000,34.000000
1.447200,0.220000,34.000000
1.436600,0.280000,34.000000
1.424600,0.380000,34.000000
1.411500,0.300000,34.000000
1.373000,0.160000,34.000000
1.361000,0.190000,34.000000
1.337500,0.670000,34.000000
1.325700,0.570000,34.000000
1.253300,0.250000,34.000000
1.240600,0.340000,34.000000
1.229600,0.310000,34.000000
1.212100,0.360000,34.000000
1.203500,0.290000,34.000000
1.180900,0.270000,34.000000
1.151700,0.230000,34.000000
1.140900,0.160000,34.000000
1.133600,0.100000,34.000000
1.108700,0.410000,34.000000
1.096700,0.460000,34.000000
1.056100,0.210000,34.000000
1.050300,0.370000,34.000000
1.044600,0.250000,34.000000
1.038000,0.430000,34.000000
1.018000,0.560000,34.000000
1.005900,0.670000,34.000000
1.000200,0.710000,34.000000
0.988100,0.990000,34.000000
0.984000,1.010000,34.000000
0.971800,1.240000,34.000000
0.964100,1.460000,34.000000
0.953500,1.640000,34.000000
0.947200,3.060000,34.000000
0.941400,1.880000,34.000000
0.935700,2.820000,34.000000
0.929300,1.790000,34.000000
0.919600,2.030000,34.000000
0.910900,1.670000,34.000000
0.908300,1.910000,34.000000
0.898100,1.560000,34.000000
0.892800,1.350000,34.000000
0.885400,1.380000,34.000000
0.877600,1.320000,34.000000
0.849500,0.780000,34.000000
0.836500,0.530000,34.000000
0.817600,0.470000,34.000000
0.804600,0.450000,34.000000
0.680100,0.090000,34.000000
0.096800,0.390000,34.000000
0.038800,0.210000,34.000000
0.028600,0.200000,34.000000
0.027300,0.200000,34.000000
0.022700,0.110000,34.000000
0.019800,0.110000,34.000000
0.018300,0.140000,34.000000
0.016700,0.330000,34.000000
0.015500,0.330000,34.000000
0.013900,0.290000,34.000000
0.012400,0.280000,34.000000
0.010900,0.420000,34.000000
0.009400,0.610000,34.000000
0.007800,0.910000,34.000000
0.005100,4.390000,34.000000
-0.000200,112.180000,34.000000
-0.005800,3.760000,34.000000
-0.008900,0.370000,34.000000
-0.042200,0.840000,34.000000
-0.100500,0.410000,34.000000
-0.875800,0.100000,34.000000
-0.959100,0.140000,34.000000
-1.015500,0.150000,34.000000
-1.078400,0.190000,34.000000
-1.148500,0.200000,34.000000
