F,0,3.917,13.5600004196167,-0.45
F,1,3.917,13.760000228881836,-0.45
F,2,3.917,13.75,-0.45
F,3,3.917,13.449999809265137,-0.45
F,4,3.917,13.4399995803833,-0.45
F,5,3.917,13.579999923706055,-0.45
F,6,3.917,13.069999694824219,-0.45
F,7,3.917,13.539999961853027,-0.45
F,8,3.889,13.34000015258789,-0.45
F,9,3.917,13.390000343322754,-0.45
F,10,3.917,13.369999885559082,-0.45
F,11,3.917,13.4399995803833,-0.45
F,12,3.917,13.359999656677246,-0.45
F,13,3.917,13.390000343322754,-0.45
F,14,3.917,13.3100004196167,-0.45
F,15,3.917,13.59000015258789,-0.45
F,16,3.917,13.550000190734863,-0.45
F,17,3.917,13.069999694824219,-0.45
F,18,3.889,13.369999885559082,-0.45
F,19,3.917,13.369999885559082,-0.45
F,20,3.917,13.40999984741211,-0.45
F,21,3.917,13.739999771118164,-0.45
F,22,3.917,13.640000343322754,-0.45
F,23,3.889,13.470000267028809,-0.45
F,24,3.917,13.4399995803833,-0.45
F,25,3.917,13.6899995803833,-0.45
F,26,3.917,13.34000015258789,-0.45
F,27,3.917,13.600000381469727,-0.45
F,28,3.917,13.489999771118164,-0.45
F,29,3.917,13.880000114440918,-0.45
F,30,3.918,13.40999984741211,-0.45
F,31,3.917,14.09000015258789,-0.45
F,32,3.918,13.649999618530273,-0.45
F,33,3.917,13.829999923706055,-0.45
F,34,3.918,13.739999771118164,-0.45
F,35,3.889,13.350000381469727,-0.45
F,36,3.918,13.920000076293945,-0.45
F,37,3.918,13.59000015258789,-0.45
F,38,3.918,13.699999809265137,-0.45
F,39,3.918,13.229999542236328,-0.45
F,40,3.918,13.470000267028809,-0.45
F,41,3.801,14.199999809265137,-0.45
F,42,3.801,14.770000457763672,-0.45
F,43,3.8,15.0,-0.45
F,44,3.8,15.0,-0.45
F,45,3.801,15.0,-0.45
F,46,3.801,15.0,-0.45
F,47,3.8,15.0,-0.45
F,48,3.8,15.0,-0.45
F,49,3.8,15.0,-0.45
F,50,3.8,15.0,-0.45
F,51,3.8,15.0,-0.45
F,52,3.8,15.0,-0.45
F,53,3.799,15.0,-0.45
F,54,3.799,15.0,-0.45
F,55,3.799,15.0,-0.45
F,56,3.798,15.0,-0.45
F,57,3.798,15.0,-0.45
F,58,3.798,15.0,-0.45
F,59,3.798,15.0,-0.45
F,60,3.798,15.0,-0.45
F,61,3.798,15.0,-0.45
F,62,3.798,15.0,-0.45
F,63,3.798,15.0,-0.45
S,0,10.507,0.12999999523162842,-0.45
S,1,10.639,0.12999999523162842,-0.45
S,2,10.668,0.12999999523162842,-0.45
S,3,10.588,0.12999999523162842,-0.45
S,4,10.625,0.10999999940395355,-0.45
S,5,10.59,0.12999999523162842,-0.45
S,6,10.525,0.10999999940395355,-0.45
S,7,10.653,0.11999999731779099,-0.45
S,8,10.69,0.14000000059604645,-0.45
S,9,10.594,0.12999999523162842,-0.45
S,10,10.65,0.14000000059604645,-0.45
S,11,10.557,0.11999999731779099,-0.45
S,12,10.572,0.11999999731779099,-0.45
S,13,10.666,0.12999999523162842,-0.45
S,14,10.68,0.12999999523162842,-0.45
S,15,10.66,0.12999999523162842,-0.45
S,16,10.619,0.12999999523162842,-0.45
S,17,10.684,0.14000000059604645,-0.45
S,18,10.631,0.11999999731779099,-0.45
S,19,10.51,0.11999999731779099,-0.45
S,20,10.625,0.11999999731779099,-0.45
S,21,10.58,0.12999999523162842,-0.45
S,22,10.542,0.11999999731779099,-0.45
S,23,10.689,0.14000000059604645,-0.45
S,24,10.605,0.10999999940395355,-0.45
S,25,10.572,0.12999999523162842,-0.45
S,26,10.575,0.11999999731779099,-0.45
S,27,10.608,0.12999999523162842,-0.45
S,28,10.671,0.15000000596046448,-0.45
S,29,10.513,0.12999999523162842,-0.45
S,30,10.528,0.12999999523162842,-0.45
S,31,10.589,0.15000000596046448,-0.45
S,32,10.573,0.12999999523162842,-0.45
S,33,10.577,0.14000000059604645,-0.45
S,34,10.605,0.15000000596046448,-0.45
S,35,10.674,0.15000000596046448,-0.45
S,36,10.58,0.15000000596046448,-0.45
S,37,10.57,0.14000000059604645,-0.45
S,38,10.529,0.15000000596046448,-0.45
S,39,10.494,0.11999999731779099,-0.45
S,40,10.597,0.14000000059604645,-0.45
S,41,10.52,0.14000000059604645,-0.45
S,42,10.57,0.12999999523162842,-0.45
S,43,10.662,0.15000000596046448,-0.45
S,44,10.571,0.1599999964237213,-0.45
S,45,10.62,0.12999999523162842,-0.45
S,46,10.55,0.14000000059604645,-0.45
S,47,10.655,0.10999999940395355,-0.45
S,48,10.652,0.11999999731779099,-0.45
S,49,10.528,0.10999999940395355,-0.45
S,50,10.606,0.11999999731779099,-0.45
S,51,10.647,0.10999999940395355,-0.45
S,52,10.517,0.09000000357627869,-0.45
S,54,10.685,0.12999999523162842,-0.45
S,55,10.616,0.07999999821186066,-0.45
S,56,10.687,0.10999999940395355,-0.45
S,57,10.688,0.10000000149011612,-0.45
S,58,10.69,0.10999999940395355,-0.45
S,59,10.686,0.07999999821186066,-0.45
S,60,10.692,0.09000000357627869,-0.45
S,61,10.672,0.07999999821186066,-0.45
S,62,10.691,0.09000000357627869,-0.45
S,63,10.646,0.05000000074505806,-0.45
S,63,0.0,0.0,-0.45
