F,0,6.896,15.0,0.0
F,0,6.896,15.0,0.0
F,0,6.882,12.039999961853027,0.0
F,1,6.896,15.0,0.0
F,1,6.882,12.15999984741211,0.0
F,2,6.896,15.0,0.0
F,2,6.882,12.15999984741211,0.0
F,3,6.896,15.0,0.0
F,3,6.882,12.210000038146973,0.0
F,4,6.896,15.0,0.0
F,4,6.882,12.119999885559082,0.0
F,5,6.896,15.0,0.0
F,5,6.882,11.949999809265137,0.0
F,6,6.896,15.0,0.0
F,6,6.882,12.100000381469727,0.0
F,7,6.896,15.0,0.0
F,7,6.882,12.020000457763672,0.0
F,8,6.896,15.0,0.0
F,8,6.882,12.140000343322754,0.0
F,9,6.896,15.0,0.0
F,9,6.882,12.140000343322754,0.0
F,10,6.896,15.0,0.0
F,10,6.882,12.149999618530273,0.0
F,11,6.896,15.0,0.0
F,11,6.882,12.029999732971191,0.0
F,12,6.896,15.0,0.0
F,12,6.882,11.899999618530273,0.0
F,13,6.896,15.0,0.0
F,13,6.882,12.130000114440918,0.0
F,14,6.896,15.0,0.0
F,14,6.882,12.199999809265137,0.0
F,15,6.896,15.0,0.0
F,15,6.882,12.020000457763672,0.0
F,16,6.896,15.0,0.0
F,16,6.882,12.010000228881836,0.0
F,17,6.896,15.0,0.0
F,17,6.882,12.149999618530273,0.0
F,18,6.896,15.0,0.0
F,18,6.882,12.050000190734863,0.0
F,19,6.896,15.0,0.0
F,19,6.882,11.9399995803833,0.0
F,20,6.897,15.0,0.0
F,20,6.882,11.90999984741211,0.0
F,21,6.897,15.0,0.0
F,21,6.882,11.979999542236328,0.0
F,22,6.897,15.0,0.0
F,22,6.882,11.880000114440918,0.0
F,23,6.896,15.0,0.0
F,23,6.882,12.180000305175781,0.0
F,24,6.897,15.0,0.0
F,24,6.882,11.890000343322754,0.0
F,25,6.897,15.0,0.0
F,25,6.882,11.9399995803833,0.0
F,26,6.896,15.0,0.0
F,26,6.882,11.90999984741211,0.0
F,27,6.896,15.0,0.0
F,27,6.882,12.039999961853027,0.0
F,28,6.896,15.0,0.0
F,28,6.882,12.149999618530273,0.0
F,29,6.897,15.0,0.0
F,29,6.882,12.0,0.0
F,30,6.897,15.0,0.0
F,30,6.882,11.989999771118164,0.0
F,31,6.897,15.0,0.0
F,32,6.897,15.0,0.0
F,32,6.882,11.979999542236328,0.0
F,33,6.897,15.0,0.0
F,33,6.882,11.989999771118164,0.0
F,34,6.897,15.0,0.0
F,34,6.882,12.020000457763672,0.0
F,35,6.896,15.0,0.0
F,35,6.882,12.15999984741211,0.0
F,36,6.897,15.0,0.0
F,36,6.882,12.0600004196167,0.0
F,37,6.897,15.0,0.0
F,37,6.882,12.010000228881836,0.0
F,38,6.897,15.0,0.0
F,38,6.882,11.979999542236328,0.0
F,39,6.897,15.0,0.0
F,39,6.882,12.109999656677246,0.0
F,39,6.863,2.0799999237060547,0.0
F,40,6.897,15.0,0.0
F,40,6.882,12.1899995803833,0.0
F,40,6.863,2.2899999618530273,0.0
F,41,6.897,15.0,0.0
F,41,6.882,12.15999984741211,0.0
F,42,6.897,15.0,0.0
F,42,6.882,12.220000267028809,0.0
F,42,6.863,2.630000114440918,0.0
F,43,6.897,14.199999809265137,0.0
F,43,6.882,11.640000343322754,0.0
F,44,6.897,13.470000267028809,0.0
F,44,6.882,11.0,0.0
F,45,6.897,12.949999809265137,0.0
F,45,6.882,10.59000015258789,0.0
F,45,6.863,2.7300000190734863,0.0
F,46,6.897,12.199999809265137,0.0
F,46,6.882,10.0,0.0
F,47,6.897,11.619999885559082,0.0
F,47,6.882,9.609999656677246,0.0
F,47,6.863,2.8399999141693115,0.0
F,48,6.897,11.229999542236328,0.0
F,48,6.882,9.300000190734863,0.0
F,48,6.863,2.859999895095825,0.0
F,49,6.897,10.5600004196167,0.0
F,49,6.882,8.699999809265137,0.0
F,49,6.863,2.8299999237060547,0.0
F,50,6.897,10.359999656677246,0.0
F,50,6.882,8.4399995803833,0.0
F,50,6.863,2.75,0.0
F,51,6.896,9.949999809265137,0.0
F,51,6.882,8.229999542236328,0.0
F,51,6.863,2.880000114440918,0.0
F,52,6.896,8.319999694824219,0.0
F,52,6.882,6.889999866485596,0.0
F,52,6.863,2.8499999046325684,0.0
F,53,6.896,7.349999904632568,0.0
F,53,6.882,6.03000020980835,0.0
F,53,6.863,2.8299999237060547,0.0
F,54,6.896,6.199999809265137,0.0
F,55,6.896,5.480000019073486,0.0
F,55,6.882,4.510000228881836,0.0
F,55,6.863,2.809999942779541,0.0
F,56,6.896,4.71999979019165,0.0
F,56,6.877,4.010000228881836,0.0
F,56,6.863,3.200000047683716,0.0
F,57,6.896,4.239999771118164,0.0
F,57,6.877,3.9800000190734863,0.0
F,57,6.863,3.240000009536743,0.0
F,58,6.896,3.6500000953674316,0.0
F,58,6.877,3.940000057220459,0.0
F,59,6.896,3.3299999237060547,0.0
F,59,6.877,4.0,0.0
F,59,6.863,3.299999952316284,0.0
F,60,6.896,3.009999990463257,0.0
F,60,6.877,4.079999923706055,0.0
F,60,6.863,3.359999895095825,0.0
F,61,6.896,2.6700000762939453,0.0
F,61,6.877,4.110000133514404,0.0
F,61,6.863,3.440000057220459,0.0
F,62,6.896,2.369999885559082,0.0
F,62,6.877,4.159999847412109,0.0
F,62,6.863,3.5299999713897705,0.0
F,63,6.896,2.240000009536743,0.0
F,63,6.878,4.159999847412109,0.0
F,63,6.863,3.490000009536743,0.0
F,0,6.882,12.039999961853027,0.0
F,0,6.896,15.0,0.0
F,0,6.882,12.039999961853027,0.0
F,1,6.896,15.0,0.0
F,1,6.882,12.15999984741211,0.0
F,2,6.896,15.0,0.0
F,2,6.882,12.15999984741211,0.0
F,3,6.896,15.0,0.0
F,3,6.882,12.210000038146973,0.0
F,4,6.896,15.0,0.0
F,4,6.882,12.119999885559082,0.0
F,5,6.896,15.0,0.0
F,5,6.882,11.949999809265137,0.0
F,6,6.896,15.0,0.0
F,6,6.882,12.100000381469727,0.0
F,7,6.896,15.0,0.0
F,7,6.882,12.020000457763672,0.0
F,8,6.896,15.0,0.0
F,8,6.882,12.140000343322754,0.0
F,9,6.896,15.0,0.0
F,9,6.882,12.140000343322754,0.0
F,10,6.896,15.0,0.0
F,10,6.882,12.149999618530273,0.0
F,11,6.896,15.0,0.0
F,11,6.882,12.029999732971191,0.0
F,12,6.896,15.0,0.0
F,12,6.882,11.899999618530273,0.0
F,13,6.896,15.0,0.0
F,13,6.882,12.130000114440918,0.0
F,14,6.896,15.0,0.0
F,14,6.882,12.199999809265137,0.0
F,15,6.896,15.0,0.0
F,15,6.882,12.020000457763672,0.0
F,16,6.896,15.0,0.0
F,16,6.882,12.010000228881836,0.0
F,17,6.896,15.0,0.0
F,17,6.882,12.149999618530273,0.0
F,18,6.896,15.0,0.0
F,18,6.882,12.050000190734863,0.0
F,19,6.896,15.0,0.0
F,19,6.882,11.9399995803833,0.0
F,20,6.897,15.0,0.0
F,20,6.882,11.90999984741211,0.0
F,21,6.897,15.0,0.0
F,21,6.882,11.979999542236328,0.0
F,22,6.897,15.0,0.0
F,22,6.882,11.880000114440918,0.0
F,23,6.896,15.0,0.0
F,23,6.882,12.180000305175781,0.0
F,24,6.897,15.0,0.0
F,24,6.882,11.890000343322754,0.0
F,25,6.897,15.0,0.0
F,25,6.882,11.9399995803833,0.0
F,26,6.896,15.0,0.0
F,26,6.882,11.90999984741211,0.0
F,27,6.896,15.0,0.0
F,27,6.882,12.039999961853027,0.0
F,28,6.896,15.0,0.0
F,28,6.882,12.149999618530273,0.0
F,29,6.897,15.0,0.0
F,29,6.882,12.0,0.0
F,30,6.897,15.0,0.0
F,30,6.882,11.989999771118164,0.0
F,31,6.897,15.0,0.0
F,32,6.897,15.0,0.0
F,32,6.882,11.979999542236328,0.0
F,33,6.897,15.0,0.0
F,33,6.882,11.989999771118164,0.0
F,34,6.897,15.0,0.0
F,34,6.882,12.020000457763672,0.0
F,35,6.896,15.0,0.0
F,35,6.882,12.15999984741211,0.0
F,36,6.897,15.0,0.0
F,36,6.882,12.0600004196167,0.0
F,37,6.897,15.0,0.0
F,37,6.882,12.010000228881836,0.0
F,38,6.897,15.0,0.0
F,38,6.882,11.979999542236328,0.0
F,39,6.897,15.0,0.0
F,39,6.882,12.109999656677246,0.0
F,39,6.863,2.0799999237060547,0.0
F,40,6.897,15.0,0.0
F,40,6.882,12.1899995803833,0.0
F,40,6.863,2.2899999618530273,0.0
F,41,6.897,15.0,0.0
F,41,6.882,12.15999984741211,0.0
F,42,6.897,15.0,0.0
F,42,6.882,12.220000267028809,0.0
F,42,6.863,2.630000114440918,0.0
F,43,6.897,14.199999809265137,0.0
F,43,6.882,11.640000343322754,0.0
F,44,6.897,13.470000267028809,0.0
F,44,6.882,11.0,0.0
F,45,6.897,12.949999809265137,0.0
F,45,6.882,10.59000015258789,0.0
F,45,6.863,2.7300000190734863,0.0
F,46,6.897,12.199999809265137,0.0
F,46,6.882,10.0,0.0
F,47,6.897,11.619999885559082,0.0
F,47,6.882,9.609999656677246,0.0
F,47,6.863,2.8399999141693115,0.0
F,48,6.897,11.229999542236328,0.0
F,48,6.882,9.300000190734863,0.0
F,48,6.863,2.859999895095825,0.0
F,49,6.897,10.5600004196167,0.0
F,49,6.882,8.699999809265137,0.0
F,49,6.863,2.8299999237060547,0.0
F,50,6.897,10.359999656677246,0.0
F,50,6.882,8.4399995803833,0.0
F,50,6.863,2.75,0.0
F,51,6.896,9.949999809265137,0.0
F,51,6.882,8.229999542236328,0.0
F,51,6.863,2.880000114440918,0.0
F,52,6.896,8.319999694824219,0.0
F,52,6.882,6.889999866485596,0.0
F,52,6.863,2.8499999046325684,0.0
F,53,6.896,7.349999904632568,0.0
F,53,6.882,6.03000020980835,0.0
F,53,6.863,2.8299999237060547,0.0
F,54,6.896,6.199999809265137,0.0
F,55,6.896,5.480000019073486,0.0
F,55,6.882,4.510000228881836,0.0
F,55,6.863,2.809999942779541,0.0
F,56,6.896,4.71999979019165,0.0
F,56,6.877,4.010000228881836,0.0
F,56,6.863,3.200000047683716,0.0
F,57,6.896,4.239999771118164,0.0
F,57,6.877,3.9800000190734863,0.0
F,57,6.863,3.240000009536743,0.0
F,58,6.896,3.6500000953674316,0.0
F,58,6.877,3.940000057220459,0.0
F,59,6.896,3.3299999237060547,0.0
F,59,6.877,4.0,0.0
F,59,6.863,3.299999952316284,0.0
F,60,6.896,3.009999990463257,0.0
F,60,6.877,4.079999923706055,0.0
F,60,6.863,3.359999895095825,0.0
F,61,6.896,2.6700000762939453,0.0
F,61,6.877,4.110000133514404,0.0
F,61,6.863,3.440000057220459,0.0
F,62,6.896,2.369999885559082,0.0
F,62,6.877,4.159999847412109,0.0
F,62,6.863,3.5299999713897705,0.0
F,63,6.896,2.240000009536743,0.0
F,63,6.878,4.159999847412109,0.0
F,63,6.863,3.490000009536743,0.0
S,0,2.646,7.949999809265137,0.0
S,0,2.646,7.949999809265137,0.0
S,0,2.562,8.539999961853027,0.0
S,1,2.646,8.210000038146973,0.0
S,1,2.562,8.430000305175781,0.0
S,2,2.647,8.3100004196167,0.0
S,2,2.562,8.5600004196167,0.0
S,3,2.646,8.390000343322754,0.0
S,3,2.562,8.680000305175781,0.0
S,4,2.647,8.380000114440918,0.0
S,4,2.562,8.75,0.0
S,5,2.646,8.3100004196167,0.0
S,5,2.562,8.609999656677246,0.0
S,6,2.647,8.529999732971191,0.0
S,6,2.562,9.050000190734863,0.0
S,7,2.647,8.329999923706055,0.0
S,7,2.562,8.739999771118164,0.0
S,8,2.647,8.479999542236328,0.0
S,8,2.562,8.949999809265137,0.0
S,9,2.647,8.550000190734863,0.0
S,9,2.562,8.9399995803833,0.0
S,10,2.647,8.539999961853027,0.0
S,10,2.562,8.9399995803833,0.0
S,11,2.647,8.670000076293945,0.0
S,11,2.562,8.979999542236328,0.0
S,12,2.647,8.630000114440918,0.0
S,12,2.562,9.029999732971191,0.0
S,13,2.647,8.5600004196167,0.0
S,13,2.562,9.029999732971191,0.0
S,14,2.647,8.680000305175781,0.0
S,14,2.562,9.229999542236328,0.0
S,15,2.647,8.609999656677246,0.0
S,15,2.562,9.029999732971191,0.0
S,16,2.647,8.550000190734863,0.0
S,16,2.562,9.020000457763672,0.0
S,17,2.647,8.890000343322754,0.0
S,17,2.562,9.369999885559082,0.0
S,18,2.647,8.770000457763672,0.0
S,18,2.562,9.15999984741211,0.0
S,19,2.647,8.729999542236328,0.0
S,19,2.562,9.210000038146973,0.0
S,20,2.647,8.880000114440918,0.0
S,20,2.562,9.270000457763672,0.0
S,21,2.647,8.739999771118164,0.0
S,21,2.562,9.140000343322754,0.0
S,22,2.647,8.6899995803833,0.0
S,22,2.562,9.119999885559082,0.0
S,23,2.647,8.9399995803833,0.0
S,23,2.562,9.369999885559082,0.0
S,24,2.647,8.90999984741211,0.0
S,24,2.562,9.329999923706055,0.0
S,25,2.647,8.90999984741211,0.0
S,25,2.562,9.1899995803833,0.0
S,26,2.647,9.100000381469727,0.0
S,26,2.562,9.579999923706055,0.0
S,27,2.647,9.069999694824219,0.0
S,27,2.562,9.569999694824219,0.0
S,28,2.647,9.25,0.0
S,28,2.562,9.670000076293945,0.0
S,29,2.647,9.140000343322754,0.0
S,29,2.562,9.569999694824219,0.0
S,30,2.647,9.460000038146973,0.0
S,30,2.562,9.90999984741211,0.0
S,31,2.647,9.239999771118164,0.0
S,31,2.562,9.579999923706055,0.0
S,32,2.647,9.630000114440918,0.0
S,32,2.562,9.979999542236328,0.0
S,33,2.647,9.5,0.0
S,33,2.562,9.949999809265137,0.0
S,34,2.647,9.670000076293945,0.0
S,34,2.562,10.079999923706055,0.0
S,35,2.647,9.779999732971191,0.0
S,35,2.562,10.359999656677246,0.0
S,36,2.647,9.949999809265137,0.0
S,36,2.562,10.1899995803833,0.0
S,37,2.647,9.989999771118164,0.0
S,37,2.562,10.479999542236328,0.0
S,38,2.647,10.15999984741211,0.0
S,38,2.562,10.59000015258789,0.0
S,39,2.647,10.630000114440918,0.0
S,39,2.562,11.180000305175781,0.0
S,40,2.647,10.649999618530273,0.0
S,40,2.562,11.170000076293945,0.0
S,41,2.647,10.640000343322754,0.0
S,41,2.562,11.0600004196167,0.0
S,42,2.647,11.020000457763672,0.0
S,42,2.562,11.609999656677246,0.0
S,43,2.647,10.25,0.0
S,43,2.562,10.770000457763672,0.0
S,44,2.647,9.850000381469727,0.0
S,44,2.561,10.40999984741211,0.0
S,45,2.647,9.90999984741211,0.0
S,45,2.562,10.40999984741211,0.0
S,46,2.647,9.350000381469727,0.0
S,46,2.562,9.760000228881836,0.0
S,47,2.647,9.180000305175781,0.0
S,47,2.561,9.529999732971191,0.0
S,48,2.647,8.970000267028809,0.0
S,48,2.561,9.460000038146973,0.0
S,49,2.647,8.380000114440918,0.0
S,49,2.561,8.75,0.0
S,50,2.647,8.449999809265137,0.0
S,50,2.561,8.760000228881836,0.0
S,51,2.647,8.210000038146973,0.0
S,51,2.561,8.619999885559082,0.0
S,52,2.647,7.239999771118164,0.0
S,52,2.561,7.599999904632568,0.0
S,53,2.647,6.889999866485596,0.0
S,53,2.561,7.25,0.0
S,54,2.647,6.119999885559082,0.0
S,54,2.561,6.239999771118164,0.0
S,55,2.647,5.670000076293945,0.0
S,55,2.561,5.880000114440918,0.0
S,56,2.647,5.320000171661377,0.0
S,56,2.561,5.679999828338623,0.0
S,57,2.647,5.090000152587891,0.0
S,57,2.561,5.380000114440918,0.0
S,58,2.647,4.579999923706055,0.0
S,58,2.561,4.710000038146973,0.0
S,59,2.647,4.519999980926514,0.0
S,59,2.561,4.739999771118164,0.0
S,60,2.647,4.309999942779541,0.0
S,60,2.561,4.550000190734863,0.0
S,61,2.647,4.150000095367432,0.0
S,61,2.561,4.360000133514404,0.0
S,62,2.647,4.010000228881836,0.0
S,62,2.561,4.260000228881836,0.0
S,63,2.647,3.9100000858306885,0.0
S,63,2.561,4.059999942779541,0.0
S,0,2.562,8.539999961853027,0.0
S,0,2.646,7.949999809265137,0.0
S,0,2.562,8.539999961853027,0.0
S,1,2.646,8.210000038146973,0.0
S,1,2.562,8.430000305175781,0.0
S,2,2.647,8.3100004196167,0.0
S,2,2.562,8.5600004196167,0.0
S,3,2.646,8.390000343322754,0.0
S,3,2.562,8.680000305175781,0.0
S,4,2.647,8.380000114440918,0.0
S,4,2.562,8.75,0.0
S,5,2.646,8.3100004196167,0.0
S,5,2.562,8.609999656677246,0.0
S,6,2.647,8.529999732971191,0.0
S,6,2.562,9.050000190734863,0.0
S,7,2.647,8.329999923706055,0.0
S,7,2.562,8.739999771118164,0.0
S,8,2.647,8.479999542236328,0.0
S,8,2.562,8.949999809265137,0.0
S,9,2.647,8.550000190734863,0.0
S,9,2.562,8.9399995803833,0.0
S,10,2.647,8.539999961853027,0.0
S,10,2.562,8.9399995803833,0.0
S,11,2.647,8.670000076293945,0.0
S,11,2.562,8.979999542236328,0.0
S,12,2.647,8.630000114440918,0.0
S,12,2.562,9.029999732971191,0.0
S,13,2.647,8.5600004196167,0.0
S,13,2.562,9.029999732971191,0.0
S,14,2.647,8.680000305175781,0.0
S,14,2.562,9.229999542236328,0.0
S,15,2.647,8.609999656677246,0.0
S,15,2.562,9.029999732971191,0.0
S,16,2.647,8.550000190734863,0.0
S,16,2.562,9.020000457763672,0.0
S,17,2.647,8.890000343322754,0.0
S,17,2.562,9.369999885559082,0.0
S,18,2.647,8.770000457763672,0.0
S,18,2.562,9.15999984741211,0.0
S,19,2.647,8.729999542236328,0.0
S,19,2.562,9.210000038146973,0.0
S,20,2.647,8.880000114440918,0.0
S,20,2.562,9.270000457763672,0.0
S,21,2.647,8.739999771118164,0.0
S,21,2.562,9.140000343322754,0.0
S,22,2.647,8.6899995803833,0.0
S,22,2.562,9.119999885559082,0.0
S,23,2.647,8.9399995803833,0.0
S,23,2.562,9.369999885559082,0.0
S,24,2.647,8.90999984741211,0.0
S,24,2.562,9.329999923706055,0.0
S,25,2.647,8.90999984741211,0.0
S,25,2.562,9.1899995803833,0.0
S,26,2.647,9.100000381469727,0.0
S,26,2.562,9.579999923706055,0.0
S,27,2.647,9.069999694824219,0.0
S,27,2.562,9.569999694824219,0.0
S,28,2.647,9.25,0.0
S,28,2.562,9.670000076293945,0.0
S,29,2.647,9.140000343322754,0.0
S,29,2.562,9.569999694824219,0.0
S,30,2.647,9.460000038146973,0.0
S,30,2.562,9.90999984741211,0.0
S,31,2.647,9.239999771118164,0.0
S,31,2.562,9.579999923706055,0.0
S,32,2.647,9.630000114440918,0.0
S,32,2.562,9.979999542236328,0.0
S,33,2.647,9.5,0.0
S,33,2.562,9.949999809265137,0.0
S,34,2.647,9.670000076293945,0.0
S,34,2.562,10.079999923706055,0.0
S,35,2.647,9.779999732971191,0.0
S,35,2.562,10.359999656677246,0.0
S,36,2.647,9.949999809265137,0.0
S,36,2.562,10.1899995803833,0.0
S,37,2.647,9.989999771118164,0.0
S,37,2.562,10.479999542236328,0.0
S,38,2.647,10.15999984741211,0.0
S,38,2.562,10.59000015258789,0.0
S,39,2.647,10.630000114440918,0.0
S,39,2.562,11.180000305175781,0.0
S,40,2.647,10.649999618530273,0.0
S,40,2.562,11.170000076293945,0.0
S,41,2.647,10.640000343322754,0.0
S,41,2.562,11.0600004196167,0.0
S,42,2.647,11.020000457763672,0.0
S,42,2.562,11.609999656677246,0.0
S,43,2.647,10.25,0.0
S,43,2.562,10.770000457763672,0.0
S,44,2.647,9.850000381469727,0.0
S,44,2.561,10.40999984741211,0.0
S,45,2.647,9.90999984741211,0.0
S,45,2.562,10.40999984741211,0.0
S,46,2.647,9.350000381469727,0.0
S,46,2.562,9.760000228881836,0.0
S,47,2.647,9.180000305175781,0.0
S,47,2.561,9.529999732971191,0.0
S,48,2.647,8.970000267028809,0.0
S,48,2.561,9.460000038146973,0.0
S,49,2.647,8.380000114440918,0.0
S,49,2.561,8.75,0.0
S,50,2.647,8.449999809265137,0.0
S,50,2.561,8.760000228881836,0.0
S,51,2.647,8.210000038146973,0.0
S,51,2.561,8.619999885559082,0.0
S,52,2.647,7.239999771118164,0.0
S,52,2.561,7.599999904632568,0.0
S,53,2.647,6.889999866485596,0.0
S,53,2.561,7.25,0.0
S,54,2.647,6.119999885559082,0.0
S,54,2.561,6.239999771118164,0.0
S,55,2.647,5.670000076293945,0.0
S,55,2.561,5.880000114440918,0.0
S,56,2.647,5.320000171661377,0.0
S,56,2.561,5.679999828338623,0.0
S,57,2.647,5.090000152587891,0.0
S,57,2.561,5.380000114440918,0.0
S,58,2.647,4.579999923706055,0.0
S,58,2.561,4.710000038146973,0.0
S,59,2.647,4.519999980926514,0.0
S,59,2.561,4.739999771118164,0.0
S,60,2.647,4.309999942779541,0.0
S,60,2.561,4.550000190734863,0.0
S,61,2.647,4.150000095367432,0.0
S,61,2.561,4.360000133514404,0.0
S,62,2.647,4.010000228881836,0.0
S,62,2.561,4.260000228881836,0.0
S,63,2.647,3.9100000858306885,0.0
S,63,2.561,4.059999942779541,0.0
S,0,2.081,2.0399999618530273,0.0
S,0,2.081,2.0399999618530273,0.0
S,1,2.081,2.0299999713897705,0.0
S,2,2.081,2.0899999141693115,0.0
S,3,2.081,2.0799999237060547,0.0
S,4,2.081,2.069999933242798,0.0
S,5,2.081,2.069999933242798,0.0
S,6,2.081,2.140000104904175,0.0
S,7,2.081,2.0399999618530273,0.0
S,8,2.081,2.0899999141693115,0.0
S,9,2.081,2.069999933242798,0.0
S,10,2.081,2.059999942779541,0.0
S,11,2.081,2.0799999237060547,0.0
S,12,2.081,2.069999933242798,0.0
S,13,2.081,2.0399999618530273,0.0
S,14,2.081,2.0799999237060547,0.0
S,15,2.081,2.0199999809265137,0.0
S,17,2.081,2.109999895095825,0.0
S,18,2.08,2.049999952316284,0.0
S,19,2.081,2.0299999713897705,0.0
S,20,2.081,2.059999942779541,0.0
S,21,2.081,2.0199999809265137,0.0
S,23,2.08,2.0399999618530273,0.0
S,24,2.081,2.009999990463257,0.0
S,26,2.08,2.049999952316284,0.0
S,28,2.08,2.0399999618530273,0.0
S,30,2.08,2.0899999141693115,0.0
S,32,2.08,2.059999942779541,0.0
S,33,2.08,2.009999990463257,0.0
S,34,2.08,2.049999952316284,0.0
S,35,2.08,2.130000114440918,0.0
S,36,2.08,2.0799999237060547,0.0
S,37,2.08,2.1600000858306885,0.0
S,38,2.08,2.130000114440918,0.0
S,39,2.08,2.2100000381469727,0.0
S,40,2.08,2.200000047683716,0.0
S,41,2.08,2.200000047683716,0.0
S,42,2.08,2.259999990463257,0.0
S,43,2.08,2.140000104904175,0.0
S,44,2.08,2.0299999713897705,0.0
