S,0,4.686,4.619999885559082,0.0
S,38,4.691,14.489999771118164,0.0
S,39,4.691,14.210000038146973,0.0
S,40,4.691,17.260000228881836,0.0
S,42,4.691,21.309999465942383,0.0
S,43,4.684,2.930000066757202,0.0
S,45,4.683,2.25,0.0
S,46,4.683,2.630000114440918,0.0
S,47,4.683,2.3299999237060547,0.0
S,48,4.691,18.700000762939453,0.0
S,49,4.684,2.0999999046325684,0.0
S,50,4.682,2.1500000953674316,0.0
S,51,4.691,7.940000057220459,0.0
