F,0,7.161,14.069999694824219,0.0
F,0,7.161,14.069999694824219,0.0
F,1,7.161,14.149999618530273,0.0
F,2,7.162,14.09000015258789,0.0
F,3,7.161,13.979999542236328,0.0
F,4,7.162,13.800000190734863,0.0
F,5,7.161,13.90999984741211,0.0
F,6,7.176,11.300000190734863,0.0
F,6,7.162,13.510000228881836,0.0
F,7,7.162,13.989999771118164,0.0
F,8,7.162,13.789999961853027,0.0
F,9,7.176,11.510000228881836,0.0
F,9,7.162,13.8100004196167,0.0
F,10,7.162,13.829999923706055,0.0
F,11,7.176,11.630000114440918,0.0
F,11,7.162,13.729999542236328,0.0
F,12,7.176,11.649999618530273,0.0
F,12,7.162,13.59000015258789,0.0
F,13,7.162,13.930000305175781,0.0
F,14,7.176,11.4399995803833,0.0
F,14,7.162,13.779999732971191,0.0
F,15,7.162,13.890000343322754,0.0
F,16,7.162,13.979999542236328,0.0
F,17,7.176,11.220000267028809,0.0
F,17,7.162,13.520000457763672,0.0
F,18,7.176,11.569999694824219,0.0
F,18,7.162,13.800000190734863,0.0
F,19,7.176,11.609999656677246,0.0
F,19,7.162,13.75,0.0
F,20,7.176,11.600000381469727,0.0
F,20,7.162,13.619999885559082,0.0
F,21,7.162,13.989999771118164,0.0
F,22,7.162,13.949999809265137,0.0
F,23,7.176,11.550000190734863,0.0
F,23,7.162,13.930000305175781,0.0
F,24,7.176,11.710000038146973,0.0
F,24,7.162,13.630000114440918,0.0
F,25,7.162,13.979999542236328,0.0
F,26,7.176,11.510000228881836,0.0
F,26,7.162,13.510000228881836,0.0
F,27,7.176,11.829999923706055,0.0
F,27,7.162,13.970000267028809,0.0
F,28,7.176,11.630000114440918,0.0
F,28,7.162,14.010000228881836,0.0
F,29,7.162,14.210000038146973,0.0
F,30,7.176,11.649999618530273,0.0
F,30,7.162,13.65999984741211,0.0
F,31,7.162,14.4399995803833,0.0
F,32,7.176,11.899999618530273,0.0
F,32,7.162,13.869999885559082,0.0
F,33,7.162,14.180000305175781,0.0
F,34,7.176,11.920000076293945,0.0
F,34,7.162,14.0,0.0
F,35,7.176,11.569999694824219,0.0
F,35,7.162,13.890000343322754,0.0
F,36,7.162,14.300000190734863,0.0
F,37,7.176,11.920000076293945,0.0
F,37,7.162,13.970000267028809,0.0
F,38,7.176,11.949999809265137,0.0
F,38,7.162,13.90999984741211,0.0
F,39,7.176,11.489999771118164,0.0
F,39,7.162,13.579999923706055,0.0
F,40,7.176,11.739999771118164,0.0
F,40,7.162,13.859999656677246,0.0
F,41,7.176,12.119999885559082,0.0
F,41,7.162,14.140000343322754,0.0
F,42,7.176,11.649999618530273,0.0
F,42,7.162,13.779999732971191,0.0
F,43,7.176,11.550000190734863,0.0
F,43,7.162,13.630000114440918,0.0
F,44,7.176,10.880000114440918,0.0
F,44,7.162,12.869999885559082,0.0
F,45,7.176,10.119999885559082,0.0
F,45,7.162,11.960000038146973,0.0
F,46,7.176,9.850000381469727,0.0
F,46,7.162,11.539999961853027,0.0
F,47,7.176,9.170000076293945,0.0
F,47,7.162,10.920000076293945,0.0
F,48,7.176,8.800000190734863,0.0
F,48,7.162,10.510000228881836,0.0
F,49,7.176,8.430000305175781,0.0
F,49,7.162,10.050000190734863,0.0
F,50,7.176,8.199999809265137,0.0
F,50,7.162,9.510000228881836,0.0
F,51,7.176,7.71999979019165,0.0
F,51,7.162,9.239999771118164,0.0
F,52,7.176,6.460000038146973,0.0
F,52,7.162,7.78000020980835,0.0
F,53,7.176,5.46999979019165,0.0
F,53,7.162,6.639999866485596,0.0
F,54,7.176,4.789999961853027,0.0
F,54,7.161,6.309999942779541,0.0
F,55,7.176,4.110000133514404,0.0
F,55,7.161,4.960000038146973,0.0
F,56,7.176,3.5299999713897705,0.0
F,56,7.161,4.75,0.0
F,57,7.176,3.119999885559082,0.0
F,57,7.161,4.199999809265137,0.0
F,58,7.181,3.0,0.0
F,58,7.161,3.8499999046325684,0.0
F,59,7.181,3.0,0.0
F,59,7.161,3.4000000953674316,0.0
F,60,7.181,3.0899999141693115,0.0
F,60,7.167,3.380000114440918,0.0
F,61,7.181,3.0899999141693115,0.0
F,61,7.167,3.4000000953674316,0.0
F,62,7.181,3.0,0.0
F,62,7.167,3.4100000858306885,0.0
F,63,7.181,3.2799999713897705,0.0
F,63,7.167,3.5199999809265137,0.0
S,0,2.646,7.949999809265137,0.0
S,0,2.646,7.949999809265137,0.0
S,0,2.562,8.539999961853027,0.0
S,1,2.646,8.210000038146973,0.0
S,1,2.562,8.430000305175781,0.0
S,2,2.647,8.3100004196167,0.0
S,2,2.562,8.5600004196167,0.0
S,3,2.646,8.390000343322754,0.0
S,3,2.562,8.680000305175781,0.0
S,4,2.647,8.380000114440918,0.0
S,4,2.562,8.75,0.0
S,5,2.646,8.3100004196167,0.0
S,5,2.562,8.609999656677246,0.0
S,6,2.647,8.529999732971191,0.0
S,6,2.562,9.050000190734863,0.0
S,7,2.647,8.329999923706055,0.0
S,7,2.562,8.739999771118164,0.0
S,8,2.647,8.479999542236328,0.0
S,8,2.562,8.949999809265137,0.0
S,9,2.647,8.550000190734863,0.0
S,9,2.562,8.9399995803833,0.0
S,10,2.647,8.539999961853027,0.0
S,10,2.562,8.9399995803833,0.0
S,11,2.647,8.670000076293945,0.0
S,11,2.562,8.979999542236328,0.0
S,12,2.647,8.630000114440918,0.0
S,12,2.562,9.029999732971191,0.0
S,13,2.647,8.5600004196167,0.0
S,13,2.562,9.029999732971191,0.0
S,14,2.647,8.680000305175781,0.0
S,14,2.562,9.229999542236328,0.0
S,15,2.647,8.609999656677246,0.0
S,15,2.562,9.029999732971191,0.0
S,16,2.647,8.550000190734863,0.0
S,16,2.562,9.020000457763672,0.0
S,17,2.647,8.890000343322754,0.0
S,17,2.562,9.369999885559082,0.0
S,18,2.647,8.770000457763672,0.0
S,18,2.562,9.15999984741211,0.0
S,19,2.647,8.729999542236328,0.0
S,19,2.562,9.210000038146973,0.0
S,20,2.647,8.880000114440918,0.0
S,20,2.562,9.270000457763672,0.0
S,21,2.647,8.739999771118164,0.0
S,21,2.562,9.140000343322754,0.0
S,22,2.647,8.6899995803833,0.0
S,22,2.562,9.119999885559082,0.0
S,23,2.647,8.9399995803833,0.0
S,23,2.562,9.369999885559082,0.0
S,24,2.647,8.90999984741211,0.0
S,24,2.562,9.329999923706055,0.0
S,25,2.647,8.90999984741211,0.0
S,25,2.562,9.1899995803833,0.0
S,26,2.647,9.100000381469727,0.0
S,26,2.562,9.579999923706055,0.0
S,27,2.647,9.069999694824219,0.0
S,27,2.562,9.569999694824219,0.0
S,28,2.647,9.25,0.0
S,28,2.562,9.670000076293945,0.0
S,29,2.647,9.140000343322754,0.0
S,29,2.562,9.569999694824219,0.0
S,30,2.647,9.460000038146973,0.0
S,30,2.562,9.90999984741211,0.0
S,31,2.647,9.239999771118164,0.0
S,31,2.562,9.579999923706055,0.0
S,32,2.647,9.630000114440918,0.0
S,32,2.562,9.979999542236328,0.0
S,33,2.647,9.5,0.0
S,33,2.562,9.949999809265137,0.0
S,34,2.647,9.670000076293945,0.0
S,34,2.562,10.079999923706055,0.0
S,35,2.647,9.779999732971191,0.0
S,35,2.562,10.359999656677246,0.0
S,36,2.647,9.949999809265137,0.0
S,36,2.562,10.1899995803833,0.0
S,37,2.647,9.989999771118164,0.0
S,37,2.562,10.479999542236328,0.0
S,38,2.647,10.15999984741211,0.0
S,38,2.562,10.59000015258789,0.0
S,39,2.647,10.630000114440918,0.0
S,39,2.562,11.180000305175781,0.0
S,40,2.647,10.649999618530273,0.0
S,40,2.562,11.170000076293945,0.0
S,41,2.647,10.640000343322754,0.0
S,41,2.562,11.0600004196167,0.0
S,42,2.647,11.020000457763672,0.0
S,42,2.562,11.609999656677246,0.0
S,43,2.647,10.25,0.0
S,43,2.562,10.770000457763672,0.0
S,44,2.647,9.850000381469727,0.0
S,44,2.561,10.40999984741211,0.0
S,45,2.647,9.90999984741211,0.0
S,45,2.562,10.40999984741211,0.0
S,46,2.647,9.350000381469727,0.0
S,46,2.562,9.760000228881836,0.0
S,47,2.647,9.180000305175781,0.0
S,47,2.561,9.529999732971191,0.0
S,48,2.647,8.970000267028809,0.0
S,48,2.561,9.460000038146973,0.0
S,49,2.647,8.380000114440918,0.0
S,49,2.561,8.75,0.0
S,50,2.647,8.449999809265137,0.0
S,50,2.561,8.760000228881836,0.0
S,51,2.647,8.210000038146973,0.0
S,51,2.561,8.619999885559082,0.0
S,52,2.647,7.239999771118164,0.0
S,52,2.561,7.599999904632568,0.0
S,53,2.647,6.889999866485596,0.0
S,53,2.561,7.25,0.0
S,54,2.647,6.119999885559082,0.0
S,54,2.561,6.239999771118164,0.0
S,55,2.647,5.670000076293945,0.0
S,55,2.561,5.880000114440918,0.0
S,56,2.647,5.320000171661377,0.0
S,56,2.561,5.679999828338623,0.0
S,57,2.647,5.090000152587891,0.0
S,57,2.561,5.380000114440918,0.0
S,58,2.647,4.579999923706055,0.0
S,58,2.561,4.710000038146973,0.0
S,59,2.647,4.519999980926514,0.0
S,59,2.561,4.739999771118164,0.0
S,60,2.647,4.309999942779541,0.0
S,60,2.561,4.550000190734863,0.0
S,61,2.647,4.150000095367432,0.0
S,61,2.561,4.360000133514404,0.0
S,62,2.647,4.010000228881836,0.0
S,62,2.561,4.260000228881836,0.0
S,63,2.647,3.9100000858306885,0.0
S,63,2.561,4.059999942779541,0.0
S,0,2.562,8.539999961853027,0.0
S,0,2.646,7.949999809265137,0.0
S,0,2.562,8.539999961853027,0.0
S,1,2.646,8.210000038146973,0.0
S,1,2.562,8.430000305175781,0.0
S,2,2.647,8.3100004196167,0.0
S,2,2.562,8.5600004196167,0.0
S,3,2.646,8.390000343322754,0.0
S,3,2.562,8.680000305175781,0.0
S,4,2.647,8.380000114440918,0.0
S,4,2.562,8.75,0.0
S,5,2.646,8.3100004196167,0.0
S,5,2.562,8.609999656677246,0.0
S,6,2.647,8.529999732971191,0.0
S,6,2.562,9.050000190734863,0.0
S,7,2.647,8.329999923706055,0.0
S,7,2.562,8.739999771118164,0.0
S,8,2.647,8.479999542236328,0.0
S,8,2.562,8.949999809265137,0.0
S,9,2.647,8.550000190734863,0.0
S,9,2.562,8.9399995803833,0.0
S,10,2.647,8.539999961853027,0.0
S,10,2.562,8.9399995803833,0.0
S,11,2.647,8.670000076293945,0.0
S,11,2.562,8.979999542236328,0.0
S,12,2.647,8.630000114440918,0.0
S,12,2.562,9.029999732971191,0.0
S,13,2.647,8.5600004196167,0.0
S,13,2.562,9.029999732971191,0.0
S,14,2.647,8.680000305175781,0.0
S,14,2.562,9.229999542236328,0.0
S,15,2.647,8.609999656677246,0.0
S,15,2.562,9.029999732971191,0.0
S,16,2.647,8.550000190734863,0.0
S,16,2.562,9.020000457763672,0.0
S,17,2.647,8.890000343322754,0.0
S,17,2.562,9.369999885559082,0.0
S,18,2.647,8.770000457763672,0.0
S,18,2.562,9.15999984741211,0.0
S,19,2.647,8.729999542236328,0.0
S,19,2.562,9.210000038146973,0.0
S,20,2.647,8.880000114440918,0.0
S,20,2.562,9.270000457763672,0.0
S,21,2.647,8.739999771118164,0.0
S,21,2.562,9.140000343322754,0.0
S,22,2.647,8.6899995803833,0.0
S,22,2.562,9.119999885559082,0.0
S,23,2.647,8.9399995803833,0.0
S,23,2.562,9.369999885559082,0.0
S,24,2.647,8.90999984741211,0.0
S,24,2.562,9.329999923706055,0.0
S,25,2.647,8.90999984741211,0.0
S,25,2.562,9.1899995803833,0.0
S,26,2.647,9.100000381469727,0.0
S,26,2.562,9.579999923706055,0.0
S,27,2.647,9.069999694824219,0.0
S,27,2.562,9.569999694824219,0.0
S,28,2.647,9.25,0.0
S,28,2.562,9.670000076293945,0.0
S,29,2.647,9.140000343322754,0.0
S,29,2.562,9.569999694824219,0.0
S,30,2.647,9.460000038146973,0.0
S,30,2.562,9.90999984741211,0.0
S,31,2.647,9.239999771118164,0.0
S,31,2.562,9.579999923706055,0.0
S,32,2.647,9.630000114440918,0.0
S,32,2.562,9.979999542236328,0.0
S,33,2.647,9.5,0.0
S,33,2.562,9.949999809265137,0.0
S,34,2.647,9.670000076293945,0.0
S,34,2.562,10.079999923706055,0.0
S,35,2.647,9.779999732971191,0.0
S,35,2.562,10.359999656677246,0.0
S,36,2.647,9.949999809265137,0.0
S,36,2.562,10.1899995803833,0.0
S,37,2.647,9.989999771118164,0.0
S,37,2.562,10.479999542236328,0.0
S,38,2.647,10.15999984741211,0.0
S,38,2.562,10.59000015258789,0.0
S,39,2.647,10.630000114440918,0.0
S,39,2.562,11.180000305175781,0.0
S,40,2.647,10.649999618530273,0.0
S,40,2.562,11.170000076293945,0.0
S,41,2.647,10.640000343322754,0.0
S,41,2.562,11.0600004196167,0.0
S,42,2.647,11.020000457763672,0.0
S,42,2.562,11.609999656677246,0.0
S,43,2.647,10.25,0.0
S,43,2.562,10.770000457763672,0.0
S,44,2.647,9.850000381469727,0.0
S,44,2.561,10.40999984741211,0.0
S,45,2.647,9.90999984741211,0.0
S,45,2.562,10.40999984741211,0.0
S,46,2.647,9.350000381469727,0.0
S,46,2.562,9.760000228881836,0.0
S,47,2.647,9.180000305175781,0.0
S,47,2.561,9.529999732971191,0.0
S,48,2.647,8.970000267028809,0.0
S,48,2.561,9.460000038146973,0.0
S,49,2.647,8.380000114440918,0.0
S,49,2.561,8.75,0.0
S,50,2.647,8.449999809265137,0.0
S,50,2.561,8.760000228881836,0.0
S,51,2.647,8.210000038146973,0.0
S,51,2.561,8.619999885559082,0.0
S,52,2.647,7.239999771118164,0.0
S,52,2.561,7.599999904632568,0.0
S,53,2.647,6.889999866485596,0.0
S,53,2.561,7.25,0.0
S,54,2.647,6.119999885559082,0.0
S,54,2.561,6.239999771118164,0.0
S,55,2.647,5.670000076293945,0.0
S,55,2.561,5.880000114440918,0.0
S,56,2.647,5.320000171661377,0.0
S,56,2.561,5.679999828338623,0.0
S,57,2.647,5.090000152587891,0.0
S,57,2.561,5.380000114440918,0.0
S,58,2.647,4.579999923706055,0.0
S,58,2.561,4.710000038146973,0.0
S,59,2.647,4.519999980926514,0.0
S,59,2.561,4.739999771118164,0.0
S,60,2.647,4.309999942779541,0.0
S,60,2.561,4.550000190734863,0.0
S,61,2.647,4.150000095367432,0.0
S,61,2.561,4.360000133514404,0.0
S,62,2.647,4.010000228881836,0.0
S,62,2.561,4.260000228881836,0.0
S,63,2.647,3.9100000858306885,0.0
S,63,2.561,4.059999942779541,0.0
S,0,2.081,2.0399999618530273,0.0
S,0,2.081,2.0399999618530273,0.0
S,1,2.081,2.0299999713897705,0.0
S,2,2.081,2.0899999141693115,0.0
S,3,2.081,2.0799999237060547,0.0
S,4,2.081,2.069999933242798,0.0
S,5,2.081,2.069999933242798,0.0
S,6,2.081,2.140000104904175,0.0
S,7,2.081,2.0399999618530273,0.0
S,8,2.081,2.0899999141693115,0.0
S,9,2.081,2.069999933242798,0.0
S,10,2.081,2.059999942779541,0.0
S,11,2.081,2.0799999237060547,0.0
S,12,2.081,2.069999933242798,0.0
S,13,2.081,2.0399999618530273,0.0
S,14,2.081,2.0799999237060547,0.0
S,15,2.081,2.0199999809265137,0.0
S,17,2.081,2.109999895095825,0.0
S,18,2.08,2.049999952316284,0.0
S,19,2.081,2.0299999713897705,0.0
S,20,2.081,2.059999942779541,0.0
S,21,2.081,2.0199999809265137,0.0
S,23,2.08,2.0399999618530273,0.0
S,24,2.081,2.009999990463257,0.0
S,26,2.08,2.049999952316284,0.0
S,28,2.08,2.0399999618530273,0.0
S,30,2.08,2.0899999141693115,0.0
S,32,2.08,2.059999942779541,0.0
S,33,2.08,2.009999990463257,0.0
S,34,2.08,2.049999952316284,0.0
S,35,2.08,2.130000114440918,0.0
S,36,2.08,2.0799999237060547,0.0
S,37,2.08,2.1600000858306885,0.0
S,38,2.08,2.130000114440918,0.0
S,39,2.08,2.2100000381469727,0.0
S,40,2.08,2.200000047683716,0.0
S,41,2.08,2.200000047683716,0.0
S,42,2.08,2.259999990463257,0.0
S,43,2.08,2.140000104904175,0.0
S,44,2.08,2.0299999713897705,0.0
