F,0,4.686,4.619999885559082,0.1
F,1,4.702,0.7599999904632568,0.1
F,2,4.02,0.800000011920929,0.1
F,3,4.02,0.8500000238418579,0.1
F,4,4.02,0.8700000047683716,0.1
F,5,4.02,1.0299999713897705,0.1
F,6,4.02,0.9100000262260437,0.1
F,7,4.02,1.0399999618530273,0.1
F,8,4.02,1.0,0.1
F,9,4.02,1.059999942779541,0.1
F,10,4.02,1.059999942779541,0.1
F,11,4.02,1.1200000047683716,0.1
F,12,4.02,1.1799999475479126,0.1
F,13,4.02,1.1100000143051147,0.1
F,14,4.02,1.1100000143051147,0.1
F,15,4.02,1.2400000095367432,0.1
F,16,4.02,1.2300000190734863,0.1
F,17,4.02,1.1200000047683716,0.1
F,18,4.02,1.2300000190734863,0.1
F,19,4.02,1.2200000286102295,0.1
F,20,4.021,1.2699999809265137,0.1
F,21,4.02,1.2699999809265137,0.1
F,22,4.02,1.3600000143051147,0.1
F,23,4.02,1.2100000381469727,0.1
F,24,4.02,1.3600000143051147,0.1
F,25,4.021,1.3600000143051147,0.1
F,26,4.02,1.340000033378601,0.1
F,27,4.02,1.350000023841858,0.1
F,28,4.02,1.2300000190734863,0.1
F,29,4.02,1.350000023841858,0.1
F,30,4.02,1.2799999713897705,0.1
F,31,4.02,1.4199999570846558,0.1
F,32,4.021,1.3300000429153442,0.1
F,33,4.02,1.350000023841858,0.1
F,34,4.02,1.3300000429153442,0.1
F,35,4.02,1.2799999713897705,0.1
F,36,4.692,21.780000686645508,0.1
F,37,4.692,15.279999732971191,0.1
F,38,4.691,14.489999771118164,0.1
F,39,4.691,14.210000038146973,0.1
F,40,4.691,17.260000228881836,0.1
F,41,4.692,18.25,0.1
F,42,4.691,21.309999465942383,0.1
F,43,4.692,31.829999923706055,0.1
F,44,4.692,25.489999771118164,0.1
F,45,4.692,26.479999542236328,0.1
F,46,4.692,14.960000038146973,0.1
F,47,4.692,21.020000457763672,0.1
F,48,4.691,18.700000762939453,0.1
F,49,4.692,18.770000457763672,0.1
F,50,4.692,14.010000228881836,0.1
F,51,4.691,7.940000057220459,0.1
F,52,4.021,1.2000000476837158,0.1
F,53,4.021,1.2300000190734863,0.1
F,54,4.021,1.1399999856948853,0.1
F,55,4.021,1.25,0.1
F,56,4.02,1.0800000429153442,0.1
F,57,4.02,1.090000033378601,0.1
F,58,4.02,1.090000033378601,0.1
F,59,4.02,1.0499999523162842,0.1
F,60,4.02,1.0199999809265137,0.1
F,61,4.02,0.9800000190734863,0.1
F,62,4.02,0.9200000166893005,0.1
F,63,4.021,0.949999988079071,0.1
S,0,6.896,15.0,0.1
S,1,6.896,15.0,0.1
S,2,6.896,15.0,0.1
S,3,6.896,15.0,0.1
S,4,6.896,15.0,0.1
S,5,6.896,15.0,0.1
S,6,6.896,15.0,0.1
S,7,6.896,15.0,0.1
S,8,6.896,15.0,0.1
S,9,6.896,15.0,0.1
S,10,6.896,15.0,0.1
S,11,6.896,15.0,0.1
S,12,6.896,15.0,0.1
S,13,6.896,15.0,0.1
S,14,6.896,15.0,0.1
S,15,6.896,15.0,0.1
S,16,6.896,15.0,0.1
S,17,6.896,15.0,0.1
S,18,6.896,15.0,0.1
S,19,6.896,15.0,0.1
S,20,6.897,15.0,0.1
S,21,6.897,15.0,0.1
S,22,6.897,15.0,0.1
S,23,6.896,15.0,0.1
S,24,6.897,15.0,0.1
S,25,6.897,15.0,0.1
S,26,6.896,15.0,0.1
S,27,6.896,15.0,0.1
S,28,6.896,15.0,0.1
S,29,6.897,15.0,0.1
S,30,6.897,15.0,0.1
S,31,6.897,15.0,0.1
S,32,6.897,15.0,0.1
S,33,6.897,15.0,0.1
S,34,6.897,15.0,0.1
S,35,6.896,15.0,0.1
S,36,6.897,15.0,0.1
S,37,6.897,15.0,0.1
S,38,6.897,15.0,0.1
S,39,6.897,15.0,0.1
S,40,6.897,15.0,0.1
S,41,6.897,15.0,0.1
S,42,6.897,15.0,0.1
S,43,6.897,14.199999809265137,0.1
S,44,6.897,13.470000267028809,0.1
S,45,6.897,12.949999809265137,0.1
S,46,6.897,12.199999809265137,0.1
S,47,6.897,11.619999885559082,0.1
S,48,6.897,11.229999542236328,0.1
S,49,6.897,10.5600004196167,0.1
S,50,6.897,10.359999656677246,0.1
S,51,6.896,9.949999809265137,0.1
S,52,6.896,8.319999694824219,0.1
S,53,6.896,7.349999904632568,0.1
S,54,6.896,6.199999809265137,0.1
S,55,6.896,5.480000019073486,0.1
S,56,6.896,4.71999979019165,0.1
S,57,6.896,4.239999771118164,0.1
S,58,6.877,3.940000057220459,0.1
S,59,6.877,4.0,0.1
S,60,6.877,4.079999923706055,0.1
S,61,6.877,4.110000133514404,0.1
S,62,6.877,4.159999847412109,0.1
S,63,6.878,4.159999847412109,0.1
