F,0,6.896,15.0,0.21
F,1,6.896,15.0,0.21
F,2,6.896,15.0,0.21
F,3,6.896,15.0,0.21
F,4,6.896,15.0,0.21
F,5,6.896,15.0,0.21
F,6,6.896,15.0,0.21
F,7,6.896,15.0,0.21
F,8,6.896,15.0,0.21
F,9,6.896,15.0,0.21
F,10,6.896,15.0,0.21
F,11,6.896,15.0,0.21
F,12,6.896,15.0,0.21
F,13,6.896,15.0,0.21
F,14,6.896,15.0,0.21
F,15,6.896,15.0,0.21
F,16,6.896,15.0,0.21
F,17,6.896,15.0,0.21
F,18,6.896,15.0,0.21
F,19,6.896,15.0,0.21
F,20,6.897,15.0,0.21
F,21,6.897,15.0,0.21
F,22,6.897,15.0,0.21
F,23,6.896,15.0,0.21
F,24,6.897,15.0,0.21
F,25,6.897,15.0,0.21
F,26,6.896,15.0,0.21
F,27,6.896,15.0,0.21
F,28,6.896,15.0,0.21
F,29,6.897,15.0,0.21
F,30,6.897,15.0,0.21
F,31,6.897,15.0,0.21
F,32,6.897,15.0,0.21
F,33,6.897,15.0,0.21
F,34,6.897,15.0,0.21
F,35,6.896,15.0,0.21
F,36,6.897,15.0,0.21
F,37,6.897,15.0,0.21
F,38,6.897,15.0,0.21
F,39,6.897,15.0,0.21
F,40,6.897,15.0,0.21
F,41,6.897,15.0,0.21
F,42,6.897,15.0,0.21
F,43,6.897,14.199999809265137,0.21
F,44,6.897,13.470000267028809,0.21
F,45,6.915,1.2599999904632568,0.21
F,46,6.915,1.2599999904632568,0.21
F,47,6.915,1.149999976158142,0.21
F,48,6.915,1.1799999475479126,0.21
F,49,6.915,1.1200000047683716,0.21
F,50,6.915,1.2599999904632568,0.21
F,51,6.915,1.059999942779541,0.21
F,52,6.915,1.0800000429153442,0.21
F,53,6.915,1.100000023841858,0.21
F,54,6.896,6.199999809265137,0.21
F,55,6.915,1.0299999713897705,0.21
F,56,6.896,4.71999979019165,0.21
F,57,6.896,4.239999771118164,0.21
F,58,6.896,3.6500000953674316,0.21
F,59,6.896,3.3299999237060547,0.21
F,60,6.896,3.009999990463257,0.21
F,61,6.896,2.6700000762939453,0.21
F,62,6.896,2.369999885559082,0.21
F,63,6.896,2.240000009536743,0.21
S,0,4.695,1.4700000286102295,0.21
S,36,4.698,2.7799999713897705,0.21
S,37,4.706,1.3200000524520874,0.21
S,38,4.707,1.4900000095367432,0.21
S,39,4.707,1.309999942779541,0.21
S,40,4.699,1.2899999618530273,0.21
S,41,4.703,1.6399999856948853,0.21
S,42,4.703,1.9299999475479126,0.21
S,43,4.706,1.9900000095367432,0.21
S,44,4.692,25.489999771118164,0.21
S,45,4.692,26.479999542236328,0.21
S,46,4.703,2.240000009536743,0.21
S,47,4.707,1.090000033378601,0.21
S,48,4.691,18.700000762939453,0.21
S,49,4.692,18.770000457763672,0.21
S,50,4.708,1.0700000524520874,0.21
S,51,4.706,1.190000057220459,0.21
S,1,0.0,0.0,0.21
S,2,0.0,0.0,0.21
S,3,0.0,0.0,0.21
S,4,0.0,0.0,0.21
S,5,0.0,0.0,0.21
S,6,0.0,0.0,0.21
S,7,0.0,0.0,0.21
S,8,0.0,0.0,0.21
S,9,0.0,0.0,0.21
S,10,0.0,0.0,0.21
S,11,0.0,0.0,0.21
S,12,0.0,0.0,0.21
S,13,0.0,0.0,0.21
S,14,0.0,0.0,0.21
S,15,0.0,0.0,0.21
S,16,0.0,0.0,0.21
S,17,0.0,0.0,0.21
S,18,0.0,0.0,0.21
S,19,0.0,0.0,0.21
S,20,0.0,0.0,0.21
S,21,0.0,0.0,0.21
S,22,0.0,0.0,0.21
S,23,0.0,0.0,0.21
S,24,0.0,0.0,0.21
S,25,0.0,0.0,0.21
S,26,0.0,0.0,0.21
S,27,0.0,0.0,0.21
S,28,0.0,0.0,0.21
S,29,0.0,0.0,0.21
S,30,0.0,0.0,0.21
S,31,0.0,0.0,0.21
S,32,0.0,0.0,0.21
S,33,0.0,0.0,0.21
S,34,0.0,0.0,0.21
S,35,0.0,0.0,0.21
S,52,0.0,0.0,0.21
S,53,0.0,0.0,0.21
S,54,0.0,0.0,0.21
S,55,0.0,0.0,0.21
S,56,0.0,0.0,0.21
S,57,0.0,0.0,0.21
S,58,0.0,0.0,0.21
S,59,0.0,0.0,0.21
S,60,0.0,0.0,0.21
S,61,0.0,0.0,0.21
S,62,0.0,0.0,0.21
S,63,0.0,0.0,0.21
