F,0,7.161,14.069999694824219,0.78
F,1,7.161,14.149999618530273,0.78
F,2,7.162,14.09000015258789,0.78
F,3,7.161,13.979999542236328,0.78
F,4,7.162,13.800000190734863,0.78
F,5,7.161,13.90999984741211,0.78
F,6,7.162,13.510000228881836,0.78
F,7,7.162,13.989999771118164,0.78
F,8,7.162,13.789999961853027,0.78
F,9,7.162,13.8100004196167,0.78
F,10,7.162,13.829999923706055,0.78
F,11,7.162,13.729999542236328,0.78
F,12,7.162,13.59000015258789,0.78
F,13,7.162,13.930000305175781,0.78
F,14,7.162,13.779999732971191,0.78
F,15,7.162,13.890000343322754,0.78
F,16,7.162,13.979999542236328,0.78
F,17,7.162,13.520000457763672,0.78
F,18,7.162,13.800000190734863,0.78
F,19,7.162,13.75,0.78
F,20,7.162,13.619999885559082,0.78
F,21,7.162,13.989999771118164,0.78
F,22,7.162,13.949999809265137,0.78
F,23,7.162,13.930000305175781,0.78
F,24,7.162,13.630000114440918,0.78
F,25,7.162,13.979999542236328,0.78
F,26,7.162,13.510000228881836,0.78
F,27,7.162,13.970000267028809,0.78
F,28,7.162,14.010000228881836,0.78
F,29,7.162,14.210000038146973,0.78
F,30,7.162,13.65999984741211,0.78
F,31,7.162,14.4399995803833,0.78
F,32,7.162,13.869999885559082,0.78
F,33,7.162,14.180000305175781,0.78
F,34,7.162,14.0,0.78
F,35,7.162,13.890000343322754,0.78
F,36,7.162,14.300000190734863,0.78
F,37,7.162,13.970000267028809,0.78
F,38,7.162,13.90999984741211,0.78
F,39,7.162,13.579999923706055,0.78
F,40,7.162,13.859999656677246,0.78
F,41,7.162,14.140000343322754,0.78
F,42,7.162,13.779999732971191,0.78
F,43,7.162,13.630000114440918,0.78
F,44,7.162,12.869999885559082,0.78
F,45,7.162,11.960000038146973,0.78
F,46,7.162,11.539999961853027,0.78
F,47,7.162,10.920000076293945,0.78
F,48,7.162,10.510000228881836,0.78
F,49,7.162,10.050000190734863,0.78
F,50,7.162,9.510000228881836,0.78
F,51,7.162,9.239999771118164,0.78
F,52,7.162,7.78000020980835,0.78
F,53,7.162,6.639999866485596,0.78
F,54,7.161,6.309999942779541,0.78
F,55,7.161,4.960000038146973,0.78
F,56,7.161,4.75,0.78
F,57,7.161,4.199999809265137,0.78
F,58,7.161,3.8499999046325684,0.78
F,59,7.161,3.4000000953674316,0.78
S,0,6.896,15.0,0.78
S,1,6.896,15.0,0.78
S,2,6.896,15.0,0.78
S,3,6.896,15.0,0.78
S,4,6.896,15.0,0.78
S,5,6.896,15.0,0.78
S,6,6.896,15.0,0.78
S,7,6.896,15.0,0.78
S,8,6.896,15.0,0.78
S,9,6.896,15.0,0.78
S,10,6.896,15.0,0.78
S,11,6.896,15.0,0.78
S,12,6.896,15.0,0.78
S,13,6.896,15.0,0.78
S,14,6.896,15.0,0.78
S,15,6.896,15.0,0.78
S,16,6.896,15.0,0.78
S,17,6.896,15.0,0.78
S,18,6.896,15.0,0.78
S,19,6.896,15.0,0.78
S,20,6.897,15.0,0.78
S,21,6.897,15.0,0.78
S,22,6.897,15.0,0.78
S,23,6.896,15.0,0.78
S,24,6.897,15.0,0.78
S,25,6.897,15.0,0.78
S,26,6.896,15.0,0.78
S,27,6.896,15.0,0.78
S,28,6.896,15.0,0.78
S,29,6.897,15.0,0.78
S,30,6.897,15.0,0.78
S,31,6.897,15.0,0.78
S,32,6.897,15.0,0.78
S,33,6.897,15.0,0.78
S,34,6.897,15.0,0.78
S,35,6.896,15.0,0.78
S,36,6.897,15.0,0.78
S,37,6.897,15.0,0.78
S,38,6.897,15.0,0.78
S,39,6.897,15.0,0.78
S,40,6.897,15.0,0.78
S,41,6.897,15.0,0.78
S,42,6.897,15.0,0.78
S,43,6.897,14.199999809265137,0.78
S,44,6.897,13.470000267028809,0.78
S,45,6.897,12.949999809265137,0.78
S,46,6.897,12.199999809265137,0.78
S,47,6.897,11.619999885559082,0.78
S,48,6.897,11.229999542236328,0.78
S,49,6.897,10.5600004196167,0.78
S,50,6.897,10.359999656677246,0.78
S,51,6.896,9.949999809265137,0.78
S,52,6.896,8.319999694824219,0.78
S,53,6.896,7.349999904632568,0.78
S,54,6.896,6.199999809265137,0.78
S,55,6.896,5.480000019073486,0.78
S,56,6.896,4.71999979019165,0.78
S,57,6.896,4.239999771118164,0.78
S,58,6.896,3.6500000953674316,0.78
S,59,6.896,3.3299999237060547,0.78
S,60,6.896,3.009999990463257,0.78
S,61,6.896,2.6700000762939453,0.78
S,62,6.896,2.369999885559082,0.78
S,63,6.896,2.240000009536743,0.78
