F,0,0.0,96.20999908447266,0.89
F,1,0.0,97.80999755859375,0.89
F,2,0.0,99.4800033569336,0.89
F,3,0.0,101.80999755859375,0.89
F,4,0.0,101.58999633789062,0.89
F,5,0.0,98.95999908447266,0.89
F,6,0.0,107.0999984741211,0.89
F,7,0.0,99.45999908447266,0.89
F,8,0.0,103.44000244140625,0.89
F,9,0.0,103.44000244140625,0.89
F,10,0.0,102.98999786376953,0.89
F,11,0.0,103.9000015258789,0.89
F,12,0.0,104.45999908447266,0.89
F,13,0.0,102.23999786376953,0.89
F,14,0.0,105.68000030517578,0.89
F,15,0.0,101.69000244140625,0.89
F,16,0.0,101.23999786376953,0.89
F,17,0.0,109.45999908447266,0.89
F,18,0.0,104.29000091552734,0.89
F,19,0.0,104.02999877929688,0.89
F,20,0.0,106.1500015258789,0.89
F,21,0.0,101.63999938964844,0.89
F,22,0.0,100.05999755859375,0.89
F,23,0.0,105.75,0.89
F,24,0.0,105.41000366210938,0.89
F,25,0.0,102.22000122070312,0.89
F,26,0.0,109.36000061035156,0.89
F,27,0.0,106.16999816894531,0.89
F,28,0.0,109.19000244140625,0.89
F,29,0.0,104.16999816894531,0.89
F,30,0.0,114.19000244140625,0.89
F,31,0.0,102.33999633789062,0.89
F,32,0.0,113.31999969482422,0.89
F,33,0.0,107.79000091552734,0.89
F,34,0.0,112.18000030517578,0.89
F,35,0.0,117.7300033569336,0.89
F,36,0.0,112.4000015258789,0.89
F,37,0.0,116.75,0.89
F,38,0.0,118.30000305175781,0.89
F,39,0.0,129.9199981689453,0.89
F,40,0.0,126.79000091552734,0.89
F,41,0.0,121.80000305175781,0.89
F,42,0.0,132.49000549316406,0.89
F,43,0.0,117.20999908447266,0.89
F,44,0.0,113.8499984741211,0.89
F,45,0.0,119.0999984741211,0.89
F,46,0.0,108.06999969482422,0.89
F,47,0.0,108.83999633789062,0.89
F,48,0.0,107.5999984741211,0.89
F,49,0.0,96.81999969482422,0.89
F,50,0.0,99.55000305175781,0.89
F,51,0.0,99.43000030517578,0.89
F,52,0.0,86.55999755859375,0.89
F,53,0.0,85.45999908447266,0.89
F,54,0.0,70.18000030517578,0.89
F,55,0.0,68.0999984741211,0.89
F,56,0.0,64.94000244140625,0.89
F,57,0.0,62.66999816894531,0.89
F,58,0.0,51.52000045776367,0.89
F,59,0.0,55.189998626708984,0.89
F,60,0.0,52.70000076293945,0.89
F,61,0.0,50.689998626708984,0.89
F,62,0.0,50.31999969482422,0.89
F,63,0.0,48.15999984741211,0.89
S,0,6.896,15.0,0.89
S,1,6.896,15.0,0.89
S,2,6.896,15.0,0.89
S,3,6.896,15.0,0.89
S,4,6.896,15.0,0.89
S,5,6.896,15.0,0.89
S,6,6.896,15.0,0.89
S,7,6.896,15.0,0.89
S,8,6.896,15.0,0.89
S,9,6.896,15.0,0.89
S,10,6.896,15.0,0.89
S,11,6.896,15.0,0.89
S,12,6.896,15.0,0.89
S,13,6.896,15.0,0.89
S,14,6.896,15.0,0.89
S,15,6.896,15.0,0.89
S,16,6.896,15.0,0.89
S,17,6.896,15.0,0.89
S,18,6.896,15.0,0.89
S,19,6.896,15.0,0.89
S,20,6.897,15.0,0.89
S,21,6.897,15.0,0.89
S,22,6.897,15.0,0.89
S,23,6.896,15.0,0.89
S,24,6.897,15.0,0.89
S,25,6.897,15.0,0.89
S,26,6.896,15.0,0.89
S,27,6.896,15.0,0.89
S,28,6.896,15.0,0.89
S,29,6.897,15.0,0.89
S,30,6.897,15.0,0.89
S,31,6.897,15.0,0.89
S,32,6.897,15.0,0.89
S,33,6.897,15.0,0.89
S,34,6.897,15.0,0.89
S,35,6.896,15.0,0.89
S,36,6.897,15.0,0.89
S,37,6.897,15.0,0.89
S,38,6.897,15.0,0.89
S,39,6.897,15.0,0.89
S,40,6.897,15.0,0.89
S,41,6.897,15.0,0.89
S,42,6.897,15.0,0.89
S,43,6.897,14.199999809265137,0.89
S,44,6.897,13.470000267028809,0.89
S,45,6.897,12.949999809265137,0.89
S,46,6.897,12.199999809265137,0.89
S,47,6.897,11.619999885559082,0.89
S,48,6.897,11.229999542236328,0.89
S,49,6.897,10.5600004196167,0.89
S,50,6.897,10.359999656677246,0.89
S,51,6.896,9.949999809265137,0.89
S,52,6.896,8.319999694824219,0.89
S,53,6.896,7.349999904632568,0.89
S,54,6.896,6.199999809265137,0.89
S,55,6.896,5.480000019073486,0.89
S,56,6.896,4.71999979019165,0.89
S,57,6.896,4.239999771118164,0.89
S,58,6.877,3.940000057220459,0.89
S,59,6.877,4.0,0.89
S,60,6.877,4.079999923706055,0.89
S,61,6.877,4.110000133514404,0.89
S,62,6.877,4.159999847412109,0.89
S,63,6.878,4.159999847412109,0.89
