F,0,0.0,96.20999908447266,0.99
F,1,0.0,97.80999755859375,0.99
F,2,0.0,99.4800033569336,0.99
F,3,0.0,101.80999755859375,0.99
F,4,0.0,101.58999633789062,0.99
F,5,0.0,98.95999908447266,0.99
F,6,0.0,107.0999984741211,0.99
F,7,0.0,99.45999908447266,0.99
F,8,0.0,103.44000244140625,0.99
F,9,0.0,103.44000244140625,0.99
F,10,0.0,102.98999786376953,0.99
F,11,0.0,103.9000015258789,0.99
F,12,0.0,104.45999908447266,0.99
F,13,0.0,102.23999786376953,0.99
F,14,0.0,105.68000030517578,0.99
F,15,0.0,101.69000244140625,0.99
F,16,0.0,101.23999786376953,0.99
F,17,0.0,109.45999908447266,0.99
F,18,0.0,104.29000091552734,0.99
F,19,0.0,104.02999877929688,0.99
F,20,0.0,106.1500015258789,0.99
F,21,0.0,101.63999938964844,0.99
F,22,0.0,100.05999755859375,0.99
F,23,0.0,105.75,0.99
F,24,0.0,105.41000366210938,0.99
F,25,0.0,102.22000122070312,0.99
F,26,0.0,109.36000061035156,0.99
F,27,0.0,106.16999816894531,0.99
F,28,0.0,109.19000244140625,0.99
F,29,0.0,104.16999816894531,0.99
F,30,0.0,114.19000244140625,0.99
F,31,0.0,102.33999633789062,0.99
F,32,0.0,113.31999969482422,0.99
F,33,0.0,107.79000091552734,0.99
F,34,0.0,112.18000030517578,0.99
F,35,0.0,117.7300033569336,0.99
F,36,0.0,112.4000015258789,0.99
F,37,0.0,116.75,0.99
F,38,0.0,118.30000305175781,0.99
F,39,0.0,129.9199981689453,0.99
F,40,0.0,126.79000091552734,0.99
F,41,0.0,121.80000305175781,0.99
F,42,0.0,132.49000549316406,0.99
F,43,0.0,117.20999908447266,0.99
F,44,0.0,113.8499984741211,0.99
F,45,0.0,119.0999984741211,0.99
F,46,0.0,108.06999969482422,0.99
F,47,0.0,108.83999633789062,0.99
F,48,0.0,107.5999984741211,0.99
F,49,0.0,96.81999969482422,0.99
F,50,0.0,99.55000305175781,0.99
F,51,0.0,99.43000030517578,0.99
F,52,0.0,86.55999755859375,0.99
F,53,0.0,85.45999908447266,0.99
F,54,0.0,70.18000030517578,0.99
F,55,0.0,68.0999984741211,0.99
F,56,0.0,64.94000244140625,0.99
F,57,0.0,62.66999816894531,0.99
F,58,0.0,51.52000045776367,0.99
F,59,0.0,55.189998626708984,0.99
F,60,0.0,52.70000076293945,0.99
F,61,0.0,50.689998626708984,0.99
F,62,0.0,50.31999969482422,0.99
F,63,0.0,48.15999984741211,0.99
S,0,2.562,8.539999961853027,0.99
S,1,2.562,8.430000305175781,0.99
S,2,2.562,8.5600004196167,0.99
S,3,2.562,8.680000305175781,0.99
S,4,2.562,8.75,0.99
S,5,2.562,8.609999656677246,0.99
S,6,2.562,9.050000190734863,0.99
S,7,2.562,8.739999771118164,0.99
S,8,2.562,8.949999809265137,0.99
S,9,2.562,8.9399995803833,0.99
S,10,2.562,8.9399995803833,0.99
S,11,2.562,8.979999542236328,0.99
S,12,2.562,9.029999732971191,0.99
S,13,2.562,9.029999732971191,0.99
S,14,2.562,9.229999542236328,0.99
S,15,2.562,9.029999732971191,0.99
S,16,2.562,9.020000457763672,0.99
S,17,2.562,9.369999885559082,0.99
S,18,2.562,9.15999984741211,0.99
S,19,2.562,9.210000038146973,0.99
S,20,2.562,9.270000457763672,0.99
S,21,2.562,9.140000343322754,0.99
S,22,2.562,9.119999885559082,0.99
S,23,2.562,9.369999885559082,0.99
S,24,2.562,9.329999923706055,0.99
S,25,2.562,9.1899995803833,0.99
S,26,2.562,9.579999923706055,0.99
S,27,2.562,9.569999694824219,0.99
S,28,2.562,9.670000076293945,0.99
S,29,2.562,9.569999694824219,0.99
S,30,2.562,9.90999984741211,0.99
S,31,2.562,9.579999923706055,0.99
S,32,2.562,9.979999542236328,0.99
S,33,2.562,9.949999809265137,0.99
S,34,2.562,10.079999923706055,0.99
S,35,2.562,10.359999656677246,0.99
S,36,2.562,10.1899995803833,0.99
S,37,2.562,10.479999542236328,0.99
S,38,2.562,10.59000015258789,0.99
S,39,2.562,11.180000305175781,0.99
S,40,2.562,11.170000076293945,0.99
S,41,2.562,11.0600004196167,0.99
S,42,2.562,11.609999656677246,0.99
S,43,2.562,10.770000457763672,0.99
S,44,2.561,10.40999984741211,0.99
S,45,2.562,10.40999984741211,0.99
S,46,2.562,9.760000228881836,0.99
S,47,2.561,9.529999732971191,0.99
S,48,2.561,9.460000038146973,0.99
S,49,2.561,8.75,0.99
S,50,2.561,8.760000228881836,0.99
S,51,2.561,8.619999885559082,0.99
S,52,2.561,7.599999904632568,0.99
S,53,2.561,7.25,0.99
S,54,2.561,6.239999771118164,0.99
S,55,2.561,5.880000114440918,0.99
S,56,2.561,5.679999828338623,0.99
S,57,2.561,5.380000114440918,0.99
S,58,2.561,4.710000038146973,0.99
S,59,2.561,4.739999771118164,0.99
S,60,2.561,4.550000190734863,0.99
S,61,2.561,4.360000133514404,0.99
S,62,2.561,4.260000228881836,0.99
S,63,2.561,4.059999942779541,0.99
