INDEX VERSION 1.127+/Users/Davey/Documents/Uni/Individual Project/System/Components/.metadata/.plugins/org.eclipse.jdt.core
3861527334.index
2941295425.index
2278110631.index
3165932892.index
728568549.index
817784664.index
3454493830.index
3238088389.index
3106488812.index
321956330.index
664600080.index
2138753493.index
3321539481.index
3250552516.index
1342070557.index
2392773453.index
2802114533.index
2925450601.index
2525882684.index
3041232616.index
4153357670.index
3100159249.index
1092919908.index
3688561912.index
2364747856.index
272467101.index
195092301.index
3937398653.index
1763047084.index
1833648217.index
2445261441.index
3858336280.index
1536871413.index
13350463.index
3698671877.index
392017034.index
2164728719.index
2614441371.index
2521651649.index
3893041746.index
1018610569.index
4088054124.index
2715721040.index
47116743.index
1489915106.index
2078443826.index
3301973527.index
3646241472.index
4239799195.index
3705792240.index
3626721113.index
686464913.index
960409867.index
71748237.index
598242247.index
2848406819.index
1819685514.index
3093039844.index
50749961.index
802766317.index
2087539873.index
1725627228.index
2210433096.index
2436269996.index
794019072.index
622411835.index
1213281757.index
2584819571.index
310368014.index
3947625109.index
1152144105.index
2530618097.index
1271342938.index
952358486.index
3820313419.index
2373924955.index
822519307.index
2659176741.index
1175531088.index
1384487945.index
156905802.index
2801468254.index
1113895768.index
3302703152.index
1667291215.index
676085011.index
1402152927.index
3435298984.index
3712507179.index
1438337567.index
3901788227.index
2957930567.index
3883754588.index
556049519.index
261154081.index
4013568851.index
62785819.index
3246483238.index
1757844085.index
1258096386.index
1806069424.index
3225919927.index
1179426130.index
1431712556.index
2545238116.index
3802128573.index
2547940302.index
3839838868.index
934414468.index
1288663406.index
1564564497.index
3753342716.index
923093493.index
978833980.index
3206804582.index
1059460927.index
17423368.index
1530683744.index
1607964462.index
2819053528.index
1151787074.index
2227288244.index
1957103710.index
3206457222.index
253130100.index
3388682156.index
1897400097.index
1701375498.index
2224714141.index
4193861111.index
3109192965.index
2871673216.index
266715927.index
3088026609.index
745995374.index
3850272673.index
4071374590.index
1147016387.index
3183416420.index
76287623.index
3859806325.index
2649669512.index
97605119.index
1642561956.index
57975724.index
1768843335.index
1188938806.index
2639318995.index
814180551.index
3579449753.index
3266567714.index
65923903.index
2124411304.index
2117953598.index
4238209716.index
