##TITLE= Audit trail, TOPSPIN		Version 2.1
##JCAMPDX= 5.01
##ORIGIN= Bruker BioSpin GmbH
##OWNER= Administrator
$$ T:/data/MJD/nmr/C03519/34/audita.txt
##AUDIT TRAIL=  $$ (NUMBER, WHEN, WHO, WHERE, PROCESS, VERSION, WHAT)
(   1,<2014-12-16 19:08:28.359 +0000>,<Administrator>,<GH001606>,<go>,<TOPSPIN 2.1>,
      <created by zg
	started at 2014-12-16 19:07:12.812 +0000,
	POWCHK disabled, PULCHK disabled,
       configuration hash MD5:
       4F DB FE 01 64 29 F4 D5 05 17 18 DB FF 7C 08 05
       data hash MD5: 32K
       37 2E 0D A5 F0 7D AC 26 79 AD 15 E6 ED 97 58 87>)
(   2,<2014-12-16 19:08:41.578 +0000>,<Administrator>,<GH001606>,<audit>,<TOPSPIN 2.1>,
      <user comment:
       ICON-NMR User ID: MJD
       data hash MD5: 32K
       37 2E 0D A5 F0 7D AC 26 79 AD 15 E6 ED 97 58 87>)
(   3,<2014-12-16 19:08:42.640 +0000>,<Administrator>,<GH001606>,<dirdata>,<TOPSPIN 2.1>,
      <wrpa from 1 34 "C03519" "MJD" "C:\NMRdata"
       data hash MD5: 32K
       37 2E 0D A5 F0 7D AC 26 79 AD 15 E6 ED 97 58 87>)
##END=

$$ hash MD5
$$ 27 B2 53 A2 16 CD E4 A1 35 A8 10 78 E9 B6 B4 1D
