10.683900,0.140000,17.000000
10.634400,0.120000,17.000000
10.617700,0.120000,17.000000
10.542600,0.100000,17.000000
7.944900,0.110000,17.000000
7.909900,0.100000,17.000000
7.905300,0.100000,17.000000
7.863600,0.100000,17.000000
7.840100,0.130000,17.000000
7.728400,0.100000,17.000000
7.724300,0.110000,17.000000
7.695900,0.280000,17.000000
7.681300,0.300000,17.000000
7.638300,0.130000,17.000000
7.536800,0.540000,17.000000
7.519400,0.500000,17.000000
7.504200,0.450000,17.000000
7.489600,0.230000,17.000000
7.446200,0.170000,17.000000
7.423500,0.160000,17.000000
7.413800,0.150000,17.000000
7.403500,0.170000,17.000000
7.370000,0.190000,17.000000
7.357800,0.200000,17.000000
7.287600,0.360000,17.000000
7.264100,0.300000,17.000000
7.252100,0.390000,17.000000
7.238900,0.350000,17.000000
7.223600,0.650000,17.000000
7.204000,0.280000,17.000000
7.193200,0.440000,17.000000
7.181100,2.030000,17.000000
7.176200,11.220000,17.000000
7.172800,3.370000,17.000000
7.165100,3.350000,17.000000
7.161600,13.520000,17.000000
7.156700,2.570000,17.000000
7.141600,0.820000,17.000000
7.125900,0.350000,17.000000
7.113000,0.310000,17.000000
7.028600,0.290000,17.000000
6.935300,0.270000,17.000000
6.927800,0.320000,17.000000
6.924000,0.320000,17.000000
6.910900,0.860000,17.000000
6.901200,2.320000,17.000000
6.896400,15.000000,17.000000
6.892900,3.450000,17.000000
6.885400,3.130000,17.000000
6.881800,12.150000,17.000000
6.876900,1.980000,17.000000
6.866200,0.500000,17.000000
6.862500,0.650000,17.000000
6.856200,0.390000,17.000000
6.851900,0.350000,17.000000
6.845600,0.350000,17.000000
6.841400,0.350000,17.000000
6.761800,0.200000,17.000000
6.750700,0.180000,17.000000
6.662800,0.100000,17.000000
4.712000,0.130000,17.000000
4.706400,0.410000,17.000000
4.702900,0.410000,17.000000
4.700200,0.270000,17.000000
4.698000,0.160000,17.000000
4.683800,0.110000,17.000000
4.679400,0.240000,17.000000
4.673100,0.160000,17.000000
4.131500,0.180000,17.000000
4.123000,0.220000,17.000000
4.085500,0.140000,17.000000
4.078700,0.150000,17.000000
4.061600,0.130000,17.000000
4.032500,0.210000,17.000000
4.020300,1.120000,17.000000
4.004300,0.370000,17.000000
3.982900,4.170000,17.000000
3.969900,6.060000,17.000000
3.958300,4.090000,17.000000
3.945300,4.040000,17.000000
3.932300,0.400000,17.000000
3.928900,0.390000,17.000000
3.917200,13.070000,17.000000
3.889400,13.060000,17.000000
3.861300,4.280000,17.000000
3.841900,0.340000,17.000000
3.824300,2.540000,17.000000
3.812600,0.450000,17.000000
3.799900,3.380000,17.000000
3.769600,0.590000,17.000000
3.740400,8.360000,17.000000
3.710500,0.410000,17.000000
3.679800,0.210000,17.000000
3.645000,0.150000,17.000000
3.633800,0.150000,17.000000
3.616100,0.240000,17.000000
3.586700,0.140000,17.000000
3.450200,0.930000,17.000000
3.217600,0.130000,17.000000
3.198500,0.270000,17.000000
3.185600,0.190000,17.000000
3.173300,0.100000,17.000000
3.161300,0.120000,17.000000
3.097900,0.140000,17.000000
3.087400,0.180000,17.000000
3.065900,1.790000,17.000000
3.054400,1.920000,17.000000
3.042900,5.310000,17.000000
3.031300,5.380000,17.000000
3.020600,5.630000,17.000000
3.007400,5.550000,17.000000
2.997500,1.960000,17.000000
2.984300,1.840000,17.000000
2.741700,0.150000,17.000000
2.733800,0.150000,17.000000
2.671600,4.050000,17.000000
2.646500,8.890000,17.000000
2.618700,0.320000,17.000000
2.606800,0.330000,17.000000
2.589700,0.090000,17.000000
2.579500,0.250000,17.000000
2.573700,0.190000,17.000000
2.561500,9.370000,17.000000
2.536400,4.290000,17.000000
2.368000,0.200000,17.000000
2.359000,0.140000,17.000000
2.320500,0.130000,17.000000
2.310500,0.360000,17.000000
2.302900,0.340000,17.000000
2.284400,0.120000,17.000000
2.211700,0.180000,17.000000
2.198700,0.200000,17.000000
2.186700,0.190000,17.000000
2.161500,0.190000,17.000000
2.148000,0.270000,17.000000
2.134700,0.390000,17.000000
2.129700,0.510000,17.000000
2.115300,0.510000,17.000000
2.098500,0.340000,17.000000
2.080600,2.110000,17.000000
2.064600,0.490000,17.000000
2.044900,0.610000,17.000000
2.025400,0.370000,17.000000
2.012900,0.390000,17.000000
1.988800,0.280000,17.000000
1.940800,0.190000,17.000000
1.920500,0.250000,17.000000
1.907800,0.190000,17.000000
1.883800,0.190000,17.000000
1.857500,0.280000,17.000000
1.810700,0.210000,17.000000
1.801100,0.220000,17.000000
1.776000,0.220000,17.000000
1.768500,0.220000,17.000000
1.688400,0.380000,17.000000
1.679700,0.410000,17.000000
1.666000,0.370000,17.000000
1.656400,0.370000,17.000000
1.577600,0.130000,17.000000
1.544100,0.120000,17.000000
1.502800,0.140000,17.000000
1.490400,0.190000,17.000000
1.478100,0.200000,17.000000
1.448000,0.150000,17.000000
1.436000,0.190000,17.000000
1.424000,0.260000,17.000000
1.412200,0.220000,17.000000
1.386000,0.110000,17.000000
1.360400,0.120000,17.000000
1.337200,0.520000,17.000000
1.325500,0.470000,17.000000
1.308000,0.120000,17.000000
1.292500,0.100000,17.000000
1.282000,0.100000,17.000000
1.253200,0.190000,17.000000
1.240500,0.210000,17.000000
1.229300,0.210000,17.000000
1.214200,0.220000,17.000000
1.202500,0.240000,17.000000
1.183300,0.190000,17.000000
1.161700,0.190000,17.000000
1.152100,0.190000,17.000000
1.133400,0.110000,17.000000
1.108600,0.260000,17.000000
1.096700,0.270000,17.000000
1.050200,0.170000,17.000000
1.044100,0.150000,17.000000
1.037800,0.210000,17.000000
1.018100,0.230000,17.000000
1.000200,0.410000,17.000000
0.983600,0.600000,17.000000
0.972000,0.700000,17.000000
0.947200,1.940000,17.000000
0.941000,1.080000,17.000000
0.935800,1.860000,17.000000
0.929500,1.130000,17.000000
0.919400,1.100000,17.000000
0.910800,1.060000,17.000000
0.908400,1.070000,17.000000
0.898200,1.070000,17.000000
0.892400,0.970000,17.000000
0.885600,0.940000,17.000000
0.879200,0.950000,17.000000
0.815700,0.430000,17.000000
0.740100,0.240000,17.000000
0.096900,0.340000,17.000000
0.041700,0.100000,17.000000
0.031400,0.240000,17.000000
0.028100,0.250000,17.000000
0.020900,0.180000,17.000000
0.019400,0.110000,17.000000
0.017900,0.150000,17.000000
0.016500,0.340000,17.000000
0.015000,0.220000,17.000000
0.013500,0.240000,17.000000
0.012100,0.320000,17.000000
0.010600,0.400000,17.000000
0.009100,0.560000,17.000000
0.007600,0.920000,17.000000
0.004900,3.760000,17.000000
0.003000,4.050000,17.000000
-0.000200,109.460000,17.000000
-0.005200,3.660000,17.000000
-0.006100,3.340000,17.000000
-0.007900,1.160000,17.000000
-0.009400,0.740000,17.000000
-0.010900,0.500000,17.000000
-0.012300,0.360000,17.000000
-0.013800,0.260000,17.000000
-0.015300,0.220000,17.000000
-0.016800,0.190000,17.000000
-0.024200,0.200000,17.000000
-0.025700,0.280000,17.000000
-0.030200,0.190000,17.000000
-0.100700,0.360000,17.000000
-0.956200,0.100000,17.000000
-0.990600,0.120000,17.000000
-1.063200,0.140000,17.000000
-1.104900,0.150000,17.000000
-1.183600,0.180000,17.000000
-1.196100,0.180000,17.000000
