10.666600,0.120000,29.000000
10.592100,0.130000,29.000000
10.548800,0.130000,29.000000
10.512900,0.130000,29.000000
10.479000,0.110000,29.000000
10.459500,0.110000,29.000000
10.379100,0.070000,29.000000
8.472200,0.090000,29.000000
8.439500,0.070000,29.000000
8.415700,0.090000,29.000000
8.382500,0.070000,29.000000
8.351600,0.070000,29.000000
8.330300,0.080000,29.000000
8.268700,0.070000,29.000000
8.239200,0.120000,29.000000
8.195200,0.100000,29.000000
8.155200,0.080000,29.000000
8.115300,0.090000,29.000000
8.086100,0.110000,29.000000
8.066000,0.090000,29.000000
8.003200,0.130000,29.000000
7.944300,0.160000,29.000000
7.867600,0.170000,29.000000
7.839700,0.180000,29.000000
7.775900,0.140000,29.000000
7.749300,0.160000,29.000000
7.720800,0.150000,29.000000
7.695300,0.400000,29.000000
7.681700,0.390000,29.000000
7.659000,0.190000,29.000000
7.641200,0.200000,29.000000
7.539600,0.680000,29.000000
7.518300,0.560000,29.000000
7.504300,0.560000,29.000000
7.488900,0.300000,29.000000
7.463200,0.210000,29.000000
7.453500,0.220000,29.000000
7.399000,0.290000,29.000000
7.388800,0.300000,29.000000
7.304200,0.460000,29.000000
7.287400,0.480000,29.000000
7.277700,0.450000,29.000000
7.265800,0.470000,29.000000
7.252300,0.590000,29.000000
7.240600,0.550000,29.000000
7.223800,0.940000,29.000000
7.208200,0.600000,29.000000
7.181100,3.290000,29.000000
7.176400,12.130000,29.000000
7.161800,14.210000,29.000000
7.157000,2.420000,29.000000
7.141600,0.750000,29.000000
7.121900,0.310000,29.000000
7.106600,0.250000,29.000000
7.082700,0.200000,29.000000
7.024500,0.350000,29.000000
6.981100,0.210000,29.000000
6.940500,0.360000,29.000000
6.924300,0.550000,29.000000
6.911000,1.260000,29.000000
6.896500,15.000000,29.000000
6.885300,3.440000,29.000000
6.882000,12.000000,29.000000
6.877200,2.350000,29.000000
6.862600,1.050000,29.000000
6.857000,0.390000,29.000000
6.842300,0.310000,29.000000
6.762400,0.160000,29.000000
6.749400,0.130000,29.000000
6.740800,0.130000,29.000000
4.711900,0.290000,29.000000
4.706200,0.480000,29.000000
4.702500,0.210000,29.000000
4.683400,0.250000,29.000000
4.678800,0.710000,29.000000
4.672500,0.420000,29.000000
4.664300,0.290000,29.000000
4.254200,0.130000,29.000000
4.229700,0.110000,29.000000
4.217400,0.110000,29.000000
4.139600,0.310000,29.000000
4.123000,0.320000,29.000000
4.097800,0.240000,29.000000
4.089800,0.250000,29.000000
4.070500,0.250000,29.000000
4.032800,0.340000,29.000000
4.020400,1.350000,29.000000
4.005000,0.560000,29.000000
3.983800,4.820000,29.000000
3.970900,7.000000,29.000000
3.959200,4.690000,29.000000
3.945400,4.330000,29.000000
3.932000,0.570000,29.000000
3.917400,13.880000,29.000000
3.889500,13.680000,29.000000
3.877400,0.560000,29.000000
3.861400,4.510000,29.000000
3.824300,4.780000,29.000000
3.812700,0.550000,29.000000
3.800300,6.440000,29.000000
3.769300,0.860000,29.000000
3.740600,9.750000,29.000000
3.710200,0.410000,29.000000
3.678600,0.280000,29.000000
3.646600,0.130000,29.000000
3.636000,0.150000,29.000000
3.616600,0.280000,29.000000
3.593300,0.110000,29.000000
3.586700,0.160000,29.000000
3.565400,0.160000,29.000000
3.450200,2.800000,29.000000
3.247500,0.110000,29.000000
3.217800,0.260000,29.000000
3.198100,0.360000,29.000000
3.185300,0.260000,29.000000
3.175100,0.170000,29.000000
3.160600,0.170000,29.000000
3.150800,0.140000,29.000000
3.136400,0.150000,29.000000
3.125000,0.120000,29.000000
3.113700,0.140000,29.000000
3.066400,2.090000,29.000000
3.054800,2.250000,29.000000
3.043300,6.010000,29.000000
3.031700,6.180000,29.000000
3.021100,6.300000,29.000000
3.007900,6.180000,29.000000
2.998000,2.170000,29.000000
2.984700,2.010000,29.000000
2.768100,0.080000,29.000000
2.752200,0.090000,29.000000
2.741700,0.220000,29.000000
2.733600,0.210000,29.000000
2.727100,0.180000,29.000000
2.701200,0.090000,29.000000
2.671700,4.210000,29.000000
2.646600,9.140000,29.000000
2.618800,0.390000,29.000000
2.606900,0.520000,29.000000
2.579300,0.320000,29.000000
2.561600,9.570000,29.000000
2.536400,4.270000,29.000000
2.376400,0.090000,29.000000
2.367600,0.230000,29.000000
2.359100,0.200000,29.000000
2.343900,0.070000,29.000000
2.319500,0.170000,29.000000
2.309900,0.470000,29.000000
2.303100,0.410000,29.000000
2.291000,0.150000,29.000000
2.280600,0.150000,29.000000
2.261000,0.150000,29.000000
2.242800,0.160000,29.000000
2.212200,0.250000,29.000000
2.199600,0.260000,29.000000
2.192200,0.240000,29.000000
2.186200,0.230000,29.000000
2.166600,0.210000,29.000000
2.160300,0.220000,29.000000
2.148000,0.320000,29.000000
2.129600,0.850000,29.000000
2.114900,0.650000,29.000000
2.098200,0.450000,29.000000
2.080500,2.000000,29.000000
2.064200,0.700000,29.000000
2.044600,0.790000,29.000000
2.024700,0.520000,29.000000
1.941100,0.300000,29.000000
1.925400,0.280000,29.000000
1.920500,0.350000,29.000000
1.907100,0.290000,29.000000
1.857300,0.360000,29.000000
1.831400,0.250000,29.000000
1.816700,0.260000,29.000000
1.804400,0.270000,29.000000
1.777000,0.290000,29.000000
1.717300,0.450000,29.000000
1.687900,0.510000,29.000000
1.679800,0.570000,29.000000
1.666400,0.550000,29.000000
1.656300,0.500000,29.000000
1.490500,0.310000,29.000000
1.478000,0.310000,29.000000
1.460100,0.230000,29.000000
1.436000,0.270000,29.000000
1.424300,0.340000,29.000000
1.412400,0.300000,29.000000
1.369100,0.160000,29.000000
1.337400,0.600000,29.000000
1.325900,0.560000,29.000000
1.253400,0.220000,29.000000
1.240300,0.310000,29.000000
1.229700,0.310000,29.000000
1.210500,0.320000,29.000000
1.201900,0.300000,29.000000
1.181000,0.260000,29.000000
1.173700,0.270000,29.000000
1.152200,0.230000,29.000000
1.121700,0.090000,29.000000
1.108600,0.410000,29.000000
1.096700,0.410000,29.000000
1.050300,0.270000,29.000000
1.037700,0.320000,29.000000
1.018200,0.330000,29.000000
1.005900,0.490000,29.000000
1.000400,0.630000,29.000000
0.984100,0.890000,29.000000
0.970300,1.100000,29.000000
0.947200,2.740000,29.000000
0.941500,1.640000,29.000000
0.935700,2.560000,29.000000
0.929800,1.650000,29.000000
0.919600,1.770000,29.000000
0.910900,1.600000,29.000000
0.908100,1.700000,29.000000
0.898200,1.510000,29.000000
0.892800,1.300000,29.000000
0.885300,1.320000,29.000000
0.877700,1.290000,29.000000
0.864200,1.010000,29.000000
0.814600,0.480000,29.000000
0.672500,0.070000,29.000000
0.097000,0.350000,29.000000
0.027300,0.190000,29.000000
0.009600,0.190000,29.000000
0.008000,0.400000,29.000000
0.005200,3.640000,29.000000
-0.000200,104.170000,29.000000
-0.005600,4.360000,29.000000
-0.010200,0.570000,29.000000
-0.011700,0.380000,29.000000
-0.013100,0.240000,29.000000
-0.014700,0.180000,29.000000
-0.016200,0.150000,29.000000
-0.025100,0.140000,29.000000
-0.036900,0.070000,29.000000
-0.040300,0.460000,29.000000
-0.100500,0.390000,29.000000
-0.861600,0.090000,29.000000
-0.917500,0.090000,29.000000
-0.931700,0.100000,29.000000
-0.952600,0.130000,29.000000
-1.030300,0.150000,29.000000
-1.067900,0.170000,29.000000
