10.550400,0.140000,46.000000
10.436700,0.110000,46.000000
10.415000,0.090000,46.000000
10.339500,0.080000,46.000000
8.445300,0.080000,46.000000
8.393100,0.070000,46.000000
8.338000,0.070000,46.000000
8.211100,0.100000,46.000000
8.059800,0.120000,46.000000
8.013700,0.140000,46.000000
7.955600,0.170000,46.000000
7.902800,0.170000,46.000000
7.885900,0.200000,46.000000
7.847800,0.240000,46.000000
7.748200,0.150000,46.000000
7.721500,0.170000,46.000000
7.695700,0.420000,46.000000
7.681900,0.400000,46.000000
7.649000,0.200000,46.000000
7.591100,0.230000,46.000000
7.539900,0.570000,46.000000
7.518800,0.550000,46.000000
7.504200,0.580000,46.000000
7.490200,0.260000,46.000000
7.436200,0.240000,46.000000
7.425000,0.270000,46.000000
7.411000,0.290000,46.000000
7.401700,0.340000,46.000000
7.389400,0.380000,46.000000
7.378300,0.380000,46.000000
7.345800,0.330000,46.000000
7.304200,0.550000,46.000000
7.288900,0.510000,46.000000
7.276800,0.440000,46.000000
7.265300,0.500000,46.000000
7.252400,0.620000,46.000000
7.239200,0.540000,46.000000
7.223600,0.990000,46.000000
7.208500,1.020000,46.000000
7.194000,1.470000,46.000000
7.181500,4.560000,46.000000
7.176500,9.850000,46.000000
7.166000,4.720000,46.000000
7.161900,11.540000,46.000000
7.156900,1.830000,46.000000
7.141600,0.620000,46.000000
7.129100,0.290000,46.000000
7.081900,0.260000,46.000000
7.059100,0.230000,46.000000
7.030000,0.300000,46.000000
6.915200,1.260000,46.000000
6.911200,1.210000,46.000000
6.901000,3.140000,46.000000
6.896600,12.200000,46.000000
6.893100,2.480000,46.000000
6.885400,3.100000,46.000000
6.882000,10.000000,46.000000
6.877300,3.920000,46.000000
6.862800,2.770000,46.000000
6.857600,0.390000,46.000000
6.830900,0.270000,46.000000
6.778100,0.170000,46.000000
6.760800,0.160000,46.000000
6.726500,0.070000,46.000000
4.708200,0.910000,46.000000
4.703500,2.240000,46.000000
4.701600,1.330000,46.000000
4.699900,1.100000,46.000000
4.698200,3.080000,46.000000
4.691900,14.960000,46.000000
4.685700,2.330000,46.000000
4.682600,2.630000,46.000000
4.678800,2.300000,46.000000
4.673300,1.210000,46.000000
4.665900,0.320000,46.000000
4.253700,0.120000,46.000000
4.246200,0.150000,46.000000
4.187300,0.190000,46.000000
4.137000,0.310000,46.000000
4.123800,0.290000,46.000000
4.096900,0.250000,46.000000
4.076400,0.260000,46.000000
4.020500,1.220000,46.000000
4.005300,0.550000,46.000000
3.997200,0.720000,46.000000
3.984700,3.990000,46.000000
3.971800,5.470000,46.000000
3.960000,3.790000,46.000000
3.945600,3.710000,46.000000
3.932000,0.770000,46.000000
3.917600,11.180000,46.000000
3.889500,11.080000,46.000000
3.861400,3.800000,46.000000
3.839600,0.720000,46.000000
3.824300,11.270000,46.000000
3.800600,15.000000,46.000000
3.784900,0.500000,46.000000
3.779100,0.570000,46.000000
3.768100,1.150000,46.000000
3.740700,7.660000,46.000000
3.709800,0.490000,46.000000
3.691200,0.260000,46.000000
3.678500,0.610000,46.000000
3.671300,0.420000,46.000000
3.655800,0.250000,46.000000
3.634900,0.210000,46.000000
3.618000,0.410000,46.000000
3.610600,0.310000,46.000000
3.593100,0.210000,46.000000
3.585800,0.260000,46.000000
3.565400,0.660000,46.000000
3.540100,0.350000,46.000000
3.450300,8.320000,46.000000
3.259600,0.160000,46.000000
3.247700,0.440000,46.000000
3.235400,0.270000,46.000000
3.219200,0.420000,46.000000
3.210300,0.310000,46.000000
3.198300,0.410000,46.000000
3.185600,0.540000,46.000000
3.176400,0.220000,46.000000
3.161400,0.220000,46.000000
3.151100,0.190000,46.000000
3.138500,0.210000,46.000000
3.114900,0.170000,46.000000
3.074500,0.590000,46.000000
3.066900,1.700000,46.000000
3.061100,0.680000,46.000000
3.055200,1.860000,46.000000
3.043700,4.850000,46.000000
3.032100,5.080000,46.000000
3.021600,5.140000,46.000000
3.008300,5.010000,46.000000
2.998400,1.800000,46.000000
2.985200,1.630000,46.000000
2.934800,0.100000,46.000000
2.781700,0.070000,46.000000
2.767700,0.120000,46.000000
2.759600,0.120000,46.000000
2.752000,0.220000,46.000000
2.739600,0.470000,46.000000
2.733700,0.280000,46.000000
2.726900,0.350000,46.000000
2.701400,0.120000,46.000000
2.686600,0.160000,46.000000
2.671800,4.400000,46.000000
2.646700,9.350000,46.000000
2.618800,0.690000,46.000000
2.606800,0.710000,46.000000
2.579800,0.390000,46.000000
2.561500,9.760000,46.000000
2.536400,4.280000,46.000000
2.500700,0.120000,46.000000
2.488200,0.190000,46.000000
2.437300,0.080000,46.000000
2.427900,0.080000,46.000000
2.376400,0.110000,46.000000
2.368400,0.240000,46.000000
2.358900,0.240000,46.000000
2.348600,0.100000,46.000000
2.327400,0.120000,46.000000
2.319500,0.210000,46.000000
2.310000,0.520000,46.000000
2.303000,0.450000,46.000000
2.290900,0.200000,46.000000
2.259800,0.170000,46.000000
2.247500,0.180000,46.000000
2.211900,0.260000,46.000000
2.199100,0.320000,46.000000
2.187100,0.270000,46.000000
2.175000,0.240000,46.000000
2.144800,0.590000,46.000000
2.129700,1.580000,46.000000
2.111600,0.660000,46.000000
2.098700,0.520000,46.000000
2.080500,1.860000,46.000000
2.072400,0.770000,46.000000
2.064300,1.050000,46.000000
2.051800,1.090000,46.000000
2.046000,0.840000,46.000000
2.026700,0.540000,46.000000
1.988600,0.410000,46.000000
1.968000,0.340000,46.000000
1.955000,0.320000,46.000000
1.934300,0.430000,46.000000
1.924900,0.450000,46.000000
1.916800,0.490000,46.000000
1.907000,0.570000,46.000000
1.896500,0.400000,46.000000
1.857900,0.400000,46.000000
1.843000,0.310000,46.000000
1.816600,0.250000,46.000000
1.801500,0.260000,46.000000
1.792400,0.260000,46.000000
1.761400,0.330000,46.000000
1.733200,0.560000,46.000000
1.719800,0.630000,46.000000
1.708000,0.620000,46.000000
1.687900,0.630000,46.000000
1.680000,0.700000,46.000000
1.666700,0.650000,46.000000
1.657000,0.600000,46.000000
1.525800,0.240000,46.000000
1.513600,0.260000,46.000000
1.490400,0.740000,46.000000
1.478000,0.740000,46.000000
1.436900,0.360000,46.000000
1.424700,0.450000,46.000000
1.410700,0.330000,46.000000
1.373200,0.270000,46.000000
1.369000,0.250000,46.000000
1.360700,0.270000,46.000000
1.356900,0.280000,46.000000
1.337700,0.870000,46.000000
1.326800,0.710000,46.000000
1.274100,0.180000,46.000000
1.268600,0.200000,46.000000
1.257800,0.290000,46.000000
1.240700,0.430000,46.000000
1.230000,0.380000,46.000000
1.210600,0.350000,46.000000
1.200700,0.310000,46.000000
1.169600,0.290000,46.000000
1.152500,0.230000,46.000000
1.108700,0.550000,46.000000
1.096700,0.590000,46.000000
1.071500,0.170000,46.000000
1.055700,0.350000,46.000000
1.050200,0.710000,46.000000
1.044200,0.310000,46.000000
1.038000,0.820000,46.000000
1.033600,0.390000,46.000000
1.018000,1.190000,46.000000
1.005900,1.320000,46.000000
1.000300,1.240000,46.000000
0.988200,1.490000,46.000000
0.984000,1.240000,46.000000
0.974700,1.610000,46.000000
0.964200,2.120000,46.000000
0.953700,2.300000,46.000000
0.947200,3.870000,46.000000
0.941400,2.590000,46.000000
0.935700,3.520000,46.000000
0.928900,2.280000,46.000000
0.919500,3.240000,46.000000
0.908300,3.100000,46.000000
0.898200,1.880000,46.000000
0.892400,1.480000,46.000000
0.885500,1.550000,46.000000
0.861500,1.040000,46.000000
0.849400,0.820000,46.000000
0.761700,0.220000,46.000000
0.096900,0.320000,46.000000
0.024800,0.500000,46.000000
0.016600,0.200000,46.000000
0.005100,3.720000,46.000000
-0.000200,108.070000,46.000000
-0.005600,4.010000,46.000000
-0.029600,0.260000,46.000000
-0.037400,0.310000,46.000000
-0.100600,0.410000,46.000000
-0.864300,0.090000,46.000000
-0.928900,0.120000,46.000000
-0.989800,0.140000,46.000000
-1.075100,0.170000,46.000000
