7.990100,0.120000,53.000000
7.973600,0.120000,53.000000
7.946200,0.120000,53.000000
7.906000,0.110000,53.000000
7.846200,0.190000,53.000000
7.722500,0.110000,53.000000
7.695600,0.270000,53.000000
7.682300,0.260000,53.000000
7.649900,0.120000,53.000000
7.636500,0.120000,53.000000
7.533300,0.330000,53.000000
7.518400,0.350000,53.000000
7.504100,0.350000,53.000000
7.489800,0.170000,53.000000
7.476200,0.130000,53.000000
7.424400,0.200000,53.000000
7.412400,0.190000,53.000000
7.390300,0.300000,53.000000
7.377500,0.310000,53.000000
7.344600,0.250000,53.000000
7.317900,0.370000,53.000000
7.304000,0.370000,53.000000
7.288800,0.340000,53.000000
7.278000,0.300000,53.000000
7.266000,0.330000,53.000000
7.252500,0.440000,53.000000
7.240800,0.390000,53.000000
7.223200,0.620000,53.000000
7.208400,0.860000,53.000000
7.193900,1.170000,53.000000
7.181500,3.490000,53.000000
7.176200,5.470000,53.000000
7.172600,1.740000,53.000000
7.166600,3.290000,53.000000
7.161600,6.640000,53.000000
7.156500,1.320000,53.000000
7.141700,0.590000,53.000000
7.120200,0.190000,53.000000
7.112800,0.170000,53.000000
7.081400,0.220000,53.000000
7.031000,0.180000,53.000000
7.025200,0.170000,53.000000
7.010800,0.160000,53.000000
6.915200,1.100000,53.000000
6.911200,1.040000,53.000000
6.907300,0.580000,53.000000
6.900800,2.020000,53.000000
6.896400,7.350000,53.000000
6.892800,1.610000,53.000000
6.885300,1.870000,53.000000
6.881800,6.030000,53.000000
6.877300,3.720000,53.000000
6.873900,0.880000,53.000000
6.866300,0.890000,53.000000
6.862800,2.830000,53.000000
6.857700,0.380000,53.000000
6.846000,0.190000,53.000000
6.820000,0.150000,53.000000
4.705300,0.170000,53.000000
4.685800,0.220000,53.000000
4.681700,0.300000,53.000000
4.675900,0.220000,53.000000
4.247500,0.110000,53.000000
4.138800,0.190000,53.000000
4.123400,0.200000,53.000000
4.096900,0.180000,53.000000
4.084000,0.180000,53.000000
4.020500,1.230000,53.000000
4.007600,0.370000,53.000000
3.991700,0.600000,53.000000
3.982200,2.160000,53.000000
3.969300,3.000000,53.000000
3.957600,2.210000,53.000000
3.945100,2.230000,53.000000
3.941200,0.670000,53.000000
3.932100,0.580000,53.000000
3.917000,6.370000,53.000000
3.907100,0.590000,53.000000
3.889400,6.330000,53.000000
3.877600,0.490000,53.000000
3.861300,2.270000,53.000000
3.853800,0.580000,53.000000
3.847400,0.520000,53.000000
3.844000,0.510000,53.000000
3.838300,0.670000,53.000000
3.824200,11.230000,53.000000
3.799400,15.000000,53.000000
3.784600,0.410000,53.000000
3.778400,0.470000,53.000000
3.768100,0.760000,53.000000
3.757800,0.800000,53.000000
3.740400,3.990000,53.000000
3.726400,0.300000,53.000000
3.706300,0.270000,53.000000
3.697100,0.180000,53.000000
3.686400,0.200000,53.000000
3.678100,0.620000,53.000000
3.671300,0.450000,53.000000
3.666300,0.220000,53.000000
3.655900,0.240000,53.000000
3.645200,0.110000,53.000000
3.633400,0.130000,53.000000
3.618000,0.460000,53.000000
3.610500,0.330000,53.000000
3.598500,0.110000,53.000000
3.592900,0.240000,53.000000
3.584900,0.250000,53.000000
3.565300,0.980000,53.000000
3.540000,0.390000,53.000000
3.450200,8.220000,53.000000
3.259100,0.140000,53.000000
3.247400,0.360000,53.000000
3.235600,0.220000,53.000000
3.229600,0.200000,53.000000
3.218500,0.350000,53.000000
3.210000,0.240000,53.000000
3.194500,0.340000,53.000000
3.185700,0.460000,53.000000
3.172600,0.150000,53.000000
3.160100,0.210000,53.000000
3.150300,0.150000,53.000000
3.137900,0.170000,53.000000
3.121700,0.140000,53.000000
3.074600,0.460000,53.000000
3.065500,1.030000,53.000000
3.061000,0.540000,53.000000
3.054100,1.050000,53.000000
3.049200,0.840000,53.000000
3.042500,2.610000,53.000000
3.035900,0.910000,53.000000
3.031000,2.790000,53.000000
3.020200,2.860000,53.000000
3.007000,2.730000,53.000000
2.997200,1.010000,53.000000
2.984000,0.890000,53.000000
2.963600,0.110000,53.000000
2.751900,0.220000,53.000000
2.739400,0.470000,53.000000
2.733500,0.220000,53.000000
2.727000,0.370000,53.000000
2.723700,0.290000,53.000000
2.701700,0.130000,53.000000
2.686000,0.130000,53.000000
2.682700,0.150000,53.000000
2.671900,3.190000,53.000000
2.646800,6.890000,53.000000
2.618700,0.720000,53.000000
2.606800,0.690000,53.000000
2.591200,0.110000,53.000000
2.579300,0.270000,53.000000
2.561200,7.250000,53.000000
2.536100,3.280000,53.000000
2.500500,0.130000,53.000000
2.488100,0.260000,53.000000
2.368200,0.170000,53.000000
2.362500,0.180000,53.000000
2.358800,0.220000,53.000000
2.348800,0.120000,53.000000
2.345300,0.130000,53.000000
2.319200,0.120000,53.000000
2.310400,0.340000,53.000000
2.302800,0.320000,53.000000
2.290500,0.150000,53.000000
2.277600,0.160000,53.000000
2.262300,0.130000,53.000000
2.247300,0.180000,53.000000
2.235900,0.130000,53.000000
2.224000,0.160000,53.000000
2.218900,0.160000,53.000000
2.211600,0.200000,53.000000
2.199400,0.230000,53.000000
2.186700,0.200000,53.000000
2.168600,0.180000,53.000000
2.144700,0.600000,53.000000
2.134300,0.560000,53.000000
2.129600,1.520000,53.000000
2.125800,0.580000,53.000000
2.111600,0.450000,53.000000
2.098400,0.390000,53.000000
2.080500,1.220000,53.000000
2.071500,0.560000,53.000000
2.064200,0.880000,53.000000
2.051700,1.050000,53.000000
2.044800,0.590000,53.000000
2.026600,0.380000,53.000000
2.015800,0.360000,53.000000
1.991500,0.290000,53.000000
1.983200,0.260000,53.000000
1.979700,0.280000,53.000000
1.967800,0.310000,53.000000
1.954700,0.290000,53.000000
1.934700,0.350000,53.000000
1.924300,0.400000,53.000000
1.920500,0.440000,53.000000
1.917000,0.410000,53.000000
1.907000,0.470000,53.000000
1.896800,0.330000,53.000000
1.879600,0.230000,53.000000
1.856500,0.280000,53.000000
1.830600,0.210000,53.000000
1.817400,0.180000,53.000000
1.802000,0.170000,53.000000
1.780900,0.190000,53.000000
1.761300,0.260000,53.000000
1.748700,0.320000,53.000000
1.732900,0.470000,53.000000
1.718600,0.520000,53.000000
1.707300,0.460000,53.000000
1.687400,0.450000,53.000000
1.680100,0.490000,53.000000
1.665300,0.450000,53.000000
1.657100,0.410000,53.000000
1.626400,0.270000,53.000000
1.598400,0.180000,53.000000
1.535900,0.130000,53.000000
1.525300,0.250000,53.000000
1.513400,0.280000,53.000000
1.499600,0.200000,53.000000
1.490300,0.860000,53.000000
1.477900,0.870000,53.000000
1.464300,0.240000,53.000000
1.456600,0.250000,53.000000
1.448500,0.200000,53.000000
1.435800,0.270000,53.000000
1.423600,0.330000,53.000000
1.411200,0.220000,53.000000
1.399300,0.160000,53.000000
1.373300,0.290000,53.000000
1.369100,0.280000,53.000000
1.364300,0.120000,53.000000
1.360900,0.270000,53.000000
1.356900,0.280000,53.000000
1.347700,0.180000,53.000000
1.337900,0.880000,53.000000
1.327000,0.730000,53.000000
1.291100,0.120000,53.000000
1.284400,0.140000,53.000000
1.278500,0.170000,53.000000
1.275200,0.150000,53.000000
1.268000,0.230000,53.000000
1.257200,0.240000,53.000000
1.252800,0.230000,53.000000
1.240200,0.320000,53.000000
1.233600,0.270000,53.000000
1.211600,0.270000,53.000000
1.200200,0.230000,53.000000
1.180100,0.200000,53.000000
1.169000,0.200000,53.000000
1.108600,0.550000,53.000000
1.096700,0.580000,53.000000
1.071300,0.130000,53.000000
1.055700,0.370000,53.000000
1.050100,0.880000,53.000000
1.044000,0.400000,53.000000
1.038000,0.960000,53.000000
1.033100,0.380000,53.000000
1.024000,0.410000,53.000000
1.017900,1.430000,53.000000
1.005900,1.460000,53.000000
1.000100,1.290000,53.000000
0.988200,1.420000,53.000000
0.983600,0.950000,53.000000
0.974700,1.350000,53.000000
0.968700,1.130000,53.000000
0.964100,1.820000,53.000000
0.953700,1.960000,53.000000
0.947100,3.380000,53.000000
0.941300,2.250000,53.000000
0.935800,3.020000,53.000000
0.928800,1.810000,53.000000
0.919400,3.150000,53.000000
0.910400,1.390000,53.000000
0.908300,2.960000,53.000000
0.898200,1.440000,53.000000
0.892800,1.000000,53.000000
0.885500,1.130000,53.000000
0.877800,0.950000,53.000000
0.861300,0.790000,53.000000
0.848700,0.580000,53.000000
0.819600,0.250000,53.000000
0.096700,0.260000,53.000000
0.032800,0.120000,53.000000
0.018000,0.150000,53.000000
0.016500,0.290000,53.000000
0.015100,0.210000,53.000000
0.013600,0.230000,53.000000
0.012100,0.280000,53.000000
0.010600,0.370000,53.000000
0.009100,0.480000,53.000000
0.007600,0.730000,53.000000
0.004900,2.950000,53.000000
0.003200,3.170000,53.000000
-0.000200,85.460000,53.000000
-0.005100,2.950000,53.000000
-0.006100,2.790000,53.000000
-0.007800,1.050000,53.000000
-0.009300,0.620000,53.000000
-0.010800,0.450000,53.000000
-0.012300,0.340000,53.000000
-0.013800,0.270000,53.000000
-0.015300,0.210000,53.000000
-0.016700,0.170000,53.000000
-0.019700,0.140000,53.000000
-0.028500,0.170000,53.000000
-0.100700,0.320000,53.000000
-1.129100,0.120000,53.000000
