10.615600,0.080000,55.000000
8.409500,0.050000,55.000000
8.326700,0.060000,55.000000
8.237700,0.070000,55.000000
8.067500,0.080000,55.000000
7.971400,0.130000,55.000000
7.881100,0.120000,55.000000
7.847000,0.190000,55.000000
7.723200,0.120000,55.000000
7.696000,0.240000,55.000000
7.682200,0.260000,55.000000
7.650000,0.120000,55.000000
7.536000,0.280000,55.000000
7.519100,0.310000,55.000000
7.504600,0.330000,55.000000
7.489700,0.170000,55.000000
7.437400,0.160000,55.000000
7.425100,0.200000,55.000000
7.403300,0.230000,55.000000
7.389300,0.310000,55.000000
7.377400,0.290000,55.000000
7.346500,0.230000,55.000000
7.318300,0.370000,55.000000
7.303400,0.360000,55.000000
7.277400,0.280000,55.000000
7.263900,0.310000,55.000000
7.254200,0.410000,55.000000
7.239800,0.330000,55.000000
7.223500,0.590000,55.000000
7.208600,0.830000,55.000000
7.193900,1.150000,55.000000
7.181600,3.420000,55.000000
7.176200,4.110000,55.000000
7.172200,1.410000,55.000000
7.166900,3.230000,55.000000
7.161500,4.960000,55.000000
7.156400,1.010000,55.000000
7.141600,0.520000,55.000000
7.119600,0.130000,55.000000
7.081600,0.210000,55.000000
7.029500,0.150000,55.000000
6.980500,0.130000,55.000000
6.915300,1.030000,55.000000
6.911300,1.010000,55.000000
6.900700,1.790000,55.000000
6.896300,5.480000,55.000000
6.892800,1.110000,55.000000
6.885100,1.530000,55.000000
6.881800,4.510000,55.000000
6.877400,3.530000,55.000000
6.873900,0.710000,55.000000
6.866300,0.850000,55.000000
6.862900,2.810000,55.000000
6.857800,0.280000,55.000000
6.846000,0.130000,55.000000
6.831200,0.130000,55.000000
6.775500,0.090000,55.000000
6.761500,0.080000,55.000000
4.706500,0.240000,55.000000
4.703000,0.170000,55.000000
4.684800,0.260000,55.000000
4.680400,0.360000,55.000000
4.674400,0.290000,55.000000
4.666500,0.130000,55.000000
4.266600,0.080000,55.000000
4.246400,0.110000,55.000000
4.229600,0.100000,55.000000
4.162400,0.160000,55.000000
4.138600,0.180000,55.000000
4.117200,0.200000,55.000000
4.108000,0.170000,55.000000
4.095100,0.180000,55.000000
4.079600,0.170000,55.000000
4.059700,0.170000,55.000000
4.020500,1.250000,55.000000
4.006000,0.380000,55.000000
3.991700,0.570000,55.000000
3.980700,1.740000,55.000000
3.967800,2.400000,55.000000
3.956200,1.840000,55.000000
3.944900,1.680000,55.000000
3.932100,0.510000,55.000000
3.916700,4.830000,55.000000
3.905900,0.570000,55.000000
3.889400,4.750000,55.000000
3.876800,0.460000,55.000000
3.861300,1.750000,55.000000
3.853700,0.570000,55.000000
3.847300,0.520000,55.000000
3.837700,0.670000,55.000000
3.824200,11.270000,55.000000
3.798800,15.000000,55.000000
3.784500,0.360000,55.000000
3.777600,0.560000,55.000000
3.770900,0.570000,55.000000
3.767300,0.710000,55.000000
3.763000,0.440000,55.000000
3.756300,0.770000,55.000000
3.740500,3.160000,55.000000
3.726300,0.250000,55.000000
3.714900,0.250000,55.000000
3.696100,0.150000,55.000000
3.678000,0.580000,55.000000
3.671200,0.450000,55.000000
3.665000,0.170000,55.000000
3.655300,0.250000,55.000000
3.643200,0.100000,55.000000
3.633700,0.130000,55.000000
3.617900,0.450000,55.000000
3.610500,0.350000,55.000000
3.592700,0.260000,55.000000
3.584800,0.310000,55.000000
3.565300,1.140000,55.000000
3.540200,0.440000,55.000000
3.450200,8.580000,55.000000
3.251200,0.090000,55.000000
3.239700,0.090000,55.000000
3.229600,0.180000,55.000000
3.219000,0.330000,55.000000
3.210200,0.210000,55.000000
3.204500,0.190000,55.000000
3.194400,0.310000,55.000000
3.185500,0.420000,55.000000
3.173700,0.130000,55.000000
3.160100,0.190000,55.000000
3.146500,0.180000,55.000000
3.136900,0.160000,55.000000
3.119600,0.130000,55.000000
3.076600,0.510000,55.000000
3.064400,1.110000,55.000000
3.053100,0.900000,55.000000
3.049100,0.870000,55.000000
3.041800,2.050000,55.000000
3.036000,0.880000,55.000000
3.030300,2.190000,55.000000
3.019500,2.290000,55.000000
3.006300,2.110000,55.000000
2.996400,0.770000,55.000000
2.983200,0.670000,55.000000
2.963300,0.100000,55.000000
2.942900,0.090000,55.000000
2.935300,0.090000,55.000000
2.827100,0.060000,55.000000
2.798300,0.070000,55.000000
2.779800,0.080000,55.000000
2.768100,0.080000,55.000000
2.752000,0.230000,55.000000
2.739400,0.470000,55.000000
2.733600,0.190000,55.000000
2.726900,0.350000,55.000000
2.723700,0.310000,55.000000
2.701900,0.110000,55.000000
2.682300,0.170000,55.000000
2.671900,2.670000,55.000000
2.646800,5.670000,55.000000
2.618800,0.570000,55.000000
2.606800,0.550000,55.000000
2.579400,0.260000,55.000000
2.561200,5.880000,55.000000
2.536100,2.620000,55.000000
2.500500,0.140000,55.000000
2.488200,0.280000,55.000000
2.475800,0.080000,55.000000
2.439800,0.060000,55.000000
2.427200,0.050000,55.000000
2.368200,0.140000,55.000000
2.358700,0.220000,55.000000
2.348600,0.110000,55.000000
2.345600,0.130000,55.000000
2.326500,0.100000,55.000000
2.319700,0.120000,55.000000
2.310000,0.300000,55.000000
2.302400,0.300000,55.000000
2.290200,0.130000,55.000000
2.277800,0.150000,55.000000
2.262000,0.140000,55.000000
2.247200,0.150000,55.000000
2.235400,0.150000,55.000000
2.223200,0.150000,55.000000
2.211800,0.190000,55.000000
2.199000,0.210000,55.000000
2.186300,0.190000,55.000000
2.144700,0.570000,55.000000
2.134300,0.540000,55.000000
2.129600,1.440000,55.000000
2.125700,0.510000,55.000000
2.121000,0.400000,55.000000
2.111500,0.400000,55.000000
2.098500,0.360000,55.000000
2.080400,0.950000,55.000000
2.071700,0.530000,55.000000
2.064100,0.910000,55.000000
2.051700,1.110000,55.000000
2.025400,0.350000,55.000000
2.014100,0.340000,55.000000
1.991400,0.280000,55.000000
1.979200,0.290000,55.000000
1.967600,0.330000,55.000000
1.956100,0.340000,55.000000
1.942700,0.330000,55.000000
1.934000,0.360000,55.000000
1.924200,0.360000,55.000000
1.920600,0.410000,55.000000
1.906800,0.400000,55.000000
1.900600,0.270000,55.000000
1.896700,0.300000,55.000000
1.890000,0.270000,55.000000
1.879500,0.250000,55.000000
1.855200,0.280000,55.000000
1.841800,0.240000,55.000000
1.830600,0.200000,55.000000
1.817100,0.180000,55.000000
1.800900,0.170000,55.000000
1.761300,0.240000,55.000000
1.745600,0.310000,55.000000
1.733000,0.440000,55.000000
1.719900,0.490000,55.000000
1.707600,0.420000,55.000000
1.686700,0.390000,55.000000
1.679700,0.440000,55.000000
1.665700,0.390000,55.000000
1.656700,0.350000,55.000000
1.626500,0.250000,55.000000
1.600700,0.170000,55.000000
1.535200,0.140000,55.000000
1.524900,0.270000,55.000000
1.513000,0.270000,55.000000
1.505000,0.190000,55.000000
1.490300,0.940000,55.000000
1.477900,0.940000,55.000000
1.456700,0.210000,55.000000
1.448200,0.190000,55.000000
1.435000,0.230000,55.000000
1.423200,0.260000,55.000000
1.411000,0.180000,55.000000
1.383600,0.110000,55.000000
1.373200,0.280000,55.000000
1.369100,0.250000,55.000000
1.360800,0.260000,55.000000
1.356800,0.270000,55.000000
1.347900,0.170000,55.000000
1.337900,0.920000,55.000000
1.326900,0.780000,55.000000
1.290900,0.130000,55.000000
1.283800,0.130000,55.000000
1.278700,0.150000,55.000000
1.275100,0.150000,55.000000
1.267600,0.260000,55.000000
1.262700,0.140000,55.000000
1.256400,0.260000,55.000000
1.252700,0.220000,55.000000
1.240600,0.290000,55.000000
1.233300,0.250000,55.000000
1.210800,0.260000,55.000000
1.200700,0.210000,55.000000
1.179400,0.180000,55.000000
1.133400,0.050000,55.000000
1.121200,0.070000,55.000000
1.108600,0.450000,55.000000
1.096600,0.500000,55.000000
1.071200,0.120000,55.000000
1.055600,0.480000,55.000000
1.050100,0.960000,55.000000
1.043900,0.490000,55.000000
1.038000,1.010000,55.000000
1.032900,0.400000,55.000000
1.017900,1.440000,55.000000
1.005800,1.460000,55.000000
1.000100,1.340000,55.000000
0.988100,1.450000,55.000000
0.983200,0.870000,55.000000
0.974600,1.310000,55.000000
0.968500,1.070000,55.000000
0.964000,1.800000,55.000000
0.953700,1.890000,55.000000
0.947100,2.850000,55.000000
0.941300,2.180000,55.000000
0.935800,2.560000,55.000000
0.928800,1.720000,55.000000
0.919500,3.230000,55.000000
0.908200,3.030000,55.000000
0.898200,1.270000,55.000000
0.892500,0.880000,55.000000
0.885400,1.010000,55.000000
0.878700,0.880000,55.000000
0.874200,0.830000,55.000000
0.861300,0.820000,55.000000
0.848700,0.590000,55.000000
0.096900,0.210000,55.000000
0.033200,0.220000,55.000000
0.025500,0.150000,55.000000
0.016600,0.120000,55.000000
0.012200,0.060000,55.000000
0.010700,0.100000,55.000000
0.009300,0.170000,55.000000
0.005000,2.260000,55.000000
-0.000200,68.100000,55.000000
-0.005700,2.420000,55.000000
-0.012100,0.170000,55.000000
-0.013600,0.130000,55.000000
-0.015100,0.090000,55.000000
-0.058100,0.110000,55.000000
-0.100700,0.260000,55.000000
-0.928600,0.070000,55.000000
