7.8017,0.37,20
7.7294,0.34,20
7.6214,0.46,20
7.5129,0.9,20
7.3802,0.63,20
7.3275,0.61,20
7.2053,2.34,20
7.1901,11.44,20
7.1755,11.32,20
6.9348,2.34,20
6.9117,12.06,20
6.8974,9.23,20
4.731,0.29,20
4.7115,1.15,20
4.2178,0.37,20
4.0437,3.84,20
3.9461,1.79,20
3.918,15.0,20
3.9112,14.89,20
3.8841,6.78,20
3.8715,9.21,20
3.8595,5.23,20
3.8442,8.3,20
3.7893,1.49,20
3.7592,13.7,20
3.7452,12.21,20
3.6381,0.62,20
3.4733,3.43,20
3.0426,0.86,20
3.0308,2.33,20
3.0191,2.5,20
3.0081,6.39,20
2.9964,6.4,20
2.9838,6.35,20
2.9704,6.29,20
2.961,2.81,20
2.9474,2.47,20
2.7903,0.38,20
2.6978,3.02,20
2.6724,7.01,20
2.5837,7.44,20
2.5583,3.37,20
2.1071,1.24,20
2.0865,0.76,20
2.0707,1.31,20
1.9459,0.77,20
1.8481,0.41,20
1.7915,0.66,20
1.6989,1.06,20
1.5934,0.87,20
1.412,1.04,20
1.3092,0.52,20
1.2335,1.57,20
1.0535,0.95,20
1.0101,0.5,20
0.9993,1.21,20
0.9856,1.75,20
0.9725,1.94,20
0.9558,1.91,20
0.9432,2.12,20
0.9279,1.98,20
0.9097,2.45,20
0.881,1.9,20
0.8446,1.58,20
0.7879,2.12,20
0.603,0.55,20
-1.0938,0.29,20
