7.8014,0.34,3
7.7312,0.27,3
7.5143,0.82,3
7.4023,0.53,3
7.3275,0.52,3
7.1913,10.61,3
7.1768,11.22,3
7.0699,0.33,3
6.9367,1.34,3
6.9131,12.42,3
6.8986,9.42,3
6.7004,0.24,3
4.7143,1.4,3
4.7027,3.03,3
4.6976,0.52,3
4.2221,0.35,3
4.1271,0.37,3
4.0454,1.51,3
4.0065,0.6,3
3.9478,1.52,3
3.9196,14.97,3
3.9131,15.0,3
3.8846,6.86,3
3.8723,9.53,3
3.8598,5.65,3
3.8459,2.38,3
3.7932,1.36,3
3.7616,14.74,3
3.7456,3.65,3
3.6427,0.69,3
3.5871,0.39,3
3.4768,0.25,3
3.0439,0.55,3
3.0323,2.16,3
3.0206,2.41,3
3.0094,6.34,3
2.9976,6.61,3
2.9852,6.34,3
2.9717,6.51,3
2.9623,2.96,3
2.9485,2.68,3
2.6997,2.57,3
2.6743,6.02,3
2.5856,6.24,3
2.5603,2.91,3
2.1084,1.16,3
2.0732,1.17,3
1.9455,0.79,3
1.795,0.7,3
1.6851,1.05,3
1.4169,0.99,3
1.404,0.93,3
1.3484,0.75,3
1.2987,0.52,3
1.2357,1.49,3
1.0975,0.33,3
1.0529,0.9,3
1.0125,0.52,3
1.0006,1.05,3
0.9765,1.83,3
0.9586,1.82,3
0.9459,1.86,3
0.9332,1.82,3
0.9133,2.27,3
0.8828,1.75,3
0.7842,1.97,3
0.6094,0.56,3
0.3934,0.3,3
-1.1154,0.22,3
