10.5368,0.23,29
7.7998,0.32,29
7.5121,0.74,29
7.3903,0.56,29
7.3321,0.57,29
7.2311,1.45,29
7.2161,1.75,29
7.2055,2.3,29
7.1901,9.6,29
7.1752,8.92,29
6.9363,2.21,29
6.9118,9.65,29
6.8973,7.34,29
6.8872,0.72,29
4.7231,0.57,29
4.7036,0.77,29
4.2235,0.33,29
4.0434,2.42,29
3.9668,0.41,29
3.9455,1.5,29
3.9176,12.06,29
3.9107,12.3,29
3.8841,5.48,29
3.8718,7.27,29
3.8597,4.46,29
3.8438,10.11,29
3.7908,1.14,29
3.7589,10.93,29
3.7452,15.0,29
3.6433,0.61,29
3.585,0.49,29
3.4729,4.85,29
3.2108,0.31,29
3.2012,0.26,29
3.0904,0.38,29
3.067,0.38,29
3.0415,0.59,29
3.0309,1.85,29
3.0194,1.92,29
3.008,5.19,29
2.9964,5.26,29
2.9837,5.31,29
2.9703,5.3,29
2.9609,2.53,29
2.9472,2.23,29
2.7895,0.37,29
2.6974,2.77,29
2.672,6.53,29
2.5832,7.0,29
2.5578,3.29,29
2.1058,0.99,29
2.0697,1.1,29
1.9429,0.75,29
1.792,0.5,29
1.6774,0.89,29
1.4118,0.84,29
1.4011,0.82,29
1.306,0.36,29
1.2311,1.31,29
1.0536,0.72,29
0.998,0.79,29
0.9718,1.51,29
0.9425,1.74,29
0.9308,1.66,29
0.9109,2.07,29
0.899,1.97,29
0.8804,1.64,29
0.781,1.86,29
0.611,0.61,29
0.3791,0.28,29
