7.8,0.37,4
7.5135,0.89,4
7.3956,0.57,4
7.1906,10.11,4
7.1782,10.22,4
7.0436,0.33,4
6.936,1.63,4
6.9123,11.57,4
6.9005,8.23,4
6.8979,8.5,4
4.7356,0.25,4
4.7289,0.8,4
4.7249,0.39,4
4.7039,2.46,4
4.2221,0.35,4
4.0444,1.71,4
3.9471,1.69,4
3.9189,15.0,4
3.9122,14.33,4
3.8843,6.71,4
3.8719,9.33,4
3.8594,5.4,4
3.8452,2.56,4
3.7906,1.35,4
3.7611,14.51,4
3.7455,3.75,4
3.6414,0.58,4
3.4747,0.26,4
3.0315,2.18,4
3.0201,2.34,4
3.0089,6.23,4
2.9971,6.47,4
2.9847,6.15,4
2.971,6.2,4
2.9618,2.73,4
2.948,2.46,4
2.7915,0.36,4
2.6989,2.54,4
2.6736,5.83,4
2.5848,6.12,4
2.5595,2.89,4
2.1077,1.05,4
2.0732,1.11,4
1.9446,0.72,4
1.8552,0.41,4
1.7937,0.65,4
1.6854,0.96,4
1.4159,0.89,4
1.3597,0.67,4
1.3465,0.63,4
1.3115,0.43,4
1.2349,1.42,4
1.0993,0.28,4
1.0579,0.84,4
1.0001,0.98,4
0.9861,1.49,4
0.9751,1.69,4
0.9558,1.71,4
0.9456,1.83,4
0.9119,2.19,4
0.883,1.73,4
0.7873,1.87,4
0.6106,0.51,4
0.3934,0.24,4
-1.045,0.23,4
-1.0847,0.26,4
