7.7933,0.17,67
7.7302,0.15,67
7.6221,0.24,67
7.5726,0.2,67
7.5123,0.34,67
7.3234,0.33,67
7.2306,1.85,67
7.216,2.11,67
7.2051,1.61,67
7.19,4.43,67
7.1748,3.56,67
6.9367,2.31,67
6.9222,2.21,67
6.9108,4.0,67
6.8965,3.14,67
6.8864,1.24,67
6.8025,0.16,67
6.7076,0.16,67
4.6996,1.16,67
4.6873,0.22,67
4.2223,0.2,67
4.0428,1.09,67
3.9658,0.71,67
3.9566,0.84,67
3.9436,1.01,67
3.9175,4.83,67
3.9107,4.86,67
3.8846,2.15,67
3.8721,3.01,67
3.86,1.75,67
3.8437,10.31,67
3.7892,0.71,67
3.7587,4.49,67
3.7455,15.0,67
3.6425,0.36,67
3.625,0.36,67
3.5852,0.29,67
3.4728,4.58,67
3.2358,0.35,67
3.2261,0.38,67
3.21,0.67,67
3.2013,0.77,67
3.0912,0.79,67
3.0768,0.83,67
3.0661,0.58,67
3.0524,0.66,67
3.0423,0.51,67
3.0306,0.91,67
3.0191,1.01,67
3.0081,2.27,67
2.9964,2.23,67
2.9839,2.15,67
2.9703,2.17,67
2.961,1.12,67
2.9471,0.95,67
2.7935,0.24,67
2.6974,1.66,67
2.672,3.81,67
2.5832,4.07,67
2.5578,1.88,67
2.1073,0.67,67
2.0701,0.71,67
1.9428,0.46,67
1.8525,0.26,67
1.8336,0.26,67
1.7928,0.39,67
1.6956,0.6,67
1.6145,0.49,67
1.4107,0.57,67
1.3457,0.45,67
1.3052,0.32,67
1.2316,0.93,67
1.1517,0.27,67
1.0531,0.54,67
0.999,0.68,67
0.9724,1.09,67
0.9558,1.11,67
0.9437,1.17,67
0.9299,1.14,67
0.9091,1.38,67
0.8439,0.89,67
0.7855,1.17,67
0.5087,0.13,67
0.3789,0.16,67
-1.1302,0.14,67
