##TITLE= Audit trail, TOPSPIN		Version 2.1
##JCAMPDX= 5.01
##ORIGIN= Bruker BioSpin GmbH
##OWNER= Administrator
$$ T:/data/MJD/nmr/C02404/4/audita.txt
##AUDIT TRAIL=  $$ (NUMBER, WHEN, WHO, WHERE, PROCESS, VERSION, WHAT)
(   1,<2013-06-13 13:18:41.406 +0100>,<Administrator>,<GH001606>,<go>,<TOPSPIN 2.1>,
      <created by zg
	started at 2013-06-13 13:12:17.843 +0100,
	POWCHK disabled, PULCHK disabled,
       configuration hash MD5:
       3E 28 56 27 A3 E6 96 EB AB A8 47 E1 FE 66 6F 96
       data hash MD5: 32K
       8B 4E 7E C3 16 5C 0A F5 78 FA 6A 29 DF D0 8F 3A>)
(   2,<2013-06-13 13:18:50.671 +0100>,<Administrator>,<GH001606>,<audit>,<TOPSPIN 2.1>,
      <user comment:
       ICON-NMR User ID: MJD
       data hash MD5: 32K
       8B 4E 7E C3 16 5C 0A F5 78 FA 6A 29 DF D0 8F 3A>)
(   3,<2013-06-13 13:18:50.937 +0100>,<Administrator>,<GH001606>,<dirdata>,<TOPSPIN 2.1>,
      <wrpa from 1 4 "C02404" "MJD" "C:\NMRdata"
       data hash MD5: 32K
       8B 4E 7E C3 16 5C 0A F5 78 FA 6A 29 DF D0 8F 3A>)
##END=

$$ hash MD5
$$ AB 3C 43 6E C5 31 BA E9 E4 66 13 FB AC 96 9A DE
