F,0,4.695,1.4700000286102295,-0.03
F,36,4.698,2.7799999713897705,-0.03
F,37,4.706,1.3200000524520874,-0.03
F,38,4.707,1.4900000095367432,-0.03
F,39,4.707,1.309999942779541,-0.03
F,40,4.699,1.2899999618530273,-0.03
F,41,4.703,1.6399999856948853,-0.03
F,42,4.703,1.9299999475479126,-0.03
F,43,4.706,1.9900000095367432,-0.03
F,44,4.692,25.489999771118164,-0.03
F,45,4.692,26.479999542236328,-0.03
F,46,4.703,2.240000009536743,-0.03
F,47,4.707,1.090000033378601,-0.03
F,48,4.691,18.700000762939453,-0.03
F,49,4.692,18.770000457763672,-0.03
F,50,4.708,1.0700000524520874,-0.03
F,51,4.706,1.190000057220459,-0.03
F,1,0.0,0.0,-0.03
F,2,0.0,0.0,-0.03
F,3,0.0,0.0,-0.03
F,4,0.0,0.0,-0.03
F,5,0.0,0.0,-0.03
F,6,0.0,0.0,-0.03
F,7,0.0,0.0,-0.03
F,8,0.0,0.0,-0.03
F,9,0.0,0.0,-0.03
F,10,0.0,0.0,-0.03
F,11,0.0,0.0,-0.03
F,12,0.0,0.0,-0.03
F,13,0.0,0.0,-0.03
F,14,0.0,0.0,-0.03
F,15,0.0,0.0,-0.03
F,16,0.0,0.0,-0.03
F,17,0.0,0.0,-0.03
F,18,0.0,0.0,-0.03
F,19,0.0,0.0,-0.03
F,20,0.0,0.0,-0.03
F,21,0.0,0.0,-0.03
F,22,0.0,0.0,-0.03
F,23,0.0,0.0,-0.03
F,24,0.0,0.0,-0.03
F,25,0.0,0.0,-0.03
F,26,0.0,0.0,-0.03
F,27,0.0,0.0,-0.03
F,28,0.0,0.0,-0.03
F,29,0.0,0.0,-0.03
F,30,0.0,0.0,-0.03
F,31,0.0,0.0,-0.03
F,32,0.0,0.0,-0.03
F,33,0.0,0.0,-0.03
F,34,0.0,0.0,-0.03
F,35,0.0,0.0,-0.03
F,52,0.0,0.0,-0.03
F,53,0.0,0.0,-0.03
F,54,0.0,0.0,-0.03
F,55,0.0,0.0,-0.03
F,56,0.0,0.0,-0.03
F,57,0.0,0.0,-0.03
F,58,0.0,0.0,-0.03
F,59,0.0,0.0,-0.03
F,60,0.0,0.0,-0.03
F,61,0.0,0.0,-0.03
F,62,0.0,0.0,-0.03
F,63,0.0,0.0,-0.03
S,0,3.966,7.170000076293945,-0.03
S,1,3.967,6.96999979019165,-0.03
S,2,3.968,6.710000038146973,-0.03
S,3,3.968,6.659999847412109,-0.03
S,4,3.968,6.449999809265137,-0.03
S,5,4.02,1.0299999713897705,-0.03
S,6,3.969,5.980000019073486,-0.03
S,7,4.02,1.0399999618530273,-0.03
S,8,3.969,6.449999809265137,-0.03
S,9,4.02,1.059999942779541,-0.03
S,10,4.02,1.059999942779541,-0.03
S,11,4.02,1.1200000047683716,-0.03
S,12,4.02,1.1799999475479126,-0.03
S,13,4.02,1.1100000143051147,-0.03
S,14,4.02,1.1100000143051147,-0.03
S,15,4.02,1.2400000095367432,-0.03
S,16,4.02,1.2300000190734863,-0.03
S,17,4.02,1.1200000047683716,-0.03
S,18,4.02,1.2300000190734863,-0.03
S,19,4.02,1.2200000286102295,-0.03
S,20,4.021,1.2699999809265137,-0.03
S,21,4.02,1.2699999809265137,-0.03
S,22,4.02,1.3600000143051147,-0.03
S,23,4.02,1.2100000381469727,-0.03
S,24,4.02,1.3600000143051147,-0.03
S,25,4.021,1.3600000143051147,-0.03
S,26,4.02,1.340000033378601,-0.03
S,27,4.02,1.350000023841858,-0.03
S,28,4.02,1.2300000190734863,-0.03
S,29,4.02,1.350000023841858,-0.03
S,30,4.02,1.2799999713897705,-0.03
S,31,4.02,1.4199999570846558,-0.03
S,32,4.021,1.3300000429153442,-0.03
S,33,4.02,1.350000023841858,-0.03
S,34,4.02,1.3300000429153442,-0.03
S,35,4.02,1.2799999713897705,-0.03
S,36,4.021,1.4600000381469727,-0.03
S,37,4.02,1.4299999475479126,-0.03
S,38,4.021,1.4600000381469727,-0.03
S,39,4.021,1.3600000143051147,-0.03
S,40,4.021,1.4700000286102295,-0.03
S,41,4.021,1.5299999713897705,-0.03
S,42,4.021,1.4299999475479126,-0.03
S,43,4.02,1.4299999475479126,-0.03
S,44,4.02,1.399999976158142,-0.03
S,45,4.021,1.2799999713897705,-0.03
S,46,4.021,1.2200000286102295,-0.03
S,47,4.02,1.1399999856948853,-0.03
S,48,4.021,1.0800000429153442,-0.03
S,49,4.02,1.2000000476837158,-0.03
S,50,4.021,1.2100000381469727,-0.03
S,51,4.02,1.1699999570846558,-0.03
S,52,4.021,1.2000000476837158,-0.03
S,53,4.021,1.2300000190734863,-0.03
S,54,4.021,1.1399999856948853,-0.03
S,55,4.021,1.25,-0.03
S,56,4.02,1.0800000429153442,-0.03
S,57,4.02,1.090000033378601,-0.03
S,58,4.02,1.090000033378601,-0.03
S,59,4.02,1.0499999523162842,-0.03
S,60,4.02,1.0199999809265137,-0.03
S,61,3.966,1.309999942779541,-0.03
S,62,3.966,1.2100000381469727,-0.03
S,63,3.966,1.1299999952316284,-0.03
