F,0,6.896,15.0,0.0
F,0,6.896,15.0,0.0
F,0,6.882,12.039999961853027,0.0
F,1,6.896,15.0,0.0
F,1,6.882,12.15999984741211,0.0
F,2,6.896,15.0,0.0
F,2,6.882,12.15999984741211,0.0
F,3,6.896,15.0,0.0
F,3,6.882,12.210000038146973,0.0
F,4,6.896,15.0,0.0
F,4,6.882,12.119999885559082,0.0
F,5,6.896,15.0,0.0
F,5,6.882,11.949999809265137,0.0
F,6,6.896,15.0,0.0
F,6,6.882,12.100000381469727,0.0
F,7,6.896,15.0,0.0
F,7,6.882,12.020000457763672,0.0
F,8,6.896,15.0,0.0
F,8,6.882,12.140000343322754,0.0
F,9,6.896,15.0,0.0
F,9,6.882,12.140000343322754,0.0
F,10,6.896,15.0,0.0
F,10,6.882,12.149999618530273,0.0
F,11,6.896,15.0,0.0
F,11,6.882,12.029999732971191,0.0
F,12,6.896,15.0,0.0
F,12,6.882,11.899999618530273,0.0
F,13,6.896,15.0,0.0
F,13,6.882,12.130000114440918,0.0
F,14,6.896,15.0,0.0
F,14,6.882,12.199999809265137,0.0
F,15,6.896,15.0,0.0
F,15,6.882,12.020000457763672,0.0
F,16,6.896,15.0,0.0
F,16,6.882,12.010000228881836,0.0
F,17,6.896,15.0,0.0
F,17,6.882,12.149999618530273,0.0
F,18,6.896,15.0,0.0
F,18,6.882,12.050000190734863,0.0
F,19,6.896,15.0,0.0
F,19,6.882,11.9399995803833,0.0
F,20,6.897,15.0,0.0
F,20,6.882,11.90999984741211,0.0
F,21,6.897,15.0,0.0
F,21,6.882,11.979999542236328,0.0
F,22,6.897,15.0,0.0
F,22,6.882,11.880000114440918,0.0
F,23,6.896,15.0,0.0
F,23,6.882,12.180000305175781,0.0
F,24,6.897,15.0,0.0
F,24,6.882,11.890000343322754,0.0
F,25,6.897,15.0,0.0
F,25,6.882,11.9399995803833,0.0
F,26,6.896,15.0,0.0
F,26,6.882,11.90999984741211,0.0
F,27,6.896,15.0,0.0
F,27,6.882,12.039999961853027,0.0
F,28,6.896,15.0,0.0
F,28,6.882,12.149999618530273,0.0
F,29,6.897,15.0,0.0
F,29,6.882,12.0,0.0
F,30,6.897,15.0,0.0
F,30,6.882,11.989999771118164,0.0
F,31,6.897,15.0,0.0
F,32,6.897,15.0,0.0
F,32,6.882,11.979999542236328,0.0
F,33,6.897,15.0,0.0
F,33,6.882,11.989999771118164,0.0
F,34,6.897,15.0,0.0
F,34,6.882,12.020000457763672,0.0
F,35,6.896,15.0,0.0
F,35,6.882,12.15999984741211,0.0
F,36,6.897,15.0,0.0
F,36,6.882,12.0600004196167,0.0
F,37,6.897,15.0,0.0
F,37,6.882,12.010000228881836,0.0
F,38,6.897,15.0,0.0
F,38,6.882,11.979999542236328,0.0
F,39,6.897,15.0,0.0
F,39,6.882,12.109999656677246,0.0
F,39,6.863,2.0799999237060547,0.0
F,40,6.897,15.0,0.0
F,40,6.882,12.1899995803833,0.0
F,40,6.863,2.2899999618530273,0.0
F,41,6.897,15.0,0.0
F,41,6.882,12.15999984741211,0.0
F,42,6.897,15.0,0.0
F,42,6.882,12.220000267028809,0.0
F,42,6.863,2.630000114440918,0.0
F,43,6.897,14.199999809265137,0.0
F,43,6.882,11.640000343322754,0.0
F,44,6.897,13.470000267028809,0.0
F,44,6.882,11.0,0.0
F,45,6.897,12.949999809265137,0.0
F,45,6.882,10.59000015258789,0.0
F,45,6.863,2.7300000190734863,0.0
F,46,6.897,12.199999809265137,0.0
F,46,6.882,10.0,0.0
F,47,6.897,11.619999885559082,0.0
F,47,6.882,9.609999656677246,0.0
F,47,6.863,2.8399999141693115,0.0
F,48,6.897,11.229999542236328,0.0
F,48,6.882,9.300000190734863,0.0
F,48,6.863,2.859999895095825,0.0
F,49,6.897,10.5600004196167,0.0
F,49,6.882,8.699999809265137,0.0
F,49,6.863,2.8299999237060547,0.0
F,50,6.897,10.359999656677246,0.0
F,50,6.882,8.4399995803833,0.0
F,50,6.863,2.75,0.0
F,51,6.896,9.949999809265137,0.0
F,51,6.882,8.229999542236328,0.0
F,51,6.863,2.880000114440918,0.0
F,52,6.896,8.319999694824219,0.0
F,52,6.882,6.889999866485596,0.0
F,52,6.863,2.8499999046325684,0.0
F,53,6.896,7.349999904632568,0.0
F,53,6.882,6.03000020980835,0.0
F,53,6.863,2.8299999237060547,0.0
F,54,6.896,6.199999809265137,0.0
F,55,6.896,5.480000019073486,0.0
F,55,6.882,4.510000228881836,0.0
F,55,6.863,2.809999942779541,0.0
F,56,6.896,4.71999979019165,0.0
F,56,6.877,4.010000228881836,0.0
F,56,6.863,3.200000047683716,0.0
F,57,6.896,4.239999771118164,0.0
F,57,6.877,3.9800000190734863,0.0
F,57,6.863,3.240000009536743,0.0
F,58,6.896,3.6500000953674316,0.0
F,58,6.877,3.940000057220459,0.0
F,59,6.896,3.3299999237060547,0.0
F,59,6.877,4.0,0.0
F,59,6.863,3.299999952316284,0.0
F,60,6.896,3.009999990463257,0.0
F,60,6.877,4.079999923706055,0.0
F,60,6.863,3.359999895095825,0.0
F,61,6.896,2.6700000762939453,0.0
F,61,6.877,4.110000133514404,0.0
F,61,6.863,3.440000057220459,0.0
F,62,6.896,2.369999885559082,0.0
F,62,6.877,4.159999847412109,0.0
F,62,6.863,3.5299999713897705,0.0
F,63,6.896,2.240000009536743,0.0
F,63,6.878,4.159999847412109,0.0
F,63,6.863,3.490000009536743,0.0
F,0,6.882,12.039999961853027,0.0
F,0,6.896,15.0,0.0
F,0,6.882,12.039999961853027,0.0
F,1,6.896,15.0,0.0
F,1,6.882,12.15999984741211,0.0
F,2,6.896,15.0,0.0
F,2,6.882,12.15999984741211,0.0
F,3,6.896,15.0,0.0
F,3,6.882,12.210000038146973,0.0
F,4,6.896,15.0,0.0
F,4,6.882,12.119999885559082,0.0
F,5,6.896,15.0,0.0
F,5,6.882,11.949999809265137,0.0
F,6,6.896,15.0,0.0
F,6,6.882,12.100000381469727,0.0
F,7,6.896,15.0,0.0
F,7,6.882,12.020000457763672,0.0
F,8,6.896,15.0,0.0
F,8,6.882,12.140000343322754,0.0
F,9,6.896,15.0,0.0
F,9,6.882,12.140000343322754,0.0
F,10,6.896,15.0,0.0
F,10,6.882,12.149999618530273,0.0
F,11,6.896,15.0,0.0
F,11,6.882,12.029999732971191,0.0
F,12,6.896,15.0,0.0
F,12,6.882,11.899999618530273,0.0
F,13,6.896,15.0,0.0
F,13,6.882,12.130000114440918,0.0
F,14,6.896,15.0,0.0
F,14,6.882,12.199999809265137,0.0
F,15,6.896,15.0,0.0
F,15,6.882,12.020000457763672,0.0
F,16,6.896,15.0,0.0
F,16,6.882,12.010000228881836,0.0
F,17,6.896,15.0,0.0
F,17,6.882,12.149999618530273,0.0
F,18,6.896,15.0,0.0
F,18,6.882,12.050000190734863,0.0
F,19,6.896,15.0,0.0
F,19,6.882,11.9399995803833,0.0
F,20,6.897,15.0,0.0
F,20,6.882,11.90999984741211,0.0
F,21,6.897,15.0,0.0
F,21,6.882,11.979999542236328,0.0
F,22,6.897,15.0,0.0
F,22,6.882,11.880000114440918,0.0
F,23,6.896,15.0,0.0
F,23,6.882,12.180000305175781,0.0
F,24,6.897,15.0,0.0
F,24,6.882,11.890000343322754,0.0
F,25,6.897,15.0,0.0
F,25,6.882,11.9399995803833,0.0
F,26,6.896,15.0,0.0
F,26,6.882,11.90999984741211,0.0
F,27,6.896,15.0,0.0
F,27,6.882,12.039999961853027,0.0
F,28,6.896,15.0,0.0
F,28,6.882,12.149999618530273,0.0
F,29,6.897,15.0,0.0
F,29,6.882,12.0,0.0
F,30,6.897,15.0,0.0
F,30,6.882,11.989999771118164,0.0
F,31,6.897,15.0,0.0
F,32,6.897,15.0,0.0
F,32,6.882,11.979999542236328,0.0
F,33,6.897,15.0,0.0
F,33,6.882,11.989999771118164,0.0
F,34,6.897,15.0,0.0
F,34,6.882,12.020000457763672,0.0
F,35,6.896,15.0,0.0
F,35,6.882,12.15999984741211,0.0
F,36,6.897,15.0,0.0
F,36,6.882,12.0600004196167,0.0
F,37,6.897,15.0,0.0
F,37,6.882,12.010000228881836,0.0
F,38,6.897,15.0,0.0
F,38,6.882,11.979999542236328,0.0
F,39,6.897,15.0,0.0
F,39,6.882,12.109999656677246,0.0
F,39,6.863,2.0799999237060547,0.0
F,40,6.897,15.0,0.0
F,40,6.882,12.1899995803833,0.0
F,40,6.863,2.2899999618530273,0.0
F,41,6.897,15.0,0.0
F,41,6.882,12.15999984741211,0.0
F,42,6.897,15.0,0.0
F,42,6.882,12.220000267028809,0.0
F,42,6.863,2.630000114440918,0.0
F,43,6.897,14.199999809265137,0.0
F,43,6.882,11.640000343322754,0.0
F,44,6.897,13.470000267028809,0.0
F,44,6.882,11.0,0.0
F,45,6.897,12.949999809265137,0.0
F,45,6.882,10.59000015258789,0.0
F,45,6.863,2.7300000190734863,0.0
F,46,6.897,12.199999809265137,0.0
F,46,6.882,10.0,0.0
F,47,6.897,11.619999885559082,0.0
F,47,6.882,9.609999656677246,0.0
F,47,6.863,2.8399999141693115,0.0
F,48,6.897,11.229999542236328,0.0
F,48,6.882,9.300000190734863,0.0
F,48,6.863,2.859999895095825,0.0
F,49,6.897,10.5600004196167,0.0
F,49,6.882,8.699999809265137,0.0
F,49,6.863,2.8299999237060547,0.0
F,50,6.897,10.359999656677246,0.0
F,50,6.882,8.4399995803833,0.0
F,50,6.863,2.75,0.0
F,51,6.896,9.949999809265137,0.0
F,51,6.882,8.229999542236328,0.0
F,51,6.863,2.880000114440918,0.0
F,52,6.896,8.319999694824219,0.0
F,52,6.882,6.889999866485596,0.0
F,52,6.863,2.8499999046325684,0.0
F,53,6.896,7.349999904632568,0.0
F,53,6.882,6.03000020980835,0.0
F,53,6.863,2.8299999237060547,0.0
F,54,6.896,6.199999809265137,0.0
F,55,6.896,5.480000019073486,0.0
F,55,6.882,4.510000228881836,0.0
F,55,6.863,2.809999942779541,0.0
F,56,6.896,4.71999979019165,0.0
F,56,6.877,4.010000228881836,0.0
F,56,6.863,3.200000047683716,0.0
F,57,6.896,4.239999771118164,0.0
F,57,6.877,3.9800000190734863,0.0
F,57,6.863,3.240000009536743,0.0
F,58,6.896,3.6500000953674316,0.0
F,58,6.877,3.940000057220459,0.0
F,59,6.896,3.3299999237060547,0.0
F,59,6.877,4.0,0.0
F,59,6.863,3.299999952316284,0.0
F,60,6.896,3.009999990463257,0.0
F,60,6.877,4.079999923706055,0.0
F,60,6.863,3.359999895095825,0.0
F,61,6.896,2.6700000762939453,0.0
F,61,6.877,4.110000133514404,0.0
F,61,6.863,3.440000057220459,0.0
F,62,6.896,2.369999885559082,0.0
F,62,6.877,4.159999847412109,0.0
F,62,6.863,3.5299999713897705,0.0
F,63,6.896,2.240000009536743,0.0
F,63,6.878,4.159999847412109,0.0
F,63,6.863,3.490000009536743,0.0
S,0,4.686,4.619999885559082,0.0
S,0,4.686,4.619999885559082,0.0
S,36,4.698,2.7799999713897705,0.0
S,36,4.692,21.780000686645508,0.0
S,36,4.68,2.5,0.0
S,37,4.692,15.279999732971191,0.0
S,37,4.679,2.5399999618530273,0.0
S,38,4.702,2.319999933242798,0.0
S,38,4.691,14.489999771118164,0.0
S,38,4.683,2.759999990463257,0.0
S,39,4.691,14.210000038146973,0.0
S,39,4.683,2.5199999809265137,0.0
S,40,4.691,17.260000228881836,0.0
S,40,4.684,2.609999895095825,0.0
S,41,4.692,18.25,0.0
S,42,4.691,21.309999465942383,0.0
S,42,4.682,2.6500000953674316,0.0
S,43,4.692,31.829999923706055,0.0
S,43,4.684,2.930000066757202,0.0
S,44,4.692,25.489999771118164,0.0
S,45,4.692,26.479999542236328,0.0
S,45,4.683,2.25,0.0
S,46,4.703,2.240000009536743,0.0
S,46,4.692,14.960000038146973,0.0
S,46,4.683,2.630000114440918,0.0
S,47,4.692,21.020000457763672,0.0
S,47,4.683,2.3299999237060547,0.0
S,48,4.691,18.700000762939453,0.0
S,48,4.683,2.5199999809265137,0.0
S,49,4.692,18.770000457763672,0.0
S,49,4.684,2.0999999046325684,0.0
S,50,4.692,14.010000228881836,0.0
S,50,4.682,2.1500000953674316,0.0
S,51,4.691,7.940000057220459,0.0
S,51,4.683,2.200000047683716,0.0
