S,0,3.966,7.170000076293945,0.0
S,0,3.966,7.170000076293945,0.0
S,0,3.917,13.5600004196167,0.0
S,0,3.861,4.260000228881836,0.0
S,1,3.967,6.96999979019165,0.0
S,1,3.917,13.760000228881836,0.0
S,1,3.889,13.5,0.0
S,1,3.861,4.329999923706055,0.0
S,2,3.968,6.710000038146973,0.0
S,2,3.917,13.75,0.0
S,3,3.968,6.659999847412109,0.0
S,3,3.917,13.449999809265137,0.0
S,3,3.861,4.260000228881836,0.0
S,4,3.968,6.449999809265137,0.0
S,4,3.917,13.4399995803833,0.0
S,5,3.969,6.809999942779541,0.0
S,5,3.917,13.579999923706055,0.0
S,6,3.969,5.980000019073486,0.0
S,6,3.945,4.130000114440918,0.0
S,6,3.917,13.069999694824219,0.0
S,7,3.969,6.75,0.0
S,7,3.917,13.539999961853027,0.0
S,7,3.861,4.349999904632568,0.0
S,7,3.799,2.2100000381469727,0.0
S,8,3.969,6.449999809265137,0.0
S,8,3.889,13.34000015258789,0.0
S,8,3.799,2.2899999618530273,0.0
S,9,3.969,6.389999866485596,0.0
S,9,3.917,13.390000343322754,0.0
S,9,3.861,4.239999771118164,0.0
S,9,3.8,2.4600000381469727,0.0
S,10,3.969,6.46999979019165,0.0
S,10,3.917,13.369999885559082,0.0
S,10,3.8,2.5899999141693115,0.0
S,11,3.97,6.429999828338623,0.0
S,11,3.917,13.4399995803833,0.0
S,11,3.824,2.0399999618530273,0.0
S,11,3.8,2.7300000190734863,0.0
S,12,3.97,6.349999904632568,0.0
S,12,3.917,13.359999656677246,0.0
S,12,3.824,2.1600000858306885,0.0
S,12,3.8,2.8299999237060547,0.0
S,13,3.97,6.639999866485596,0.0
S,13,3.917,13.390000343322754,0.0
S,13,3.824,2.240000009536743,0.0
S,13,3.8,3.009999990463257,0.0
S,14,3.97,6.449999809265137,0.0
S,14,3.917,13.3100004196167,0.0
S,14,3.824,2.3399999141693115,0.0
S,14,3.8,3.0899999141693115,0.0
S,15,3.97,6.599999904632568,0.0
S,15,3.917,13.59000015258789,0.0
S,15,3.824,2.440000057220459,0.0
S,15,3.8,3.2699999809265137,0.0
S,16,3.97,6.769999980926514,0.0
S,16,3.917,13.550000190734863,0.0
S,16,3.824,2.5899999141693115,0.0
S,16,3.8,3.390000104904175,0.0
S,17,3.97,6.059999942779541,0.0
S,17,3.917,13.069999694824219,0.0
S,17,3.824,2.5399999618530273,0.0
S,17,3.8,3.380000114440918,0.0
S,18,3.97,6.489999771118164,0.0
S,18,3.889,13.369999885559082,0.0
S,18,3.824,2.700000047683716,0.0
S,18,3.8,3.5999999046325684,0.0
S,19,3.97,6.46999979019165,0.0
S,19,3.917,13.369999885559082,0.0
S,19,3.824,2.7699999809265137,0.0
S,19,3.8,3.700000047683716,0.0
S,20,3.97,6.309999942779541,0.0
S,20,3.917,13.40999984741211,0.0
S,20,3.824,2.8499999046325684,0.0
S,20,3.8,3.809999942779541,0.0
S,21,3.97,6.690000057220459,0.0
S,21,3.917,13.739999771118164,0.0
S,21,3.8,3.990000009536743,0.0
S,22,3.97,6.909999847412109,0.0
S,22,3.917,13.640000343322754,0.0
S,22,3.889,13.5600004196167,0.0
S,22,3.861,4.420000076293945,0.0
S,22,3.824,3.0999999046325684,0.0
S,22,3.8,4.159999847412109,0.0
S,23,3.97,6.519999980926514,0.0
S,23,3.889,13.470000267028809,0.0
S,23,3.824,3.0899999141693115,0.0
S,23,3.8,4.230000019073486,0.0
S,24,3.97,6.46999979019165,0.0
S,24,3.917,13.4399995803833,0.0
S,24,3.8,4.28000020980835,0.0
S,25,3.97,6.690000057220459,0.0
S,25,3.917,13.6899995803833,0.0
S,25,3.824,3.3499999046325684,0.0
S,25,3.8,4.519999980926514,0.0
S,26,3.97,6.25,0.0
S,26,3.945,4.159999847412109,0.0
S,26,3.917,13.34000015258789,0.0
S,26,3.889,13.210000038146973,0.0
S,26,3.861,4.320000171661377,0.0
S,26,3.824,3.609999895095825,0.0
S,26,3.8,4.800000190734863,0.0
S,27,3.971,6.789999961853027,0.0
S,27,3.917,13.600000381469727,0.0
S,27,3.824,4.039999961853027,0.0
S,27,3.8,5.349999904632568,0.0
S,28,3.971,6.460000038146973,0.0
S,28,3.917,13.489999771118164,0.0
S,28,3.824,4.309999942779541,0.0
S,28,3.8,5.840000152587891,0.0
S,29,3.971,7.0,0.0
S,29,3.917,13.880000114440918,0.0
S,29,3.824,4.78000020980835,0.0
S,29,3.8,6.440000057220459,0.0
S,30,3.971,6.389999866485596,0.0
S,30,3.918,13.40999984741211,0.0
S,30,3.824,4.960000038146973,0.0
S,30,3.8,6.670000076293945,0.0
S,31,3.971,7.269999980926514,0.0
S,31,3.917,14.09000015258789,0.0
S,31,3.8,7.449999809265137,0.0
S,32,3.971,6.599999904632568,0.0
S,32,3.918,13.649999618530273,0.0
S,32,3.824,5.699999809265137,0.0
S,32,3.8,7.710000038146973,0.0
S,33,3.971,6.980000019073486,0.0
S,33,3.917,13.829999923706055,0.0
S,33,3.8,8.300000190734863,0.0
S,34,3.971,6.699999809265137,0.0
S,34,3.918,13.739999771118164,0.0
S,34,3.824,6.349999904632568,0.0
S,34,3.8,8.579999923706055,0.0
S,35,3.971,6.460000038146973,0.0
S,35,3.889,13.350000381469727,0.0
S,35,3.824,6.579999923706055,0.0
S,35,3.8,8.890000343322754,0.0
S,36,3.972,6.989999771118164,0.0
S,36,3.918,13.920000076293945,0.0
S,36,3.824,7.440000057220459,0.0
S,36,3.801,10.09000015258789,0.0
S,37,3.972,6.710000038146973,0.0
S,37,3.918,13.59000015258789,0.0
S,37,3.801,10.720000267028809,0.0
S,38,3.972,6.769999980926514,0.0
S,38,3.918,13.699999809265137,0.0
S,38,3.824,8.569999694824219,0.0
S,38,3.801,11.550000190734863,0.0
S,39,3.972,6.25,0.0
S,39,3.918,13.229999542236328,0.0
S,39,3.824,8.9399995803833,0.0
S,39,3.801,12.09000015258789,0.0
S,40,3.972,6.53000020980835,0.0
S,40,3.918,13.470000267028809,0.0
S,40,3.889,13.369999885559082,0.0
S,40,3.861,4.590000152587891,0.0
S,40,3.824,9.720000267028809,0.0
S,40,3.801,13.170000076293945,0.0
S,41,3.972,6.809999942779541,0.0
S,41,3.918,13.84000015258789,0.0
S,41,3.824,10.5,0.0
S,41,3.801,14.199999809265137,0.0
S,42,3.972,6.420000076293945,0.0
S,42,3.918,13.380000114440918,0.0
S,42,3.861,4.539999961853027,0.0
S,42,3.824,10.899999618530273,0.0
S,42,3.801,14.770000457763672,0.0
S,43,3.972,6.599999904632568,0.0
S,43,3.918,13.029999732971191,0.0
S,43,3.824,11.199999809265137,0.0
S,43,3.8,15.0,0.0
S,44,3.972,6.300000190734863,0.0
S,44,3.917,12.300000190734863,0.0
S,44,3.824,11.130000114440918,0.0
S,44,3.8,15.0,0.0
S,45,3.972,5.539999961853027,0.0
S,45,3.918,11.539999961853027,0.0
S,45,3.889,11.59000015258789,0.0
S,45,3.861,4.079999923706055,0.0
S,45,3.824,11.050000190734863,0.0
S,45,3.801,15.0,0.0
S,46,3.972,5.46999979019165,0.0
S,46,3.918,11.180000305175781,0.0
S,46,3.801,15.0,0.0
S,47,3.972,5.03000020980835,0.0
S,47,3.889,10.5,0.0
S,47,3.861,3.6600000858306885,0.0
S,47,3.824,11.039999961853027,0.0
S,47,3.8,15.0,0.0
S,48,3.972,4.860000133514404,0.0
S,48,3.946,3.390000104904175,0.0
S,48,3.918,10.09000015258789,0.0
S,48,3.889,10.010000228881836,0.0
S,48,3.861,3.490000009536743,0.0
S,48,3.824,11.140000343322754,0.0
S,48,3.8,15.0,0.0
S,49,3.971,4.699999809265137,0.0
S,49,3.918,9.640000343322754,0.0
S,49,3.824,11.09000015258789,0.0
S,49,3.8,15.0,0.0
S,50,3.971,4.489999771118164,0.0
S,50,3.918,9.380000114440918,0.0
S,50,3.8,15.0,0.0
S,51,3.971,4.239999771118164,0.0
S,51,3.917,8.84000015258789,0.0
S,51,3.889,8.829999923706055,0.0
S,51,3.861,3.0899999141693115,0.0
S,51,3.824,11.130000114440918,0.0
S,51,3.8,15.0,0.0
S,52,3.97,3.5999999046325684,0.0
S,52,3.917,7.369999885559082,0.0
S,52,3.889,7.360000133514404,0.0
S,52,3.861,2.609999895095825,0.0
S,52,3.824,11.149999618530273,0.0
S,52,3.8,15.0,0.0
S,53,3.969,3.0,0.0
S,53,3.945,2.2300000190734863,0.0
S,53,3.917,6.369999885559082,0.0
S,53,3.889,6.329999923706055,0.0
S,53,3.861,2.2699999809265137,0.0
S,53,3.799,15.0,0.0
S,54,3.969,2.740000009536743,0.0
S,54,3.889,5.510000228881836,0.0
S,54,3.799,15.0,0.0
S,55,3.968,2.4000000953674316,0.0
S,55,3.917,4.829999923706055,0.0
S,55,3.889,4.75,0.0
S,55,3.799,15.0,0.0
S,56,3.967,2.0999999046325684,0.0
S,56,3.916,4.079999923706055,0.0
S,56,3.889,4.090000152587891,0.0
S,56,3.798,15.0,0.0
S,57,3.916,3.640000104904175,0.0
S,57,3.889,3.5999999046325684,0.0
S,57,3.824,11.130000114440918,0.0
S,57,3.798,15.0,0.0
S,58,3.916,3.240000009536743,0.0
S,58,3.889,3.2100000381469727,0.0
S,58,3.798,15.0,0.0
S,59,3.916,2.8399999141693115,0.0
S,59,3.889,2.8399999141693115,0.0
S,59,3.824,10.979999542236328,0.0
S,59,3.798,15.0,0.0
S,60,3.916,2.559999942779541,0.0
S,60,3.889,2.569999933242798,0.0
S,60,3.798,15.0,0.0
S,61,3.916,2.2899999618530273,0.0
S,61,3.889,2.2799999713897705,0.0
S,61,3.798,15.0,0.0
S,62,3.916,2.0299999713897705,0.0
S,62,3.889,2.0299999713897705,0.0
S,62,3.824,10.84000015258789,0.0
S,62,3.798,15.0,0.0
S,63,3.824,11.050000190734863,0.0
S,63,3.798,15.0,0.0
S,0,3.917,13.5600004196167,0.0
S,0,3.966,7.170000076293945,0.0
S,0,3.917,13.5600004196167,0.0
S,0,3.861,4.260000228881836,0.0
S,0,3.74,10.279999732971191,0.0
S,1,3.967,6.96999979019165,0.0
S,1,3.917,13.760000228881836,0.0
S,1,3.889,13.5,0.0
S,1,3.861,4.329999923706055,0.0
S,1,3.741,9.699999809265137,0.0
S,2,3.968,6.710000038146973,0.0
S,2,3.917,13.75,0.0
S,2,3.741,9.739999771118164,0.0
S,3,3.968,6.659999847412109,0.0
S,3,3.917,13.449999809265137,0.0
S,3,3.861,4.260000228881836,0.0
S,3,3.74,9.449999809265137,0.0
S,4,3.968,6.449999809265137,0.0
S,4,3.917,13.4399995803833,0.0
S,4,3.74,8.989999771118164,0.0
S,5,3.969,6.809999942779541,0.0
S,5,3.917,13.579999923706055,0.0
S,5,3.741,9.359999656677246,0.0
S,6,3.969,5.980000019073486,0.0
S,6,3.945,4.130000114440918,0.0
S,6,3.917,13.069999694824219,0.0
S,6,3.74,8.470000267028809,0.0
S,7,3.969,6.75,0.0
S,7,3.917,13.539999961853027,0.0
S,7,3.861,4.349999904632568,0.0
S,7,3.799,2.2100000381469727,0.0
S,7,3.74,9.5,0.0
S,8,3.969,6.449999809265137,0.0
S,8,3.889,13.34000015258789,0.0
S,8,3.799,2.2899999618530273,0.0
S,8,3.74,9.0600004196167,0.0
S,9,3.969,6.389999866485596,0.0
S,9,3.917,13.390000343322754,0.0
S,9,3.861,4.239999771118164,0.0
S,9,3.8,2.4600000381469727,0.0
S,9,3.74,8.920000076293945,0.0
S,10,3.969,6.46999979019165,0.0
S,10,3.917,13.369999885559082,0.0
S,10,3.8,2.5899999141693115,0.0
S,10,3.74,9.020000457763672,0.0
S,11,3.97,6.429999828338623,0.0
S,11,3.917,13.4399995803833,0.0
S,11,3.824,2.0399999618530273,0.0
S,11,3.8,2.7300000190734863,0.0
S,11,3.741,8.859999656677246,0.0
S,12,3.97,6.349999904632568,0.0
S,12,3.917,13.359999656677246,0.0
S,12,3.824,2.1600000858306885,0.0
S,12,3.8,2.8299999237060547,0.0
S,12,3.741,8.819999694824219,0.0
S,13,3.97,6.639999866485596,0.0
S,13,3.917,13.390000343322754,0.0
S,13,3.824,2.240000009536743,0.0
S,13,3.8,3.009999990463257,0.0
S,13,3.74,9.239999771118164,0.0
S,14,3.97,6.449999809265137,0.0
S,14,3.917,13.3100004196167,0.0
S,14,3.824,2.3399999141693115,0.0
S,14,3.8,3.0899999141693115,0.0
S,14,3.74,8.9399995803833,0.0
S,15,3.97,6.599999904632568,0.0
S,15,3.917,13.59000015258789,0.0
S,15,3.824,2.440000057220459,0.0
S,15,3.8,3.2699999809265137,0.0
S,15,3.74,9.220000267028809,0.0
S,16,3.97,6.769999980926514,0.0
S,16,3.917,13.550000190734863,0.0
S,16,3.824,2.5899999141693115,0.0
S,16,3.8,3.390000104904175,0.0
S,16,3.74,9.4399995803833,0.0
S,17,3.97,6.059999942779541,0.0
S,17,3.917,13.069999694824219,0.0
S,17,3.824,2.5399999618530273,0.0
S,17,3.8,3.380000114440918,0.0
S,17,3.74,8.359999656677246,0.0
S,18,3.97,6.489999771118164,0.0
S,18,3.889,13.369999885559082,0.0
S,18,3.824,2.700000047683716,0.0
S,18,3.8,3.5999999046325684,0.0
S,18,3.74,8.90999984741211,0.0
S,19,3.97,6.46999979019165,0.0
S,19,3.917,13.369999885559082,0.0
S,19,3.824,2.7699999809265137,0.0
S,19,3.8,3.700000047683716,0.0
S,19,3.74,8.949999809265137,0.0
S,20,3.97,6.309999942779541,0.0
S,20,3.917,13.40999984741211,0.0
S,20,3.824,2.8499999046325684,0.0
S,20,3.8,3.809999942779541,0.0
S,20,3.741,8.65999984741211,0.0
S,21,3.97,6.690000057220459,0.0
S,21,3.917,13.739999771118164,0.0
S,21,3.8,3.990000009536743,0.0
S,21,3.741,9.40999984741211,0.0
S,22,3.97,6.909999847412109,0.0
S,22,3.917,13.640000343322754,0.0
S,22,3.889,13.5600004196167,0.0
S,22,3.861,4.420000076293945,0.0
S,22,3.824,3.0999999046325684,0.0
S,22,3.8,4.159999847412109,0.0
S,22,3.741,9.5,0.0
S,23,3.97,6.519999980926514,0.0
S,23,3.889,13.470000267028809,0.0
S,23,3.824,3.0899999141693115,0.0
S,23,3.8,4.230000019073486,0.0
S,23,3.74,8.989999771118164,0.0
S,24,3.97,6.46999979019165,0.0
S,24,3.917,13.4399995803833,0.0
S,24,3.8,4.28000020980835,0.0
S,24,3.74,8.739999771118164,0.0
S,25,3.97,6.690000057220459,0.0
S,25,3.917,13.6899995803833,0.0
S,25,3.824,3.3499999046325684,0.0
S,25,3.8,4.519999980926514,0.0
S,25,3.741,9.369999885559082,0.0
S,26,3.97,6.25,0.0
S,26,3.945,4.159999847412109,0.0
S,26,3.917,13.34000015258789,0.0
S,26,3.889,13.210000038146973,0.0
S,26,3.861,4.320000171661377,0.0
S,26,3.824,3.609999895095825,0.0
S,26,3.8,4.800000190734863,0.0
S,26,3.741,8.5,0.0
S,27,3.971,6.789999961853027,0.0
S,27,3.917,13.600000381469727,0.0
S,27,3.824,4.039999961853027,0.0
S,27,3.8,5.349999904632568,0.0
S,27,3.74,9.3100004196167,0.0
S,28,3.971,6.460000038146973,0.0
S,28,3.917,13.489999771118164,0.0
S,28,3.824,4.309999942779541,0.0
S,28,3.8,5.840000152587891,0.0
S,28,3.74,9.09000015258789,0.0
S,29,3.971,7.0,0.0
S,29,3.917,13.880000114440918,0.0
S,29,3.824,4.78000020980835,0.0
S,29,3.8,6.440000057220459,0.0
S,29,3.741,9.75,0.0
S,30,3.971,6.389999866485596,0.0
S,30,3.918,13.40999984741211,0.0
S,30,3.824,4.960000038146973,0.0
S,30,3.8,6.670000076293945,0.0
S,30,3.741,8.619999885559082,0.0
S,31,3.971,7.269999980926514,0.0
S,31,3.917,14.09000015258789,0.0
S,31,3.8,7.449999809265137,0.0
S,31,3.741,10.239999771118164,0.0
S,32,3.971,6.599999904632568,0.0
S,32,3.918,13.649999618530273,0.0
S,32,3.824,5.699999809265137,0.0
S,32,3.8,7.710000038146973,0.0
S,32,3.741,9.100000381469727,0.0
S,33,3.971,6.980000019073486,0.0
S,33,3.917,13.829999923706055,0.0
S,33,3.8,8.300000190734863,0.0
S,33,3.741,9.550000190734863,0.0
S,34,3.971,6.699999809265137,0.0
S,34,3.918,13.739999771118164,0.0
S,34,3.824,6.349999904632568,0.0
S,34,3.8,8.579999923706055,0.0
S,34,3.741,9.149999618530273,0.0
S,35,3.971,6.460000038146973,0.0
S,35,3.889,13.350000381469727,0.0
S,35,3.824,6.579999923706055,0.0
S,35,3.8,8.890000343322754,0.0
S,35,3.74,8.829999923706055,0.0
S,36,3.972,6.989999771118164,0.0
S,36,3.918,13.920000076293945,0.0
S,36,3.824,7.440000057220459,0.0
S,36,3.801,10.09000015258789,0.0
S,36,3.741,9.65999984741211,0.0
S,37,3.972,6.710000038146973,0.0
S,37,3.918,13.59000015258789,0.0
S,37,3.801,10.720000267028809,0.0
S,37,3.741,9.239999771118164,0.0
S,38,3.972,6.769999980926514,0.0
S,38,3.918,13.699999809265137,0.0
S,38,3.824,8.569999694824219,0.0
S,38,3.801,11.550000190734863,0.0
S,38,3.741,9.25,0.0
S,39,3.972,6.25,0.0
S,39,3.918,13.229999542236328,0.0
S,39,3.824,8.9399995803833,0.0
S,39,3.801,12.09000015258789,0.0
S,39,3.741,8.380000114440918,0.0
S,40,3.972,6.53000020980835,0.0
S,40,3.918,13.470000267028809,0.0
S,40,3.889,13.369999885559082,0.0
S,40,3.861,4.590000152587891,0.0
S,40,3.824,9.720000267028809,0.0
S,40,3.801,13.170000076293945,0.0
S,40,3.741,8.84000015258789,0.0
S,41,3.972,6.809999942779541,0.0
S,41,3.918,13.84000015258789,0.0
S,41,3.824,10.5,0.0
S,41,3.801,14.199999809265137,0.0
S,41,3.741,9.510000228881836,0.0
S,42,3.972,6.420000076293945,0.0
S,42,3.918,13.380000114440918,0.0
S,42,3.861,4.539999961853027,0.0
S,42,3.824,10.899999618530273,0.0
S,42,3.801,14.770000457763672,0.0
S,42,3.741,8.630000114440918,0.0
S,43,3.972,6.599999904632568,0.0
S,43,3.918,13.029999732971191,0.0
S,43,3.824,11.199999809265137,0.0
S,43,3.8,15.0,0.0
S,43,3.74,9.300000190734863,0.0
S,44,3.972,6.300000190734863,0.0
S,44,3.917,12.300000190734863,0.0
S,44,3.824,11.130000114440918,0.0
S,44,3.8,15.0,0.0
S,44,3.74,8.739999771118164,0.0
S,45,3.972,5.539999961853027,0.0
S,45,3.918,11.539999961853027,0.0
S,45,3.889,11.59000015258789,0.0
S,45,3.861,4.079999923706055,0.0
S,45,3.824,11.050000190734863,0.0
S,45,3.801,15.0,0.0
S,45,3.74,7.550000190734863,0.0
S,46,3.972,5.46999979019165,0.0
S,46,3.918,11.180000305175781,0.0
S,46,3.801,15.0,0.0
S,46,3.741,7.659999847412109,0.0
S,47,3.972,5.03000020980835,0.0
S,47,3.889,10.5,0.0
S,47,3.861,3.6600000858306885,0.0
S,47,3.824,11.039999961853027,0.0
S,47,3.8,15.0,0.0
S,47,3.74,6.920000076293945,0.0
S,48,3.972,4.860000133514404,0.0
S,48,3.946,3.390000104904175,0.0
S,48,3.918,10.09000015258789,0.0
S,48,3.889,10.010000228881836,0.0
S,48,3.861,3.490000009536743,0.0
S,48,3.824,11.140000343322754,0.0
S,48,3.8,15.0,0.0
S,48,3.741,6.659999847412109,0.0
S,49,3.971,4.699999809265137,0.0
S,49,3.918,9.640000343322754,0.0
S,49,3.824,11.09000015258789,0.0
S,49,3.8,15.0,0.0
S,49,3.741,6.460000038146973,0.0
S,50,3.971,4.489999771118164,0.0
S,50,3.918,9.380000114440918,0.0
S,50,3.8,15.0,0.0
S,50,3.741,6.179999828338623,0.0
S,51,3.971,4.239999771118164,0.0
S,51,3.917,8.84000015258789,0.0
S,51,3.889,8.829999923706055,0.0
S,51,3.861,3.0899999141693115,0.0
S,51,3.824,11.130000114440918,0.0
S,51,3.8,15.0,0.0
S,51,3.74,5.75,0.0
S,52,3.97,3.5999999046325684,0.0
S,52,3.917,7.369999885559082,0.0
S,52,3.889,7.360000133514404,0.0
S,52,3.861,2.609999895095825,0.0
S,52,3.824,11.149999618530273,0.0
S,52,3.8,15.0,0.0
S,52,3.741,4.900000095367432,0.0
S,53,3.969,3.0,0.0
S,53,3.945,2.2300000190734863,0.0
S,53,3.917,6.369999885559082,0.0
S,53,3.889,6.329999923706055,0.0
S,53,3.861,2.2699999809265137,0.0
S,53,3.799,15.0,0.0
S,53,3.74,3.990000009536743,0.0
S,54,3.969,2.740000009536743,0.0
S,54,3.889,5.510000228881836,0.0
S,54,3.799,15.0,0.0
S,54,3.74,4.210000038146973,0.0
S,55,3.968,2.4000000953674316,0.0
S,55,3.917,4.829999923706055,0.0
S,55,3.889,4.75,0.0
S,55,3.799,15.0,0.0
S,55,3.74,3.1600000858306885,0.0
S,56,3.967,2.0999999046325684,0.0
S,56,3.916,4.079999923706055,0.0
S,56,3.889,4.090000152587891,0.0
S,56,3.798,15.0,0.0
S,56,3.74,2.9800000190734863,0.0
S,57,3.916,3.640000104904175,0.0
S,57,3.889,3.5999999046325684,0.0
S,57,3.824,11.130000114440918,0.0
S,57,3.798,15.0,0.0
S,57,3.74,2.559999942779541,0.0
S,58,3.916,3.240000009536743,0.0
S,58,3.889,3.2100000381469727,0.0
S,58,3.798,15.0,0.0
S,58,3.74,2.490000009536743,0.0
S,59,3.916,2.8399999141693115,0.0
S,59,3.889,2.8399999141693115,0.0
S,59,3.824,10.979999542236328,0.0
S,59,3.798,15.0,0.0
S,59,3.74,2.049999952316284,0.0
S,60,3.916,2.559999942779541,0.0
S,60,3.889,2.569999933242798,0.0
S,60,3.798,15.0,0.0
S,61,3.916,2.2899999618530273,0.0
S,61,3.889,2.2799999713897705,0.0
S,61,3.798,15.0,0.0
S,62,3.916,2.0299999713897705,0.0
S,62,3.889,2.0299999713897705,0.0
S,62,3.824,10.84000015258789,0.0
S,62,3.798,15.0,0.0
S,63,3.824,11.050000190734863,0.0
S,63,3.798,15.0,0.0
S,0,3.861,4.260000228881836,0.0
S,0,3.966,7.170000076293945,0.0
S,0,3.917,13.5600004196167,0.0
S,0,3.861,4.260000228881836,0.0
S,0,3.74,10.279999732971191,0.0
S,1,3.967,6.96999979019165,0.0
S,1,3.917,13.760000228881836,0.0
S,1,3.889,13.5,0.0
S,1,3.861,4.329999923706055,0.0
S,1,3.741,9.699999809265137,0.0
S,2,3.968,6.710000038146973,0.0
S,2,3.917,13.75,0.0
S,2,3.741,9.739999771118164,0.0
S,3,3.968,6.659999847412109,0.0
S,3,3.917,13.449999809265137,0.0
S,3,3.861,4.260000228881836,0.0
S,3,3.74,9.449999809265137,0.0
S,4,3.968,6.449999809265137,0.0
S,4,3.917,13.4399995803833,0.0
S,4,3.74,8.989999771118164,0.0
S,5,3.969,6.809999942779541,0.0
S,5,3.917,13.579999923706055,0.0
S,5,3.741,9.359999656677246,0.0
S,6,3.969,5.980000019073486,0.0
S,6,3.945,4.130000114440918,0.0
S,6,3.917,13.069999694824219,0.0
S,6,3.74,8.470000267028809,0.0
S,7,3.969,6.75,0.0
S,7,3.917,13.539999961853027,0.0
S,7,3.861,4.349999904632568,0.0
S,7,3.799,2.2100000381469727,0.0
S,7,3.74,9.5,0.0
S,8,3.969,6.449999809265137,0.0
S,8,3.889,13.34000015258789,0.0
S,8,3.799,2.2899999618530273,0.0
S,8,3.74,9.0600004196167,0.0
S,9,3.969,6.389999866485596,0.0
S,9,3.917,13.390000343322754,0.0
S,9,3.861,4.239999771118164,0.0
S,9,3.8,2.4600000381469727,0.0
S,9,3.74,8.920000076293945,0.0
S,10,3.969,6.46999979019165,0.0
S,10,3.917,13.369999885559082,0.0
S,10,3.8,2.5899999141693115,0.0
S,10,3.74,9.020000457763672,0.0
S,11,3.97,6.429999828338623,0.0
S,11,3.917,13.4399995803833,0.0
S,11,3.824,2.0399999618530273,0.0
S,11,3.8,2.7300000190734863,0.0
S,11,3.741,8.859999656677246,0.0
S,12,3.97,6.349999904632568,0.0
S,12,3.917,13.359999656677246,0.0
S,12,3.824,2.1600000858306885,0.0
S,12,3.8,2.8299999237060547,0.0
S,12,3.741,8.819999694824219,0.0
S,13,3.97,6.639999866485596,0.0
S,13,3.917,13.390000343322754,0.0
S,13,3.824,2.240000009536743,0.0
S,13,3.8,3.009999990463257,0.0
S,13,3.74,9.239999771118164,0.0
S,14,3.97,6.449999809265137,0.0
S,14,3.917,13.3100004196167,0.0
S,14,3.824,2.3399999141693115,0.0
S,14,3.8,3.0899999141693115,0.0
S,14,3.74,8.9399995803833,0.0
S,15,3.97,6.599999904632568,0.0
S,15,3.917,13.59000015258789,0.0
S,15,3.824,2.440000057220459,0.0
S,15,3.8,3.2699999809265137,0.0
S,15,3.74,9.220000267028809,0.0
S,16,3.97,6.769999980926514,0.0
S,16,3.917,13.550000190734863,0.0
S,16,3.824,2.5899999141693115,0.0
S,16,3.8,3.390000104904175,0.0
S,16,3.74,9.4399995803833,0.0
S,17,3.97,6.059999942779541,0.0
S,17,3.917,13.069999694824219,0.0
S,17,3.824,2.5399999618530273,0.0
S,17,3.8,3.380000114440918,0.0
S,17,3.74,8.359999656677246,0.0
S,18,3.97,6.489999771118164,0.0
S,18,3.889,13.369999885559082,0.0
S,18,3.824,2.700000047683716,0.0
S,18,3.8,3.5999999046325684,0.0
S,18,3.74,8.90999984741211,0.0
S,19,3.97,6.46999979019165,0.0
S,19,3.917,13.369999885559082,0.0
S,19,3.824,2.7699999809265137,0.0
S,19,3.8,3.700000047683716,0.0
S,19,3.74,8.949999809265137,0.0
S,20,3.97,6.309999942779541,0.0
S,20,3.917,13.40999984741211,0.0
S,20,3.824,2.8499999046325684,0.0
S,20,3.8,3.809999942779541,0.0
S,20,3.741,8.65999984741211,0.0
S,21,3.97,6.690000057220459,0.0
S,21,3.917,13.739999771118164,0.0
S,21,3.8,3.990000009536743,0.0
S,21,3.741,9.40999984741211,0.0
S,22,3.97,6.909999847412109,0.0
S,22,3.917,13.640000343322754,0.0
S,22,3.889,13.5600004196167,0.0
S,22,3.861,4.420000076293945,0.0
S,22,3.824,3.0999999046325684,0.0
S,22,3.8,4.159999847412109,0.0
S,22,3.741,9.5,0.0
S,23,3.97,6.519999980926514,0.0
S,23,3.889,13.470000267028809,0.0
S,23,3.824,3.0899999141693115,0.0
S,23,3.8,4.230000019073486,0.0
S,23,3.74,8.989999771118164,0.0
S,24,3.97,6.46999979019165,0.0
S,24,3.917,13.4399995803833,0.0
S,24,3.8,4.28000020980835,0.0
S,24,3.74,8.739999771118164,0.0
S,25,3.97,6.690000057220459,0.0
S,25,3.917,13.6899995803833,0.0
S,25,3.824,3.3499999046325684,0.0
S,25,3.8,4.519999980926514,0.0
S,25,3.741,9.369999885559082,0.0
S,26,3.97,6.25,0.0
S,26,3.945,4.159999847412109,0.0
S,26,3.917,13.34000015258789,0.0
S,26,3.889,13.210000038146973,0.0
S,26,3.861,4.320000171661377,0.0
S,26,3.824,3.609999895095825,0.0
S,26,3.8,4.800000190734863,0.0
S,26,3.741,8.5,0.0
S,27,3.971,6.789999961853027,0.0
S,27,3.917,13.600000381469727,0.0
S,27,3.824,4.039999961853027,0.0
S,27,3.8,5.349999904632568,0.0
S,27,3.74,9.3100004196167,0.0
S,28,3.971,6.460000038146973,0.0
S,28,3.917,13.489999771118164,0.0
S,28,3.824,4.309999942779541,0.0
S,28,3.8,5.840000152587891,0.0
S,28,3.74,9.09000015258789,0.0
S,29,3.971,7.0,0.0
S,29,3.917,13.880000114440918,0.0
S,29,3.824,4.78000020980835,0.0
S,29,3.8,6.440000057220459,0.0
S,29,3.741,9.75,0.0
S,30,3.971,6.389999866485596,0.0
S,30,3.918,13.40999984741211,0.0
S,30,3.824,4.960000038146973,0.0
S,30,3.8,6.670000076293945,0.0
S,30,3.741,8.619999885559082,0.0
S,31,3.971,7.269999980926514,0.0
S,31,3.917,14.09000015258789,0.0
S,31,3.8,7.449999809265137,0.0
S,31,3.741,10.239999771118164,0.0
S,32,3.971,6.599999904632568,0.0
S,32,3.918,13.649999618530273,0.0
S,32,3.824,5.699999809265137,0.0
S,32,3.8,7.710000038146973,0.0
S,32,3.741,9.100000381469727,0.0
S,33,3.971,6.980000019073486,0.0
S,33,3.917,13.829999923706055,0.0
S,33,3.8,8.300000190734863,0.0
S,33,3.741,9.550000190734863,0.0
S,34,3.971,6.699999809265137,0.0
S,34,3.918,13.739999771118164,0.0
S,34,3.824,6.349999904632568,0.0
S,34,3.8,8.579999923706055,0.0
S,34,3.741,9.149999618530273,0.0
S,35,3.971,6.460000038146973,0.0
S,35,3.889,13.350000381469727,0.0
S,35,3.824,6.579999923706055,0.0
S,35,3.8,8.890000343322754,0.0
S,35,3.74,8.829999923706055,0.0
S,36,3.972,6.989999771118164,0.0
S,36,3.918,13.920000076293945,0.0
S,36,3.824,7.440000057220459,0.0
S,36,3.801,10.09000015258789,0.0
S,36,3.741,9.65999984741211,0.0
S,37,3.972,6.710000038146973,0.0
S,37,3.918,13.59000015258789,0.0
S,37,3.801,10.720000267028809,0.0
S,37,3.741,9.239999771118164,0.0
S,38,3.972,6.769999980926514,0.0
S,38,3.918,13.699999809265137,0.0
S,38,3.824,8.569999694824219,0.0
S,38,3.801,11.550000190734863,0.0
S,38,3.741,9.25,0.0
S,39,3.972,6.25,0.0
S,39,3.918,13.229999542236328,0.0
S,39,3.824,8.9399995803833,0.0
S,39,3.801,12.09000015258789,0.0
S,39,3.741,8.380000114440918,0.0
S,40,3.972,6.53000020980835,0.0
S,40,3.918,13.470000267028809,0.0
S,40,3.889,13.369999885559082,0.0
S,40,3.861,4.590000152587891,0.0
S,40,3.824,9.720000267028809,0.0
S,40,3.801,13.170000076293945,0.0
S,40,3.741,8.84000015258789,0.0
S,41,3.972,6.809999942779541,0.0
S,41,3.918,13.84000015258789,0.0
S,41,3.824,10.5,0.0
S,41,3.801,14.199999809265137,0.0
S,41,3.741,9.510000228881836,0.0
S,42,3.972,6.420000076293945,0.0
S,42,3.918,13.380000114440918,0.0
S,42,3.861,4.539999961853027,0.0
S,42,3.824,10.899999618530273,0.0
S,42,3.801,14.770000457763672,0.0
S,42,3.741,8.630000114440918,0.0
S,43,3.972,6.599999904632568,0.0
S,43,3.918,13.029999732971191,0.0
S,43,3.824,11.199999809265137,0.0
S,43,3.8,15.0,0.0
S,43,3.74,9.300000190734863,0.0
S,44,3.972,6.300000190734863,0.0
S,44,3.917,12.300000190734863,0.0
S,44,3.824,11.130000114440918,0.0
S,44,3.8,15.0,0.0
S,44,3.74,8.739999771118164,0.0
S,45,3.972,5.539999961853027,0.0
S,45,3.918,11.539999961853027,0.0
S,45,3.889,11.59000015258789,0.0
S,45,3.861,4.079999923706055,0.0
S,45,3.824,11.050000190734863,0.0
S,45,3.801,15.0,0.0
S,45,3.74,7.550000190734863,0.0
S,46,3.972,5.46999979019165,0.0
S,46,3.918,11.180000305175781,0.0
S,46,3.801,15.0,0.0
S,46,3.741,7.659999847412109,0.0
S,47,3.972,5.03000020980835,0.0
S,47,3.889,10.5,0.0
S,47,3.861,3.6600000858306885,0.0
S,47,3.824,11.039999961853027,0.0
S,47,3.8,15.0,0.0
S,47,3.74,6.920000076293945,0.0
S,48,3.972,4.860000133514404,0.0
S,48,3.946,3.390000104904175,0.0
S,48,3.918,10.09000015258789,0.0
S,48,3.889,10.010000228881836,0.0
S,48,3.861,3.490000009536743,0.0
S,48,3.824,11.140000343322754,0.0
S,48,3.8,15.0,0.0
S,48,3.741,6.659999847412109,0.0
S,49,3.971,4.699999809265137,0.0
S,49,3.918,9.640000343322754,0.0
S,49,3.824,11.09000015258789,0.0
S,49,3.8,15.0,0.0
S,49,3.741,6.460000038146973,0.0
S,50,3.971,4.489999771118164,0.0
S,50,3.918,9.380000114440918,0.0
S,50,3.8,15.0,0.0
S,50,3.741,6.179999828338623,0.0
S,51,3.971,4.239999771118164,0.0
S,51,3.917,8.84000015258789,0.0
S,51,3.889,8.829999923706055,0.0
S,51,3.861,3.0899999141693115,0.0
S,51,3.824,11.130000114440918,0.0
S,51,3.8,15.0,0.0
S,51,3.74,5.75,0.0
S,52,3.97,3.5999999046325684,0.0
S,52,3.917,7.369999885559082,0.0
S,52,3.889,7.360000133514404,0.0
S,52,3.861,2.609999895095825,0.0
S,52,3.824,11.149999618530273,0.0
S,52,3.8,15.0,0.0
S,52,3.741,4.900000095367432,0.0
S,53,3.969,3.0,0.0
S,53,3.945,2.2300000190734863,0.0
S,53,3.917,6.369999885559082,0.0
S,53,3.889,6.329999923706055,0.0
S,53,3.861,2.2699999809265137,0.0
S,53,3.799,15.0,0.0
S,53,3.74,3.990000009536743,0.0
S,54,3.969,2.740000009536743,0.0
S,54,3.889,5.510000228881836,0.0
S,54,3.799,15.0,0.0
S,54,3.74,4.210000038146973,0.0
S,55,3.968,2.4000000953674316,0.0
S,55,3.917,4.829999923706055,0.0
S,55,3.889,4.75,0.0
S,55,3.799,15.0,0.0
S,55,3.74,3.1600000858306885,0.0
S,56,3.967,2.0999999046325684,0.0
S,56,3.916,4.079999923706055,0.0
S,56,3.889,4.090000152587891,0.0
S,56,3.798,15.0,0.0
S,56,3.74,2.9800000190734863,0.0
S,57,3.916,3.640000104904175,0.0
S,57,3.889,3.5999999046325684,0.0
S,57,3.824,11.130000114440918,0.0
S,57,3.798,15.0,0.0
S,57,3.74,2.559999942779541,0.0
S,58,3.916,3.240000009536743,0.0
S,58,3.889,3.2100000381469727,0.0
S,58,3.798,15.0,0.0
S,58,3.74,2.490000009536743,0.0
S,59,3.916,2.8399999141693115,0.0
S,59,3.889,2.8399999141693115,0.0
S,59,3.824,10.979999542236328,0.0
S,59,3.798,15.0,0.0
S,59,3.74,2.049999952316284,0.0
S,60,3.916,2.559999942779541,0.0
S,60,3.889,2.569999933242798,0.0
S,60,3.798,15.0,0.0
S,61,3.916,2.2899999618530273,0.0
S,61,3.889,2.2799999713897705,0.0
S,61,3.798,15.0,0.0
S,62,3.916,2.0299999713897705,0.0
S,62,3.889,2.0299999713897705,0.0
S,62,3.824,10.84000015258789,0.0
S,62,3.798,15.0,0.0
S,63,3.824,11.050000190734863,0.0
S,63,3.798,15.0,0.0
S,0,3.74,10.279999732971191,0.0
S,0,3.917,13.5600004196167,0.0
S,0,3.861,4.260000228881836,0.0
S,0,3.74,10.279999732971191,0.0
S,1,3.917,13.760000228881836,0.0
S,1,3.889,13.5,0.0
S,1,3.861,4.329999923706055,0.0
S,1,3.741,9.699999809265137,0.0
S,2,3.917,13.75,0.0
S,2,3.741,9.739999771118164,0.0
S,3,3.917,13.449999809265137,0.0
S,3,3.861,4.260000228881836,0.0
S,3,3.74,9.449999809265137,0.0
S,4,3.917,13.4399995803833,0.0
S,4,3.74,8.989999771118164,0.0
S,5,3.917,13.579999923706055,0.0
S,5,3.741,9.359999656677246,0.0
S,6,3.917,13.069999694824219,0.0
S,6,3.74,8.470000267028809,0.0
S,7,3.917,13.539999961853027,0.0
S,7,3.861,4.349999904632568,0.0
S,7,3.799,2.2100000381469727,0.0
S,7,3.74,9.5,0.0
S,8,3.889,13.34000015258789,0.0
S,8,3.799,2.2899999618530273,0.0
S,8,3.74,9.0600004196167,0.0
S,9,3.917,13.390000343322754,0.0
S,9,3.861,4.239999771118164,0.0
S,9,3.8,2.4600000381469727,0.0
S,9,3.74,8.920000076293945,0.0
S,10,3.917,13.369999885559082,0.0
S,10,3.8,2.5899999141693115,0.0
S,10,3.74,9.020000457763672,0.0
S,11,3.917,13.4399995803833,0.0
S,11,3.824,2.0399999618530273,0.0
S,11,3.8,2.7300000190734863,0.0
S,11,3.741,8.859999656677246,0.0
S,12,3.917,13.359999656677246,0.0
S,12,3.824,2.1600000858306885,0.0
S,12,3.8,2.8299999237060547,0.0
S,12,3.741,8.819999694824219,0.0
S,13,3.917,13.390000343322754,0.0
S,13,3.824,2.240000009536743,0.0
S,13,3.8,3.009999990463257,0.0
S,13,3.74,9.239999771118164,0.0
S,14,3.917,13.3100004196167,0.0
S,14,3.824,2.3399999141693115,0.0
S,14,3.8,3.0899999141693115,0.0
S,14,3.74,8.9399995803833,0.0
S,15,3.917,13.59000015258789,0.0
S,15,3.824,2.440000057220459,0.0
S,15,3.8,3.2699999809265137,0.0
S,15,3.74,9.220000267028809,0.0
S,16,3.917,13.550000190734863,0.0
S,16,3.824,2.5899999141693115,0.0
S,16,3.8,3.390000104904175,0.0
S,16,3.74,9.4399995803833,0.0
S,17,3.917,13.069999694824219,0.0
S,17,3.824,2.5399999618530273,0.0
S,17,3.8,3.380000114440918,0.0
S,17,3.74,8.359999656677246,0.0
S,18,3.889,13.369999885559082,0.0
S,18,3.824,2.700000047683716,0.0
S,18,3.8,3.5999999046325684,0.0
S,18,3.74,8.90999984741211,0.0
S,19,3.917,13.369999885559082,0.0
S,19,3.824,2.7699999809265137,0.0
S,19,3.8,3.700000047683716,0.0
S,19,3.74,8.949999809265137,0.0
S,20,3.917,13.40999984741211,0.0
S,20,3.824,2.8499999046325684,0.0
S,20,3.8,3.809999942779541,0.0
S,20,3.741,8.65999984741211,0.0
S,21,3.917,13.739999771118164,0.0
S,21,3.8,3.990000009536743,0.0
S,21,3.741,9.40999984741211,0.0
S,22,3.917,13.640000343322754,0.0
S,22,3.889,13.5600004196167,0.0
S,22,3.861,4.420000076293945,0.0
S,22,3.824,3.0999999046325684,0.0
S,22,3.8,4.159999847412109,0.0
S,22,3.741,9.5,0.0
S,23,3.889,13.470000267028809,0.0
S,23,3.824,3.0899999141693115,0.0
S,23,3.8,4.230000019073486,0.0
S,23,3.74,8.989999771118164,0.0
S,24,3.917,13.4399995803833,0.0
S,24,3.8,4.28000020980835,0.0
S,24,3.74,8.739999771118164,0.0
S,25,3.917,13.6899995803833,0.0
S,25,3.824,3.3499999046325684,0.0
S,25,3.8,4.519999980926514,0.0
S,25,3.741,9.369999885559082,0.0
S,26,3.917,13.34000015258789,0.0
S,26,3.889,13.210000038146973,0.0
S,26,3.861,4.320000171661377,0.0
S,26,3.824,3.609999895095825,0.0
S,26,3.8,4.800000190734863,0.0
S,26,3.741,8.5,0.0
S,27,3.917,13.600000381469727,0.0
S,27,3.824,4.039999961853027,0.0
S,27,3.8,5.349999904632568,0.0
S,27,3.74,9.3100004196167,0.0
S,28,3.917,13.489999771118164,0.0
S,28,3.824,4.309999942779541,0.0
S,28,3.8,5.840000152587891,0.0
S,28,3.74,9.09000015258789,0.0
S,29,3.917,13.880000114440918,0.0
S,29,3.824,4.78000020980835,0.0
S,29,3.8,6.440000057220459,0.0
S,29,3.741,9.75,0.0
S,30,3.918,13.40999984741211,0.0
S,30,3.824,4.960000038146973,0.0
S,30,3.8,6.670000076293945,0.0
S,30,3.741,8.619999885559082,0.0
S,31,3.917,14.09000015258789,0.0
S,31,3.8,7.449999809265137,0.0
S,31,3.741,10.239999771118164,0.0
S,32,3.918,13.649999618530273,0.0
S,32,3.824,5.699999809265137,0.0
S,32,3.8,7.710000038146973,0.0
S,32,3.741,9.100000381469727,0.0
S,33,3.917,13.829999923706055,0.0
S,33,3.8,8.300000190734863,0.0
S,33,3.741,9.550000190734863,0.0
S,34,3.918,13.739999771118164,0.0
S,34,3.824,6.349999904632568,0.0
S,34,3.8,8.579999923706055,0.0
S,34,3.741,9.149999618530273,0.0
S,35,3.889,13.350000381469727,0.0
S,35,3.824,6.579999923706055,0.0
S,35,3.8,8.890000343322754,0.0
S,35,3.74,8.829999923706055,0.0
S,36,3.918,13.920000076293945,0.0
S,36,3.824,7.440000057220459,0.0
S,36,3.801,10.09000015258789,0.0
S,36,3.741,9.65999984741211,0.0
S,37,3.918,13.59000015258789,0.0
S,37,3.801,10.720000267028809,0.0
S,37,3.741,9.239999771118164,0.0
S,38,3.918,13.699999809265137,0.0
S,38,3.824,8.569999694824219,0.0
S,38,3.801,11.550000190734863,0.0
S,38,3.741,9.25,0.0
S,39,3.918,13.229999542236328,0.0
S,39,3.824,8.9399995803833,0.0
S,39,3.801,12.09000015258789,0.0
S,39,3.741,8.380000114440918,0.0
S,40,3.918,13.470000267028809,0.0
S,40,3.889,13.369999885559082,0.0
S,40,3.861,4.590000152587891,0.0
S,40,3.824,9.720000267028809,0.0
S,40,3.801,13.170000076293945,0.0
S,40,3.741,8.84000015258789,0.0
S,41,3.918,13.84000015258789,0.0
S,41,3.824,10.5,0.0
S,41,3.801,14.199999809265137,0.0
S,41,3.741,9.510000228881836,0.0
S,42,3.918,13.380000114440918,0.0
S,42,3.861,4.539999961853027,0.0
S,42,3.824,10.899999618530273,0.0
S,42,3.801,14.770000457763672,0.0
S,42,3.741,8.630000114440918,0.0
S,43,3.918,13.029999732971191,0.0
S,43,3.824,11.199999809265137,0.0
S,43,3.8,15.0,0.0
S,43,3.74,9.300000190734863,0.0
S,44,3.917,12.300000190734863,0.0
S,44,3.824,11.130000114440918,0.0
S,44,3.8,15.0,0.0
S,44,3.74,8.739999771118164,0.0
S,45,3.918,11.539999961853027,0.0
S,45,3.889,11.59000015258789,0.0
S,45,3.861,4.079999923706055,0.0
S,45,3.824,11.050000190734863,0.0
S,45,3.801,15.0,0.0
S,45,3.74,7.550000190734863,0.0
S,46,3.918,11.180000305175781,0.0
S,46,3.801,15.0,0.0
S,46,3.741,7.659999847412109,0.0
S,47,3.889,10.5,0.0
S,47,3.861,3.6600000858306885,0.0
S,47,3.824,11.039999961853027,0.0
S,47,3.8,15.0,0.0
S,47,3.74,6.920000076293945,0.0
S,48,3.918,10.09000015258789,0.0
S,48,3.889,10.010000228881836,0.0
S,48,3.861,3.490000009536743,0.0
S,48,3.824,11.140000343322754,0.0
S,48,3.8,15.0,0.0
S,48,3.741,6.659999847412109,0.0
S,49,3.918,9.640000343322754,0.0
S,49,3.824,11.09000015258789,0.0
S,49,3.8,15.0,0.0
S,49,3.741,6.460000038146973,0.0
S,50,3.918,9.380000114440918,0.0
S,50,3.8,15.0,0.0
S,50,3.741,6.179999828338623,0.0
S,51,3.917,8.84000015258789,0.0
S,51,3.889,8.829999923706055,0.0
S,51,3.861,3.0899999141693115,0.0
S,51,3.824,11.130000114440918,0.0
S,51,3.8,15.0,0.0
S,51,3.74,5.75,0.0
S,52,3.917,7.369999885559082,0.0
S,52,3.889,7.360000133514404,0.0
S,52,3.861,2.609999895095825,0.0
S,52,3.824,11.149999618530273,0.0
S,52,3.8,15.0,0.0
S,52,3.741,4.900000095367432,0.0
S,53,3.917,6.369999885559082,0.0
S,53,3.889,6.329999923706055,0.0
S,53,3.861,2.2699999809265137,0.0
S,53,3.799,15.0,0.0
S,53,3.74,3.990000009536743,0.0
S,54,3.889,5.510000228881836,0.0
S,54,3.799,15.0,0.0
S,54,3.74,4.210000038146973,0.0
S,55,3.917,4.829999923706055,0.0
S,55,3.889,4.75,0.0
S,55,3.799,15.0,0.0
S,55,3.74,3.1600000858306885,0.0
S,56,3.916,4.079999923706055,0.0
S,56,3.889,4.090000152587891,0.0
S,56,3.798,15.0,0.0
S,56,3.74,2.9800000190734863,0.0
S,57,3.916,3.640000104904175,0.0
S,57,3.889,3.5999999046325684,0.0
S,57,3.824,11.130000114440918,0.0
S,57,3.798,15.0,0.0
S,57,3.74,2.559999942779541,0.0
S,58,3.916,3.240000009536743,0.0
S,58,3.889,3.2100000381469727,0.0
S,58,3.798,15.0,0.0
S,58,3.74,2.490000009536743,0.0
S,59,3.916,2.8399999141693115,0.0
S,59,3.889,2.8399999141693115,0.0
S,59,3.824,10.979999542236328,0.0
S,59,3.798,15.0,0.0
S,59,3.74,2.049999952316284,0.0
S,60,3.916,2.559999942779541,0.0
S,60,3.889,2.569999933242798,0.0
S,60,3.798,15.0,0.0
S,61,3.916,2.2899999618530273,0.0
S,61,3.889,2.2799999713897705,0.0
S,61,3.798,15.0,0.0
S,62,3.916,2.0299999713897705,0.0
S,62,3.889,2.0299999713897705,0.0
S,62,3.824,10.84000015258789,0.0
S,62,3.798,15.0,0.0
S,62,3.565,2.1700000762939453,0.0
S,63,3.824,11.050000190734863,0.0
S,63,3.798,15.0,0.0
S,63,3.565,2.309999942779541,0.0
S,0,3.019,6.28000020980835,0.0
S,0,3.019,6.28000020980835,0.0
S,1,3.02,6.190000057220459,0.0
S,2,3.02,6.119999885559082,0.0
S,3,3.02,6.010000228881836,0.0
S,4,3.02,5.940000057220459,0.0
S,6,3.02,5.630000114440918,0.0
S,7,3.02,6.079999923706055,0.0
S,8,3.02,5.900000095367432,0.0
S,9,3.02,5.889999866485596,0.0
S,10,3.02,5.949999809265137,0.0
S,11,3.02,5.840000152587891,0.0
S,12,3.021,5.840000152587891,0.0
S,13,3.02,6.019999980926514,0.0
S,14,3.02,5.920000076293945,0.0
S,15,3.021,6.03000020980835,0.0
S,16,3.021,6.099999904632568,0.0
S,17,3.021,5.630000114440918,0.0
S,18,3.021,5.900000095367432,0.0
S,19,3.021,5.880000114440918,0.0
S,20,3.021,5.820000171661377,0.0
S,21,3.021,6.099999904632568,0.0
S,22,3.021,6.150000095367432,0.0
S,23,3.021,5.960000038146973,0.0
S,24,3.021,5.849999904632568,0.0
S,25,3.021,6.150000095367432,0.0
S,26,3.021,5.71999979019165,0.0
S,27,3.021,6.110000133514404,0.0
S,28,3.021,6.010000228881836,0.0
S,29,3.021,6.300000190734863,0.0
S,30,3.021,5.820000171661377,0.0
S,31,3.021,6.539999961853027,0.0
S,32,3.021,6.059999942779541,0.0
S,33,3.021,6.309999942779541,0.0
S,34,3.021,6.119999885559082,0.0
S,35,3.021,5.920000076293945,0.0
S,36,3.067,2.109999895095825,0.0
S,36,3.022,6.369999885559082,0.0
S,37,3.067,2.0199999809265137,0.0
S,37,3.021,6.159999847412109,0.0
S,38,3.067,2.0799999237060547,0.0
S,38,3.022,6.179999828338623,0.0
S,39,3.022,5.760000228881836,0.0
S,40,3.022,6.019999980926514,0.0
S,41,3.067,2.0899999141693115,0.0
S,41,3.022,6.320000171661377,0.0
S,42,3.022,5.940000057220459,0.0
S,43,3.067,2.0199999809265137,0.0
S,43,3.022,6.099999904632568,0.0
S,44,3.021,5.71999979019165,0.0
S,45,3.022,5.190000057220459,0.0
S,46,3.022,5.139999866485596,0.0
S,47,3.022,4.769999980926514,0.0
S,48,3.021,4.599999904632568,0.0
S,49,3.021,4.420000076293945,0.0
S,50,3.021,4.239999771118164,0.0
S,51,3.021,4.010000228881836,0.0
S,52,3.043,3.130000114440918,0.0
S,52,3.021,3.440000057220459,0.0
S,53,3.043,2.609999895095825,0.0
S,53,3.02,2.859999895095825,0.0
S,54,3.042,2.440000057220459,0.0
S,54,3.02,2.8299999237060547,0.0
S,55,3.042,2.049999952316284,0.0
S,55,3.02,2.2899999618530273,0.0
S,56,3.019,2.140000104904175,0.0
