F,0,6.896,15.0,0.29
F,1,6.896,15.0,0.29
F,2,6.896,15.0,0.29
F,3,6.896,15.0,0.29
F,4,6.896,15.0,0.29
F,5,6.896,15.0,0.29
F,6,6.896,15.0,0.29
F,7,6.896,15.0,0.29
F,8,6.896,15.0,0.29
F,9,6.896,15.0,0.29
F,10,6.896,15.0,0.29
F,11,6.896,15.0,0.29
F,12,6.896,15.0,0.29
F,13,6.896,15.0,0.29
F,14,6.896,15.0,0.29
F,15,6.896,15.0,0.29
F,16,6.896,15.0,0.29
F,17,6.896,15.0,0.29
F,18,6.896,15.0,0.29
F,19,6.896,15.0,0.29
F,20,6.897,15.0,0.29
F,21,6.897,15.0,0.29
F,22,6.897,15.0,0.29
F,23,6.896,15.0,0.29
F,24,6.897,15.0,0.29
F,25,6.897,15.0,0.29
F,26,6.896,15.0,0.29
F,27,6.896,15.0,0.29
F,28,6.896,15.0,0.29
F,29,6.897,15.0,0.29
F,30,6.897,15.0,0.29
F,31,6.897,15.0,0.29
F,32,6.897,15.0,0.29
F,33,6.897,15.0,0.29
F,34,6.897,15.0,0.29
F,35,6.896,15.0,0.29
F,36,6.897,15.0,0.29
F,37,6.897,15.0,0.29
F,38,6.897,15.0,0.29
F,39,6.897,15.0,0.29
F,40,6.897,15.0,0.29
F,41,6.897,15.0,0.29
F,42,6.897,15.0,0.29
F,43,6.897,14.199999809265137,0.29
F,44,6.897,13.470000267028809,0.29
F,45,6.897,12.949999809265137,0.29
F,46,6.897,12.199999809265137,0.29
F,47,6.897,11.619999885559082,0.29
F,48,6.897,11.229999542236328,0.29
F,49,6.897,10.5600004196167,0.29
F,50,6.897,10.359999656677246,0.29
F,51,6.896,9.949999809265137,0.29
F,52,6.896,8.319999694824219,0.29
F,53,6.896,7.349999904632568,0.29
F,54,6.896,6.199999809265137,0.29
F,55,6.896,5.480000019073486,0.29
F,56,6.896,4.71999979019165,0.29
F,57,6.896,4.239999771118164,0.29
F,58,6.896,3.6500000953674316,0.29
F,59,6.896,3.3299999237060547,0.29
F,60,6.896,3.009999990463257,0.29
F,61,6.896,2.6700000762939453,0.29
F,62,6.896,2.369999885559082,0.29
F,63,6.896,2.240000009536743,0.29
S,0,4.686,4.619999885559082,0.29
S,36,4.698,2.7799999713897705,0.29
S,37,4.692,15.279999732971191,0.29
S,38,4.702,2.319999933242798,0.29
S,39,4.691,14.210000038146973,0.29
S,40,4.691,17.260000228881836,0.29
S,41,4.692,18.25,0.29
S,42,4.691,21.309999465942383,0.29
S,43,4.692,31.829999923706055,0.29
S,44,4.692,25.489999771118164,0.29
S,45,4.692,26.479999542236328,0.29
S,46,4.703,2.240000009536743,0.29
S,47,4.692,21.020000457763672,0.29
S,48,4.691,18.700000762939453,0.29
S,49,4.692,18.770000457763672,0.29
S,50,4.692,14.010000228881836,0.29
S,51,4.691,7.940000057220459,0.29
S,1,0.0,0.0,0.29
S,2,0.0,0.0,0.29
S,3,0.0,0.0,0.29
S,4,0.0,0.0,0.29
S,5,0.0,0.0,0.29
S,6,0.0,0.0,0.29
S,7,0.0,0.0,0.29
S,8,0.0,0.0,0.29
S,9,0.0,0.0,0.29
S,10,0.0,0.0,0.29
S,11,0.0,0.0,0.29
S,12,0.0,0.0,0.29
S,13,0.0,0.0,0.29
S,14,0.0,0.0,0.29
S,15,0.0,0.0,0.29
S,16,0.0,0.0,0.29
S,17,0.0,0.0,0.29
S,18,0.0,0.0,0.29
S,19,0.0,0.0,0.29
S,20,0.0,0.0,0.29
S,21,0.0,0.0,0.29
S,22,0.0,0.0,0.29
S,23,0.0,0.0,0.29
S,24,0.0,0.0,0.29
S,25,0.0,0.0,0.29
S,26,0.0,0.0,0.29
S,27,0.0,0.0,0.29
S,28,0.0,0.0,0.29
S,29,0.0,0.0,0.29
S,30,0.0,0.0,0.29
S,31,0.0,0.0,0.29
S,32,0.0,0.0,0.29
S,33,0.0,0.0,0.29
S,34,0.0,0.0,0.29
S,35,0.0,0.0,0.29
S,52,0.0,0.0,0.29
S,53,0.0,0.0,0.29
S,54,0.0,0.0,0.29
S,55,0.0,0.0,0.29
S,56,0.0,0.0,0.29
S,57,0.0,0.0,0.29
S,58,0.0,0.0,0.29
S,59,0.0,0.0,0.29
S,60,0.0,0.0,0.29
S,61,0.0,0.0,0.29
S,62,0.0,0.0,0.29
S,63,0.0,0.0,0.29
