F,0,0.0,96.20999908447266,0.44
F,1,0.0,97.80999755859375,0.44
F,2,0.0,99.4800033569336,0.44
F,3,0.0,101.80999755859375,0.44
F,4,0.0,101.58999633789062,0.44
F,5,0.0,98.95999908447266,0.44
F,6,0.0,107.0999984741211,0.44
F,7,0.0,99.45999908447266,0.44
F,8,0.0,103.44000244140625,0.44
F,9,0.0,103.44000244140625,0.44
F,10,0.0,102.98999786376953,0.44
F,11,0.0,103.9000015258789,0.44
F,12,0.0,104.45999908447266,0.44
F,13,0.0,102.23999786376953,0.44
F,14,0.0,105.68000030517578,0.44
F,15,0.0,101.69000244140625,0.44
F,16,0.0,101.23999786376953,0.44
F,17,0.0,109.45999908447266,0.44
F,18,0.0,104.29000091552734,0.44
F,19,0.0,104.02999877929688,0.44
F,20,0.0,106.1500015258789,0.44
F,21,0.0,101.63999938964844,0.44
F,22,0.0,100.05999755859375,0.44
F,23,0.0,105.75,0.44
F,24,0.0,105.41000366210938,0.44
F,25,0.0,102.22000122070312,0.44
F,26,0.0,109.36000061035156,0.44
F,27,0.0,106.16999816894531,0.44
F,28,0.0,109.19000244140625,0.44
F,29,0.0,104.16999816894531,0.44
F,30,0.0,114.19000244140625,0.44
F,31,0.0,102.33999633789062,0.44
F,32,0.0,113.31999969482422,0.44
F,33,0.0,107.79000091552734,0.44
F,34,0.0,112.18000030517578,0.44
F,35,0.0,117.7300033569336,0.44
F,36,0.0,112.4000015258789,0.44
F,37,0.0,116.75,0.44
F,38,0.0,118.30000305175781,0.44
F,39,0.0,129.9199981689453,0.44
F,40,0.0,126.79000091552734,0.44
F,41,0.0,121.80000305175781,0.44
F,42,0.0,132.49000549316406,0.44
F,43,0.0,117.20999908447266,0.44
F,44,0.0,113.8499984741211,0.44
F,45,0.0,119.0999984741211,0.44
F,46,0.0,108.06999969482422,0.44
F,47,0.0,108.83999633789062,0.44
F,48,0.0,107.5999984741211,0.44
F,49,0.0,96.81999969482422,0.44
F,50,0.0,99.55000305175781,0.44
F,51,0.0,99.43000030517578,0.44
F,52,0.0,86.55999755859375,0.44
F,53,0.0,85.45999908447266,0.44
F,54,0.0,70.18000030517578,0.44
F,55,0.0,68.0999984741211,0.44
F,56,0.0,64.94000244140625,0.44
F,57,0.0,62.66999816894531,0.44
F,58,0.0,51.52000045776367,0.44
F,59,0.0,55.189998626708984,0.44
F,60,0.0,52.70000076293945,0.44
F,61,0.0,50.689998626708984,0.44
F,62,0.0,50.31999969482422,0.44
F,63,0.0,48.15999984741211,0.44
S,0,4.686,4.619999885559082,0.44
S,1,4.702,0.7599999904632568,0.44
S,2,4.02,0.800000011920929,0.44
S,3,4.02,0.8500000238418579,0.44
S,4,4.02,0.8700000047683716,0.44
S,5,4.02,1.0299999713897705,0.44
S,6,4.02,0.9100000262260437,0.44
S,7,4.02,1.0399999618530273,0.44
S,8,4.02,1.0,0.44
S,9,4.02,1.059999942779541,0.44
S,10,4.02,1.059999942779541,0.44
S,11,4.02,1.1200000047683716,0.44
S,12,4.02,1.1799999475479126,0.44
S,13,4.02,1.1100000143051147,0.44
S,14,4.02,1.1100000143051147,0.44
S,15,4.02,1.2400000095367432,0.44
S,16,4.02,1.2300000190734863,0.44
S,17,4.02,1.1200000047683716,0.44
S,18,4.02,1.2300000190734863,0.44
S,19,4.02,1.2200000286102295,0.44
S,20,4.021,1.2699999809265137,0.44
S,21,4.02,1.2699999809265137,0.44
S,22,4.02,1.3600000143051147,0.44
S,23,4.02,1.2100000381469727,0.44
S,24,4.02,1.3600000143051147,0.44
S,25,4.021,1.3600000143051147,0.44
S,26,4.02,1.340000033378601,0.44
S,27,4.02,1.350000023841858,0.44
S,28,4.02,1.2300000190734863,0.44
S,29,4.02,1.350000023841858,0.44
S,30,4.02,1.2799999713897705,0.44
S,31,4.02,1.4199999570846558,0.44
S,32,4.021,1.3300000429153442,0.44
S,33,4.02,1.350000023841858,0.44
S,34,4.02,1.3300000429153442,0.44
S,35,4.02,1.2799999713897705,0.44
S,36,4.692,21.780000686645508,0.44
S,37,4.692,15.279999732971191,0.44
S,38,4.691,14.489999771118164,0.44
S,39,4.691,14.210000038146973,0.44
S,40,4.691,17.260000228881836,0.44
S,41,4.692,18.25,0.44
S,42,4.691,21.309999465942383,0.44
S,43,4.692,31.829999923706055,0.44
S,44,4.692,25.489999771118164,0.44
S,45,4.692,26.479999542236328,0.44
S,46,4.692,14.960000038146973,0.44
S,47,4.692,21.020000457763672,0.44
S,48,4.691,18.700000762939453,0.44
S,49,4.692,18.770000457763672,0.44
S,50,4.692,14.010000228881836,0.44
S,51,4.691,7.940000057220459,0.44
S,52,4.021,1.2000000476837158,0.44
S,53,4.021,1.2300000190734863,0.44
S,54,4.021,1.1399999856948853,0.44
S,55,4.021,1.25,0.44
S,56,4.02,1.0800000429153442,0.44
S,57,4.02,1.090000033378601,0.44
S,58,4.02,1.090000033378601,0.44
S,59,4.02,1.0499999523162842,0.44
S,60,4.02,1.0199999809265137,0.44
S,61,4.02,0.9800000190734863,0.44
S,62,4.02,0.9200000166893005,0.44
S,63,4.021,0.949999988079071,0.44
