F,0,1.337,0.4399999976158142,0.4
F,1,1.326,0.4399999976158142,0.4
F,2,1.326,0.44999998807907104,0.4
F,3,1.337,0.44999998807907104,0.4
F,4,1.337,0.4399999976158142,0.4
F,5,1.326,0.4399999976158142,0.4
F,6,1.337,0.4699999988079071,0.4
F,7,1.337,0.46000000834465027,0.4
F,8,1.337,0.4699999988079071,0.4
F,9,1.337,0.4699999988079071,0.4
F,10,1.337,0.49000000953674316,0.4
F,11,1.337,0.4699999988079071,0.4
F,12,1.326,0.5,0.4
F,13,1.337,0.5099999904632568,0.4
F,14,1.337,0.5299999713897705,0.4
F,15,1.326,0.49000000953674316,0.4
F,16,1.326,0.47999998927116394,0.4
F,17,1.337,0.5199999809265137,0.4
F,18,1.337,0.5,0.4
F,19,1.326,0.5199999809265137,0.4
F,20,1.337,0.5099999904632568,0.4
F,21,1.337,0.49000000953674316,0.4
F,22,1.337,0.550000011920929,0.4
F,23,1.337,0.5400000214576721,0.4
F,24,1.337,0.5099999904632568,0.4
F,25,1.337,0.5199999809265137,0.4
F,26,1.337,0.5400000214576721,0.4
F,27,1.337,0.5600000023841858,0.4
F,28,1.0,0.550000011920929,0.4
F,29,1.0,0.6299999952316284,0.4
F,30,1.0,0.5899999737739563,0.4
F,31,1.0,0.7300000190734863,0.4
F,32,1.0,0.6499999761581421,0.4
F,33,1.0,0.7300000190734863,0.4
F,34,1.0,0.7099999785423279,0.4
F,35,1.0,0.7200000286102295,0.4
F,36,1.0,0.8999999761581421,0.4
F,37,1.0,0.9100000262260437,0.4
F,38,1.0,0.9700000286102295,0.4
F,39,1.006,1.0199999809265137,0.4
F,40,1.006,1.1100000143051147,0.4
F,41,1.006,1.2300000190734863,0.4
F,42,1.006,1.2200000286102295,0.4
F,43,1.006,1.340000033378601,0.4
F,44,1.006,1.3600000143051147,0.4
F,45,1.006,1.309999942779541,0.4
F,46,1.006,1.3200000524520874,0.4
F,47,1.006,1.3200000524520874,0.4
F,48,1.006,1.350000023841858,0.4
F,49,1.006,1.3300000429153442,0.4
F,50,1.006,1.3200000524520874,0.4
F,51,1.006,1.340000033378601,0.4
F,52,1.006,1.3799999952316284,0.4
F,53,1.006,1.4600000381469727,0.4
F,54,1.006,1.5399999618530273,0.4
F,55,1.006,1.4600000381469727,0.4
F,56,1.006,1.4900000095367432,0.4
F,57,1.006,1.5399999618530273,0.4
F,58,1.006,1.5299999713897705,0.4
F,59,1.018,1.559999942779541,0.4
F,60,1.0,1.600000023841858,0.4
F,61,1.0,1.6100000143051147,0.4
F,62,1.0,1.690000057220459,0.4
F,63,1.0,1.690000057220459,0.4
S,0,4.686,4.619999885559082,0.4
S,1,4.702,0.7599999904632568,0.4
S,2,4.02,0.800000011920929,0.4
S,3,4.02,0.8500000238418579,0.4
S,4,4.02,0.8700000047683716,0.4
S,5,4.02,1.0299999713897705,0.4
S,6,4.02,0.9100000262260437,0.4
S,7,4.02,1.0399999618530273,0.4
S,8,4.02,1.0,0.4
S,9,4.02,1.059999942779541,0.4
S,10,4.02,1.059999942779541,0.4
S,11,4.02,1.1200000047683716,0.4
S,12,4.02,1.1799999475479126,0.4
S,13,4.02,1.1100000143051147,0.4
S,14,4.02,1.1100000143051147,0.4
S,15,4.02,1.2400000095367432,0.4
S,16,4.02,1.2300000190734863,0.4
S,17,4.02,1.1200000047683716,0.4
S,18,4.02,1.2300000190734863,0.4
S,19,4.02,1.2200000286102295,0.4
S,20,4.021,1.2699999809265137,0.4
S,21,4.02,1.2699999809265137,0.4
S,22,4.02,1.3600000143051147,0.4
S,23,4.02,1.2100000381469727,0.4
S,24,4.02,1.3600000143051147,0.4
S,25,4.021,1.3600000143051147,0.4
S,26,4.02,1.340000033378601,0.4
S,27,4.02,1.350000023841858,0.4
S,28,4.02,1.2300000190734863,0.4
S,29,4.02,1.350000023841858,0.4
S,30,4.02,1.2799999713897705,0.4
S,31,4.02,1.4199999570846558,0.4
S,32,4.021,1.3300000429153442,0.4
S,33,4.02,1.350000023841858,0.4
S,34,4.02,1.3300000429153442,0.4
S,35,4.02,1.2799999713897705,0.4
S,36,4.692,21.780000686645508,0.4
S,37,4.692,15.279999732971191,0.4
S,38,4.691,14.489999771118164,0.4
S,39,4.691,14.210000038146973,0.4
S,40,4.691,17.260000228881836,0.4
S,41,4.692,18.25,0.4
S,42,4.691,21.309999465942383,0.4
S,43,4.692,31.829999923706055,0.4
S,44,4.692,25.489999771118164,0.4
S,45,4.692,26.479999542236328,0.4
S,46,4.692,14.960000038146973,0.4
S,47,4.692,21.020000457763672,0.4
S,48,4.691,18.700000762939453,0.4
S,49,4.692,18.770000457763672,0.4
S,50,4.692,14.010000228881836,0.4
S,51,4.691,7.940000057220459,0.4
S,52,4.021,1.2000000476837158,0.4
S,53,4.021,1.2300000190734863,0.4
S,54,4.021,1.1399999856948853,0.4
S,55,4.021,1.25,0.4
S,56,4.02,1.0800000429153442,0.4
S,57,4.02,1.090000033378601,0.4
S,58,4.02,1.090000033378601,0.4
S,59,4.02,1.0499999523162842,0.4
S,60,4.02,1.0199999809265137,0.4
S,61,4.02,0.9800000190734863,0.4
S,62,4.02,0.9200000166893005,0.4
S,63,4.021,0.949999988079071,0.4
