F,0,0.0,96.20999908447266,0.9
F,1,0.0,97.80999755859375,0.9
F,2,0.0,99.4800033569336,0.9
F,3,0.0,101.80999755859375,0.9
F,4,0.0,101.58999633789062,0.9
F,5,0.0,98.95999908447266,0.9
F,6,0.0,107.0999984741211,0.9
F,7,0.0,99.45999908447266,0.9
F,8,0.0,103.44000244140625,0.9
F,9,0.0,103.44000244140625,0.9
F,10,0.0,102.98999786376953,0.9
F,11,0.0,103.9000015258789,0.9
F,12,0.0,104.45999908447266,0.9
F,13,0.0,102.23999786376953,0.9
F,14,0.0,105.68000030517578,0.9
F,15,0.0,101.69000244140625,0.9
F,16,0.0,101.23999786376953,0.9
F,17,0.0,109.45999908447266,0.9
F,18,0.0,104.29000091552734,0.9
F,19,0.0,104.02999877929688,0.9
F,20,0.0,106.1500015258789,0.9
F,21,0.0,101.63999938964844,0.9
F,22,0.0,100.05999755859375,0.9
F,23,0.0,105.75,0.9
F,24,0.0,105.41000366210938,0.9
F,25,0.0,102.22000122070312,0.9
F,26,0.0,109.36000061035156,0.9
F,27,0.0,106.16999816894531,0.9
F,28,0.0,109.19000244140625,0.9
F,29,0.0,104.16999816894531,0.9
F,30,0.0,114.19000244140625,0.9
F,31,0.0,102.33999633789062,0.9
F,32,0.0,113.31999969482422,0.9
F,33,0.0,107.79000091552734,0.9
F,34,0.0,112.18000030517578,0.9
F,35,0.0,117.7300033569336,0.9
F,36,0.0,112.4000015258789,0.9
F,37,0.0,116.75,0.9
F,38,0.0,118.30000305175781,0.9
F,39,0.0,129.9199981689453,0.9
F,40,0.0,126.79000091552734,0.9
F,41,0.0,121.80000305175781,0.9
F,42,0.0,132.49000549316406,0.9
F,43,0.0,117.20999908447266,0.9
F,44,0.0,113.8499984741211,0.9
F,45,0.0,119.0999984741211,0.9
F,46,0.0,108.06999969482422,0.9
F,47,0.0,108.83999633789062,0.9
F,48,0.0,107.5999984741211,0.9
F,49,0.0,96.81999969482422,0.9
F,50,0.0,99.55000305175781,0.9
F,51,0.0,99.43000030517578,0.9
F,52,0.0,86.55999755859375,0.9
F,53,0.0,85.45999908447266,0.9
F,54,0.0,70.18000030517578,0.9
F,55,0.0,68.0999984741211,0.9
F,56,0.0,64.94000244140625,0.9
F,57,0.0,62.66999816894531,0.9
F,58,0.0,51.52000045776367,0.9
F,59,0.0,55.189998626708984,0.9
F,60,0.0,52.70000076293945,0.9
F,61,0.0,50.689998626708984,0.9
F,62,0.0,50.31999969482422,0.9
F,63,0.0,48.15999984741211,0.9
S,0,8.191,0.09000000357627869,0.9
S,1,8.098,0.09000000357627869,0.9
S,2,8.006,0.07999999821186066,0.9
S,3,8.015,0.10000000149011612,0.9
S,4,8.007,0.07999999821186066,0.9
S,5,8.0,0.10000000149011612,0.9
S,7,8.19,0.10999999940395355,0.9
S,8,8.008,0.09000000357627869,0.9
S,9,8.015,0.07999999821186066,0.9
S,10,8.179,0.09000000357627869,0.9
S,11,8.182,0.09000000357627869,0.9
S,12,8.045,0.09000000357627869,0.9
S,13,8.096,0.09000000357627869,0.9
S,14,8.194,0.09000000357627869,0.9
S,15,8.108,0.09000000357627869,0.9
S,16,8.117,0.09000000357627869,0.9
S,19,8.212,0.09000000357627869,0.9
S,20,8.252,0.10000000149011612,0.9
S,21,8.002,0.10999999940395355,0.9
S,22,8.22,0.11999999731779099,0.9
S,23,8.21,0.09000000357627869,0.9
S,24,8.101,0.09000000357627869,0.9
S,25,8.224,0.10000000149011612,0.9
S,26,8.056,0.10999999940395355,0.9
S,27,8.196,0.10999999940395355,0.9
S,28,8.246,0.10000000149011612,0.9
S,29,8.003,0.12999999523162842,0.9
S,30,8.063,0.10999999940395355,0.9
S,31,8.182,0.12999999523162842,0.9
S,32,8.037,0.10999999940395355,0.9
S,33,8.204,0.11999999731779099,0.9
S,34,8.028,0.10999999940395355,0.9
S,35,8.006,0.10999999940395355,0.9
S,36,8.015,0.1599999964237213,0.9
S,37,8.005,0.14000000059604645,0.9
S,38,8.03,0.12999999523162842,0.9
S,39,8.072,0.10999999940395355,0.9
S,40,8.059,0.11999999731779099,0.9
S,41,8.016,0.18000000715255737,0.9
S,42,8.005,0.14000000059604645,0.9
S,43,8.012,0.15000000596046448,0.9
S,44,8.056,0.11999999731779099,0.9
S,45,8.192,0.11999999731779099,0.9
S,46,8.014,0.14000000059604645,0.9
S,47,8.075,0.10000000149011612,0.9
S,48,8.072,0.10999999940395355,0.9
S,49,8.027,0.10000000149011612,0.9
S,50,8.018,0.12999999523162842,0.9
S,51,8.003,0.11999999731779099,0.9
S,52,8.019,0.10000000149011612,0.9
S,55,8.068,0.07999999821186066,0.9
S,56,8.069,0.05000000074505806,0.9
S,57,8.014,0.05000000074505806,0.9
S,58,8.141,0.05999999865889549,0.9
S,59,8.141,0.03999999910593033,0.9
S,60,8.005,0.05000000074505806,0.9
S,61,8.067,0.03999999910593033,0.9
S,62,8.138,0.03999999910593033,0.9
S,63,8.14,0.05999999865889549,0.9
S,63,0.0,0.0,0.9
S,63,0.0,0.0,0.9
S,63,0.0,0.0,0.9
S,63,0.0,0.0,0.9
S,63,0.0,0.0,0.9
