##TITLE= Audit trail, TOPSPIN		Version 2.1
##JCAMPDX= 5.01
##ORIGIN= Bruker BioSpin GmbH
##OWNER= Administrator
$$ T:/data/MJD/nmr/C02404/18/audita.txt
##AUDIT TRAIL=  $$ (NUMBER, WHEN, WHO, WHERE, PROCESS, VERSION, WHAT)
(   1,<2013-06-13 15:12:58.468 +0100>,<Administrator>,<GH001606>,<go>,<TOPSPIN 2.1>,
      <created by zg
	started at 2013-06-13 15:06:34.937 +0100,
	POWCHK disabled, PULCHK disabled,
       configuration hash MD5:
       3E 28 56 27 A3 E6 96 EB AB A8 47 E1 FE 66 6F 96
       data hash MD5: 32K
       BA 89 CA 44 55 17 23 C5 F6 99 BD D0 CE 97 D3 F8>)
(   2,<2013-06-13 15:13:07.640 +0100>,<Administrator>,<GH001606>,<audit>,<TOPSPIN 2.1>,
      <user comment:
       ICON-NMR User ID: MJD
       data hash MD5: 32K
       BA 89 CA 44 55 17 23 C5 F6 99 BD D0 CE 97 D3 F8>)
(   3,<2013-06-13 15:13:07.796 +0100>,<Administrator>,<GH001606>,<dirdata>,<TOPSPIN 2.1>,
      <wrpa from 1 18 "C02404" "MJD" "C:\NMRdata"
       data hash MD5: 32K
       BA 89 CA 44 55 17 23 C5 F6 99 BD D0 CE 97 D3 F8>)
##END=

$$ hash MD5
$$ 84 50 A9 58 AB FF 36 BB E4 9A E3 5D 26 0B BD 31
