##TITLE= Audit trail, TOPSPIN		Version 2.1
##JCAMPDX= 5.01
##ORIGIN= Bruker BioSpin GmbH
##OWNER= Administrator
$$ T:/data/MJD/nmr/C03519/69/audita.txt
##AUDIT TRAIL=  $$ (NUMBER, WHEN, WHO, WHERE, PROCESS, VERSION, WHAT)
(   1,<2014-12-16 21:34:12.671 +0000>,<Administrator>,<GH001606>,<go>,<TOPSPIN 2.1>,
      <created by zg
	started at 2014-12-16 21:32:57.062 +0000,
	POWCHK disabled, PULCHK disabled,
       configuration hash MD5:
       4F DB FE 01 64 29 F4 D5 05 17 18 DB FF 7C 08 05
       data hash MD5: 32K
       EB B8 A4 F3 17 F9 38 D1 91 CF 2B 26 78 39 FB AB>)
(   2,<2014-12-16 21:34:26.484 +0000>,<Administrator>,<GH001606>,<audit>,<TOPSPIN 2.1>,
      <user comment:
       ICON-NMR User ID: MJD
       data hash MD5: 32K
       EB B8 A4 F3 17 F9 38 D1 91 CF 2B 26 78 39 FB AB>)
(   3,<2014-12-16 21:34:27.531 +0000>,<Administrator>,<GH001606>,<dirdata>,<TOPSPIN 2.1>,
      <wrpa from 1 69 "C03519" "MJD" "C:\NMRdata"
       data hash MD5: 32K
       EB B8 A4 F3 17 F9 38 D1 91 CF 2B 26 78 39 FB AB>)
##END=

$$ hash MD5
$$ 05 4D 89 F5 12 41 68 53 E7 71 25 70 04 45 FB AB
