##TITLE= Audit trail, TOPSPIN		Version 2.1
##JCAMPDX= 5.01
##ORIGIN= Bruker BioSpin GmbH
##OWNER= Administrator
$$ T:/data/MJD/nmr/C02404/42/audita.txt
##AUDIT TRAIL=  $$ (NUMBER, WHEN, WHO, WHERE, PROCESS, VERSION, WHAT)
(   1,<2013-06-14 04:08:18.281 +0100>,<Administrator>,<GH001606>,<go>,<TOPSPIN 2.1>,
      <created by zg
	started at 2013-06-14 03:06:54.781 +0100,
	POWCHK disabled, PULCHK disabled,
       configuration hash MD5:
       3E 28 56 27 A3 E6 96 EB AB A8 47 E1 FE 66 6F 96
       data hash MD5: 32K
       6A 9B CA 2F 0D 3C 87 9C 41 C4 CF FD 59 FC B8 81>)
(   2,<2013-06-14 04:08:27.593 +0100>,<Administrator>,<GH001606>,<audit>,<TOPSPIN 2.1>,
      <user comment:
       ICON-NMR User ID: MJD
       data hash MD5: 32K
       6A 9B CA 2F 0D 3C 87 9C 41 C4 CF FD 59 FC B8 81>)
(   3,<2013-06-14 04:08:27.765 +0100>,<Administrator>,<GH001606>,<dirdata>,<TOPSPIN 2.1>,
      <wrpa from 1 42 "C02404" "MJD" "C:\NMRdata"
       data hash MD5: 32K
       6A 9B CA 2F 0D 3C 87 9C 41 C4 CF FD 59 FC B8 81>)
##END=

$$ hash MD5
$$ 9A 2F 3B 06 74 55 EC E7 F1 92 96 DD 50 9C 59 97
