##TITLE= Audit trail, TOPSPIN		Version 2.1
##JCAMPDX= 5.01
##ORIGIN= Bruker BioSpin GmbH
##OWNER= Administrator
$$ T:/data/MJD/nmr/C03519/3/audita.txt
##AUDIT TRAIL=  $$ (NUMBER, WHEN, WHO, WHERE, PROCESS, VERSION, WHAT)
(   1,<2014-12-16 17:00:22.218 +0000>,<Administrator>,<GH001606>,<go>,<TOPSPIN 2.1>,
      <created by zg
	started at 2014-12-16 16:59:06.656 +0000,
	POWCHK disabled, PULCHK disabled,
       configuration hash MD5:
       4F DB FE 01 64 29 F4 D5 05 17 18 DB FF 7C 08 05
       data hash MD5: 32K
       C5 9F 77 A0 34 02 0D 56 95 2E C2 C5 9F 40 7F 9F>)
(   2,<2014-12-16 17:00:35.453 +0000>,<Administrator>,<GH001606>,<audit>,<TOPSPIN 2.1>,
      <user comment:
       ICON-NMR User ID: MJD
       data hash MD5: 32K
       C5 9F 77 A0 34 02 0D 56 95 2E C2 C5 9F 40 7F 9F>)
(   3,<2014-12-16 17:00:36.531 +0000>,<Administrator>,<GH001606>,<dirdata>,<TOPSPIN 2.1>,
      <wrpa from 1 3 "C03519" "MJD" "C:\NMRdata"
       data hash MD5: 32K
       C5 9F 77 A0 34 02 0D 56 95 2E C2 C5 9F 40 7F 9F>)
##END=

$$ hash MD5
$$ D0 59 63 26 F8 14 1B 19 B9 18 BF 59 BD C7 B5 20
