F,0,1.337,0.4399999976158142,-0.83
F,1,1.326,0.4399999976158142,-0.83
F,2,1.326,0.44999998807907104,-0.83
F,3,1.337,0.44999998807907104,-0.83
F,4,1.337,0.4399999976158142,-0.83
F,5,1.326,0.4399999976158142,-0.83
F,6,1.337,0.4699999988079071,-0.83
F,7,1.337,0.46000000834465027,-0.83
F,8,1.337,0.4699999988079071,-0.83
F,9,1.337,0.4699999988079071,-0.83
F,10,1.337,0.49000000953674316,-0.83
F,11,1.337,0.4699999988079071,-0.83
F,12,1.326,0.5,-0.83
F,13,1.337,0.5099999904632568,-0.83
F,14,1.337,0.5299999713897705,-0.83
F,15,1.326,0.49000000953674316,-0.83
F,16,1.326,0.47999998927116394,-0.83
F,17,1.337,0.5199999809265137,-0.83
F,18,1.337,0.5,-0.83
F,19,1.326,0.5199999809265137,-0.83
F,20,1.337,0.5099999904632568,-0.83
F,21,1.337,0.49000000953674316,-0.83
F,22,1.337,0.550000011920929,-0.83
F,23,1.337,0.5400000214576721,-0.83
F,24,1.337,0.5099999904632568,-0.83
F,25,1.337,0.5199999809265137,-0.83
F,26,1.337,0.5400000214576721,-0.83
F,27,1.337,0.5600000023841858,-0.83
F,28,1.0,0.550000011920929,-0.83
F,29,1.0,0.6299999952316284,-0.83
F,30,1.0,0.5899999737739563,-0.83
F,31,1.0,0.7300000190734863,-0.83
F,32,1.0,0.6499999761581421,-0.83
F,33,1.0,0.7300000190734863,-0.83
F,34,1.0,0.7099999785423279,-0.83
F,35,1.0,0.7200000286102295,-0.83
F,36,1.0,0.8999999761581421,-0.83
F,37,1.0,0.9100000262260437,-0.83
F,38,1.0,0.9700000286102295,-0.83
F,39,1.006,1.0199999809265137,-0.83
F,40,1.006,1.1100000143051147,-0.83
F,41,1.006,1.2300000190734863,-0.83
F,42,1.006,1.2200000286102295,-0.83
F,43,1.006,1.340000033378601,-0.83
F,44,1.006,1.3600000143051147,-0.83
F,45,1.006,1.309999942779541,-0.83
F,46,1.006,1.3200000524520874,-0.83
F,47,1.006,1.3200000524520874,-0.83
F,48,1.006,1.350000023841858,-0.83
F,49,1.006,1.3300000429153442,-0.83
F,50,1.006,1.3200000524520874,-0.83
F,51,1.006,1.340000033378601,-0.83
F,52,1.006,1.3799999952316284,-0.83
F,53,1.006,1.4600000381469727,-0.83
F,54,1.006,1.5399999618530273,-0.83
F,55,1.006,1.4600000381469727,-0.83
F,56,1.006,1.4900000095367432,-0.83
F,57,1.006,1.5399999618530273,-0.83
F,58,1.006,1.5299999713897705,-0.83
F,59,1.018,1.559999942779541,-0.83
F,60,1.0,1.600000023841858,-0.83
F,61,1.0,1.6100000143051147,-0.83
F,62,1.0,1.690000057220459,-0.83
F,63,1.0,1.690000057220459,-0.83
S,0,7.161,14.069999694824219,-0.83
S,1,7.161,14.149999618530273,-0.83
S,2,7.162,14.09000015258789,-0.83
S,3,7.161,13.979999542236328,-0.83
S,4,7.162,13.800000190734863,-0.83
S,5,7.161,13.90999984741211,-0.83
S,6,7.162,13.510000228881836,-0.83
S,7,7.162,13.989999771118164,-0.83
S,8,7.162,13.789999961853027,-0.83
S,9,7.162,13.8100004196167,-0.83
S,10,7.162,13.829999923706055,-0.83
S,11,7.162,13.729999542236328,-0.83
S,12,7.162,13.59000015258789,-0.83
S,13,7.162,13.930000305175781,-0.83
S,14,7.162,13.779999732971191,-0.83
S,15,7.162,13.890000343322754,-0.83
S,16,7.162,13.979999542236328,-0.83
S,17,7.162,13.520000457763672,-0.83
S,18,7.162,13.800000190734863,-0.83
S,19,7.162,13.75,-0.83
S,20,7.162,13.619999885559082,-0.83
S,21,7.162,13.989999771118164,-0.83
S,22,7.162,13.949999809265137,-0.83
S,23,7.162,13.930000305175781,-0.83
S,24,7.162,13.630000114440918,-0.83
S,25,7.162,13.979999542236328,-0.83
S,26,7.162,13.510000228881836,-0.83
S,27,7.162,13.970000267028809,-0.83
S,28,7.162,14.010000228881836,-0.83
S,29,7.162,14.210000038146973,-0.83
S,30,7.162,13.65999984741211,-0.83
S,31,7.162,14.4399995803833,-0.83
S,32,7.162,13.869999885559082,-0.83
S,33,7.162,14.180000305175781,-0.83
S,34,7.162,14.0,-0.83
S,35,7.162,13.890000343322754,-0.83
S,36,7.162,14.300000190734863,-0.83
S,37,7.162,13.970000267028809,-0.83
S,38,7.162,13.90999984741211,-0.83
S,39,7.162,13.579999923706055,-0.83
S,40,7.162,13.859999656677246,-0.83
S,41,7.162,14.140000343322754,-0.83
S,42,7.162,13.779999732971191,-0.83
S,43,7.162,13.630000114440918,-0.83
S,44,7.162,12.869999885559082,-0.83
S,45,7.162,11.960000038146973,-0.83
S,46,7.162,11.539999961853027,-0.83
S,47,7.162,10.920000076293945,-0.83
S,48,7.162,10.510000228881836,-0.83
S,49,7.162,10.050000190734863,-0.83
S,50,7.162,9.510000228881836,-0.83
S,51,7.162,9.239999771118164,-0.83
S,52,7.162,7.78000020980835,-0.83
S,53,7.162,6.639999866485596,-0.83
S,54,7.161,6.309999942779541,-0.83
S,55,7.161,4.960000038146973,-0.83
S,56,7.161,4.75,-0.83
S,57,7.161,4.199999809265137,-0.83
S,58,7.161,3.8499999046325684,-0.83
S,59,7.161,3.4000000953674316,-0.83
S,60,7.167,3.380000114440918,-0.83
S,61,7.167,3.4000000953674316,-0.83
S,62,7.167,3.4100000858306885,-0.83
S,63,7.167,3.5199999809265137,-0.83
