F,0,3.966,7.170000076293945,0.03
F,1,3.967,6.96999979019165,0.03
F,2,3.968,6.710000038146973,0.03
F,3,3.968,6.659999847412109,0.03
F,4,3.968,6.449999809265137,0.03
F,5,4.02,1.0299999713897705,0.03
F,6,3.969,5.980000019073486,0.03
F,7,4.02,1.0399999618530273,0.03
F,8,3.969,6.449999809265137,0.03
F,9,4.02,1.059999942779541,0.03
F,10,4.02,1.059999942779541,0.03
F,11,4.02,1.1200000047683716,0.03
F,12,4.02,1.1799999475479126,0.03
F,13,4.02,1.1100000143051147,0.03
F,14,4.02,1.1100000143051147,0.03
F,15,4.02,1.2400000095367432,0.03
F,16,4.02,1.2300000190734863,0.03
F,17,4.02,1.1200000047683716,0.03
F,18,4.02,1.2300000190734863,0.03
F,19,4.02,1.2200000286102295,0.03
F,20,4.021,1.2699999809265137,0.03
F,21,4.02,1.2699999809265137,0.03
F,22,4.02,1.3600000143051147,0.03
F,23,4.02,1.2100000381469727,0.03
F,24,4.02,1.3600000143051147,0.03
F,25,4.021,1.3600000143051147,0.03
F,26,4.02,1.340000033378601,0.03
F,27,4.02,1.350000023841858,0.03
F,28,4.02,1.2300000190734863,0.03
F,29,4.02,1.350000023841858,0.03
F,30,4.02,1.2799999713897705,0.03
F,31,4.02,1.4199999570846558,0.03
F,32,4.021,1.3300000429153442,0.03
F,33,4.02,1.350000023841858,0.03
F,34,4.02,1.3300000429153442,0.03
F,35,4.02,1.2799999713897705,0.03
F,36,4.021,1.4600000381469727,0.03
F,37,4.02,1.4299999475479126,0.03
F,38,4.021,1.4600000381469727,0.03
F,39,4.021,1.3600000143051147,0.03
F,40,4.021,1.4700000286102295,0.03
F,41,4.021,1.5299999713897705,0.03
F,42,4.021,1.4299999475479126,0.03
F,43,4.02,1.4299999475479126,0.03
F,44,4.02,1.399999976158142,0.03
F,45,4.021,1.2799999713897705,0.03
F,46,4.021,1.2200000286102295,0.03
F,47,4.02,1.1399999856948853,0.03
F,48,4.021,1.0800000429153442,0.03
F,49,4.02,1.2000000476837158,0.03
F,50,4.021,1.2100000381469727,0.03
F,51,4.02,1.1699999570846558,0.03
F,52,4.021,1.2000000476837158,0.03
F,53,4.021,1.2300000190734863,0.03
F,54,4.021,1.1399999856948853,0.03
F,55,4.021,1.25,0.03
F,56,4.02,1.0800000429153442,0.03
F,57,4.02,1.090000033378601,0.03
F,58,4.02,1.090000033378601,0.03
F,59,4.02,1.0499999523162842,0.03
F,60,4.02,1.0199999809265137,0.03
F,61,3.966,1.309999942779541,0.03
F,62,3.966,1.2100000381469727,0.03
F,63,3.966,1.1299999952316284,0.03
S,0,2.646,7.949999809265137,0.03
S,1,2.646,8.210000038146973,0.03
S,2,2.647,8.3100004196167,0.03
S,3,2.646,8.390000343322754,0.03
S,4,2.647,8.380000114440918,0.03
S,5,2.646,8.3100004196167,0.03
S,6,2.647,8.529999732971191,0.03
S,7,2.647,8.329999923706055,0.03
S,8,2.647,8.479999542236328,0.03
S,9,2.647,8.550000190734863,0.03
S,10,2.647,8.539999961853027,0.03
S,11,2.647,8.670000076293945,0.03
S,12,2.647,8.630000114440918,0.03
S,13,2.647,8.5600004196167,0.03
S,14,2.647,8.680000305175781,0.03
S,15,2.647,8.609999656677246,0.03
S,16,2.647,8.550000190734863,0.03
S,17,2.647,8.890000343322754,0.03
S,18,2.647,8.770000457763672,0.03
S,19,2.647,8.729999542236328,0.03
S,20,2.647,8.880000114440918,0.03
S,21,2.647,8.739999771118164,0.03
S,22,2.647,8.6899995803833,0.03
S,23,2.647,8.9399995803833,0.03
S,24,2.647,8.90999984741211,0.03
S,25,2.647,8.90999984741211,0.03
S,26,2.647,9.100000381469727,0.03
S,27,2.647,9.069999694824219,0.03
S,28,2.647,9.25,0.03
S,29,2.647,9.140000343322754,0.03
S,30,2.647,9.460000038146973,0.03
S,31,2.647,9.239999771118164,0.03
S,32,2.647,9.630000114440918,0.03
S,33,2.647,9.5,0.03
S,34,2.647,9.670000076293945,0.03
S,35,2.647,9.779999732971191,0.03
S,36,2.647,9.949999809265137,0.03
S,37,2.647,9.989999771118164,0.03
S,38,2.647,10.15999984741211,0.03
S,39,2.647,10.630000114440918,0.03
S,40,2.647,10.649999618530273,0.03
S,41,2.647,10.640000343322754,0.03
S,42,2.647,11.020000457763672,0.03
S,43,2.647,10.25,0.03
S,44,2.647,9.850000381469727,0.03
S,45,2.647,9.90999984741211,0.03
S,46,2.647,9.350000381469727,0.03
S,47,2.647,9.180000305175781,0.03
S,48,2.647,8.970000267028809,0.03
S,49,2.647,8.380000114440918,0.03
S,50,2.647,8.449999809265137,0.03
S,51,2.647,8.210000038146973,0.03
S,52,2.647,7.239999771118164,0.03
S,53,2.647,6.889999866485596,0.03
S,54,2.647,6.119999885559082,0.03
S,55,2.647,5.670000076293945,0.03
S,56,2.647,5.320000171661377,0.03
S,57,2.647,5.090000152587891,0.03
S,58,2.647,4.579999923706055,0.03
S,59,2.647,4.519999980926514,0.03
S,60,2.647,4.309999942779541,0.03
S,61,2.647,4.150000095367432,0.03
S,62,2.647,4.010000228881836,0.03
S,63,2.647,3.9100000858306885,0.03
