S,0,4.686,4.619999885559082,0.0
S,0,4.686,4.619999885559082,0.0
S,36,4.698,2.7799999713897705,0.0
S,36,4.692,21.780000686645508,0.0
S,36,4.68,2.5,0.0
S,37,4.692,15.279999732971191,0.0
S,37,4.679,2.5399999618530273,0.0
S,38,4.702,2.319999933242798,0.0
S,38,4.691,14.489999771118164,0.0
S,38,4.683,2.759999990463257,0.0
S,39,4.691,14.210000038146973,0.0
S,39,4.683,2.5199999809265137,0.0
S,40,4.691,17.260000228881836,0.0
S,40,4.684,2.609999895095825,0.0
S,41,4.692,18.25,0.0
S,42,4.691,21.309999465942383,0.0
S,42,4.682,2.6500000953674316,0.0
S,43,4.692,31.829999923706055,0.0
S,43,4.684,2.930000066757202,0.0
S,44,4.692,25.489999771118164,0.0
S,45,4.692,26.479999542236328,0.0
S,45,4.683,2.25,0.0
S,46,4.703,2.240000009536743,0.0
S,46,4.692,14.960000038146973,0.0
S,46,4.683,2.630000114440918,0.0
S,47,4.692,21.020000457763672,0.0
S,47,4.683,2.3299999237060547,0.0
S,48,4.691,18.700000762939453,0.0
S,48,4.683,2.5199999809265137,0.0
S,49,4.692,18.770000457763672,0.0
S,49,4.684,2.0999999046325684,0.0
S,50,4.692,14.010000228881836,0.0
S,50,4.682,2.1500000953674316,0.0
S,51,4.691,7.940000057220459,0.0
S,51,4.683,2.200000047683716,0.0
