F,0,7.161,14.069999694824219,0.0
F,0,7.161,14.069999694824219,0.0
F,1,7.161,14.149999618530273,0.0
F,2,7.162,14.09000015258789,0.0
F,3,7.161,13.979999542236328,0.0
F,4,7.162,13.800000190734863,0.0
F,5,7.161,13.90999984741211,0.0
F,6,7.176,11.300000190734863,0.0
F,6,7.162,13.510000228881836,0.0
F,7,7.162,13.989999771118164,0.0
F,8,7.162,13.789999961853027,0.0
F,9,7.176,11.510000228881836,0.0
F,9,7.162,13.8100004196167,0.0
F,10,7.162,13.829999923706055,0.0
F,11,7.176,11.630000114440918,0.0
F,11,7.162,13.729999542236328,0.0
F,12,7.176,11.649999618530273,0.0
F,12,7.162,13.59000015258789,0.0
F,13,7.162,13.930000305175781,0.0
F,14,7.176,11.4399995803833,0.0
F,14,7.162,13.779999732971191,0.0
F,15,7.162,13.890000343322754,0.0
F,16,7.162,13.979999542236328,0.0
F,17,7.176,11.220000267028809,0.0
F,17,7.162,13.520000457763672,0.0
F,18,7.176,11.569999694824219,0.0
F,18,7.162,13.800000190734863,0.0
F,19,7.176,11.609999656677246,0.0
F,19,7.162,13.75,0.0
F,20,7.176,11.600000381469727,0.0
F,20,7.162,13.619999885559082,0.0
F,21,7.162,13.989999771118164,0.0
F,22,7.162,13.949999809265137,0.0
F,23,7.176,11.550000190734863,0.0
F,23,7.162,13.930000305175781,0.0
F,24,7.176,11.710000038146973,0.0
F,24,7.162,13.630000114440918,0.0
F,25,7.162,13.979999542236328,0.0
F,26,7.176,11.510000228881836,0.0
F,26,7.162,13.510000228881836,0.0
F,27,7.176,11.829999923706055,0.0
F,27,7.162,13.970000267028809,0.0
F,28,7.176,11.630000114440918,0.0
F,28,7.162,14.010000228881836,0.0
F,29,7.162,14.210000038146973,0.0
F,30,7.176,11.649999618530273,0.0
F,30,7.162,13.65999984741211,0.0
F,31,7.162,14.4399995803833,0.0
F,32,7.176,11.899999618530273,0.0
F,32,7.162,13.869999885559082,0.0
F,33,7.162,14.180000305175781,0.0
F,34,7.176,11.920000076293945,0.0
F,34,7.162,14.0,0.0
F,35,7.176,11.569999694824219,0.0
F,35,7.162,13.890000343322754,0.0
F,36,7.162,14.300000190734863,0.0
F,37,7.176,11.920000076293945,0.0
F,37,7.162,13.970000267028809,0.0
F,38,7.176,11.949999809265137,0.0
F,38,7.162,13.90999984741211,0.0
F,39,7.176,11.489999771118164,0.0
F,39,7.162,13.579999923706055,0.0
F,40,7.176,11.739999771118164,0.0
F,40,7.162,13.859999656677246,0.0
F,41,7.176,12.119999885559082,0.0
F,41,7.162,14.140000343322754,0.0
F,42,7.176,11.649999618530273,0.0
F,42,7.162,13.779999732971191,0.0
F,43,7.176,11.550000190734863,0.0
F,43,7.162,13.630000114440918,0.0
F,44,7.176,10.880000114440918,0.0
F,44,7.162,12.869999885559082,0.0
F,45,7.176,10.119999885559082,0.0
F,45,7.162,11.960000038146973,0.0
F,46,7.176,9.850000381469727,0.0
F,46,7.162,11.539999961853027,0.0
F,47,7.176,9.170000076293945,0.0
F,47,7.162,10.920000076293945,0.0
F,48,7.176,8.800000190734863,0.0
F,48,7.162,10.510000228881836,0.0
F,49,7.176,8.430000305175781,0.0
F,49,7.162,10.050000190734863,0.0
F,50,7.176,8.199999809265137,0.0
F,50,7.162,9.510000228881836,0.0
F,51,7.176,7.71999979019165,0.0
F,51,7.162,9.239999771118164,0.0
F,52,7.176,6.460000038146973,0.0
F,52,7.162,7.78000020980835,0.0
F,53,7.176,5.46999979019165,0.0
F,53,7.162,6.639999866485596,0.0
F,54,7.176,4.789999961853027,0.0
F,54,7.161,6.309999942779541,0.0
F,55,7.176,4.110000133514404,0.0
F,55,7.161,4.960000038146973,0.0
F,56,7.176,3.5299999713897705,0.0
F,56,7.161,4.75,0.0
F,57,7.176,3.119999885559082,0.0
F,57,7.161,4.199999809265137,0.0
F,58,7.181,3.0,0.0
F,58,7.161,3.8499999046325684,0.0
F,59,7.181,3.0,0.0
F,59,7.161,3.4000000953674316,0.0
F,60,7.181,3.0899999141693115,0.0
F,60,7.167,3.380000114440918,0.0
F,61,7.181,3.0899999141693115,0.0
F,61,7.167,3.4000000953674316,0.0
F,62,7.181,3.0,0.0
F,62,7.167,3.4100000858306885,0.0
F,63,7.181,3.2799999713897705,0.0
F,63,7.167,3.5199999809265137,0.0
S,0,4.686,4.619999885559082,0.0
S,0,4.686,4.619999885559082,0.0
S,36,4.698,2.7799999713897705,0.0
S,36,4.692,21.780000686645508,0.0
S,36,4.68,2.5,0.0
S,37,4.692,15.279999732971191,0.0
S,37,4.679,2.5399999618530273,0.0
S,38,4.702,2.319999933242798,0.0
S,38,4.691,14.489999771118164,0.0
S,38,4.683,2.759999990463257,0.0
S,39,4.691,14.210000038146973,0.0
S,39,4.683,2.5199999809265137,0.0
S,40,4.691,17.260000228881836,0.0
S,40,4.684,2.609999895095825,0.0
S,41,4.692,18.25,0.0
S,42,4.691,21.309999465942383,0.0
S,42,4.682,2.6500000953674316,0.0
S,43,4.692,31.829999923706055,0.0
S,43,4.684,2.930000066757202,0.0
S,44,4.692,25.489999771118164,0.0
S,45,4.692,26.479999542236328,0.0
S,45,4.683,2.25,0.0
S,46,4.703,2.240000009536743,0.0
S,46,4.692,14.960000038146973,0.0
S,46,4.683,2.630000114440918,0.0
S,47,4.692,21.020000457763672,0.0
S,47,4.683,2.3299999237060547,0.0
S,48,4.691,18.700000762939453,0.0
S,48,4.683,2.5199999809265137,0.0
S,49,4.692,18.770000457763672,0.0
S,49,4.684,2.0999999046325684,0.0
S,50,4.692,14.010000228881836,0.0
S,50,4.682,2.1500000953674316,0.0
S,51,4.691,7.940000057220459,0.0
S,51,4.683,2.200000047683716,0.0
