S,0,3.966,7.170000076293945,0.0
S,1,3.967,6.96999979019165,0.0
S,2,3.968,6.710000038146973,0.0
S,3,3.968,6.659999847412109,0.0
S,4,3.968,6.449999809265137,0.0
S,5,3.969,6.809999942779541,0.0
S,6,3.969,5.980000019073486,0.0
S,7,3.969,6.75,0.0
S,8,3.969,6.449999809265137,0.0
S,9,3.969,6.389999866485596,0.0
S,10,3.969,6.46999979019165,0.0
S,11,3.97,6.429999828338623,0.0
S,12,3.97,6.349999904632568,0.0
S,13,3.97,6.639999866485596,0.0
S,14,3.97,6.449999809265137,0.0
S,15,3.97,6.599999904632568,0.0
S,16,3.97,6.769999980926514,0.0
S,17,3.97,6.059999942779541,0.0
S,18,3.97,6.489999771118164,0.0
S,19,3.97,6.46999979019165,0.0
S,20,3.97,6.309999942779541,0.0
S,21,3.97,6.690000057220459,0.0
S,22,3.97,6.909999847412109,0.0
S,23,3.97,6.519999980926514,0.0
S,24,3.97,6.46999979019165,0.0
S,25,3.97,6.690000057220459,0.0
S,26,3.97,6.25,0.0
S,27,3.971,6.789999961853027,0.0
S,28,3.971,6.460000038146973,0.0
S,29,3.971,7.0,0.0
S,30,3.971,6.389999866485596,0.0
S,31,3.971,7.269999980926514,0.0
S,32,3.971,6.599999904632568,0.0
S,33,3.971,6.980000019073486,0.0
S,34,3.971,6.699999809265137,0.0
S,35,3.971,6.460000038146973,0.0
S,49,3.971,4.699999809265137,0.0
S,50,3.971,4.489999771118164,0.0
S,51,3.971,4.239999771118164,0.0
S,52,3.97,3.5999999046325684,0.0
S,53,3.969,3.0,0.0
S,54,3.969,2.740000009536743,0.0
S,55,3.968,2.4000000953674316,0.0
S,56,3.967,2.0999999046325684,0.0
S,36,3.918,13.920000076293945,0.0
S,37,3.918,13.59000015258789,0.0
S,38,3.918,13.699999809265137,0.0
S,39,3.918,13.229999542236328,0.0
S,40,3.918,13.470000267028809,0.0
S,41,3.918,13.84000015258789,0.0
S,42,3.918,13.380000114440918,0.0
S,43,3.918,13.029999732971191,0.0
S,44,3.917,12.300000190734863,0.0
S,45,3.918,11.539999961853027,0.0
S,46,3.918,11.180000305175781,0.0
S,48,3.918,10.09000015258789,0.0
S,57,3.916,3.640000104904175,0.0
S,58,3.916,3.240000009536743,0.0
S,59,3.916,2.8399999141693115,0.0
S,60,3.916,2.559999942779541,0.0
S,61,3.916,2.2899999618530273,0.0
S,62,3.916,2.0299999713897705,0.0
S,47,3.861,3.6600000858306885,0.0
