F,0,3.966,7.170000076293945,0.12
F,1,4.02,0.6899999976158142,0.12
F,2,4.02,0.800000011920929,0.12
F,3,4.02,0.8500000238418579,0.12
F,4,4.02,0.8700000047683716,0.12
F,5,4.02,1.0299999713897705,0.12
F,6,4.02,0.9100000262260437,0.12
F,7,4.02,1.0399999618530273,0.12
F,8,4.02,1.0,0.12
F,9,4.02,1.059999942779541,0.12
F,10,4.02,1.059999942779541,0.12
F,11,4.02,1.1200000047683716,0.12
F,12,4.02,1.1799999475479126,0.12
F,13,4.02,1.1100000143051147,0.12
F,14,4.02,1.1100000143051147,0.12
F,15,4.02,1.2400000095367432,0.12
F,16,4.02,1.2300000190734863,0.12
F,17,4.02,1.1200000047683716,0.12
F,18,4.02,1.2300000190734863,0.12
F,19,4.02,1.2200000286102295,0.12
F,20,4.021,1.2699999809265137,0.12
F,21,4.02,1.2699999809265137,0.12
F,22,4.02,1.3600000143051147,0.12
F,23,4.02,1.2100000381469727,0.12
F,24,4.02,1.3600000143051147,0.12
F,25,4.021,1.3600000143051147,0.12
F,26,4.02,1.340000033378601,0.12
F,27,4.02,1.350000023841858,0.12
F,28,4.02,1.2300000190734863,0.12
F,29,4.02,1.350000023841858,0.12
F,30,4.02,1.2799999713897705,0.12
F,31,4.02,1.4199999570846558,0.12
F,32,4.021,1.3300000429153442,0.12
F,33,4.02,1.350000023841858,0.12
F,34,4.02,1.3300000429153442,0.12
F,35,4.02,1.2799999713897705,0.12
F,36,4.021,1.4600000381469727,0.12
F,37,4.02,1.4299999475479126,0.12
F,38,4.021,1.4600000381469727,0.12
F,39,4.021,1.3600000143051147,0.12
F,40,4.021,1.4700000286102295,0.12
F,41,4.021,1.5299999713897705,0.12
F,42,4.021,1.4299999475479126,0.12
F,43,4.02,1.4299999475479126,0.12
F,44,4.02,1.399999976158142,0.12
F,45,4.021,1.2799999713897705,0.12
F,46,4.021,1.2200000286102295,0.12
F,47,4.02,1.1399999856948853,0.12
F,48,4.021,1.0800000429153442,0.12
F,49,4.02,1.2000000476837158,0.12
F,50,4.021,1.2100000381469727,0.12
F,51,4.02,1.1699999570846558,0.12
F,52,4.021,1.2000000476837158,0.12
F,53,4.021,1.2300000190734863,0.12
F,54,4.021,1.1399999856948853,0.12
F,55,4.021,1.25,0.12
F,56,4.02,1.0800000429153442,0.12
F,57,4.02,1.090000033378601,0.12
F,58,4.02,1.090000033378601,0.12
F,59,4.02,1.0499999523162842,0.12
F,60,4.02,1.0199999809265137,0.12
F,61,4.02,0.9800000190734863,0.12
F,62,4.02,0.9200000166893005,0.12
F,63,4.021,0.949999988079071,0.12
S,0,2.646,7.949999809265137,0.12
S,1,2.646,8.210000038146973,0.12
S,2,2.647,8.3100004196167,0.12
S,3,2.646,8.390000343322754,0.12
S,4,2.647,8.380000114440918,0.12
S,5,2.646,8.3100004196167,0.12
S,6,2.647,8.529999732971191,0.12
S,7,2.647,8.329999923706055,0.12
S,8,2.647,8.479999542236328,0.12
S,9,2.647,8.550000190734863,0.12
S,10,2.647,8.539999961853027,0.12
S,11,2.647,8.670000076293945,0.12
S,12,2.647,8.630000114440918,0.12
S,13,2.647,8.5600004196167,0.12
S,14,2.647,8.680000305175781,0.12
S,15,2.647,8.609999656677246,0.12
S,16,2.647,8.550000190734863,0.12
S,17,2.647,8.890000343322754,0.12
S,18,2.647,8.770000457763672,0.12
S,19,2.647,8.729999542236328,0.12
S,20,2.647,8.880000114440918,0.12
S,21,2.647,8.739999771118164,0.12
S,22,2.647,8.6899995803833,0.12
S,23,2.647,8.9399995803833,0.12
S,24,2.647,8.90999984741211,0.12
S,25,2.647,8.90999984741211,0.12
S,26,2.647,9.100000381469727,0.12
S,27,2.647,9.069999694824219,0.12
S,28,2.647,9.25,0.12
S,29,2.647,9.140000343322754,0.12
S,30,2.647,9.460000038146973,0.12
S,31,2.647,9.239999771118164,0.12
S,32,2.647,9.630000114440918,0.12
S,33,2.647,9.5,0.12
S,34,2.647,9.670000076293945,0.12
S,35,2.647,9.779999732971191,0.12
S,36,2.647,9.949999809265137,0.12
S,37,2.647,9.989999771118164,0.12
S,38,2.647,10.15999984741211,0.12
S,39,2.647,10.630000114440918,0.12
S,40,2.647,10.649999618530273,0.12
S,41,2.647,10.640000343322754,0.12
S,42,2.647,11.020000457763672,0.12
S,43,2.647,10.25,0.12
S,44,2.647,9.850000381469727,0.12
S,45,2.647,9.90999984741211,0.12
S,46,2.647,9.350000381469727,0.12
S,47,2.647,9.180000305175781,0.12
S,48,2.647,8.970000267028809,0.12
S,49,2.647,8.380000114440918,0.12
S,50,2.647,8.449999809265137,0.12
S,51,2.647,8.210000038146973,0.12
S,52,2.647,7.239999771118164,0.12
S,53,2.647,6.889999866485596,0.12
S,54,2.647,6.119999885559082,0.12
S,55,2.647,5.670000076293945,0.12
S,56,2.739,0.5099999904632568,0.12
S,57,2.739,0.5199999809265137,0.12
S,58,2.739,0.5099999904632568,0.12
S,59,2.739,0.5400000214576721,0.12
S,60,2.739,0.5600000023841858,0.12
S,61,2.739,0.5699999928474426,0.12
S,62,2.739,0.5799999833106995,0.12
S,63,2.739,0.5899999737739563,0.12
