F,0,4.695,1.4700000286102295,0.17
F,36,4.698,2.7799999713897705,0.17
F,37,4.706,1.3200000524520874,0.17
F,38,4.707,1.4900000095367432,0.17
F,39,4.707,1.309999942779541,0.17
F,40,4.699,1.2899999618530273,0.17
F,41,4.703,1.6399999856948853,0.17
F,42,4.703,1.9299999475479126,0.17
F,43,4.706,1.9900000095367432,0.17
F,44,4.692,25.489999771118164,0.17
F,45,4.692,26.479999542236328,0.17
F,46,4.703,2.240000009536743,0.17
F,47,4.707,1.090000033378601,0.17
F,48,4.691,18.700000762939453,0.17
F,49,4.692,18.770000457763672,0.17
F,50,4.708,1.0700000524520874,0.17
F,51,4.706,1.190000057220459,0.17
F,1,0.0,0.0,0.17
F,2,0.0,0.0,0.17
F,3,0.0,0.0,0.17
F,4,0.0,0.0,0.17
F,5,0.0,0.0,0.17
F,6,0.0,0.0,0.17
F,7,0.0,0.0,0.17
F,8,0.0,0.0,0.17
F,9,0.0,0.0,0.17
F,10,0.0,0.0,0.17
F,11,0.0,0.0,0.17
F,12,0.0,0.0,0.17
F,13,0.0,0.0,0.17
F,14,0.0,0.0,0.17
F,15,0.0,0.0,0.17
F,16,0.0,0.0,0.17
F,17,0.0,0.0,0.17
F,18,0.0,0.0,0.17
F,19,0.0,0.0,0.17
F,20,0.0,0.0,0.17
F,21,0.0,0.0,0.17
F,22,0.0,0.0,0.17
F,23,0.0,0.0,0.17
F,24,0.0,0.0,0.17
F,25,0.0,0.0,0.17
F,26,0.0,0.0,0.17
F,27,0.0,0.0,0.17
F,28,0.0,0.0,0.17
F,29,0.0,0.0,0.17
F,30,0.0,0.0,0.17
F,31,0.0,0.0,0.17
F,32,0.0,0.0,0.17
F,33,0.0,0.0,0.17
F,34,0.0,0.0,0.17
F,35,0.0,0.0,0.17
F,52,0.0,0.0,0.17
F,53,0.0,0.0,0.17
F,54,0.0,0.0,0.17
F,55,0.0,0.0,0.17
F,56,0.0,0.0,0.17
F,57,0.0,0.0,0.17
F,58,0.0,0.0,0.17
F,59,0.0,0.0,0.17
F,60,0.0,0.0,0.17
F,61,0.0,0.0,0.17
F,62,0.0,0.0,0.17
F,63,0.0,0.0,0.17
S,0,3.966,7.170000076293945,0.17
S,1,3.967,6.96999979019165,0.17
S,2,3.968,6.710000038146973,0.17
S,3,3.968,6.659999847412109,0.17
S,4,3.968,6.449999809265137,0.17
S,5,3.969,6.809999942779541,0.17
S,6,3.969,5.980000019073486,0.17
S,7,3.969,6.75,0.17
S,8,3.969,6.449999809265137,0.17
S,9,3.969,6.389999866485596,0.17
S,10,3.969,6.46999979019165,0.17
S,11,3.97,6.429999828338623,0.17
S,12,3.97,6.349999904632568,0.17
S,13,3.97,6.639999866485596,0.17
S,14,3.97,6.449999809265137,0.17
S,15,3.97,6.599999904632568,0.17
S,16,3.97,6.769999980926514,0.17
S,17,3.97,6.059999942779541,0.17
S,18,3.97,6.489999771118164,0.17
S,19,3.97,6.46999979019165,0.17
S,20,3.97,6.309999942779541,0.17
S,21,3.97,6.690000057220459,0.17
S,22,3.97,6.909999847412109,0.17
S,23,3.97,6.519999980926514,0.17
S,24,3.97,6.46999979019165,0.17
S,25,3.97,6.690000057220459,0.17
S,26,3.97,6.25,0.17
S,27,3.971,6.789999961853027,0.17
S,28,3.971,6.460000038146973,0.17
S,29,3.971,7.0,0.17
S,30,3.971,6.389999866485596,0.17
S,31,3.971,7.269999980926514,0.17
S,32,3.971,6.599999904632568,0.17
S,33,3.971,6.980000019073486,0.17
S,34,3.971,6.699999809265137,0.17
S,35,3.971,6.460000038146973,0.17
S,36,3.972,6.989999771118164,0.17
S,37,3.972,6.710000038146973,0.17
S,38,3.972,6.769999980926514,0.17
S,39,3.972,6.25,0.17
S,40,3.972,6.53000020980835,0.17
S,41,3.972,6.809999942779541,0.17
S,42,3.972,6.420000076293945,0.17
S,43,3.972,6.599999904632568,0.17
S,44,3.972,6.300000190734863,0.17
S,45,3.972,5.539999961853027,0.17
S,46,3.972,5.46999979019165,0.17
S,47,3.972,5.03000020980835,0.17
S,48,3.972,4.860000133514404,0.17
S,49,3.971,4.699999809265137,0.17
S,50,3.971,4.489999771118164,0.17
S,51,3.971,4.239999771118164,0.17
S,52,3.97,3.5999999046325684,0.17
S,53,3.969,3.0,0.17
S,54,3.969,2.740000009536743,0.17
S,55,3.968,2.4000000953674316,0.17
S,56,3.967,2.0999999046325684,0.17
S,57,3.967,1.8799999952316284,0.17
S,58,3.967,1.7999999523162842,0.17
S,59,3.966,1.5800000429153442,0.17
S,60,3.966,1.5,0.17
S,61,3.966,1.309999942779541,0.17
S,62,3.966,1.2100000381469727,0.17
S,63,3.966,1.1299999952316284,0.17
