F,0,6.896,15.0,0.1
F,1,6.896,15.0,0.1
F,2,6.896,15.0,0.1
F,3,6.896,15.0,0.1
F,4,6.896,15.0,0.1
F,5,6.896,15.0,0.1
F,6,6.896,15.0,0.1
F,7,6.896,15.0,0.1
F,8,6.896,15.0,0.1
F,9,6.896,15.0,0.1
F,10,6.896,15.0,0.1
F,11,6.896,15.0,0.1
F,12,6.896,15.0,0.1
F,13,6.896,15.0,0.1
F,14,6.896,15.0,0.1
F,15,6.896,15.0,0.1
F,16,6.896,15.0,0.1
F,17,6.896,15.0,0.1
F,18,6.896,15.0,0.1
F,19,6.896,15.0,0.1
F,20,6.897,15.0,0.1
F,21,6.897,15.0,0.1
F,22,6.897,15.0,0.1
F,23,6.896,15.0,0.1
F,24,6.897,15.0,0.1
F,25,6.897,15.0,0.1
F,26,6.896,15.0,0.1
F,27,6.896,15.0,0.1
F,28,6.896,15.0,0.1
F,29,6.897,15.0,0.1
F,30,6.897,15.0,0.1
F,31,6.897,15.0,0.1
F,32,6.897,15.0,0.1
F,33,6.897,15.0,0.1
F,34,6.897,15.0,0.1
F,35,6.896,15.0,0.1
F,36,6.897,15.0,0.1
F,37,6.897,15.0,0.1
F,38,6.897,15.0,0.1
F,39,6.897,15.0,0.1
F,40,6.897,15.0,0.1
F,41,6.897,15.0,0.1
F,42,6.897,15.0,0.1
F,43,6.897,14.199999809265137,0.1
F,44,6.897,13.470000267028809,0.1
F,45,6.897,12.949999809265137,0.1
F,46,6.897,12.199999809265137,0.1
F,47,6.897,11.619999885559082,0.1
F,48,6.897,11.229999542236328,0.1
F,49,6.897,10.5600004196167,0.1
F,50,6.897,10.359999656677246,0.1
F,51,6.896,9.949999809265137,0.1
F,52,6.896,8.319999694824219,0.1
F,53,6.896,7.349999904632568,0.1
F,54,6.896,6.199999809265137,0.1
F,55,6.896,5.480000019073486,0.1
F,56,6.896,4.71999979019165,0.1
F,57,6.896,4.239999771118164,0.1
F,58,6.896,3.6500000953674316,0.1
F,59,6.896,3.3299999237060547,0.1
F,60,6.896,3.009999990463257,0.1
F,61,6.896,2.6700000762939453,0.1
F,62,6.896,2.369999885559082,0.1
F,63,6.896,2.240000009536743,0.1
S,0,3.966,7.170000076293945,0.1
S,1,3.967,6.96999979019165,0.1
S,2,3.968,6.710000038146973,0.1
S,3,3.968,6.659999847412109,0.1
S,4,3.968,6.449999809265137,0.1
S,5,3.969,6.809999942779541,0.1
S,6,3.969,5.980000019073486,0.1
S,7,3.969,6.75,0.1
S,8,3.969,6.449999809265137,0.1
S,9,3.969,6.389999866485596,0.1
S,10,3.969,6.46999979019165,0.1
S,11,3.97,6.429999828338623,0.1
S,12,3.97,6.349999904632568,0.1
S,13,3.97,6.639999866485596,0.1
S,14,3.97,6.449999809265137,0.1
S,15,3.97,6.599999904632568,0.1
S,16,3.97,6.769999980926514,0.1
S,17,3.97,6.059999942779541,0.1
S,18,3.97,6.489999771118164,0.1
S,19,3.97,6.46999979019165,0.1
S,20,3.97,6.309999942779541,0.1
S,21,3.97,6.690000057220459,0.1
S,22,3.97,6.909999847412109,0.1
S,23,3.97,6.519999980926514,0.1
S,24,3.97,6.46999979019165,0.1
S,25,3.97,6.690000057220459,0.1
S,26,3.97,6.25,0.1
S,27,3.971,6.789999961853027,0.1
S,28,3.971,6.460000038146973,0.1
S,29,3.971,7.0,0.1
S,30,3.971,6.389999866485596,0.1
S,31,3.971,7.269999980926514,0.1
S,32,3.971,6.599999904632568,0.1
S,33,3.971,6.980000019073486,0.1
S,34,3.971,6.699999809265137,0.1
S,35,3.971,6.460000038146973,0.1
S,49,3.971,4.699999809265137,0.1
S,50,3.971,4.489999771118164,0.1
S,51,3.971,4.239999771118164,0.1
S,52,3.97,3.5999999046325684,0.1
S,53,3.969,3.0,0.1
S,54,3.969,2.740000009536743,0.1
S,55,3.968,2.4000000953674316,0.1
S,56,3.967,2.0999999046325684,0.1
S,36,3.918,13.920000076293945,0.1
S,37,3.918,13.59000015258789,0.1
S,38,3.918,13.699999809265137,0.1
S,39,3.918,13.229999542236328,0.1
S,40,3.918,13.470000267028809,0.1
S,41,3.918,13.84000015258789,0.1
S,42,3.918,13.380000114440918,0.1
S,43,3.918,13.029999732971191,0.1
S,44,3.917,12.300000190734863,0.1
S,45,3.918,11.539999961853027,0.1
S,46,3.918,11.180000305175781,0.1
S,48,3.918,10.09000015258789,0.1
S,57,3.916,3.640000104904175,0.1
S,58,3.916,3.240000009536743,0.1
S,59,3.916,2.8399999141693115,0.1
S,60,3.916,2.559999942779541,0.1
S,61,3.916,2.2899999618530273,0.1
S,62,3.916,2.0299999713897705,0.1
S,47,3.861,3.6600000858306885,0.1
S,63,0.0,0.0,0.1
