F,0,4.686,4.619999885559082,0.21
F,36,4.698,2.7799999713897705,0.21
F,37,4.692,15.279999732971191,0.21
F,38,4.702,2.319999933242798,0.21
F,39,4.691,14.210000038146973,0.21
F,40,4.691,17.260000228881836,0.21
F,41,4.692,18.25,0.21
F,42,4.691,21.309999465942383,0.21
F,43,4.692,31.829999923706055,0.21
F,44,4.692,25.489999771118164,0.21
F,45,4.692,26.479999542236328,0.21
F,46,4.703,2.240000009536743,0.21
F,47,4.692,21.020000457763672,0.21
F,48,4.691,18.700000762939453,0.21
F,49,4.692,18.770000457763672,0.21
F,50,4.692,14.010000228881836,0.21
F,51,4.691,7.940000057220459,0.21
F,1,0.0,0.0,0.21
F,2,0.0,0.0,0.21
F,3,0.0,0.0,0.21
F,4,0.0,0.0,0.21
F,5,0.0,0.0,0.21
F,6,0.0,0.0,0.21
F,7,0.0,0.0,0.21
F,8,0.0,0.0,0.21
F,9,0.0,0.0,0.21
F,10,0.0,0.0,0.21
F,11,0.0,0.0,0.21
F,12,0.0,0.0,0.21
F,13,0.0,0.0,0.21
F,14,0.0,0.0,0.21
F,15,0.0,0.0,0.21
F,16,0.0,0.0,0.21
F,17,0.0,0.0,0.21
F,18,0.0,0.0,0.21
F,19,0.0,0.0,0.21
F,20,0.0,0.0,0.21
F,21,0.0,0.0,0.21
F,22,0.0,0.0,0.21
F,23,0.0,0.0,0.21
F,24,0.0,0.0,0.21
F,25,0.0,0.0,0.21
F,26,0.0,0.0,0.21
F,27,0.0,0.0,0.21
F,28,0.0,0.0,0.21
F,29,0.0,0.0,0.21
F,30,0.0,0.0,0.21
F,31,0.0,0.0,0.21
F,32,0.0,0.0,0.21
F,33,0.0,0.0,0.21
F,34,0.0,0.0,0.21
F,35,0.0,0.0,0.21
F,52,0.0,0.0,0.21
F,53,0.0,0.0,0.21
F,54,0.0,0.0,0.21
F,55,0.0,0.0,0.21
F,56,0.0,0.0,0.21
F,57,0.0,0.0,0.21
F,58,0.0,0.0,0.21
F,59,0.0,0.0,0.21
F,60,0.0,0.0,0.21
F,61,0.0,0.0,0.21
F,62,0.0,0.0,0.21
F,63,0.0,0.0,0.21
S,0,3.966,7.170000076293945,0.21
S,1,3.967,6.96999979019165,0.21
S,2,3.968,6.710000038146973,0.21
S,3,3.968,6.659999847412109,0.21
S,4,3.968,6.449999809265137,0.21
S,5,3.969,6.809999942779541,0.21
S,6,3.969,5.980000019073486,0.21
S,7,3.969,6.75,0.21
S,8,3.969,6.449999809265137,0.21
S,9,3.969,6.389999866485596,0.21
S,10,3.969,6.46999979019165,0.21
S,11,3.97,6.429999828338623,0.21
S,12,3.97,6.349999904632568,0.21
S,13,3.97,6.639999866485596,0.21
S,14,3.97,6.449999809265137,0.21
S,15,3.97,6.599999904632568,0.21
S,16,3.97,6.769999980926514,0.21
S,17,3.97,6.059999942779541,0.21
S,18,3.97,6.489999771118164,0.21
S,19,3.97,6.46999979019165,0.21
S,20,3.97,6.309999942779541,0.21
S,21,3.97,6.690000057220459,0.21
S,22,3.97,6.909999847412109,0.21
S,23,3.97,6.519999980926514,0.21
S,24,3.97,6.46999979019165,0.21
S,25,3.97,6.690000057220459,0.21
S,26,3.97,6.25,0.21
S,27,3.971,6.789999961853027,0.21
S,28,3.971,6.460000038146973,0.21
S,29,3.971,7.0,0.21
S,30,3.971,6.389999866485596,0.21
S,31,3.971,7.269999980926514,0.21
S,32,3.971,6.599999904632568,0.21
S,33,3.971,6.980000019073486,0.21
S,34,3.971,6.699999809265137,0.21
S,35,3.971,6.460000038146973,0.21
S,36,3.972,6.989999771118164,0.21
S,37,3.972,6.710000038146973,0.21
S,38,3.972,6.769999980926514,0.21
S,39,3.972,6.25,0.21
S,40,3.972,6.53000020980835,0.21
S,41,3.972,6.809999942779541,0.21
S,42,3.972,6.420000076293945,0.21
S,43,3.972,6.599999904632568,0.21
S,44,3.972,6.300000190734863,0.21
S,45,3.972,5.539999961853027,0.21
S,46,3.972,5.46999979019165,0.21
S,47,3.972,5.03000020980835,0.21
S,48,3.972,4.860000133514404,0.21
S,49,3.971,4.699999809265137,0.21
S,50,3.971,4.489999771118164,0.21
S,51,3.971,4.239999771118164,0.21
S,52,3.97,3.5999999046325684,0.21
S,53,3.969,3.0,0.21
S,54,3.969,2.740000009536743,0.21
S,55,3.968,2.4000000953674316,0.21
S,56,3.967,2.0999999046325684,0.21
S,57,3.916,3.640000104904175,0.21
S,58,3.916,3.240000009536743,0.21
S,59,3.916,2.8399999141693115,0.21
S,60,3.916,2.559999942779541,0.21
S,61,3.916,2.2899999618530273,0.21
S,62,3.916,2.0299999713897705,0.21
S,63,3.824,11.050000190734863,0.21
