F,0,7.161,14.069999694824219,0.22
F,1,7.161,14.149999618530273,0.22
F,2,7.162,14.09000015258789,0.22
F,3,7.161,13.979999542236328,0.22
F,4,7.162,13.800000190734863,0.22
F,5,7.161,13.90999984741211,0.22
F,6,7.176,11.300000190734863,0.22
F,7,7.162,13.989999771118164,0.22
F,8,7.162,13.789999961853027,0.22
F,9,7.176,11.510000228881836,0.22
F,10,7.162,13.829999923706055,0.22
F,11,7.176,11.630000114440918,0.22
F,12,7.176,11.649999618530273,0.22
F,13,7.162,13.930000305175781,0.22
F,14,7.176,11.4399995803833,0.22
F,15,7.162,13.890000343322754,0.22
F,16,7.162,13.979999542236328,0.22
F,17,7.176,11.220000267028809,0.22
F,18,7.176,11.569999694824219,0.22
F,19,7.176,11.609999656677246,0.22
F,20,7.176,11.600000381469727,0.22
F,21,7.162,13.989999771118164,0.22
F,22,7.162,13.949999809265137,0.22
F,23,7.176,11.550000190734863,0.22
F,24,7.176,11.710000038146973,0.22
F,25,7.162,13.979999542236328,0.22
F,26,7.176,11.510000228881836,0.22
F,27,7.176,11.829999923706055,0.22
F,28,7.176,11.630000114440918,0.22
F,29,7.162,14.210000038146973,0.22
F,30,7.176,11.649999618530273,0.22
F,31,7.162,14.4399995803833,0.22
F,32,7.176,11.899999618530273,0.22
F,33,7.162,14.180000305175781,0.22
F,34,7.176,11.920000076293945,0.22
F,35,7.176,11.569999694824219,0.22
F,36,7.224,1.059999942779541,0.22
F,37,7.176,11.920000076293945,0.22
F,38,7.224,1.0099999904632568,0.22
F,39,7.176,11.489999771118164,0.22
F,40,7.176,11.739999771118164,0.22
F,41,7.224,1.1299999952316284,0.22
F,42,7.176,11.649999618530273,0.22
F,43,7.223,1.0700000524520874,0.22
F,44,7.224,1.0399999618530273,0.22
F,45,7.176,10.119999885559082,0.22
F,46,7.176,9.850000381469727,0.22
F,47,7.176,9.170000076293945,0.22
F,48,7.176,8.800000190734863,0.22
F,49,7.176,8.430000305175781,0.22
F,50,7.176,8.199999809265137,0.22
F,51,7.176,7.71999979019165,0.22
F,52,7.176,6.460000038146973,0.22
F,53,7.176,5.46999979019165,0.22
F,54,7.176,4.789999961853027,0.22
F,55,7.176,4.110000133514404,0.22
F,56,7.176,3.5299999713897705,0.22
F,57,7.176,3.119999885559082,0.22
F,58,7.181,3.0,0.22
F,59,7.181,3.0,0.22
F,60,7.181,3.0899999141693115,0.22
F,61,7.181,3.0899999141693115,0.22
F,62,7.181,3.0,0.22
F,63,7.181,3.2799999713897705,0.22
S,0,4.695,1.4700000286102295,0.22
S,36,4.698,2.7799999713897705,0.22
S,37,4.706,1.3200000524520874,0.22
S,38,4.707,1.4900000095367432,0.22
S,39,4.707,1.309999942779541,0.22
S,40,4.699,1.2899999618530273,0.22
S,41,4.703,1.6399999856948853,0.22
S,42,4.703,1.9299999475479126,0.22
S,43,4.706,1.9900000095367432,0.22
S,44,4.692,25.489999771118164,0.22
S,45,4.692,26.479999542236328,0.22
S,46,4.703,2.240000009536743,0.22
S,47,4.707,1.090000033378601,0.22
S,48,4.691,18.700000762939453,0.22
S,49,4.692,18.770000457763672,0.22
S,50,4.708,1.0700000524520874,0.22
S,51,4.706,1.190000057220459,0.22
S,1,0.0,0.0,0.22
S,2,0.0,0.0,0.22
S,3,0.0,0.0,0.22
S,4,0.0,0.0,0.22
S,5,0.0,0.0,0.22
S,6,0.0,0.0,0.22
S,7,0.0,0.0,0.22
S,8,0.0,0.0,0.22
S,9,0.0,0.0,0.22
S,10,0.0,0.0,0.22
S,11,0.0,0.0,0.22
S,12,0.0,0.0,0.22
S,13,0.0,0.0,0.22
S,14,0.0,0.0,0.22
S,15,0.0,0.0,0.22
S,16,0.0,0.0,0.22
S,17,0.0,0.0,0.22
S,18,0.0,0.0,0.22
S,19,0.0,0.0,0.22
S,20,0.0,0.0,0.22
S,21,0.0,0.0,0.22
S,22,0.0,0.0,0.22
S,23,0.0,0.0,0.22
S,24,0.0,0.0,0.22
S,25,0.0,0.0,0.22
S,26,0.0,0.0,0.22
S,27,0.0,0.0,0.22
S,28,0.0,0.0,0.22
S,29,0.0,0.0,0.22
S,30,0.0,0.0,0.22
S,31,0.0,0.0,0.22
S,32,0.0,0.0,0.22
S,33,0.0,0.0,0.22
S,34,0.0,0.0,0.22
S,35,0.0,0.0,0.22
S,52,0.0,0.0,0.22
S,53,0.0,0.0,0.22
S,54,0.0,0.0,0.22
S,55,0.0,0.0,0.22
S,56,0.0,0.0,0.22
S,57,0.0,0.0,0.22
S,58,0.0,0.0,0.22
S,59,0.0,0.0,0.22
S,60,0.0,0.0,0.22
S,61,0.0,0.0,0.22
S,62,0.0,0.0,0.22
S,63,0.0,0.0,0.22
