F,0,6.896,15.0,0.26
F,1,6.896,15.0,0.26
F,2,6.896,15.0,0.26
F,3,6.896,15.0,0.26
F,4,6.896,15.0,0.26
F,5,6.896,15.0,0.26
F,6,6.896,15.0,0.26
F,7,6.896,15.0,0.26
F,8,6.896,15.0,0.26
F,9,6.896,15.0,0.26
F,10,6.896,15.0,0.26
F,11,6.896,15.0,0.26
F,12,6.896,15.0,0.26
F,13,6.896,15.0,0.26
F,14,6.896,15.0,0.26
F,15,6.896,15.0,0.26
F,16,6.896,15.0,0.26
F,17,6.896,15.0,0.26
F,18,6.896,15.0,0.26
F,19,6.896,15.0,0.26
F,20,6.897,15.0,0.26
F,21,6.897,15.0,0.26
F,22,6.897,15.0,0.26
F,23,6.896,15.0,0.26
F,24,6.897,15.0,0.26
F,25,6.897,15.0,0.26
F,26,6.896,15.0,0.26
F,27,6.896,15.0,0.26
F,28,6.896,15.0,0.26
F,29,6.897,15.0,0.26
F,30,6.897,15.0,0.26
F,31,6.897,15.0,0.26
F,32,6.897,15.0,0.26
F,33,6.897,15.0,0.26
F,34,6.897,15.0,0.26
F,35,6.896,15.0,0.26
F,36,6.897,15.0,0.26
F,37,6.897,15.0,0.26
F,38,6.897,15.0,0.26
F,39,6.897,15.0,0.26
F,40,6.897,15.0,0.26
F,41,6.897,15.0,0.26
F,42,6.897,15.0,0.26
F,43,6.897,14.199999809265137,0.26
F,44,6.897,13.470000267028809,0.26
F,45,6.915,1.2599999904632568,0.26
F,46,6.915,1.2599999904632568,0.26
F,47,6.915,1.149999976158142,0.26
F,48,6.915,1.1799999475479126,0.26
F,49,6.915,1.1200000047683716,0.26
F,50,6.915,1.2599999904632568,0.26
F,51,6.915,1.059999942779541,0.26
F,52,6.915,1.0800000429153442,0.26
F,53,6.915,1.100000023841858,0.26
F,54,6.896,6.199999809265137,0.26
F,55,6.915,1.0299999713897705,0.26
F,56,6.896,4.71999979019165,0.26
F,57,6.896,4.239999771118164,0.26
F,58,6.896,3.6500000953674316,0.26
F,59,6.896,3.3299999237060547,0.26
F,60,6.896,3.009999990463257,0.26
F,61,6.896,2.6700000762939453,0.26
F,62,6.896,2.369999885559082,0.26
F,63,6.896,2.240000009536743,0.26
S,0,3.966,7.170000076293945,0.26
S,1,3.967,6.96999979019165,0.26
S,2,3.968,6.710000038146973,0.26
S,3,3.968,6.659999847412109,0.26
S,4,3.968,6.449999809265137,0.26
S,5,4.02,1.0299999713897705,0.26
S,6,3.969,5.980000019073486,0.26
S,7,4.02,1.0399999618530273,0.26
S,8,3.969,6.449999809265137,0.26
S,9,4.02,1.059999942779541,0.26
S,10,4.02,1.059999942779541,0.26
S,11,4.02,1.1200000047683716,0.26
S,12,4.02,1.1799999475479126,0.26
S,13,4.02,1.1100000143051147,0.26
S,14,4.02,1.1100000143051147,0.26
S,15,4.02,1.2400000095367432,0.26
S,16,4.02,1.2300000190734863,0.26
S,17,4.02,1.1200000047683716,0.26
S,18,4.02,1.2300000190734863,0.26
S,19,4.02,1.2200000286102295,0.26
S,20,4.021,1.2699999809265137,0.26
S,21,4.02,1.2699999809265137,0.26
S,22,4.02,1.3600000143051147,0.26
S,23,4.02,1.2100000381469727,0.26
S,24,4.02,1.3600000143051147,0.26
S,25,4.021,1.3600000143051147,0.26
S,26,4.02,1.340000033378601,0.26
S,27,4.02,1.350000023841858,0.26
S,28,4.02,1.2300000190734863,0.26
S,29,4.02,1.350000023841858,0.26
S,30,4.02,1.2799999713897705,0.26
S,31,4.02,1.4199999570846558,0.26
S,32,4.021,1.3300000429153442,0.26
S,33,4.02,1.350000023841858,0.26
S,34,4.02,1.3300000429153442,0.26
S,35,4.02,1.2799999713897705,0.26
S,36,4.021,1.4600000381469727,0.26
S,37,4.02,1.4299999475479126,0.26
S,38,4.021,1.4600000381469727,0.26
S,39,4.021,1.3600000143051147,0.26
S,40,4.021,1.4700000286102295,0.26
S,41,4.021,1.5299999713897705,0.26
S,42,4.021,1.4299999475479126,0.26
S,43,4.02,1.4299999475479126,0.26
S,44,4.02,1.399999976158142,0.26
S,45,4.021,1.2799999713897705,0.26
S,46,4.021,1.2200000286102295,0.26
S,47,4.02,1.1399999856948853,0.26
S,48,4.021,1.0800000429153442,0.26
S,49,4.02,1.2000000476837158,0.26
S,50,4.021,1.2100000381469727,0.26
S,51,4.02,1.1699999570846558,0.26
S,52,4.021,1.2000000476837158,0.26
S,53,4.021,1.2300000190734863,0.26
S,54,4.021,1.1399999856948853,0.26
S,55,4.021,1.25,0.26
S,56,4.02,1.0800000429153442,0.26
S,57,4.02,1.090000033378601,0.26
S,58,4.02,1.090000033378601,0.26
S,59,4.02,1.0499999523162842,0.26
S,60,4.02,1.0199999809265137,0.26
S,61,3.966,1.309999942779541,0.26
S,62,3.966,1.2100000381469727,0.26
S,63,3.966,1.1299999952316284,0.26
