F,0,4.686,4.619999885559082,0.28
F,1,4.702,0.7599999904632568,0.28
F,2,4.02,0.800000011920929,0.28
F,3,4.02,0.8500000238418579,0.28
F,4,4.02,0.8700000047683716,0.28
F,5,4.02,1.0299999713897705,0.28
F,6,4.02,0.9100000262260437,0.28
F,7,4.02,1.0399999618530273,0.28
F,8,4.02,1.0,0.28
F,9,4.02,1.059999942779541,0.28
F,10,4.02,1.059999942779541,0.28
F,11,4.02,1.1200000047683716,0.28
F,12,4.02,1.1799999475479126,0.28
F,13,4.02,1.1100000143051147,0.28
F,14,4.02,1.1100000143051147,0.28
F,15,4.02,1.2400000095367432,0.28
F,16,4.02,1.2300000190734863,0.28
F,17,4.02,1.1200000047683716,0.28
F,18,4.02,1.2300000190734863,0.28
F,19,4.02,1.2200000286102295,0.28
F,20,4.021,1.2699999809265137,0.28
F,21,4.02,1.2699999809265137,0.28
F,22,4.02,1.3600000143051147,0.28
F,23,4.02,1.2100000381469727,0.28
F,24,4.02,1.3600000143051147,0.28
F,25,4.021,1.3600000143051147,0.28
F,26,4.02,1.340000033378601,0.28
F,27,4.02,1.350000023841858,0.28
F,28,4.02,1.2300000190734863,0.28
F,29,4.02,1.350000023841858,0.28
F,30,4.02,1.2799999713897705,0.28
F,31,4.02,1.4199999570846558,0.28
F,32,4.021,1.3300000429153442,0.28
F,33,4.02,1.350000023841858,0.28
F,34,4.02,1.3300000429153442,0.28
F,35,4.02,1.2799999713897705,0.28
F,36,4.692,21.780000686645508,0.28
F,37,4.692,15.279999732971191,0.28
F,38,4.691,14.489999771118164,0.28
F,39,4.691,14.210000038146973,0.28
F,40,4.691,17.260000228881836,0.28
F,41,4.692,18.25,0.28
F,42,4.691,21.309999465942383,0.28
F,43,4.692,31.829999923706055,0.28
F,44,4.692,25.489999771118164,0.28
F,45,4.692,26.479999542236328,0.28
F,46,4.692,14.960000038146973,0.28
F,47,4.692,21.020000457763672,0.28
F,48,4.691,18.700000762939453,0.28
F,49,4.692,18.770000457763672,0.28
F,50,4.692,14.010000228881836,0.28
F,51,4.691,7.940000057220459,0.28
F,52,4.021,1.2000000476837158,0.28
F,53,4.021,1.2300000190734863,0.28
F,54,4.021,1.1399999856948853,0.28
F,55,4.021,1.25,0.28
F,56,4.02,1.0800000429153442,0.28
F,57,4.02,1.090000033378601,0.28
F,58,4.02,1.090000033378601,0.28
F,59,4.02,1.0499999523162842,0.28
F,60,4.02,1.0199999809265137,0.28
F,61,4.02,0.9800000190734863,0.28
F,62,4.02,0.9200000166893005,0.28
F,63,4.021,0.949999988079071,0.28
S,0,10.507,0.12999999523162842,0.28
S,1,10.639,0.12999999523162842,0.28
S,2,10.668,0.12999999523162842,0.28
S,3,10.588,0.12999999523162842,0.28
S,4,10.625,0.10999999940395355,0.28
S,5,10.59,0.12999999523162842,0.28
S,6,10.525,0.10999999940395355,0.28
S,7,10.653,0.11999999731779099,0.28
S,8,10.69,0.14000000059604645,0.28
S,9,10.594,0.12999999523162842,0.28
S,10,10.65,0.14000000059604645,0.28
S,11,10.557,0.11999999731779099,0.28
S,12,10.572,0.11999999731779099,0.28
S,13,10.666,0.12999999523162842,0.28
S,14,10.68,0.12999999523162842,0.28
S,15,10.66,0.12999999523162842,0.28
S,16,10.619,0.12999999523162842,0.28
S,17,10.684,0.14000000059604645,0.28
S,18,10.631,0.11999999731779099,0.28
S,19,10.51,0.11999999731779099,0.28
S,20,10.625,0.11999999731779099,0.28
S,21,10.58,0.12999999523162842,0.28
S,22,10.542,0.11999999731779099,0.28
S,23,10.689,0.14000000059604645,0.28
S,24,10.605,0.10999999940395355,0.28
S,25,10.572,0.12999999523162842,0.28
S,26,10.575,0.11999999731779099,0.28
S,27,10.608,0.12999999523162842,0.28
S,28,10.671,0.15000000596046448,0.28
S,29,10.513,0.12999999523162842,0.28
S,30,10.528,0.12999999523162842,0.28
S,31,10.589,0.15000000596046448,0.28
S,32,10.573,0.12999999523162842,0.28
S,33,10.577,0.14000000059604645,0.28
S,34,10.605,0.15000000596046448,0.28
S,35,10.674,0.15000000596046448,0.28
S,36,10.58,0.15000000596046448,0.28
S,37,10.57,0.14000000059604645,0.28
S,38,10.529,0.15000000596046448,0.28
S,39,10.494,0.11999999731779099,0.28
S,40,10.597,0.14000000059604645,0.28
S,41,10.52,0.14000000059604645,0.28
S,42,10.57,0.12999999523162842,0.28
S,43,10.662,0.15000000596046448,0.28
S,44,10.571,0.1599999964237213,0.28
S,45,10.62,0.12999999523162842,0.28
S,46,10.55,0.14000000059604645,0.28
S,47,10.655,0.10999999940395355,0.28
S,48,10.652,0.11999999731779099,0.28
S,49,10.528,0.10999999940395355,0.28
S,50,10.606,0.11999999731779099,0.28
S,51,10.647,0.10999999940395355,0.28
S,52,10.517,0.09000000357627869,0.28
S,54,10.685,0.12999999523162842,0.28
S,55,10.616,0.07999999821186066,0.28
S,56,10.687,0.10999999940395355,0.28
S,57,10.688,0.10000000149011612,0.28
S,58,10.69,0.10999999940395355,0.28
S,59,10.686,0.07999999821186066,0.28
S,60,10.692,0.09000000357627869,0.28
S,61,10.672,0.07999999821186066,0.28
S,62,10.691,0.09000000357627869,0.28
S,63,10.646,0.05000000074505806,0.28
S,63,0.0,0.0,0.28
