F,0,7.161,14.069999694824219,0.75
F,1,7.161,14.149999618530273,0.75
F,2,7.162,14.09000015258789,0.75
F,3,7.161,13.979999542236328,0.75
F,4,7.162,13.800000190734863,0.75
F,5,7.161,13.90999984741211,0.75
F,6,7.176,11.300000190734863,0.75
F,7,7.162,13.989999771118164,0.75
F,8,7.162,13.789999961853027,0.75
F,9,7.176,11.510000228881836,0.75
F,10,7.162,13.829999923706055,0.75
F,11,7.176,11.630000114440918,0.75
F,12,7.176,11.649999618530273,0.75
F,13,7.162,13.930000305175781,0.75
F,14,7.176,11.4399995803833,0.75
F,15,7.162,13.890000343322754,0.75
F,16,7.162,13.979999542236328,0.75
F,17,7.176,11.220000267028809,0.75
F,18,7.176,11.569999694824219,0.75
F,19,7.176,11.609999656677246,0.75
F,20,7.176,11.600000381469727,0.75
F,21,7.162,13.989999771118164,0.75
F,22,7.162,13.949999809265137,0.75
F,23,7.176,11.550000190734863,0.75
F,24,7.176,11.710000038146973,0.75
F,25,7.162,13.979999542236328,0.75
F,26,7.176,11.510000228881836,0.75
F,27,7.176,11.829999923706055,0.75
F,28,7.176,11.630000114440918,0.75
F,29,7.162,14.210000038146973,0.75
F,30,7.176,11.649999618530273,0.75
F,31,7.162,14.4399995803833,0.75
F,32,7.176,11.899999618530273,0.75
F,33,7.162,14.180000305175781,0.75
F,34,7.176,11.920000076293945,0.75
F,35,7.176,11.569999694824219,0.75
F,36,7.162,14.300000190734863,0.75
F,37,7.176,11.920000076293945,0.75
F,38,7.176,11.949999809265137,0.75
F,39,7.176,11.489999771118164,0.75
F,40,7.176,11.739999771118164,0.75
F,41,7.176,12.119999885559082,0.75
F,42,7.176,11.649999618530273,0.75
F,43,7.176,11.550000190734863,0.75
F,44,7.176,10.880000114440918,0.75
F,45,7.176,10.119999885559082,0.75
F,46,7.176,9.850000381469727,0.75
F,47,7.176,9.170000076293945,0.75
F,48,7.176,8.800000190734863,0.75
F,49,7.176,8.430000305175781,0.75
F,50,7.176,8.199999809265137,0.75
F,51,7.176,7.71999979019165,0.75
F,52,7.176,6.460000038146973,0.75
F,53,7.176,5.46999979019165,0.75
F,54,7.176,4.789999961853027,0.75
F,55,7.176,4.110000133514404,0.75
F,56,7.176,3.5299999713897705,0.75
F,57,7.176,3.119999885559082,0.75
F,58,7.181,3.0,0.75
F,59,7.181,3.0,0.75
F,60,7.181,3.0899999141693115,0.75
F,61,7.181,3.0899999141693115,0.75
F,62,7.181,3.0,0.75
F,63,7.181,3.2799999713897705,0.75
S,0,3.966,7.170000076293945,0.75
S,1,3.967,6.96999979019165,0.75
S,2,3.968,6.710000038146973,0.75
S,3,3.968,6.659999847412109,0.75
S,4,3.968,6.449999809265137,0.75
S,5,3.969,6.809999942779541,0.75
S,6,3.969,5.980000019073486,0.75
S,7,3.969,6.75,0.75
S,8,3.969,6.449999809265137,0.75
S,9,3.969,6.389999866485596,0.75
S,10,3.969,6.46999979019165,0.75
S,11,3.97,6.429999828338623,0.75
S,12,3.97,6.349999904632568,0.75
S,13,3.97,6.639999866485596,0.75
S,14,3.97,6.449999809265137,0.75
S,15,3.97,6.599999904632568,0.75
S,16,3.97,6.769999980926514,0.75
S,17,3.97,6.059999942779541,0.75
S,18,3.97,6.489999771118164,0.75
S,19,3.97,6.46999979019165,0.75
S,20,3.97,6.309999942779541,0.75
S,21,3.97,6.690000057220459,0.75
S,22,3.97,6.909999847412109,0.75
S,23,3.97,6.519999980926514,0.75
S,24,3.97,6.46999979019165,0.75
S,25,3.97,6.690000057220459,0.75
S,26,3.97,6.25,0.75
S,27,3.971,6.789999961853027,0.75
S,28,3.971,6.460000038146973,0.75
S,29,3.971,7.0,0.75
S,30,3.971,6.389999866485596,0.75
S,31,3.971,7.269999980926514,0.75
S,32,3.971,6.599999904632568,0.75
S,33,3.971,6.980000019073486,0.75
S,34,3.971,6.699999809265137,0.75
S,35,3.971,6.460000038146973,0.75
S,36,3.972,6.989999771118164,0.75
S,37,3.972,6.710000038146973,0.75
S,38,3.972,6.769999980926514,0.75
S,39,3.972,6.25,0.75
S,40,3.972,6.53000020980835,0.75
S,41,3.972,6.809999942779541,0.75
S,42,3.972,6.420000076293945,0.75
S,43,3.972,6.599999904632568,0.75
S,44,3.972,6.300000190734863,0.75
S,45,3.972,5.539999961853027,0.75
S,46,3.972,5.46999979019165,0.75
S,47,3.972,5.03000020980835,0.75
S,48,3.972,4.860000133514404,0.75
S,49,3.971,4.699999809265137,0.75
S,50,3.971,4.489999771118164,0.75
S,51,3.971,4.239999771118164,0.75
S,52,3.97,3.5999999046325684,0.75
S,53,3.969,3.0,0.75
S,54,3.969,2.740000009536743,0.75
S,55,3.968,2.4000000953674316,0.75
S,56,3.967,2.0999999046325684,0.75
S,57,3.916,3.640000104904175,0.75
S,58,3.916,3.240000009536743,0.75
S,59,3.916,2.8399999141693115,0.75
S,60,3.916,2.559999942779541,0.75
S,61,3.916,2.2899999618530273,0.75
S,62,3.916,2.0299999713897705,0.75
S,63,3.824,11.050000190734863,0.75
