F,0,7.161,14.069999694824219,0.76
F,1,7.161,14.149999618530273,0.76
F,2,7.162,14.09000015258789,0.76
F,3,7.161,13.979999542236328,0.76
F,4,7.162,13.800000190734863,0.76
F,5,7.161,13.90999984741211,0.76
F,6,7.162,13.510000228881836,0.76
F,7,7.162,13.989999771118164,0.76
F,8,7.162,13.789999961853027,0.76
F,9,7.162,13.8100004196167,0.76
F,10,7.162,13.829999923706055,0.76
F,11,7.162,13.729999542236328,0.76
F,12,7.162,13.59000015258789,0.76
F,13,7.162,13.930000305175781,0.76
F,14,7.162,13.779999732971191,0.76
F,15,7.162,13.890000343322754,0.76
F,16,7.162,13.979999542236328,0.76
F,17,7.162,13.520000457763672,0.76
F,18,7.162,13.800000190734863,0.76
F,19,7.162,13.75,0.76
F,20,7.162,13.619999885559082,0.76
F,21,7.162,13.989999771118164,0.76
F,22,7.162,13.949999809265137,0.76
F,23,7.162,13.930000305175781,0.76
F,24,7.162,13.630000114440918,0.76
F,25,7.162,13.979999542236328,0.76
F,26,7.162,13.510000228881836,0.76
F,27,7.162,13.970000267028809,0.76
F,28,7.162,14.010000228881836,0.76
F,29,7.162,14.210000038146973,0.76
F,30,7.162,13.65999984741211,0.76
F,31,7.162,14.4399995803833,0.76
F,32,7.162,13.869999885559082,0.76
F,33,7.162,14.180000305175781,0.76
F,34,7.162,14.0,0.76
F,35,7.162,13.890000343322754,0.76
F,36,7.162,14.300000190734863,0.76
F,37,7.162,13.970000267028809,0.76
F,38,7.162,13.90999984741211,0.76
F,39,7.162,13.579999923706055,0.76
F,40,7.162,13.859999656677246,0.76
F,41,7.162,14.140000343322754,0.76
F,42,7.162,13.779999732971191,0.76
F,43,7.162,13.630000114440918,0.76
F,44,7.162,12.869999885559082,0.76
F,45,7.162,11.960000038146973,0.76
F,46,7.162,11.539999961853027,0.76
F,47,7.162,10.920000076293945,0.76
F,48,7.162,10.510000228881836,0.76
F,49,7.162,10.050000190734863,0.76
F,50,7.162,9.510000228881836,0.76
F,51,7.162,9.239999771118164,0.76
F,52,7.162,7.78000020980835,0.76
F,53,7.162,6.639999866485596,0.76
F,54,7.161,6.309999942779541,0.76
F,55,7.161,4.960000038146973,0.76
F,56,7.161,4.75,0.76
F,57,7.161,4.199999809265137,0.76
F,58,7.161,3.8499999046325684,0.76
F,59,7.161,3.4000000953674316,0.76
F,60,7.167,3.380000114440918,0.76
F,61,7.167,3.4000000953674316,0.76
F,62,7.167,3.4100000858306885,0.76
F,63,7.167,3.5199999809265137,0.76
S,0,10.507,0.12999999523162842,0.76
S,1,10.639,0.12999999523162842,0.76
S,2,10.668,0.12999999523162842,0.76
S,3,10.588,0.12999999523162842,0.76
S,4,10.625,0.10999999940395355,0.76
S,5,10.59,0.12999999523162842,0.76
S,6,10.525,0.10999999940395355,0.76
S,7,10.653,0.11999999731779099,0.76
S,8,10.69,0.14000000059604645,0.76
S,9,10.594,0.12999999523162842,0.76
S,10,10.65,0.14000000059604645,0.76
S,11,10.557,0.11999999731779099,0.76
S,12,10.572,0.11999999731779099,0.76
S,13,10.666,0.12999999523162842,0.76
S,14,10.68,0.12999999523162842,0.76
S,15,10.66,0.12999999523162842,0.76
S,16,10.619,0.12999999523162842,0.76
S,17,10.684,0.14000000059604645,0.76
S,18,10.631,0.11999999731779099,0.76
S,19,10.51,0.11999999731779099,0.76
S,20,10.625,0.11999999731779099,0.76
S,21,10.58,0.12999999523162842,0.76
S,22,10.542,0.11999999731779099,0.76
S,23,10.689,0.14000000059604645,0.76
S,24,10.605,0.10999999940395355,0.76
S,25,10.572,0.12999999523162842,0.76
S,26,10.575,0.11999999731779099,0.76
S,27,10.608,0.12999999523162842,0.76
S,28,10.671,0.15000000596046448,0.76
S,29,10.513,0.12999999523162842,0.76
S,30,10.528,0.12999999523162842,0.76
S,31,10.589,0.15000000596046448,0.76
S,32,10.573,0.12999999523162842,0.76
S,33,10.577,0.14000000059604645,0.76
S,34,10.605,0.15000000596046448,0.76
S,35,10.674,0.15000000596046448,0.76
S,36,10.58,0.15000000596046448,0.76
S,37,10.57,0.14000000059604645,0.76
S,38,10.529,0.15000000596046448,0.76
S,39,10.494,0.11999999731779099,0.76
S,40,10.597,0.14000000059604645,0.76
S,41,10.52,0.14000000059604645,0.76
S,42,10.57,0.12999999523162842,0.76
S,43,10.662,0.15000000596046448,0.76
S,44,10.571,0.1599999964237213,0.76
S,45,10.62,0.12999999523162842,0.76
S,46,10.55,0.14000000059604645,0.76
S,47,10.655,0.10999999940395355,0.76
S,48,10.652,0.11999999731779099,0.76
S,49,10.528,0.10999999940395355,0.76
S,50,10.606,0.11999999731779099,0.76
S,51,10.647,0.10999999940395355,0.76
S,52,10.517,0.09000000357627869,0.76
S,54,10.685,0.12999999523162842,0.76
S,55,10.616,0.07999999821186066,0.76
S,56,10.687,0.10999999940395355,0.76
S,57,10.688,0.10000000149011612,0.76
S,58,10.69,0.10999999940395355,0.76
S,59,10.686,0.07999999821186066,0.76
S,60,10.692,0.09000000357627869,0.76
S,61,10.672,0.07999999821186066,0.76
S,62,10.691,0.09000000357627869,0.76
S,63,10.646,0.05000000074505806,0.76
S,63,0.0,0.0,0.76
