F,0,6.896,15.0,0.81
F,1,6.896,15.0,0.81
F,2,6.896,15.0,0.81
F,3,6.896,15.0,0.81
F,4,6.896,15.0,0.81
F,5,6.896,15.0,0.81
F,6,6.896,15.0,0.81
F,7,6.896,15.0,0.81
F,8,6.896,15.0,0.81
F,9,6.896,15.0,0.81
F,10,6.896,15.0,0.81
F,11,6.896,15.0,0.81
F,12,6.896,15.0,0.81
F,13,6.896,15.0,0.81
F,14,6.896,15.0,0.81
F,15,6.896,15.0,0.81
F,16,6.896,15.0,0.81
F,17,6.896,15.0,0.81
F,18,6.896,15.0,0.81
F,19,6.896,15.0,0.81
F,20,6.897,15.0,0.81
F,21,6.897,15.0,0.81
F,22,6.897,15.0,0.81
F,23,6.896,15.0,0.81
F,24,6.897,15.0,0.81
F,25,6.897,15.0,0.81
F,26,6.896,15.0,0.81
F,27,6.896,15.0,0.81
F,28,6.896,15.0,0.81
F,29,6.897,15.0,0.81
F,30,6.897,15.0,0.81
F,31,6.897,15.0,0.81
F,32,6.897,15.0,0.81
F,33,6.897,15.0,0.81
F,34,6.897,15.0,0.81
F,35,6.896,15.0,0.81
F,36,6.897,15.0,0.81
F,37,6.897,15.0,0.81
F,38,6.897,15.0,0.81
F,39,6.897,15.0,0.81
F,40,6.897,15.0,0.81
F,41,6.897,15.0,0.81
F,42,6.897,15.0,0.81
F,43,6.897,14.199999809265137,0.81
F,44,6.897,13.470000267028809,0.81
F,45,6.897,12.949999809265137,0.81
F,46,6.897,12.199999809265137,0.81
F,47,6.897,11.619999885559082,0.81
F,48,6.897,11.229999542236328,0.81
F,49,6.897,10.5600004196167,0.81
F,50,6.897,10.359999656677246,0.81
F,51,6.896,9.949999809265137,0.81
F,52,6.896,8.319999694824219,0.81
F,53,6.896,7.349999904632568,0.81
F,54,6.896,6.199999809265137,0.81
F,55,6.896,5.480000019073486,0.81
F,56,6.896,4.71999979019165,0.81
F,57,6.896,4.239999771118164,0.81
F,58,6.877,3.940000057220459,0.81
F,59,6.877,4.0,0.81
F,60,6.877,4.079999923706055,0.81
F,61,6.877,4.110000133514404,0.81
F,62,6.877,4.159999847412109,0.81
F,63,6.878,4.159999847412109,0.81
S,0,8.191,0.09000000357627869,0.81
S,1,8.098,0.09000000357627869,0.81
S,2,8.006,0.07999999821186066,0.81
S,3,8.015,0.10000000149011612,0.81
S,4,8.007,0.07999999821186066,0.81
S,5,8.0,0.10000000149011612,0.81
S,7,8.19,0.10999999940395355,0.81
S,8,8.008,0.09000000357627869,0.81
S,9,8.015,0.07999999821186066,0.81
S,10,8.179,0.09000000357627869,0.81
S,11,8.182,0.09000000357627869,0.81
S,12,8.045,0.09000000357627869,0.81
S,13,8.096,0.09000000357627869,0.81
S,14,8.194,0.09000000357627869,0.81
S,15,8.108,0.09000000357627869,0.81
S,16,8.117,0.09000000357627869,0.81
S,19,8.212,0.09000000357627869,0.81
S,20,8.252,0.10000000149011612,0.81
S,21,8.002,0.10999999940395355,0.81
S,22,8.22,0.11999999731779099,0.81
S,23,8.21,0.09000000357627869,0.81
S,24,8.101,0.09000000357627869,0.81
S,25,8.224,0.10000000149011612,0.81
S,26,8.056,0.10999999940395355,0.81
S,27,8.196,0.10999999940395355,0.81
S,28,8.246,0.10000000149011612,0.81
S,29,8.003,0.12999999523162842,0.81
S,30,8.063,0.10999999940395355,0.81
S,31,8.182,0.12999999523162842,0.81
S,32,8.037,0.10999999940395355,0.81
S,33,8.204,0.11999999731779099,0.81
S,34,8.028,0.10999999940395355,0.81
S,35,8.006,0.10999999940395355,0.81
S,36,8.015,0.1599999964237213,0.81
S,37,8.005,0.14000000059604645,0.81
S,38,8.03,0.12999999523162842,0.81
S,39,8.072,0.10999999940395355,0.81
S,40,8.059,0.11999999731779099,0.81
S,41,8.016,0.18000000715255737,0.81
S,42,8.005,0.14000000059604645,0.81
S,43,8.012,0.15000000596046448,0.81
S,44,8.056,0.11999999731779099,0.81
S,45,8.192,0.11999999731779099,0.81
S,46,8.014,0.14000000059604645,0.81
S,47,8.075,0.10000000149011612,0.81
S,48,8.072,0.10999999940395355,0.81
S,49,8.027,0.10000000149011612,0.81
S,50,8.018,0.12999999523162842,0.81
S,51,8.003,0.11999999731779099,0.81
S,52,8.019,0.10000000149011612,0.81
S,55,8.068,0.07999999821186066,0.81
S,56,8.069,0.05000000074505806,0.81
S,57,8.014,0.05000000074505806,0.81
S,58,8.141,0.05999999865889549,0.81
S,59,8.141,0.03999999910593033,0.81
S,60,8.005,0.05000000074505806,0.81
S,61,8.067,0.03999999910593033,0.81
S,62,8.138,0.03999999910593033,0.81
S,63,8.14,0.05999999865889549,0.81
S,63,0.0,0.0,0.81
S,63,0.0,0.0,0.81
S,63,0.0,0.0,0.81
S,63,0.0,0.0,0.81
S,63,0.0,0.0,0.81
