F,0,2.562,8.539999961853027,0.89
F,1,2.562,8.430000305175781,0.89
F,2,2.562,8.5600004196167,0.89
F,3,2.562,8.680000305175781,0.89
F,4,2.562,8.75,0.89
F,5,2.562,8.609999656677246,0.89
F,6,2.562,9.050000190734863,0.89
F,7,2.562,8.739999771118164,0.89
F,8,2.562,8.949999809265137,0.89
F,9,2.562,8.9399995803833,0.89
F,10,2.562,8.9399995803833,0.89
F,11,2.562,8.979999542236328,0.89
F,12,2.562,9.029999732971191,0.89
F,13,2.562,9.029999732971191,0.89
F,14,2.562,9.229999542236328,0.89
F,15,2.562,9.029999732971191,0.89
F,16,2.562,9.020000457763672,0.89
F,17,2.562,9.369999885559082,0.89
F,18,2.562,9.15999984741211,0.89
F,19,2.562,9.210000038146973,0.89
F,20,2.562,9.270000457763672,0.89
F,21,2.562,9.140000343322754,0.89
F,22,2.562,9.119999885559082,0.89
F,23,2.562,9.369999885559082,0.89
F,24,2.562,9.329999923706055,0.89
F,25,2.562,9.1899995803833,0.89
F,26,2.562,9.579999923706055,0.89
F,27,2.562,9.569999694824219,0.89
F,28,2.562,9.670000076293945,0.89
F,29,2.562,9.569999694824219,0.89
F,30,2.562,9.90999984741211,0.89
F,31,2.562,9.579999923706055,0.89
F,32,2.562,9.979999542236328,0.89
F,33,2.562,9.949999809265137,0.89
F,34,2.562,10.079999923706055,0.89
F,35,2.562,10.359999656677246,0.89
F,36,2.562,10.1899995803833,0.89
F,37,2.562,10.479999542236328,0.89
F,38,2.562,10.59000015258789,0.89
F,39,2.562,11.180000305175781,0.89
F,40,2.562,11.170000076293945,0.89
F,41,2.562,11.0600004196167,0.89
F,42,2.562,11.609999656677246,0.89
F,43,2.562,10.770000457763672,0.89
F,44,2.561,10.40999984741211,0.89
F,45,2.562,10.40999984741211,0.89
F,46,2.562,9.760000228881836,0.89
F,47,2.561,9.529999732971191,0.89
F,48,2.561,9.460000038146973,0.89
F,49,2.561,8.75,0.89
F,50,2.561,8.760000228881836,0.89
F,51,2.561,8.619999885559082,0.89
F,52,2.561,7.599999904632568,0.89
F,53,2.561,7.25,0.89
F,54,2.561,6.239999771118164,0.89
F,55,2.561,5.880000114440918,0.89
F,56,2.561,5.679999828338623,0.89
F,57,2.561,5.380000114440918,0.89
F,58,2.561,4.710000038146973,0.89
F,59,2.561,4.739999771118164,0.89
F,60,2.561,4.550000190734863,0.89
F,61,2.561,4.360000133514404,0.89
F,62,2.561,4.260000228881836,0.89
F,63,2.561,4.059999942779541,0.89
S,0,6.896,15.0,0.89
S,1,6.896,15.0,0.89
S,2,6.896,15.0,0.89
S,3,6.896,15.0,0.89
S,4,6.896,15.0,0.89
S,5,6.896,15.0,0.89
S,6,6.896,15.0,0.89
S,7,6.896,15.0,0.89
S,8,6.896,15.0,0.89
S,9,6.896,15.0,0.89
S,10,6.896,15.0,0.89
S,11,6.896,15.0,0.89
S,12,6.896,15.0,0.89
S,13,6.896,15.0,0.89
S,14,6.896,15.0,0.89
S,15,6.896,15.0,0.89
S,16,6.896,15.0,0.89
S,17,6.896,15.0,0.89
S,18,6.896,15.0,0.89
S,19,6.896,15.0,0.89
S,20,6.897,15.0,0.89
S,21,6.897,15.0,0.89
S,22,6.897,15.0,0.89
S,23,6.896,15.0,0.89
S,24,6.897,15.0,0.89
S,25,6.897,15.0,0.89
S,26,6.896,15.0,0.89
S,27,6.896,15.0,0.89
S,28,6.896,15.0,0.89
S,29,6.897,15.0,0.89
S,30,6.897,15.0,0.89
S,31,6.897,15.0,0.89
S,32,6.897,15.0,0.89
S,33,6.897,15.0,0.89
S,34,6.897,15.0,0.89
S,35,6.896,15.0,0.89
S,36,6.897,15.0,0.89
S,37,6.897,15.0,0.89
S,38,6.897,15.0,0.89
S,39,6.897,15.0,0.89
S,40,6.897,15.0,0.89
S,41,6.897,15.0,0.89
S,42,6.897,15.0,0.89
S,43,6.897,14.199999809265137,0.89
S,44,6.897,13.470000267028809,0.89
S,45,6.897,12.949999809265137,0.89
S,46,6.897,12.199999809265137,0.89
S,47,6.897,11.619999885559082,0.89
S,48,6.897,11.229999542236328,0.89
S,49,6.897,10.5600004196167,0.89
S,50,6.897,10.359999656677246,0.89
S,51,6.896,9.949999809265137,0.89
S,52,6.896,8.319999694824219,0.89
S,53,6.896,7.349999904632568,0.89
S,54,6.896,6.199999809265137,0.89
S,55,6.896,5.480000019073486,0.89
S,56,6.896,4.71999979019165,0.89
S,57,6.896,4.239999771118164,0.89
S,58,6.877,3.940000057220459,0.89
S,59,6.877,4.0,0.89
S,60,6.877,4.079999923706055,0.89
S,61,6.877,4.110000133514404,0.89
S,62,6.877,4.159999847412109,0.89
S,63,6.878,4.159999847412109,0.89
