F,0,2.562,8.539999961853027,0.89
F,1,2.562,8.430000305175781,0.89
F,2,2.562,8.5600004196167,0.89
F,3,2.562,8.680000305175781,0.89
F,4,2.562,8.75,0.89
F,5,2.562,8.609999656677246,0.89
F,6,2.562,9.050000190734863,0.89
F,7,2.562,8.739999771118164,0.89
F,8,2.562,8.949999809265137,0.89
F,9,2.562,8.9399995803833,0.89
F,10,2.562,8.9399995803833,0.89
F,11,2.562,8.979999542236328,0.89
F,12,2.562,9.029999732971191,0.89
F,13,2.562,9.029999732971191,0.89
F,14,2.562,9.229999542236328,0.89
F,15,2.562,9.029999732971191,0.89
F,16,2.562,9.020000457763672,0.89
F,17,2.562,9.369999885559082,0.89
F,18,2.562,9.15999984741211,0.89
F,19,2.562,9.210000038146973,0.89
F,20,2.562,9.270000457763672,0.89
F,21,2.562,9.140000343322754,0.89
F,22,2.562,9.119999885559082,0.89
F,23,2.562,9.369999885559082,0.89
F,24,2.562,9.329999923706055,0.89
F,25,2.562,9.1899995803833,0.89
F,26,2.562,9.579999923706055,0.89
F,27,2.562,9.569999694824219,0.89
F,28,2.562,9.670000076293945,0.89
F,29,2.562,9.569999694824219,0.89
F,30,2.562,9.90999984741211,0.89
F,31,2.562,9.579999923706055,0.89
F,32,2.562,9.979999542236328,0.89
F,33,2.562,9.949999809265137,0.89
F,34,2.562,10.079999923706055,0.89
F,35,2.562,10.359999656677246,0.89
F,36,2.562,10.1899995803833,0.89
F,37,2.562,10.479999542236328,0.89
F,38,2.562,10.59000015258789,0.89
F,39,2.562,11.180000305175781,0.89
F,40,2.562,11.170000076293945,0.89
F,41,2.562,11.0600004196167,0.89
F,42,2.562,11.609999656677246,0.89
F,43,2.562,10.770000457763672,0.89
F,44,2.561,10.40999984741211,0.89
F,45,2.562,10.40999984741211,0.89
F,46,2.562,9.760000228881836,0.89
F,47,2.561,9.529999732971191,0.89
F,48,2.561,9.460000038146973,0.89
F,49,2.561,8.75,0.89
F,50,2.561,8.760000228881836,0.89
F,51,2.561,8.619999885559082,0.89
F,52,2.561,7.599999904632568,0.89
F,53,2.561,7.25,0.89
F,54,2.561,6.239999771118164,0.89
F,55,2.561,5.880000114440918,0.89
F,56,2.561,5.679999828338623,0.89
F,57,2.561,5.380000114440918,0.89
F,58,2.561,4.710000038146973,0.89
F,59,2.561,4.739999771118164,0.89
F,60,2.561,4.550000190734863,0.89
F,61,2.561,4.360000133514404,0.89
F,62,2.561,4.260000228881836,0.89
F,63,2.561,4.059999942779541,0.89
S,0,7.161,14.069999694824219,0.89
S,1,7.161,14.149999618530273,0.89
S,2,7.162,14.09000015258789,0.89
S,3,7.161,13.979999542236328,0.89
S,4,7.162,13.800000190734863,0.89
S,5,7.161,13.90999984741211,0.89
S,6,7.162,13.510000228881836,0.89
S,7,7.162,13.989999771118164,0.89
S,8,7.162,13.789999961853027,0.89
S,9,7.162,13.8100004196167,0.89
S,10,7.162,13.829999923706055,0.89
S,11,7.162,13.729999542236328,0.89
S,12,7.162,13.59000015258789,0.89
S,13,7.162,13.930000305175781,0.89
S,14,7.162,13.779999732971191,0.89
S,15,7.162,13.890000343322754,0.89
S,16,7.162,13.979999542236328,0.89
S,17,7.162,13.520000457763672,0.89
S,18,7.162,13.800000190734863,0.89
S,19,7.162,13.75,0.89
S,20,7.162,13.619999885559082,0.89
S,21,7.162,13.989999771118164,0.89
S,22,7.162,13.949999809265137,0.89
S,23,7.162,13.930000305175781,0.89
S,24,7.162,13.630000114440918,0.89
S,25,7.162,13.979999542236328,0.89
S,26,7.162,13.510000228881836,0.89
S,27,7.162,13.970000267028809,0.89
S,28,7.162,14.010000228881836,0.89
S,29,7.162,14.210000038146973,0.89
S,30,7.162,13.65999984741211,0.89
S,31,7.162,14.4399995803833,0.89
S,32,7.162,13.869999885559082,0.89
S,33,7.162,14.180000305175781,0.89
S,34,7.162,14.0,0.89
S,35,7.162,13.890000343322754,0.89
S,36,7.162,14.300000190734863,0.89
S,37,7.162,13.970000267028809,0.89
S,38,7.162,13.90999984741211,0.89
S,39,7.162,13.579999923706055,0.89
S,40,7.162,13.859999656677246,0.89
S,41,7.162,14.140000343322754,0.89
S,42,7.162,13.779999732971191,0.89
S,43,7.162,13.630000114440918,0.89
S,44,7.162,12.869999885559082,0.89
S,45,7.162,11.960000038146973,0.89
S,46,7.162,11.539999961853027,0.89
S,47,7.162,10.920000076293945,0.89
S,48,7.162,10.510000228881836,0.89
S,49,7.162,10.050000190734863,0.89
S,50,7.162,9.510000228881836,0.89
S,51,7.162,9.239999771118164,0.89
S,52,7.162,7.78000020980835,0.89
S,53,7.162,6.639999866485596,0.89
S,54,7.161,6.309999942779541,0.89
S,55,7.161,4.960000038146973,0.89
S,56,7.161,4.75,0.89
S,57,7.161,4.199999809265137,0.89
S,58,7.161,3.8499999046325684,0.89
S,59,7.161,3.4000000953674316,0.89
S,60,7.167,3.380000114440918,0.89
S,61,7.167,3.4000000953674316,0.89
S,62,7.167,3.4100000858306885,0.89
S,63,7.167,3.5199999809265137,0.89
