##TITLE= Audit trail, TOPSPIN		Version 2.1
##JCAMPDX= 5.01
##ORIGIN= Bruker BioSpin GmbH
##OWNER= Administrator
$$ T:/data/MJD/nmr/C03519/4/audita.txt
##AUDIT TRAIL=  $$ (NUMBER, WHEN, WHO, WHERE, PROCESS, VERSION, WHAT)
(   1,<2014-12-16 17:04:27.125 +0000>,<Administrator>,<GH001606>,<go>,<TOPSPIN 2.1>,
      <created by zg
	started at 2014-12-16 17:03:11.468 +0000,
	POWCHK disabled, PULCHK disabled,
       configuration hash MD5:
       4F DB FE 01 64 29 F4 D5 05 17 18 DB FF 7C 08 05
       data hash MD5: 32K
       3D EA 77 C2 13 80 C0 9F 42 02 F0 D8 01 AF E7 8B>)
(   2,<2014-12-16 17:04:41.031 +0000>,<Administrator>,<GH001606>,<audit>,<TOPSPIN 2.1>,
      <user comment:
       ICON-NMR User ID: MJD
       data hash MD5: 32K
       3D EA 77 C2 13 80 C0 9F 42 02 F0 D8 01 AF E7 8B>)
(   3,<2014-12-16 17:04:41.546 +0000>,<Administrator>,<GH001606>,<dirdata>,<TOPSPIN 2.1>,
      <wrpa from 1 4 "C03519" "MJD" "C:\NMRdata"
       data hash MD5: 32K
       3D EA 77 C2 13 80 C0 9F 42 02 F0 D8 01 AF E7 8B>)
##END=

$$ hash MD5
$$ B1 B8 17 7E EA 8D 4E BE 9E 7D 15 E5 8C 48 28 9A
