10.588900,0.150000,31.000000
10.532400,0.140000,31.000000
10.491800,0.120000,31.000000
10.476500,0.110000,31.000000
10.441100,0.110000,31.000000
8.469100,0.100000,31.000000
8.367500,0.100000,31.000000
8.288900,0.090000,31.000000
8.224000,0.120000,31.000000
8.182300,0.130000,31.000000
8.150000,0.120000,31.000000
8.099900,0.110000,31.000000
8.052400,0.100000,31.000000
7.958800,0.170000,31.000000
7.888100,0.160000,31.000000
7.845400,0.180000,31.000000
7.778800,0.150000,31.000000
7.724500,0.200000,31.000000
7.708600,0.210000,31.000000
7.695800,0.430000,31.000000
7.681800,0.420000,31.000000
7.636200,0.230000,31.000000
7.608800,0.200000,31.000000
7.537500,0.730000,31.000000
7.518400,0.620000,31.000000
7.504500,0.580000,31.000000
7.488900,0.320000,31.000000
7.429400,0.260000,31.000000
7.423100,0.260000,31.000000
7.387100,0.370000,31.000000
7.303400,0.520000,31.000000
7.288500,0.520000,31.000000
7.264200,0.540000,31.000000
7.252700,0.680000,31.000000
7.239900,0.610000,31.000000
7.223700,1.040000,31.000000
7.193700,1.050000,31.000000
7.181100,3.690000,31.000000
7.176400,12.370000,31.000000
7.161800,14.440000,31.000000
7.141600,0.710000,31.000000
7.126700,0.290000,31.000000
7.114800,0.250000,31.000000
7.077100,0.190000,31.000000
7.027200,0.360000,31.000000
7.011100,0.300000,31.000000
6.983100,0.240000,31.000000
6.911000,1.280000,31.000000
6.896500,15.000000,31.000000
6.882000,11.990000,31.000000
6.877300,2.430000,31.000000
6.862700,1.200000,31.000000
6.846600,0.290000,31.000000
6.831600,0.280000,31.000000
6.772900,0.180000,31.000000
4.711000,0.150000,31.000000
4.706300,0.670000,31.000000
4.702600,0.500000,31.000000
4.699900,0.360000,31.000000
4.684500,0.100000,31.000000
4.680100,0.330000,31.000000
4.674000,0.290000,31.000000
4.253700,0.130000,31.000000
4.216000,0.140000,31.000000
4.138300,0.350000,31.000000
4.123400,0.320000,31.000000
4.070300,0.300000,31.000000
4.032900,0.370000,31.000000
4.020400,1.420000,31.000000
4.004800,0.600000,31.000000
3.983900,4.950000,31.000000
3.971200,7.270000,31.000000
3.959200,4.890000,31.000000
3.945400,4.410000,31.000000
3.917400,14.090000,31.000000
3.889400,13.940000,31.000000
3.861400,4.620000,31.000000
3.839900,0.510000,31.000000
3.824200,5.520000,31.000000
3.800300,7.450000,31.000000
3.769400,0.930000,31.000000
3.740700,10.240000,31.000000
3.709600,0.460000,31.000000
3.678600,0.300000,31.000000
3.617200,0.280000,31.000000
3.586000,0.200000,31.000000
3.565600,0.190000,31.000000
3.450200,3.330000,31.000000
3.247900,0.100000,31.000000
3.233800,0.140000,31.000000
3.218300,0.270000,31.000000
3.197900,0.370000,31.000000
3.185700,0.330000,31.000000
3.175600,0.180000,31.000000
3.162000,0.180000,31.000000
3.136600,0.170000,31.000000
3.066400,2.190000,31.000000
3.054900,2.340000,31.000000
3.043300,6.240000,31.000000
3.031700,6.410000,31.000000
3.021100,6.540000,31.000000
3.007900,6.400000,31.000000
2.998000,2.250000,31.000000
2.984700,2.040000,31.000000
2.752200,0.120000,31.000000
2.739700,0.240000,31.000000
2.733700,0.240000,31.000000
2.726100,0.180000,31.000000
2.686800,0.140000,31.000000
2.671700,4.220000,31.000000
2.646500,9.240000,31.000000
2.618700,0.430000,31.000000
2.606800,0.440000,31.000000
2.579600,0.370000,31.000000
2.561500,9.580000,31.000000
2.536400,4.260000,31.000000
2.377500,0.080000,31.000000
2.367700,0.280000,31.000000
2.358300,0.180000,31.000000
2.319800,0.170000,31.000000
2.309800,0.480000,31.000000
2.303100,0.460000,31.000000
2.290800,0.160000,31.000000
2.280300,0.170000,31.000000
2.242800,0.170000,31.000000
2.212200,0.240000,31.000000
2.198300,0.290000,31.000000
2.186800,0.260000,31.000000
2.148300,0.340000,31.000000
2.129800,0.940000,31.000000
2.115000,0.690000,31.000000
2.097700,0.490000,31.000000
2.080500,1.980000,31.000000
2.064300,0.770000,31.000000
2.051500,0.730000,31.000000
2.044000,0.820000,31.000000
2.032200,0.550000,31.000000
2.023300,0.540000,31.000000
2.012900,0.530000,31.000000
1.988200,0.390000,31.000000
1.966900,0.280000,31.000000
1.940700,0.290000,31.000000
1.928600,0.330000,31.000000
1.907400,0.320000,31.000000
1.896400,0.280000,31.000000
1.858100,0.390000,31.000000
1.806200,0.270000,31.000000
1.768400,0.330000,31.000000
1.761500,0.310000,31.000000
1.704100,0.540000,31.000000
1.680100,0.600000,31.000000
1.666300,0.580000,31.000000
1.656600,0.560000,31.000000
1.600700,0.270000,31.000000
1.550000,0.130000,31.000000
1.490100,0.390000,31.000000
1.477700,0.380000,31.000000
1.435200,0.270000,31.000000
1.424500,0.370000,31.000000
1.411800,0.310000,31.000000
1.369100,0.170000,31.000000
1.337400,0.650000,31.000000
1.325800,0.580000,31.000000
1.283600,0.110000,31.000000
1.240300,0.360000,31.000000
1.230100,0.320000,31.000000
1.212100,0.330000,31.000000
1.202900,0.350000,31.000000
1.184200,0.280000,31.000000
1.172900,0.280000,31.000000
1.152700,0.250000,31.000000
1.108700,0.380000,31.000000
1.096500,0.420000,31.000000
1.058500,0.230000,31.000000
1.050500,0.320000,31.000000
1.037900,0.370000,31.000000
1.033300,0.280000,31.000000
1.018000,0.430000,31.000000
1.005200,0.580000,31.000000
1.000300,0.730000,31.000000
0.983500,1.030000,31.000000
0.969800,1.250000,31.000000
0.953700,1.590000,31.000000
0.947200,2.950000,31.000000
0.941500,1.880000,31.000000
0.935600,2.670000,31.000000
0.929000,1.860000,31.000000
0.919600,2.010000,31.000000
0.908600,1.850000,31.000000
0.898300,1.610000,31.000000
0.891700,1.380000,31.000000
0.884900,1.410000,31.000000
0.877600,1.430000,31.000000
0.862400,1.070000,31.000000
0.818100,0.510000,31.000000
0.656400,0.080000,31.000000
0.096800,0.350000,31.000000
0.040600,0.290000,31.000000
0.016900,0.200000,31.000000
0.015500,0.220000,31.000000
0.012500,0.170000,31.000000
0.011000,0.270000,31.000000
0.009500,0.390000,31.000000
0.008000,0.730000,31.000000
0.005100,4.040000,31.000000
0.003500,4.510000,31.000000
-0.000200,102.340000,31.000000
-0.005800,4.460000,31.000000
-0.008800,0.970000,31.000000
-0.010300,0.590000,31.000000
-0.011800,0.370000,31.000000
-0.013300,0.260000,31.000000
-0.014800,0.180000,31.000000
-0.028200,0.160000,31.000000
-0.031100,0.090000,31.000000
-0.034100,0.100000,31.000000
-0.100600,0.370000,31.000000
-0.896800,0.090000,31.000000
-0.955500,0.140000,31.000000
-1.085300,0.200000,31.000000
-1.188000,0.240000,31.000000
