10.590400,0.130000,42.000000
10.569900,0.130000,42.000000
10.536300,0.120000,42.000000
10.496000,0.120000,42.000000
10.487700,0.120000,42.000000
8.005100,0.140000,42.000000
7.969700,0.170000,42.000000
7.948400,0.180000,42.000000
7.883800,0.180000,42.000000
7.847600,0.210000,42.000000
7.838700,0.180000,42.000000
7.812200,0.120000,42.000000
7.764800,0.130000,42.000000
7.724600,0.180000,42.000000
7.709900,0.190000,42.000000
7.695900,0.430000,42.000000
7.682400,0.420000,42.000000
7.659400,0.180000,42.000000
7.638000,0.200000,42.000000
7.628700,0.170000,42.000000
7.610500,0.190000,42.000000
7.535800,0.640000,42.000000
7.518500,0.590000,42.000000
7.504000,0.580000,42.000000
7.489100,0.280000,42.000000
7.465800,0.230000,42.000000
7.424800,0.290000,42.000000
7.412500,0.280000,42.000000
7.389000,0.410000,42.000000
7.376800,0.400000,42.000000
7.345400,0.360000,42.000000
7.318000,0.480000,42.000000
7.304700,0.550000,42.000000
7.288100,0.500000,42.000000
7.277300,0.470000,42.000000
7.252400,0.690000,42.000000
7.238800,0.610000,42.000000
7.223500,1.030000,42.000000
7.208500,1.040000,42.000000
7.193900,1.460000,42.000000
7.181500,4.520000,42.000000
7.176500,11.650000,42.000000
7.172900,3.340000,42.000000
7.165800,4.940000,42.000000
7.161900,13.780000,42.000000
7.156800,2.300000,42.000000
7.141700,0.790000,42.000000
7.136500,0.300000,42.000000
7.124700,0.270000,42.000000
7.114200,0.280000,42.000000
7.082400,0.230000,42.000000
7.056600,0.240000,42.000000
7.026800,0.330000,42.000000
6.981600,0.230000,42.000000
6.915300,1.290000,42.000000
6.911200,1.400000,42.000000
6.901200,3.330000,42.000000
6.896600,15.000000,42.000000
6.893000,3.150000,42.000000
6.885500,3.540000,42.000000
6.882000,12.220000,42.000000
6.877200,4.040000,42.000000
6.873900,0.920000,42.000000
6.866200,0.870000,42.000000
6.862800,2.630000,42.000000
6.857700,0.480000,42.000000
6.773300,0.190000,42.000000
6.762200,0.170000,42.000000
4.712200,0.120000,42.000000
4.708200,1.300000,42.000000
4.703400,1.930000,42.000000
4.701600,1.730000,42.000000
4.698200,1.430000,42.000000
4.691400,21.310000,42.000000
4.685300,2.150000,42.000000
4.682200,2.650000,42.000000
4.678300,2.630000,42.000000
4.672800,1.200000,42.000000
4.246000,0.160000,42.000000
4.222000,0.140000,42.000000
4.199900,0.170000,42.000000
4.190500,0.160000,42.000000
4.164100,0.280000,42.000000
4.138000,0.320000,42.000000
4.121900,0.350000,42.000000
4.099700,0.270000,42.000000
4.084200,0.250000,42.000000
4.079200,0.300000,42.000000
4.032400,0.340000,42.000000
4.020500,1.430000,42.000000
4.005900,0.560000,42.000000
3.984800,4.630000,42.000000
3.971900,6.420000,42.000000
3.960200,4.460000,42.000000
3.945700,4.440000,42.000000
3.932300,0.750000,42.000000
3.917600,13.380000,42.000000
3.889500,13.240000,42.000000
3.879500,0.650000,42.000000
3.861400,4.540000,42.000000
3.839600,0.700000,42.000000
3.824300,10.900000,42.000000
3.812700,0.710000,42.000000
3.800700,14.770000,42.000000
3.784900,0.540000,42.000000
3.768300,1.070000,42.000000
3.740600,8.630000,42.000000
3.715800,0.430000,42.000000
3.710100,0.470000,42.000000
3.678500,0.570000,42.000000
3.671300,0.400000,42.000000
3.656400,0.210000,42.000000
3.633700,0.220000,42.000000
3.618100,0.400000,42.000000
3.610700,0.290000,42.000000
3.593100,0.230000,42.000000
3.585900,0.260000,42.000000
3.565500,0.650000,42.000000
3.540100,0.280000,42.000000
3.450300,7.590000,42.000000
3.259300,0.140000,42.000000
3.247700,0.410000,42.000000
3.235700,0.250000,42.000000
3.218700,0.390000,42.000000
3.210400,0.320000,42.000000
3.198000,0.440000,42.000000
3.185600,0.550000,42.000000
3.173800,0.210000,42.000000
3.162000,0.260000,42.000000
3.152500,0.160000,42.000000
3.138600,0.220000,42.000000
3.104000,0.190000,42.000000
3.074600,0.560000,42.000000
3.066900,1.950000,42.000000
3.060800,0.680000,42.000000
3.055300,2.090000,42.000000
3.043800,5.580000,42.000000
3.032200,5.820000,42.000000
3.021600,5.940000,42.000000
3.008400,5.840000,42.000000
2.998500,2.110000,42.000000
2.985300,1.970000,42.000000
2.956600,0.130000,42.000000
2.768700,0.130000,42.000000
2.759600,0.140000,42.000000
2.752100,0.200000,42.000000
2.739400,0.460000,42.000000
2.733500,0.270000,42.000000
2.727100,0.360000,42.000000
2.701500,0.140000,42.000000
2.684400,0.150000,42.000000
2.671800,5.080000,42.000000
2.646700,11.020000,42.000000
2.618800,0.740000,42.000000
2.606900,0.790000,42.000000
2.598700,0.130000,42.000000
2.592900,0.140000,42.000000
2.579500,0.400000,42.000000
2.561500,11.610000,42.000000
2.536400,5.240000,42.000000
2.488200,0.200000,42.000000
2.368300,0.270000,42.000000
2.358900,0.260000,42.000000
2.348800,0.140000,42.000000
2.345700,0.130000,42.000000
2.327400,0.120000,42.000000
2.319700,0.190000,42.000000
2.310000,0.530000,42.000000
2.303200,0.490000,42.000000
2.290400,0.200000,42.000000
2.262300,0.170000,42.000000
2.248000,0.180000,42.000000
2.223800,0.210000,42.000000
2.211300,0.270000,42.000000
2.199200,0.350000,42.000000
2.186900,0.270000,42.000000
2.175000,0.240000,42.000000
2.144700,0.570000,42.000000
2.129700,1.590000,42.000000
2.125700,0.760000,42.000000
2.111900,0.720000,42.000000
2.098300,0.540000,42.000000
2.080500,2.260000,42.000000
2.072200,0.810000,42.000000
2.064300,1.070000,42.000000
2.051800,1.070000,42.000000
2.045000,0.900000,42.000000
2.025500,0.590000,42.000000
2.011300,0.570000,42.000000
1.995800,0.420000,42.000000
1.991900,0.420000,42.000000
1.980000,0.390000,42.000000
1.967600,0.350000,42.000000
1.955800,0.370000,42.000000
1.934600,0.390000,42.000000
1.924800,0.450000,42.000000
1.920400,0.490000,42.000000
1.917200,0.490000,42.000000
1.906900,0.550000,42.000000
1.897100,0.390000,42.000000
1.871400,0.340000,42.000000
1.856600,0.420000,42.000000
1.842700,0.320000,42.000000
1.814300,0.270000,42.000000
1.800400,0.280000,42.000000
1.791600,0.280000,42.000000
1.761800,0.360000,42.000000
1.732400,0.550000,42.000000
1.718100,0.620000,42.000000
1.708000,0.650000,42.000000
1.687800,0.650000,42.000000
1.680100,0.750000,42.000000
1.666500,0.700000,42.000000
1.657100,0.640000,42.000000
1.624200,0.410000,42.000000
1.617300,0.350000,42.000000
1.593900,0.270000,42.000000
1.549800,0.160000,42.000000
1.535800,0.160000,42.000000
1.525800,0.250000,42.000000
1.514200,0.260000,42.000000
1.499500,0.240000,42.000000
1.490300,0.710000,42.000000
1.478000,0.740000,42.000000
1.471700,0.330000,42.000000
1.464200,0.310000,42.000000
1.436900,0.380000,42.000000
1.424900,0.480000,42.000000
1.413000,0.360000,42.000000
1.373400,0.240000,42.000000
1.369100,0.260000,42.000000
1.361000,0.240000,42.000000
1.356900,0.270000,42.000000
1.347500,0.280000,42.000000
1.337700,0.870000,42.000000
1.327000,0.710000,42.000000
1.291500,0.150000,42.000000
1.274800,0.160000,42.000000
1.268500,0.210000,42.000000
1.253400,0.320000,42.000000
1.240300,0.410000,42.000000
1.230200,0.380000,42.000000
1.211300,0.370000,42.000000
1.202600,0.360000,42.000000
1.184100,0.280000,42.000000
1.173400,0.290000,42.000000
1.152500,0.250000,42.000000
1.108600,0.580000,42.000000
1.096700,0.650000,42.000000
1.071300,0.170000,42.000000
1.055700,0.340000,42.000000
1.050300,0.650000,42.000000
1.044000,0.280000,42.000000
1.038100,0.800000,42.000000
1.033400,0.390000,42.000000
1.024700,0.400000,42.000000
1.018000,1.160000,42.000000
1.006000,1.220000,42.000000
1.000200,1.160000,42.000000
0.988100,1.410000,42.000000
0.983900,1.250000,42.000000
0.974600,1.570000,42.000000
0.969100,1.530000,42.000000
0.964200,2.110000,42.000000
0.953700,2.250000,42.000000
0.947200,4.130000,42.000000
0.941400,2.610000,42.000000
0.935800,3.810000,42.000000
0.929100,2.330000,42.000000
0.919500,3.170000,42.000000
0.908300,2.980000,42.000000
0.898200,1.980000,42.000000
0.892800,1.560000,42.000000
0.885600,1.630000,42.000000
0.877900,1.490000,42.000000
0.870800,1.250000,42.000000
0.861800,1.120000,42.000000
0.849400,0.900000,42.000000
0.822900,0.450000,42.000000
0.805100,0.440000,42.000000
0.749200,0.240000,42.000000
0.097000,0.410000,42.000000
0.005000,3.710000,42.000000
-0.000200,132.490000,42.000000
-0.005500,5.100000,42.000000
-0.009200,1.170000,42.000000
-0.010700,0.840000,42.000000
-0.012200,0.630000,42.000000
-0.013700,0.490000,42.000000
-0.015200,0.390000,42.000000
-0.016700,0.310000,42.000000
-0.018100,0.260000,42.000000
-0.019600,0.250000,42.000000
-0.021100,0.210000,42.000000
-0.022500,0.170000,42.000000
-0.024100,0.130000,42.000000
-0.026800,0.230000,42.000000
-0.100700,0.560000,42.000000
-0.935300,0.120000,42.000000
-1.031500,0.150000,42.000000
-1.040600,0.160000,42.000000
-1.075700,0.170000,42.000000
-1.093100,0.190000,42.000000
-1.106900,0.190000,42.000000
-1.167500,0.210000,42.000000
