0,1.337,0.4399999976158142,-0.51
1,1.326,0.4399999976158142,-0.51
2,1.326,0.44999998807907104,-0.51
3,1.337,0.44999998807907104,-0.51
4,1.337,0.4399999976158142,-0.51
5,1.326,0.4399999976158142,-0.51
6,1.337,0.4699999988079071,-0.51
7,1.337,0.46000000834465027,-0.51
8,1.337,0.4699999988079071,-0.51
9,1.337,0.4699999988079071,-0.51
10,1.337,0.49000000953674316,-0.51
11,1.337,0.4699999988079071,-0.51
12,1.326,0.5,-0.51
13,1.337,0.5099999904632568,-0.51
14,1.337,0.5299999713897705,-0.51
15,1.326,0.49000000953674316,-0.51
16,1.326,0.47999998927116394,-0.51
17,1.337,0.5199999809265137,-0.51
18,1.337,0.5,-0.51
19,1.326,0.5199999809265137,-0.51
20,1.337,0.5099999904632568,-0.51
21,1.337,0.49000000953674316,-0.51
22,1.337,0.550000011920929,-0.51
23,1.337,0.5400000214576721,-0.51
24,1.337,0.5099999904632568,-0.51
25,1.337,0.5199999809265137,-0.51
26,1.337,0.5400000214576721,-0.51
27,1.337,0.5600000023841858,-0.51
28,1.0,0.550000011920929,-0.51
29,1.0,0.6299999952316284,-0.51
30,1.0,0.5899999737739563,-0.51
31,1.0,0.7300000190734863,-0.51
32,1.0,0.6499999761581421,-0.51
33,1.0,0.7300000190734863,-0.51
34,1.0,0.7099999785423279,-0.51
35,1.0,0.7200000286102295,-0.51
36,1.0,0.8999999761581421,-0.51
37,1.0,0.9100000262260437,-0.51
38,1.0,0.9700000286102295,-0.51
39,1.006,1.0199999809265137,-0.51
40,1.006,1.1100000143051147,-0.51
41,1.006,1.2300000190734863,-0.51
42,1.006,1.2200000286102295,-0.51
43,1.006,1.340000033378601,-0.51
44,1.006,1.3600000143051147,-0.51
45,1.006,1.309999942779541,-0.51
46,1.006,1.3200000524520874,-0.51
47,1.006,1.3200000524520874,-0.51
48,1.006,1.350000023841858,-0.51
49,1.006,1.3300000429153442,-0.51
50,1.006,1.3200000524520874,-0.51
51,1.006,1.340000033378601,-0.51
52,1.006,1.3799999952316284,-0.51
53,1.006,1.4600000381469727,-0.51
54,1.006,1.5399999618530273,-0.51
55,1.006,1.4600000381469727,-0.51
56,1.006,1.4900000095367432,-0.51
57,1.006,1.5399999618530273,-0.51
58,1.006,1.5299999713897705,-0.51
59,1.018,1.559999942779541,-0.51
60,1.0,1.600000023841858,-0.51
61,1.0,1.6100000143051147,-0.51
62,1.0,1.690000057220459,-0.51
63,1.0,1.690000057220459,-0.51
0,2.562,8.539999961853027,-0.51
1,2.562,8.430000305175781,-0.51
2,2.562,8.5600004196167,-0.51
3,2.562,8.680000305175781,-0.51
4,2.562,8.75,-0.51
5,2.562,8.609999656677246,-0.51
6,2.562,9.050000190734863,-0.51
7,2.562,8.739999771118164,-0.51
8,2.562,8.949999809265137,-0.51
9,2.562,8.9399995803833,-0.51
10,2.562,8.9399995803833,-0.51
11,2.562,8.979999542236328,-0.51
12,2.562,9.029999732971191,-0.51
13,2.562,9.029999732971191,-0.51
14,2.562,9.229999542236328,-0.51
15,2.562,9.029999732971191,-0.51
16,2.562,9.020000457763672,-0.51
17,2.562,9.369999885559082,-0.51
18,2.562,9.15999984741211,-0.51
19,2.562,9.210000038146973,-0.51
20,2.562,9.270000457763672,-0.51
21,2.562,9.140000343322754,-0.51
22,2.562,9.119999885559082,-0.51
23,2.562,9.369999885559082,-0.51
24,2.562,9.329999923706055,-0.51
25,2.562,9.1899995803833,-0.51
26,2.562,9.579999923706055,-0.51
27,2.562,9.569999694824219,-0.51
28,2.562,9.670000076293945,-0.51
29,2.562,9.569999694824219,-0.51
30,2.562,9.90999984741211,-0.51
31,2.562,9.579999923706055,-0.51
32,2.562,9.979999542236328,-0.51
33,2.562,9.949999809265137,-0.51
34,2.562,10.079999923706055,-0.51
35,2.562,10.359999656677246,-0.51
36,2.562,10.1899995803833,-0.51
37,2.562,10.479999542236328,-0.51
38,2.562,10.59000015258789,-0.51
39,2.562,11.180000305175781,-0.51
40,2.562,11.170000076293945,-0.51
41,2.562,11.0600004196167,-0.51
42,2.562,11.609999656677246,-0.51
43,2.562,10.770000457763672,-0.51
44,2.561,10.40999984741211,-0.51
45,2.562,10.40999984741211,-0.51
46,2.562,9.760000228881836,-0.51
47,2.561,9.529999732971191,-0.51
48,2.561,9.460000038146973,-0.51
49,2.561,8.75,-0.51
50,2.561,8.760000228881836,-0.51
51,2.561,8.619999885559082,-0.51
52,2.561,7.599999904632568,-0.51
53,2.561,7.25,-0.51
54,2.561,6.239999771118164,-0.51
55,2.561,5.880000114440918,-0.51
56,2.561,5.679999828338623,-0.51
57,2.561,5.380000114440918,-0.51
58,2.561,4.710000038146973,-0.51
59,2.561,4.739999771118164,-0.51
60,2.561,4.550000190734863,-0.51
61,2.561,4.360000133514404,-0.51
62,2.561,4.260000228881836,-0.51
63,2.561,4.059999942779541,-0.51
