0,3.917,13.5600004196167,-0.77
1,3.917,13.760000228881836,-0.77
2,3.917,13.75,-0.77
3,3.917,13.449999809265137,-0.77
4,3.917,13.4399995803833,-0.77
5,3.917,13.579999923706055,-0.77
6,3.917,13.069999694824219,-0.77
7,3.917,13.539999961853027,-0.77
8,3.889,13.34000015258789,-0.77
9,3.917,13.390000343322754,-0.77
10,3.917,13.369999885559082,-0.77
11,3.917,13.4399995803833,-0.77
12,3.917,13.359999656677246,-0.77
13,3.917,13.390000343322754,-0.77
14,3.917,13.3100004196167,-0.77
15,3.917,13.59000015258789,-0.77
16,3.917,13.550000190734863,-0.77
17,3.917,13.069999694824219,-0.77
18,3.889,13.369999885559082,-0.77
19,3.917,13.369999885559082,-0.77
20,3.917,13.40999984741211,-0.77
21,3.917,13.739999771118164,-0.77
22,3.917,13.640000343322754,-0.77
23,3.889,13.470000267028809,-0.77
24,3.917,13.4399995803833,-0.77
25,3.917,13.6899995803833,-0.77
26,3.917,13.34000015258789,-0.77
27,3.917,13.600000381469727,-0.77
28,3.917,13.489999771118164,-0.77
29,3.917,13.880000114440918,-0.77
30,3.918,13.40999984741211,-0.77
31,3.917,14.09000015258789,-0.77
32,3.918,13.649999618530273,-0.77
33,3.917,13.829999923706055,-0.77
34,3.918,13.739999771118164,-0.77
35,3.889,13.350000381469727,-0.77
36,3.918,13.920000076293945,-0.77
37,3.918,13.59000015258789,-0.77
38,3.918,13.699999809265137,-0.77
39,3.918,13.229999542236328,-0.77
40,3.918,13.470000267028809,-0.77
41,3.801,14.199999809265137,-0.77
42,3.801,14.770000457763672,-0.77
43,3.8,15.0,-0.77
44,3.8,15.0,-0.77
45,3.801,15.0,-0.77
46,3.801,15.0,-0.77
47,3.8,15.0,-0.77
48,3.8,15.0,-0.77
49,3.8,15.0,-0.77
50,3.8,15.0,-0.77
51,3.8,15.0,-0.77
52,3.8,15.0,-0.77
53,3.799,15.0,-0.77
54,3.799,15.0,-0.77
55,3.799,15.0,-0.77
56,3.798,15.0,-0.77
57,3.798,15.0,-0.77
58,3.798,15.0,-0.77
59,3.798,15.0,-0.77
60,3.798,15.0,-0.77
61,3.798,15.0,-0.77
62,3.798,15.0,-0.77
63,3.798,15.0,-0.77
0,7.161,14.069999694824219,-0.77
1,7.161,14.149999618530273,-0.77
2,7.162,14.09000015258789,-0.77
3,7.161,13.979999542236328,-0.77
4,7.162,13.800000190734863,-0.77
5,7.161,13.90999984741211,-0.77
6,7.162,13.510000228881836,-0.77
7,7.162,13.989999771118164,-0.77
8,7.162,13.789999961853027,-0.77
9,7.162,13.8100004196167,-0.77
10,7.162,13.829999923706055,-0.77
11,7.162,13.729999542236328,-0.77
12,7.162,13.59000015258789,-0.77
13,7.162,13.930000305175781,-0.77
14,7.162,13.779999732971191,-0.77
15,7.162,13.890000343322754,-0.77
16,7.162,13.979999542236328,-0.77
17,7.162,13.520000457763672,-0.77
18,7.162,13.800000190734863,-0.77
19,7.162,13.75,-0.77
20,7.162,13.619999885559082,-0.77
21,7.162,13.989999771118164,-0.77
22,7.162,13.949999809265137,-0.77
23,7.162,13.930000305175781,-0.77
24,7.162,13.630000114440918,-0.77
25,7.162,13.979999542236328,-0.77
26,7.162,13.510000228881836,-0.77
27,7.162,13.970000267028809,-0.77
28,7.162,14.010000228881836,-0.77
29,7.162,14.210000038146973,-0.77
30,7.162,13.65999984741211,-0.77
31,7.162,14.4399995803833,-0.77
32,7.162,13.869999885559082,-0.77
33,7.162,14.180000305175781,-0.77
34,7.162,14.0,-0.77
35,7.162,13.890000343322754,-0.77
36,7.162,14.300000190734863,-0.77
37,7.162,13.970000267028809,-0.77
38,7.162,13.90999984741211,-0.77
39,7.162,13.579999923706055,-0.77
40,7.162,13.859999656677246,-0.77
41,7.162,14.140000343322754,-0.77
42,7.162,13.779999732971191,-0.77
43,7.162,13.630000114440918,-0.77
44,7.162,12.869999885559082,-0.77
45,7.162,11.960000038146973,-0.77
46,7.162,11.539999961853027,-0.77
47,7.162,10.920000076293945,-0.77
48,7.162,10.510000228881836,-0.77
49,7.162,10.050000190734863,-0.77
50,7.162,9.510000228881836,-0.77
51,7.162,9.239999771118164,-0.77
52,7.162,7.78000020980835,-0.77
53,7.162,6.639999866485596,-0.77
54,7.161,6.309999942779541,-0.77
55,7.161,4.960000038146973,-0.77
56,7.161,4.75,-0.77
57,7.161,4.199999809265137,-0.77
58,7.161,3.8499999046325684,-0.77
59,7.161,3.4000000953674316,-0.77
60,7.167,3.380000114440918,-0.77
61,7.167,3.4000000953674316,-0.77
62,7.167,3.4100000858306885,-0.77
63,7.167,3.5199999809265137,-0.77
