0,3.917,13.5600004196167,-0.8
1,3.917,13.760000228881836,-0.8
2,3.917,13.75,-0.8
3,3.917,13.449999809265137,-0.8
4,3.917,13.4399995803833,-0.8
5,3.917,13.579999923706055,-0.8
6,3.917,13.069999694824219,-0.8
7,3.917,13.539999961853027,-0.8
8,3.889,13.34000015258789,-0.8
9,3.917,13.390000343322754,-0.8
10,3.917,13.369999885559082,-0.8
11,3.917,13.4399995803833,-0.8
12,3.917,13.359999656677246,-0.8
13,3.917,13.390000343322754,-0.8
14,3.917,13.3100004196167,-0.8
15,3.917,13.59000015258789,-0.8
16,3.917,13.550000190734863,-0.8
17,3.917,13.069999694824219,-0.8
18,3.889,13.369999885559082,-0.8
19,3.917,13.369999885559082,-0.8
20,3.917,13.40999984741211,-0.8
21,3.917,13.739999771118164,-0.8
22,3.917,13.640000343322754,-0.8
23,3.889,13.470000267028809,-0.8
24,3.917,13.4399995803833,-0.8
25,3.917,13.6899995803833,-0.8
26,3.917,13.34000015258789,-0.8
27,3.917,13.600000381469727,-0.8
28,3.917,13.489999771118164,-0.8
29,3.917,13.880000114440918,-0.8
30,3.918,13.40999984741211,-0.8
31,3.917,14.09000015258789,-0.8
32,3.918,13.649999618530273,-0.8
33,3.917,13.829999923706055,-0.8
34,3.918,13.739999771118164,-0.8
35,3.889,13.350000381469727,-0.8
36,3.918,13.920000076293945,-0.8
37,3.918,13.59000015258789,-0.8
38,3.918,13.699999809265137,-0.8
39,3.918,13.229999542236328,-0.8
40,3.918,13.470000267028809,-0.8
41,3.801,14.199999809265137,-0.8
42,3.801,14.770000457763672,-0.8
43,3.8,15.0,-0.8
44,3.8,15.0,-0.8
45,3.801,15.0,-0.8
46,3.801,15.0,-0.8
47,3.8,15.0,-0.8
48,3.8,15.0,-0.8
49,3.8,15.0,-0.8
50,3.8,15.0,-0.8
51,3.8,15.0,-0.8
52,3.8,15.0,-0.8
53,3.799,15.0,-0.8
54,3.799,15.0,-0.8
55,3.799,15.0,-0.8
56,3.798,15.0,-0.8
57,3.798,15.0,-0.8
58,3.798,15.0,-0.8
59,3.798,15.0,-0.8
60,3.798,15.0,-0.8
61,3.798,15.0,-0.8
62,3.798,15.0,-0.8
63,3.798,15.0,-0.8
0,6.896,15.0,-0.8
1,6.896,15.0,-0.8
2,6.896,15.0,-0.8
3,6.896,15.0,-0.8
4,6.896,15.0,-0.8
5,6.896,15.0,-0.8
6,6.896,15.0,-0.8
7,6.896,15.0,-0.8
8,6.896,15.0,-0.8
9,6.896,15.0,-0.8
10,6.896,15.0,-0.8
11,6.896,15.0,-0.8
12,6.896,15.0,-0.8
13,6.896,15.0,-0.8
14,6.896,15.0,-0.8
15,6.896,15.0,-0.8
16,6.896,15.0,-0.8
17,6.896,15.0,-0.8
18,6.896,15.0,-0.8
19,6.896,15.0,-0.8
20,6.897,15.0,-0.8
21,6.897,15.0,-0.8
22,6.897,15.0,-0.8
23,6.896,15.0,-0.8
24,6.897,15.0,-0.8
25,6.897,15.0,-0.8
26,6.896,15.0,-0.8
27,6.896,15.0,-0.8
28,6.896,15.0,-0.8
29,6.897,15.0,-0.8
30,6.897,15.0,-0.8
31,6.897,15.0,-0.8
32,6.897,15.0,-0.8
33,6.897,15.0,-0.8
34,6.897,15.0,-0.8
35,6.896,15.0,-0.8
36,6.897,15.0,-0.8
37,6.897,15.0,-0.8
38,6.897,15.0,-0.8
39,6.897,15.0,-0.8
40,6.897,15.0,-0.8
41,6.897,15.0,-0.8
42,6.897,15.0,-0.8
43,6.897,14.199999809265137,-0.8
44,6.897,13.470000267028809,-0.8
45,6.897,12.949999809265137,-0.8
46,6.897,12.199999809265137,-0.8
47,6.897,11.619999885559082,-0.8
48,6.897,11.229999542236328,-0.8
49,6.897,10.5600004196167,-0.8
50,6.897,10.359999656677246,-0.8
51,6.896,9.949999809265137,-0.8
52,6.896,8.319999694824219,-0.8
53,6.896,7.349999904632568,-0.8
54,6.896,6.199999809265137,-0.8
55,6.896,5.480000019073486,-0.8
56,6.896,4.71999979019165,-0.8
57,6.896,4.239999771118164,-0.8
58,6.877,3.940000057220459,-0.8
59,6.877,4.0,-0.8
60,6.877,4.079999923706055,-0.8
61,6.877,4.110000133514404,-0.8
62,6.877,4.159999847412109,-0.8
63,6.878,4.159999847412109,-0.8
