0,2.562,8.539999961853027,0.89
1,2.562,8.430000305175781,0.89
2,2.562,8.5600004196167,0.89
3,2.562,8.680000305175781,0.89
4,2.562,8.75,0.89
5,2.562,8.609999656677246,0.89
6,2.562,9.050000190734863,0.89
7,2.562,8.739999771118164,0.89
8,2.562,8.949999809265137,0.89
9,2.562,8.9399995803833,0.89
10,2.562,8.9399995803833,0.89
11,2.562,8.979999542236328,0.89
12,2.562,9.029999732971191,0.89
13,2.562,9.029999732971191,0.89
14,2.562,9.229999542236328,0.89
15,2.562,9.029999732971191,0.89
16,2.562,9.020000457763672,0.89
17,2.562,9.369999885559082,0.89
18,2.562,9.15999984741211,0.89
19,2.562,9.210000038146973,0.89
20,2.562,9.270000457763672,0.89
21,2.562,9.140000343322754,0.89
22,2.562,9.119999885559082,0.89
23,2.562,9.369999885559082,0.89
24,2.562,9.329999923706055,0.89
25,2.562,9.1899995803833,0.89
26,2.562,9.579999923706055,0.89
27,2.562,9.569999694824219,0.89
28,2.562,9.670000076293945,0.89
29,2.562,9.569999694824219,0.89
30,2.562,9.90999984741211,0.89
31,2.562,9.579999923706055,0.89
32,2.562,9.979999542236328,0.89
33,2.562,9.949999809265137,0.89
34,2.562,10.079999923706055,0.89
35,2.562,10.359999656677246,0.89
36,2.562,10.1899995803833,0.89
37,2.562,10.479999542236328,0.89
38,2.562,10.59000015258789,0.89
39,2.562,11.180000305175781,0.89
40,2.562,11.170000076293945,0.89
41,2.562,11.0600004196167,0.89
42,2.562,11.609999656677246,0.89
43,2.562,10.770000457763672,0.89
44,2.561,10.40999984741211,0.89
45,2.562,10.40999984741211,0.89
46,2.562,9.760000228881836,0.89
47,2.561,9.529999732971191,0.89
48,2.561,9.460000038146973,0.89
49,2.561,8.75,0.89
50,2.561,8.760000228881836,0.89
51,2.561,8.619999885559082,0.89
52,2.561,7.599999904632568,0.89
53,2.561,7.25,0.89
54,2.561,6.239999771118164,0.89
55,2.561,5.880000114440918,0.89
56,2.561,5.679999828338623,0.89
57,2.561,5.380000114440918,0.89
58,2.561,4.710000038146973,0.89
59,2.561,4.739999771118164,0.89
60,2.561,4.550000190734863,0.89
61,2.561,4.360000133514404,0.89
62,2.561,4.260000228881836,0.89
63,2.561,4.059999942779541,0.89
0,7.161,14.069999694824219,0.89
1,7.161,14.149999618530273,0.89
2,7.162,14.09000015258789,0.89
3,7.161,13.979999542236328,0.89
4,7.162,13.800000190734863,0.89
5,7.161,13.90999984741211,0.89
6,7.162,13.510000228881836,0.89
7,7.162,13.989999771118164,0.89
8,7.162,13.789999961853027,0.89
9,7.162,13.8100004196167,0.89
10,7.162,13.829999923706055,0.89
11,7.162,13.729999542236328,0.89
12,7.162,13.59000015258789,0.89
13,7.162,13.930000305175781,0.89
14,7.162,13.779999732971191,0.89
15,7.162,13.890000343322754,0.89
16,7.162,13.979999542236328,0.89
17,7.162,13.520000457763672,0.89
18,7.162,13.800000190734863,0.89
19,7.162,13.75,0.89
20,7.162,13.619999885559082,0.89
21,7.162,13.989999771118164,0.89
22,7.162,13.949999809265137,0.89
23,7.162,13.930000305175781,0.89
24,7.162,13.630000114440918,0.89
25,7.162,13.979999542236328,0.89
26,7.162,13.510000228881836,0.89
27,7.162,13.970000267028809,0.89
28,7.162,14.010000228881836,0.89
29,7.162,14.210000038146973,0.89
30,7.162,13.65999984741211,0.89
31,7.162,14.4399995803833,0.89
32,7.162,13.869999885559082,0.89
33,7.162,14.180000305175781,0.89
34,7.162,14.0,0.89
35,7.162,13.890000343322754,0.89
36,7.162,14.300000190734863,0.89
37,7.162,13.970000267028809,0.89
38,7.162,13.90999984741211,0.89
39,7.162,13.579999923706055,0.89
40,7.162,13.859999656677246,0.89
41,7.162,14.140000343322754,0.89
42,7.162,13.779999732971191,0.89
43,7.162,13.630000114440918,0.89
44,7.162,12.869999885559082,0.89
45,7.162,11.960000038146973,0.89
46,7.162,11.539999961853027,0.89
47,7.162,10.920000076293945,0.89
48,7.162,10.510000228881836,0.89
49,7.162,10.050000190734863,0.89
50,7.162,9.510000228881836,0.89
51,7.162,9.239999771118164,0.89
52,7.162,7.78000020980835,0.89
53,7.162,6.639999866485596,0.89
54,7.161,6.309999942779541,0.89
55,7.161,4.960000038146973,0.89
56,7.161,4.75,0.89
57,7.161,4.199999809265137,0.89
58,7.161,3.8499999046325684,0.89
59,7.161,3.4000000953674316,0.89
60,7.167,3.380000114440918,0.89
61,7.167,3.4000000953674316,0.89
62,7.167,3.4100000858306885,0.89
63,7.167,3.5199999809265137,0.89
