0,0.0,96.20999908447266,0.89
1,0.0,97.80999755859375,0.89
2,0.0,99.4800033569336,0.89
3,0.0,101.80999755859375,0.89
4,0.0,101.58999633789062,0.89
5,0.0,98.95999908447266,0.89
6,0.0,107.0999984741211,0.89
7,0.0,99.45999908447266,0.89
8,0.0,103.44000244140625,0.89
9,0.0,103.44000244140625,0.89
10,0.0,102.98999786376953,0.89
11,0.0,103.9000015258789,0.89
12,0.0,104.45999908447266,0.89
13,0.0,102.23999786376953,0.89
14,0.0,105.68000030517578,0.89
15,0.0,101.69000244140625,0.89
16,0.0,101.23999786376953,0.89
17,0.0,109.45999908447266,0.89
18,0.0,104.29000091552734,0.89
19,0.0,104.02999877929688,0.89
20,0.0,106.1500015258789,0.89
21,0.0,101.63999938964844,0.89
22,0.0,100.05999755859375,0.89
23,0.0,105.75,0.89
24,0.0,105.41000366210938,0.89
25,0.0,102.22000122070312,0.89
26,0.0,109.36000061035156,0.89
27,0.0,106.16999816894531,0.89
28,0.0,109.19000244140625,0.89
29,0.0,104.16999816894531,0.89
30,0.0,114.19000244140625,0.89
31,0.0,102.33999633789062,0.89
32,0.0,113.31999969482422,0.89
33,0.0,107.79000091552734,0.89
34,0.0,112.18000030517578,0.89
35,0.0,117.7300033569336,0.89
36,0.0,112.4000015258789,0.89
37,0.0,116.75,0.89
38,0.0,118.30000305175781,0.89
39,0.0,129.9199981689453,0.89
40,0.0,126.79000091552734,0.89
41,0.0,121.80000305175781,0.89
42,0.0,132.49000549316406,0.89
43,0.0,117.20999908447266,0.89
44,0.0,113.8499984741211,0.89
45,0.0,119.0999984741211,0.89
46,0.0,108.06999969482422,0.89
47,0.0,108.83999633789062,0.89
48,0.0,107.5999984741211,0.89
49,0.0,96.81999969482422,0.89
50,0.0,99.55000305175781,0.89
51,0.0,99.43000030517578,0.89
52,0.0,86.55999755859375,0.89
53,0.0,85.45999908447266,0.89
54,0.0,70.18000030517578,0.89
55,0.0,68.0999984741211,0.89
56,0.0,64.94000244140625,0.89
57,0.0,62.66999816894531,0.89
58,0.0,51.52000045776367,0.89
59,0.0,55.189998626708984,0.89
60,0.0,52.70000076293945,0.89
61,0.0,50.689998626708984,0.89
62,0.0,50.31999969482422,0.89
63,0.0,48.15999984741211,0.89
0,7.161,14.069999694824219,0.89
1,7.161,14.149999618530273,0.89
2,7.162,14.09000015258789,0.89
3,7.161,13.979999542236328,0.89
4,7.162,13.800000190734863,0.89
5,7.161,13.90999984741211,0.89
6,7.162,13.510000228881836,0.89
7,7.162,13.989999771118164,0.89
8,7.162,13.789999961853027,0.89
9,7.162,13.8100004196167,0.89
10,7.162,13.829999923706055,0.89
11,7.162,13.729999542236328,0.89
12,7.162,13.59000015258789,0.89
13,7.162,13.930000305175781,0.89
14,7.162,13.779999732971191,0.89
15,7.162,13.890000343322754,0.89
16,7.162,13.979999542236328,0.89
17,7.162,13.520000457763672,0.89
18,7.162,13.800000190734863,0.89
19,7.162,13.75,0.89
20,7.162,13.619999885559082,0.89
21,7.162,13.989999771118164,0.89
22,7.162,13.949999809265137,0.89
23,7.162,13.930000305175781,0.89
24,7.162,13.630000114440918,0.89
25,7.162,13.979999542236328,0.89
26,7.162,13.510000228881836,0.89
27,7.162,13.970000267028809,0.89
28,7.162,14.010000228881836,0.89
29,7.162,14.210000038146973,0.89
30,7.162,13.65999984741211,0.89
31,7.162,14.4399995803833,0.89
32,7.162,13.869999885559082,0.89
33,7.162,14.180000305175781,0.89
34,7.162,14.0,0.89
35,7.162,13.890000343322754,0.89
36,7.162,14.300000190734863,0.89
37,7.162,13.970000267028809,0.89
38,7.162,13.90999984741211,0.89
39,7.162,13.579999923706055,0.89
40,7.162,13.859999656677246,0.89
41,7.162,14.140000343322754,0.89
42,7.162,13.779999732971191,0.89
43,7.162,13.630000114440918,0.89
44,7.162,12.869999885559082,0.89
45,7.162,11.960000038146973,0.89
46,7.162,11.539999961853027,0.89
47,7.162,10.920000076293945,0.89
48,7.162,10.510000228881836,0.89
49,7.162,10.050000190734863,0.89
50,7.162,9.510000228881836,0.89
51,7.162,9.239999771118164,0.89
52,7.162,7.78000020980835,0.89
53,7.162,6.639999866485596,0.89
54,7.161,6.309999942779541,0.89
55,7.161,4.960000038146973,0.89
56,7.161,4.75,0.89
57,7.161,4.199999809265137,0.89
58,7.161,3.8499999046325684,0.89
59,7.161,3.4000000953674316,0.89
60,7.167,3.380000114440918,0.89
61,7.167,3.4000000953674316,0.89
62,7.167,3.4100000858306885,0.89
63,7.167,3.5199999809265137,0.89
