0,2.562,8.539999961853027,0.8
1,2.562,8.430000305175781,0.8
2,2.562,8.5600004196167,0.8
3,2.562,8.680000305175781,0.8
4,2.562,8.75,0.8
5,2.562,8.609999656677246,0.8
6,2.562,9.050000190734863,0.8
7,2.562,8.739999771118164,0.8
8,2.562,8.949999809265137,0.8
9,2.562,8.9399995803833,0.8
10,2.562,8.9399995803833,0.8
11,2.562,8.979999542236328,0.8
12,2.562,9.029999732971191,0.8
13,2.562,9.029999732971191,0.8
14,2.562,9.229999542236328,0.8
15,2.562,9.029999732971191,0.8
16,2.562,9.020000457763672,0.8
17,2.562,9.369999885559082,0.8
18,2.562,9.15999984741211,0.8
19,2.562,9.210000038146973,0.8
20,2.562,9.270000457763672,0.8
21,2.562,9.140000343322754,0.8
22,2.562,9.119999885559082,0.8
23,2.562,9.369999885559082,0.8
24,2.562,9.329999923706055,0.8
25,2.562,9.1899995803833,0.8
26,2.562,9.579999923706055,0.8
27,2.562,9.569999694824219,0.8
28,2.562,9.670000076293945,0.8
29,2.562,9.569999694824219,0.8
30,2.562,9.90999984741211,0.8
31,2.562,9.579999923706055,0.8
32,2.562,9.979999542236328,0.8
33,2.562,9.949999809265137,0.8
34,2.562,10.079999923706055,0.8
35,2.562,10.359999656677246,0.8
36,2.562,10.1899995803833,0.8
37,2.562,10.479999542236328,0.8
38,2.562,10.59000015258789,0.8
39,2.562,11.180000305175781,0.8
40,2.562,11.170000076293945,0.8
41,2.562,11.0600004196167,0.8
42,2.562,11.609999656677246,0.8
43,2.562,10.770000457763672,0.8
44,2.561,10.40999984741211,0.8
45,2.562,10.40999984741211,0.8
46,2.562,9.760000228881836,0.8
47,2.561,9.529999732971191,0.8
48,2.561,9.460000038146973,0.8
49,2.561,8.75,0.8
50,2.561,8.760000228881836,0.8
51,2.561,8.619999885559082,0.8
52,2.561,7.599999904632568,0.8
53,2.561,7.25,0.8
54,2.561,6.239999771118164,0.8
55,2.561,5.880000114440918,0.8
56,2.561,5.679999828338623,0.8
57,2.561,5.380000114440918,0.8
58,2.561,4.710000038146973,0.8
59,2.561,4.739999771118164,0.8
60,2.561,4.550000190734863,0.8
61,2.561,4.360000133514404,0.8
62,2.561,4.260000228881836,0.8
63,2.561,4.059999942779541,0.8
0,10.507,0.12999999523162842,0.8
1,10.639,0.12999999523162842,0.8
2,10.668,0.12999999523162842,0.8
3,10.588,0.12999999523162842,0.8
4,10.625,0.10999999940395355,0.8
5,10.59,0.12999999523162842,0.8
6,10.525,0.10999999940395355,0.8
7,10.653,0.11999999731779099,0.8
8,10.69,0.14000000059604645,0.8
9,10.594,0.12999999523162842,0.8
10,10.65,0.14000000059604645,0.8
11,10.557,0.11999999731779099,0.8
12,10.572,0.11999999731779099,0.8
13,10.666,0.12999999523162842,0.8
14,10.68,0.12999999523162842,0.8
15,10.66,0.12999999523162842,0.8
16,10.619,0.12999999523162842,0.8
17,10.684,0.14000000059604645,0.8
18,10.631,0.11999999731779099,0.8
19,10.51,0.11999999731779099,0.8
20,10.625,0.11999999731779099,0.8
21,10.58,0.12999999523162842,0.8
22,10.542,0.11999999731779099,0.8
23,10.689,0.14000000059604645,0.8
24,10.605,0.10999999940395355,0.8
25,10.572,0.12999999523162842,0.8
26,10.575,0.11999999731779099,0.8
27,10.608,0.12999999523162842,0.8
28,10.671,0.15000000596046448,0.8
29,10.513,0.12999999523162842,0.8
30,10.528,0.12999999523162842,0.8
31,10.589,0.15000000596046448,0.8
32,10.573,0.12999999523162842,0.8
33,10.577,0.14000000059604645,0.8
34,10.605,0.15000000596046448,0.8
35,10.674,0.15000000596046448,0.8
36,10.58,0.15000000596046448,0.8
37,10.57,0.14000000059604645,0.8
38,10.529,0.15000000596046448,0.8
39,10.494,0.11999999731779099,0.8
40,10.597,0.14000000059604645,0.8
41,10.52,0.14000000059604645,0.8
42,10.57,0.12999999523162842,0.8
43,10.662,0.15000000596046448,0.8
44,10.571,0.1599999964237213,0.8
45,10.62,0.12999999523162842,0.8
46,10.55,0.14000000059604645,0.8
47,10.655,0.10999999940395355,0.8
48,10.652,0.11999999731779099,0.8
49,10.528,0.10999999940395355,0.8
50,10.606,0.11999999731779099,0.8
51,10.647,0.10999999940395355,0.8
52,10.517,0.09000000357627869,0.8
54,10.685,0.12999999523162842,0.8
55,10.616,0.07999999821186066,0.8
56,10.687,0.10999999940395355,0.8
57,10.688,0.10000000149011612,0.8
58,10.69,0.10999999940395355,0.8
59,10.686,0.07999999821186066,0.8
60,10.692,0.09000000357627869,0.8
61,10.672,0.07999999821186066,0.8
62,10.691,0.09000000357627869,0.8
63,10.646,0.05000000074505806,0.8
63,0.0,0.0,0.8
