F,0,7.533,0.7200000286102295,-0.09
F,1,7.534,0.6899999976158142,-0.09
F,2,7.531,0.6700000166893005,-0.09
F,3,7.536,0.6600000262260437,-0.09
F,4,7.535,0.6200000047683716,-0.09
F,5,7.537,0.6899999976158142,-0.09
F,6,7.534,0.5699999928474426,-0.09
F,7,7.536,0.6700000166893005,-0.09
F,8,7.536,0.6399999856948853,-0.09
F,9,7.537,0.6200000047683716,-0.09
F,10,7.534,0.6100000143051147,-0.09
F,11,7.539,0.6299999952316284,-0.09
F,12,7.538,0.6399999856948853,-0.09
F,13,7.535,0.6399999856948853,-0.09
F,14,7.537,0.5799999833106995,-0.09
F,15,7.536,0.6299999952316284,-0.09
F,16,7.538,0.6499999761581421,-0.09
F,17,7.537,0.5400000214576721,-0.09
F,18,7.535,0.6200000047683716,-0.09
F,19,7.537,0.6299999952316284,-0.09
F,20,7.534,0.6100000143051147,-0.09
F,21,7.537,0.6600000262260437,-0.09
F,22,7.536,0.6800000071525574,-0.09
F,23,7.537,0.6100000143051147,-0.09
F,24,7.537,0.6299999952316284,-0.09
F,25,7.539,0.6600000262260437,-0.09
F,26,7.536,0.6000000238418579,-0.09
F,27,7.537,0.6499999761581421,-0.09
F,28,7.539,0.6200000047683716,-0.09
F,29,7.54,0.6800000071525574,-0.09
F,30,7.539,0.6200000047683716,-0.09
F,31,7.537,0.7300000190734863,-0.09
F,32,7.537,0.6600000262260437,-0.09
F,33,7.539,0.699999988079071,-0.09
F,34,7.537,0.6600000262260437,-0.09
F,35,7.536,0.6100000143051147,-0.09
F,36,7.538,0.7099999785423279,-0.09
F,37,7.54,0.6800000071525574,-0.09
F,38,7.536,0.6800000071525574,-0.09
F,39,7.538,0.6200000047683716,-0.09
F,40,7.539,0.6499999761581421,-0.09
F,41,7.538,0.7300000190734863,-0.09
F,42,7.536,0.6399999856948853,-0.09
F,43,7.539,0.699999988079071,-0.09
F,44,7.537,0.6899999976158142,-0.09
F,45,7.536,0.550000011920929,-0.09
F,46,7.54,0.5699999928474426,-0.09
F,47,7.538,0.5299999713897705,-0.09
F,48,7.538,0.5099999904632568,-0.09
F,49,7.253,0.5600000023841858,-0.09
F,50,7.304,0.5099999904632568,-0.09
F,51,7.176,7.71999979019165,-0.09
F,52,7.176,6.460000038146973,-0.09
F,53,7.176,5.46999979019165,-0.09
F,54,7.176,4.789999961853027,-0.09
F,55,7.176,4.110000133514404,-0.09
F,56,7.176,3.5299999713897705,-0.09
F,57,7.176,3.119999885559082,-0.09
F,58,7.181,3.0,-0.09
F,59,7.181,3.0,-0.09
F,60,7.181,3.0899999141693115,-0.09
F,61,7.181,3.0899999141693115,-0.09
F,62,7.181,3.0,-0.09
F,63,7.181,3.2799999713897705,-0.09
S,0,3.966,7.170000076293945,-0.09
S,1,4.02,0.6899999976158142,-0.09
S,2,4.02,0.800000011920929,-0.09
S,3,4.02,0.8500000238418579,-0.09
S,4,4.02,0.8700000047683716,-0.09
S,5,4.02,1.0299999713897705,-0.09
S,6,4.02,0.9100000262260437,-0.09
S,7,4.02,1.0399999618530273,-0.09
S,8,4.02,1.0,-0.09
S,9,4.02,1.059999942779541,-0.09
S,10,4.02,1.059999942779541,-0.09
S,11,4.02,1.1200000047683716,-0.09
S,12,4.02,1.1799999475479126,-0.09
S,13,4.02,1.1100000143051147,-0.09
S,14,4.02,1.1100000143051147,-0.09
S,15,4.02,1.2400000095367432,-0.09
S,16,4.02,1.2300000190734863,-0.09
S,17,4.02,1.1200000047683716,-0.09
S,18,4.02,1.2300000190734863,-0.09
S,19,4.02,1.2200000286102295,-0.09
S,20,4.021,1.2699999809265137,-0.09
S,21,4.02,1.2699999809265137,-0.09
S,22,4.02,1.3600000143051147,-0.09
S,23,4.02,1.2100000381469727,-0.09
S,24,4.02,1.3600000143051147,-0.09
S,25,4.021,1.3600000143051147,-0.09
S,26,4.02,1.340000033378601,-0.09
S,27,4.02,1.350000023841858,-0.09
S,28,4.02,1.2300000190734863,-0.09
S,29,4.02,1.350000023841858,-0.09
S,30,4.02,1.2799999713897705,-0.09
S,31,4.02,1.4199999570846558,-0.09
S,32,4.021,1.3300000429153442,-0.09
S,33,4.02,1.350000023841858,-0.09
S,34,4.02,1.3300000429153442,-0.09
S,35,4.02,1.2799999713897705,-0.09
S,36,4.021,1.4600000381469727,-0.09
S,37,4.02,1.4299999475479126,-0.09
S,38,4.021,1.4600000381469727,-0.09
S,39,4.021,1.3600000143051147,-0.09
S,40,4.021,1.4700000286102295,-0.09
S,41,4.021,1.5299999713897705,-0.09
S,42,4.021,1.4299999475479126,-0.09
S,43,4.02,1.4299999475479126,-0.09
S,44,4.02,1.399999976158142,-0.09
S,45,4.021,1.2799999713897705,-0.09
S,46,4.021,1.2200000286102295,-0.09
S,47,4.02,1.1399999856948853,-0.09
S,48,4.021,1.0800000429153442,-0.09
S,49,4.02,1.2000000476837158,-0.09
S,50,4.021,1.2100000381469727,-0.09
S,51,4.02,1.1699999570846558,-0.09
S,52,4.021,1.2000000476837158,-0.09
S,53,4.021,1.2300000190734863,-0.09
S,54,4.021,1.1399999856948853,-0.09
S,55,4.021,1.25,-0.09
S,56,4.02,1.0800000429153442,-0.09
S,57,4.02,1.090000033378601,-0.09
S,58,4.02,1.090000033378601,-0.09
S,59,4.02,1.0499999523162842,-0.09
S,60,4.02,1.0199999809265137,-0.09
S,61,4.02,0.9800000190734863,-0.09
S,62,4.02,0.9200000166893005,-0.09
S,63,4.021,0.949999988079071,-0.09
