F,0,2.562,8.539999961853027,-0.51
F,1,2.562,8.430000305175781,-0.51
F,2,2.562,8.5600004196167,-0.51
F,3,2.562,8.680000305175781,-0.51
F,4,2.562,8.75,-0.51
F,5,2.562,8.609999656677246,-0.51
F,6,2.562,9.050000190734863,-0.51
F,7,2.562,8.739999771118164,-0.51
F,8,2.562,8.949999809265137,-0.51
F,9,2.562,8.9399995803833,-0.51
F,10,2.562,8.9399995803833,-0.51
F,11,2.562,8.979999542236328,-0.51
F,12,2.562,9.029999732971191,-0.51
F,13,2.562,9.029999732971191,-0.51
F,14,2.562,9.229999542236328,-0.51
F,15,2.562,9.029999732971191,-0.51
F,16,2.562,9.020000457763672,-0.51
F,17,2.562,9.369999885559082,-0.51
F,18,2.562,9.15999984741211,-0.51
F,19,2.562,9.210000038146973,-0.51
F,20,2.562,9.270000457763672,-0.51
F,21,2.562,9.140000343322754,-0.51
F,22,2.562,9.119999885559082,-0.51
F,23,2.562,9.369999885559082,-0.51
F,24,2.562,9.329999923706055,-0.51
F,25,2.562,9.1899995803833,-0.51
F,26,2.562,9.579999923706055,-0.51
F,27,2.562,9.569999694824219,-0.51
F,28,2.562,9.670000076293945,-0.51
F,29,2.562,9.569999694824219,-0.51
F,30,2.562,9.90999984741211,-0.51
F,31,2.562,9.579999923706055,-0.51
F,32,2.562,9.979999542236328,-0.51
F,33,2.562,9.949999809265137,-0.51
F,34,2.562,10.079999923706055,-0.51
F,35,2.562,10.359999656677246,-0.51
F,36,2.562,10.1899995803833,-0.51
F,37,2.562,10.479999542236328,-0.51
F,38,2.562,10.59000015258789,-0.51
F,39,2.562,11.180000305175781,-0.51
F,40,2.562,11.170000076293945,-0.51
F,41,2.562,11.0600004196167,-0.51
F,42,2.562,11.609999656677246,-0.51
F,43,2.562,10.770000457763672,-0.51
F,44,2.561,10.40999984741211,-0.51
F,45,2.562,10.40999984741211,-0.51
F,46,2.562,9.760000228881836,-0.51
F,47,2.561,9.529999732971191,-0.51
F,48,2.561,9.460000038146973,-0.51
F,49,2.561,8.75,-0.51
F,50,2.561,8.760000228881836,-0.51
F,51,2.561,8.619999885559082,-0.51
F,52,2.561,7.599999904632568,-0.51
F,53,2.561,7.25,-0.51
F,54,2.561,6.239999771118164,-0.51
F,55,2.561,5.880000114440918,-0.51
F,56,2.561,5.679999828338623,-0.51
F,57,2.561,5.380000114440918,-0.51
F,58,2.561,4.710000038146973,-0.51
F,59,2.561,4.739999771118164,-0.51
F,60,2.561,4.550000190734863,-0.51
F,61,2.561,4.360000133514404,-0.51
F,62,2.561,4.260000228881836,-0.51
F,63,2.561,4.059999942779541,-0.51
S,0,3.917,13.5600004196167,-0.51
S,1,3.917,13.760000228881836,-0.51
S,2,3.917,13.75,-0.51
S,3,3.917,13.449999809265137,-0.51
S,4,3.917,13.4399995803833,-0.51
S,5,3.917,13.579999923706055,-0.51
S,6,3.917,13.069999694824219,-0.51
S,7,3.917,13.539999961853027,-0.51
S,8,3.889,13.34000015258789,-0.51
S,9,3.917,13.390000343322754,-0.51
S,10,3.917,13.369999885559082,-0.51
S,11,3.917,13.4399995803833,-0.51
S,12,3.917,13.359999656677246,-0.51
S,13,3.917,13.390000343322754,-0.51
S,14,3.917,13.3100004196167,-0.51
S,15,3.917,13.59000015258789,-0.51
S,16,3.917,13.550000190734863,-0.51
S,17,3.917,13.069999694824219,-0.51
S,18,3.889,13.369999885559082,-0.51
S,19,3.917,13.369999885559082,-0.51
S,20,3.917,13.40999984741211,-0.51
S,21,3.917,13.739999771118164,-0.51
S,22,3.917,13.640000343322754,-0.51
S,23,3.889,13.470000267028809,-0.51
S,24,3.917,13.4399995803833,-0.51
S,25,3.917,13.6899995803833,-0.51
S,26,3.917,13.34000015258789,-0.51
S,27,3.917,13.600000381469727,-0.51
S,28,3.917,13.489999771118164,-0.51
S,29,3.917,13.880000114440918,-0.51
S,30,3.918,13.40999984741211,-0.51
S,31,3.917,14.09000015258789,-0.51
S,32,3.918,13.649999618530273,-0.51
S,33,3.917,13.829999923706055,-0.51
S,34,3.918,13.739999771118164,-0.51
S,35,3.889,13.350000381469727,-0.51
S,36,3.918,13.920000076293945,-0.51
S,37,3.918,13.59000015258789,-0.51
S,38,3.918,13.699999809265137,-0.51
S,39,3.918,13.229999542236328,-0.51
S,40,3.918,13.470000267028809,-0.51
S,41,3.801,14.199999809265137,-0.51
S,42,3.801,14.770000457763672,-0.51
S,43,3.8,15.0,-0.51
S,44,3.8,15.0,-0.51
S,45,3.801,15.0,-0.51
S,46,3.801,15.0,-0.51
S,47,3.8,15.0,-0.51
S,48,3.8,15.0,-0.51
S,49,3.8,15.0,-0.51
S,50,3.8,15.0,-0.51
S,51,3.8,15.0,-0.51
S,52,3.8,15.0,-0.51
S,53,3.799,15.0,-0.51
S,54,3.799,15.0,-0.51
S,55,3.799,15.0,-0.51
S,56,3.798,15.0,-0.51
S,57,3.798,15.0,-0.51
S,58,3.798,15.0,-0.51
S,59,3.798,15.0,-0.51
S,60,3.798,15.0,-0.51
S,61,3.798,15.0,-0.51
S,62,3.798,15.0,-0.51
S,63,3.798,15.0,-0.51
