F,0,4.695,1.4700000286102295,0.04
F,36,4.698,2.7799999713897705,0.04
F,37,4.692,15.279999732971191,0.04
F,38,4.702,2.319999933242798,0.04
F,39,4.691,14.210000038146973,0.04
F,40,4.699,1.2899999618530273,0.04
F,41,4.703,1.6399999856948853,0.04
F,42,4.703,1.9299999475479126,0.04
F,43,4.692,31.829999923706055,0.04
F,44,4.692,25.489999771118164,0.04
F,45,4.692,26.479999542236328,0.04
F,46,4.703,2.240000009536743,0.04
F,47,4.692,21.020000457763672,0.04
F,48,4.691,18.700000762939453,0.04
F,49,4.692,18.770000457763672,0.04
F,50,4.692,14.010000228881836,0.04
F,51,4.691,7.940000057220459,0.04
F,1,0.0,0.0,0.04
F,2,0.0,0.0,0.04
F,3,0.0,0.0,0.04
F,4,0.0,0.0,0.04
F,5,0.0,0.0,0.04
F,6,0.0,0.0,0.04
F,7,0.0,0.0,0.04
F,8,0.0,0.0,0.04
F,9,0.0,0.0,0.04
F,10,0.0,0.0,0.04
F,11,0.0,0.0,0.04
F,12,0.0,0.0,0.04
F,13,0.0,0.0,0.04
F,14,0.0,0.0,0.04
F,15,0.0,0.0,0.04
F,16,0.0,0.0,0.04
F,17,0.0,0.0,0.04
F,18,0.0,0.0,0.04
F,19,0.0,0.0,0.04
F,20,0.0,0.0,0.04
F,21,0.0,0.0,0.04
F,22,0.0,0.0,0.04
F,23,0.0,0.0,0.04
F,24,0.0,0.0,0.04
F,25,0.0,0.0,0.04
F,26,0.0,0.0,0.04
F,27,0.0,0.0,0.04
F,28,0.0,0.0,0.04
F,29,0.0,0.0,0.04
F,30,0.0,0.0,0.04
F,31,0.0,0.0,0.04
F,32,0.0,0.0,0.04
F,33,0.0,0.0,0.04
F,34,0.0,0.0,0.04
F,35,0.0,0.0,0.04
F,52,0.0,0.0,0.04
F,53,0.0,0.0,0.04
F,54,0.0,0.0,0.04
F,55,0.0,0.0,0.04
F,56,0.0,0.0,0.04
F,57,0.0,0.0,0.04
F,58,0.0,0.0,0.04
F,59,0.0,0.0,0.04
F,60,0.0,0.0,0.04
F,61,0.0,0.0,0.04
F,62,0.0,0.0,0.04
F,63,0.0,0.0,0.04
S,0,2.646,7.949999809265137,0.04
S,1,2.646,8.210000038146973,0.04
S,2,2.647,8.3100004196167,0.04
S,3,2.646,8.390000343322754,0.04
S,4,2.647,8.380000114440918,0.04
S,5,2.646,8.3100004196167,0.04
S,6,2.647,8.529999732971191,0.04
S,7,2.647,8.329999923706055,0.04
S,8,2.647,8.479999542236328,0.04
S,9,2.647,8.550000190734863,0.04
S,10,2.647,8.539999961853027,0.04
S,11,2.647,8.670000076293945,0.04
S,12,2.647,8.630000114440918,0.04
S,13,2.647,8.5600004196167,0.04
S,14,2.647,8.680000305175781,0.04
S,15,2.647,8.609999656677246,0.04
S,16,2.647,8.550000190734863,0.04
S,17,2.647,8.890000343322754,0.04
S,18,2.647,8.770000457763672,0.04
S,19,2.647,8.729999542236328,0.04
S,20,2.647,8.880000114440918,0.04
S,21,2.647,8.739999771118164,0.04
S,22,2.647,8.6899995803833,0.04
S,23,2.647,8.9399995803833,0.04
S,24,2.647,8.90999984741211,0.04
S,25,2.647,8.90999984741211,0.04
S,26,2.647,9.100000381469727,0.04
S,27,2.647,9.069999694824219,0.04
S,28,2.647,9.25,0.04
S,29,2.647,9.140000343322754,0.04
S,30,2.647,9.460000038146973,0.04
S,31,2.647,9.239999771118164,0.04
S,32,2.647,9.630000114440918,0.04
S,33,2.647,9.5,0.04
S,34,2.647,9.670000076293945,0.04
S,35,2.647,9.779999732971191,0.04
S,36,2.647,9.949999809265137,0.04
S,37,2.647,9.989999771118164,0.04
S,38,2.647,10.15999984741211,0.04
S,39,2.647,10.630000114440918,0.04
S,40,2.647,10.649999618530273,0.04
S,41,2.647,10.640000343322754,0.04
S,42,2.647,11.020000457763672,0.04
S,43,2.647,10.25,0.04
S,44,2.647,9.850000381469727,0.04
S,45,2.647,9.90999984741211,0.04
S,46,2.647,9.350000381469727,0.04
S,47,2.647,9.180000305175781,0.04
S,48,2.647,8.970000267028809,0.04
S,49,2.647,8.380000114440918,0.04
S,50,2.647,8.449999809265137,0.04
S,51,2.647,8.210000038146973,0.04
S,52,2.647,7.239999771118164,0.04
S,53,2.647,6.889999866485596,0.04
S,54,2.647,6.119999885559082,0.04
S,55,2.647,5.670000076293945,0.04
S,56,2.647,5.320000171661377,0.04
S,57,2.647,5.090000152587891,0.04
S,58,2.647,4.579999923706055,0.04
S,59,2.647,4.519999980926514,0.04
S,60,2.647,4.309999942779541,0.04
S,61,2.647,4.150000095367432,0.04
S,62,2.647,4.010000228881836,0.04
S,63,2.647,3.9100000858306885,0.04
