S,0,4.686,4.619999885559082,0.0
S,0,4.686,4.619999885559082,0.0
S,38,4.691,14.489999771118164,0.0
S,39,4.691,14.210000038146973,0.0
S,40,4.691,17.260000228881836,0.0
S,42,4.691,21.309999465942383,0.0
S,48,4.691,18.700000762939453,0.0
S,51,4.691,7.940000057220459,0.0
