F,0,4.701,0.8999999761581421,0.23
F,1,4.702,0.7599999904632568,0.23
F,3,4.684,0.8100000023841858,0.23
F,4,4.704,0.6700000166893005,0.23
F,5,4.68,0.6299999952316284,0.23
F,6,4.703,0.6800000071525574,0.23
F,7,4.706,0.6600000262260437,0.23
F,8,4.706,0.8700000047683716,0.23
F,9,4.703,0.699999988079071,0.23
F,10,4.701,0.8299999833106995,0.23
F,11,4.705,0.5899999737739563,0.23
F,13,4.706,0.5299999713897705,0.23
F,14,4.706,0.5899999737739563,0.23
F,15,4.705,0.5600000023841858,0.23
F,16,4.702,0.6700000166893005,0.23
F,19,4.679,0.5799999833106995,0.23
F,21,4.706,0.6800000071525574,0.23
F,22,4.681,0.5400000214576721,0.23
F,23,4.679,0.5199999809265137,0.23
F,24,4.702,0.5400000214576721,0.23
F,25,4.685,0.6200000047683716,0.23
F,26,4.706,0.5699999928474426,0.23
F,27,4.705,0.8999999761581421,0.23
F,29,4.679,0.7099999785423279,0.23
F,30,4.706,0.6100000143051147,0.23
F,31,4.706,0.6700000166893005,0.23
F,32,4.707,0.5899999737739563,0.23
F,33,4.706,0.5400000214576721,0.23
F,34,4.681,0.5699999928474426,0.23
F,35,4.707,0.6100000143051147,0.23
F,36,4.698,2.7799999713897705,0.23
F,37,4.706,1.3200000524520874,0.23
F,38,4.707,1.4900000095367432,0.23
F,39,4.707,1.309999942779541,0.23
F,40,4.706,0.7099999785423279,0.23
F,41,4.703,1.6399999856948853,0.23
F,42,4.703,1.9299999475479126,0.23
F,43,4.706,1.9900000095367432,0.23
F,44,4.692,25.489999771118164,0.23
F,45,4.692,26.479999542236328,0.23
F,46,4.703,2.240000009536743,0.23
F,47,4.707,1.090000033378601,0.23
F,48,4.691,18.700000762939453,0.23
F,49,4.692,18.770000457763672,0.23
F,50,4.708,1.0700000524520874,0.23
F,51,4.706,1.190000057220459,0.23
F,54,4.679,0.5799999833106995,0.23
F,2,4.02,0.800000011920929,0.23
F,12,4.02,1.1799999475479126,0.23
F,17,4.02,1.1200000047683716,0.23
F,18,4.02,1.2300000190734863,0.23
F,20,4.021,1.2699999809265137,0.23
F,28,4.02,1.2300000190734863,0.23
F,52,4.021,1.2000000476837158,0.23
F,53,4.021,1.2300000190734863,0.23
F,55,4.021,1.25,0.23
F,56,4.02,1.0800000429153442,0.23
F,57,4.02,1.090000033378601,0.23
F,58,4.02,1.090000033378601,0.23
F,59,4.02,1.0499999523162842,0.23
F,60,4.02,1.0199999809265137,0.23
F,61,4.02,0.9800000190734863,0.23
F,62,4.02,0.9200000166893005,0.23
F,63,4.021,0.949999988079071,0.23
S,0,2.646,7.949999809265137,0.23
S,1,2.646,8.210000038146973,0.23
S,2,2.647,8.3100004196167,0.23
S,3,2.646,8.390000343322754,0.23
S,4,2.647,8.380000114440918,0.23
S,5,2.646,8.3100004196167,0.23
S,6,2.647,8.529999732971191,0.23
S,7,2.647,8.329999923706055,0.23
S,8,2.647,8.479999542236328,0.23
S,9,2.647,8.550000190734863,0.23
S,10,2.647,8.539999961853027,0.23
S,11,2.647,8.670000076293945,0.23
S,12,2.647,8.630000114440918,0.23
S,13,2.647,8.5600004196167,0.23
S,14,2.647,8.680000305175781,0.23
S,15,2.647,8.609999656677246,0.23
S,16,2.647,8.550000190734863,0.23
S,17,2.647,8.890000343322754,0.23
S,18,2.647,8.770000457763672,0.23
S,19,2.647,8.729999542236328,0.23
S,20,2.647,8.880000114440918,0.23
S,21,2.647,8.739999771118164,0.23
S,22,2.647,8.6899995803833,0.23
S,23,2.647,8.9399995803833,0.23
S,24,2.647,8.90999984741211,0.23
S,25,2.647,8.90999984741211,0.23
S,26,2.647,9.100000381469727,0.23
S,27,2.647,9.069999694824219,0.23
S,28,2.647,9.25,0.23
S,29,2.647,9.140000343322754,0.23
S,30,2.647,9.460000038146973,0.23
S,31,2.647,9.239999771118164,0.23
S,32,2.647,9.630000114440918,0.23
S,33,2.647,9.5,0.23
S,34,2.647,9.670000076293945,0.23
S,35,2.647,9.779999732971191,0.23
S,36,2.647,9.949999809265137,0.23
S,37,2.647,9.989999771118164,0.23
S,38,2.647,10.15999984741211,0.23
S,39,2.647,10.630000114440918,0.23
S,40,2.647,10.649999618530273,0.23
S,41,2.647,10.640000343322754,0.23
S,42,2.647,11.020000457763672,0.23
S,43,2.647,10.25,0.23
S,44,2.647,9.850000381469727,0.23
S,45,2.647,9.90999984741211,0.23
S,46,2.647,9.350000381469727,0.23
S,47,2.647,9.180000305175781,0.23
S,48,2.647,8.970000267028809,0.23
S,49,2.647,8.380000114440918,0.23
S,50,2.647,8.449999809265137,0.23
S,51,2.647,8.210000038146973,0.23
S,52,2.647,7.239999771118164,0.23
S,53,2.647,6.889999866485596,0.23
S,54,2.647,6.119999885559082,0.23
S,55,2.647,5.670000076293945,0.23
S,56,2.739,0.5099999904632568,0.23
S,57,2.739,0.5199999809265137,0.23
S,58,2.739,0.5099999904632568,0.23
S,59,2.739,0.5400000214576721,0.23
S,60,2.739,0.5600000023841858,0.23
S,61,2.739,0.5699999928474426,0.23
S,62,2.739,0.5799999833106995,0.23
S,63,2.739,0.5899999737739563,0.23
