F,0,7.161,14.069999694824219,0.31
F,1,7.161,14.149999618530273,0.31
F,2,7.162,14.09000015258789,0.31
F,3,7.161,13.979999542236328,0.31
F,4,7.162,13.800000190734863,0.31
F,5,7.161,13.90999984741211,0.31
F,6,7.176,11.300000190734863,0.31
F,7,7.162,13.989999771118164,0.31
F,8,7.162,13.789999961853027,0.31
F,9,7.176,11.510000228881836,0.31
F,10,7.162,13.829999923706055,0.31
F,11,7.176,11.630000114440918,0.31
F,12,7.176,11.649999618530273,0.31
F,13,7.162,13.930000305175781,0.31
F,14,7.176,11.4399995803833,0.31
F,15,7.162,13.890000343322754,0.31
F,16,7.162,13.979999542236328,0.31
F,17,7.176,11.220000267028809,0.31
F,18,7.176,11.569999694824219,0.31
F,19,7.176,11.609999656677246,0.31
F,20,7.176,11.600000381469727,0.31
F,21,7.162,13.989999771118164,0.31
F,22,7.162,13.949999809265137,0.31
F,23,7.176,11.550000190734863,0.31
F,24,7.176,11.710000038146973,0.31
F,25,7.162,13.979999542236328,0.31
F,26,7.176,11.510000228881836,0.31
F,27,7.176,11.829999923706055,0.31
F,28,7.176,11.630000114440918,0.31
F,29,7.162,14.210000038146973,0.31
F,30,7.176,11.649999618530273,0.31
F,31,7.162,14.4399995803833,0.31
F,32,7.176,11.899999618530273,0.31
F,33,7.162,14.180000305175781,0.31
F,34,7.176,11.920000076293945,0.31
F,35,7.176,11.569999694824219,0.31
F,36,7.224,1.059999942779541,0.31
F,37,7.176,11.920000076293945,0.31
F,38,7.224,1.0099999904632568,0.31
F,39,7.176,11.489999771118164,0.31
F,40,7.176,11.739999771118164,0.31
F,41,7.224,1.1299999952316284,0.31
F,42,7.176,11.649999618530273,0.31
F,43,7.223,1.0700000524520874,0.31
F,44,7.224,1.0399999618530273,0.31
F,45,7.176,10.119999885559082,0.31
F,46,7.176,9.850000381469727,0.31
F,47,7.176,9.170000076293945,0.31
F,48,7.176,8.800000190734863,0.31
F,49,7.176,8.430000305175781,0.31
F,50,7.176,8.199999809265137,0.31
F,51,7.176,7.71999979019165,0.31
F,52,7.176,6.460000038146973,0.31
F,53,7.176,5.46999979019165,0.31
F,54,7.176,4.789999961853027,0.31
F,55,7.176,4.110000133514404,0.31
F,56,7.176,3.5299999713897705,0.31
F,57,7.176,3.119999885559082,0.31
F,58,7.181,3.0,0.31
F,59,7.181,3.0,0.31
F,60,7.181,3.0899999141693115,0.31
F,61,7.181,3.0899999141693115,0.31
F,62,7.181,3.0,0.31
F,63,7.181,3.2799999713897705,0.31
S,0,3.966,7.170000076293945,0.31
S,1,3.967,6.96999979019165,0.31
S,2,3.968,6.710000038146973,0.31
S,3,3.968,6.659999847412109,0.31
S,4,3.968,6.449999809265137,0.31
S,5,4.02,1.0299999713897705,0.31
S,6,3.969,5.980000019073486,0.31
S,7,4.02,1.0399999618530273,0.31
S,8,3.969,6.449999809265137,0.31
S,9,4.02,1.059999942779541,0.31
S,10,4.02,1.059999942779541,0.31
S,11,4.02,1.1200000047683716,0.31
S,12,4.02,1.1799999475479126,0.31
S,13,4.02,1.1100000143051147,0.31
S,14,4.02,1.1100000143051147,0.31
S,15,4.02,1.2400000095367432,0.31
S,16,4.02,1.2300000190734863,0.31
S,17,4.02,1.1200000047683716,0.31
S,18,4.02,1.2300000190734863,0.31
S,19,4.02,1.2200000286102295,0.31
S,20,4.021,1.2699999809265137,0.31
S,21,4.02,1.2699999809265137,0.31
S,22,4.02,1.3600000143051147,0.31
S,23,4.02,1.2100000381469727,0.31
S,24,4.02,1.3600000143051147,0.31
S,25,4.021,1.3600000143051147,0.31
S,26,4.02,1.340000033378601,0.31
S,27,4.02,1.350000023841858,0.31
S,28,4.02,1.2300000190734863,0.31
S,29,4.02,1.350000023841858,0.31
S,30,4.02,1.2799999713897705,0.31
S,31,4.02,1.4199999570846558,0.31
S,32,4.021,1.3300000429153442,0.31
S,33,4.02,1.350000023841858,0.31
S,34,4.02,1.3300000429153442,0.31
S,35,4.02,1.2799999713897705,0.31
S,36,4.021,1.4600000381469727,0.31
S,37,4.02,1.4299999475479126,0.31
S,38,4.021,1.4600000381469727,0.31
S,39,4.021,1.3600000143051147,0.31
S,40,4.021,1.4700000286102295,0.31
S,41,4.021,1.5299999713897705,0.31
S,42,4.021,1.4299999475479126,0.31
S,43,4.02,1.4299999475479126,0.31
S,44,4.02,1.399999976158142,0.31
S,45,4.021,1.2799999713897705,0.31
S,46,4.021,1.2200000286102295,0.31
S,47,4.02,1.1399999856948853,0.31
S,48,4.021,1.0800000429153442,0.31
S,49,4.02,1.2000000476837158,0.31
S,50,4.021,1.2100000381469727,0.31
S,51,4.02,1.1699999570846558,0.31
S,52,4.021,1.2000000476837158,0.31
S,53,4.021,1.2300000190734863,0.31
S,54,4.021,1.1399999856948853,0.31
S,55,4.021,1.25,0.31
S,56,4.02,1.0800000429153442,0.31
S,57,4.02,1.090000033378601,0.31
S,58,4.02,1.090000033378601,0.31
S,59,4.02,1.0499999523162842,0.31
S,60,4.02,1.0199999809265137,0.31
S,61,3.966,1.309999942779541,0.31
S,62,3.966,1.2100000381469727,0.31
S,63,3.966,1.1299999952316284,0.31
