F,0,7.161,14.069999694824219,0.35
F,1,7.161,14.149999618530273,0.35
F,2,7.162,14.09000015258789,0.35
F,3,7.161,13.979999542236328,0.35
F,4,7.162,13.800000190734863,0.35
F,5,7.161,13.90999984741211,0.35
F,6,7.176,11.300000190734863,0.35
F,7,7.162,13.989999771118164,0.35
F,8,7.162,13.789999961853027,0.35
F,9,7.176,11.510000228881836,0.35
F,10,7.162,13.829999923706055,0.35
F,11,7.176,11.630000114440918,0.35
F,12,7.176,11.649999618530273,0.35
F,13,7.162,13.930000305175781,0.35
F,14,7.176,11.4399995803833,0.35
F,15,7.162,13.890000343322754,0.35
F,16,7.162,13.979999542236328,0.35
F,17,7.176,11.220000267028809,0.35
F,18,7.176,11.569999694824219,0.35
F,19,7.176,11.609999656677246,0.35
F,20,7.176,11.600000381469727,0.35
F,21,7.162,13.989999771118164,0.35
F,22,7.162,13.949999809265137,0.35
F,23,7.176,11.550000190734863,0.35
F,24,7.176,11.710000038146973,0.35
F,25,7.162,13.979999542236328,0.35
F,26,7.176,11.510000228881836,0.35
F,27,7.176,11.829999923706055,0.35
F,28,7.176,11.630000114440918,0.35
F,29,7.162,14.210000038146973,0.35
F,30,7.176,11.649999618530273,0.35
F,31,7.162,14.4399995803833,0.35
F,32,7.176,11.899999618530273,0.35
F,33,7.162,14.180000305175781,0.35
F,34,7.176,11.920000076293945,0.35
F,35,7.176,11.569999694824219,0.35
F,36,7.162,14.300000190734863,0.35
F,37,7.176,11.920000076293945,0.35
F,38,7.176,11.949999809265137,0.35
F,39,7.176,11.489999771118164,0.35
F,40,7.176,11.739999771118164,0.35
F,41,7.176,12.119999885559082,0.35
F,42,7.176,11.649999618530273,0.35
F,43,7.176,11.550000190734863,0.35
F,44,7.176,10.880000114440918,0.35
F,45,7.176,10.119999885559082,0.35
F,46,7.176,9.850000381469727,0.35
F,47,7.176,9.170000076293945,0.35
F,48,7.176,8.800000190734863,0.35
F,49,7.176,8.430000305175781,0.35
F,50,7.176,8.199999809265137,0.35
F,51,7.176,7.71999979019165,0.35
F,52,7.176,6.460000038146973,0.35
F,53,7.176,5.46999979019165,0.35
F,54,7.176,4.789999961853027,0.35
F,55,7.176,4.110000133514404,0.35
F,56,7.176,3.5299999713897705,0.35
F,57,7.176,3.119999885559082,0.35
F,58,7.181,3.0,0.35
F,59,7.181,3.0,0.35
F,60,7.181,3.0899999141693115,0.35
F,61,7.181,3.0899999141693115,0.35
F,62,7.181,3.0,0.35
F,63,7.181,3.2799999713897705,0.35
S,0,4.686,4.619999885559082,0.35
S,36,4.698,2.7799999713897705,0.35
S,37,4.692,15.279999732971191,0.35
S,38,4.702,2.319999933242798,0.35
S,39,4.691,14.210000038146973,0.35
S,40,4.691,17.260000228881836,0.35
S,41,4.692,18.25,0.35
S,42,4.691,21.309999465942383,0.35
S,43,4.692,31.829999923706055,0.35
S,44,4.692,25.489999771118164,0.35
S,45,4.692,26.479999542236328,0.35
S,46,4.703,2.240000009536743,0.35
S,47,4.692,21.020000457763672,0.35
S,48,4.691,18.700000762939453,0.35
S,49,4.692,18.770000457763672,0.35
S,50,4.692,14.010000228881836,0.35
S,51,4.691,7.940000057220459,0.35
S,1,0.0,0.0,0.35
S,2,0.0,0.0,0.35
S,3,0.0,0.0,0.35
S,4,0.0,0.0,0.35
S,5,0.0,0.0,0.35
S,6,0.0,0.0,0.35
S,7,0.0,0.0,0.35
S,8,0.0,0.0,0.35
S,9,0.0,0.0,0.35
S,10,0.0,0.0,0.35
S,11,0.0,0.0,0.35
S,12,0.0,0.0,0.35
S,13,0.0,0.0,0.35
S,14,0.0,0.0,0.35
S,15,0.0,0.0,0.35
S,16,0.0,0.0,0.35
S,17,0.0,0.0,0.35
S,18,0.0,0.0,0.35
S,19,0.0,0.0,0.35
S,20,0.0,0.0,0.35
S,21,0.0,0.0,0.35
S,22,0.0,0.0,0.35
S,23,0.0,0.0,0.35
S,24,0.0,0.0,0.35
S,25,0.0,0.0,0.35
S,26,0.0,0.0,0.35
S,27,0.0,0.0,0.35
S,28,0.0,0.0,0.35
S,29,0.0,0.0,0.35
S,30,0.0,0.0,0.35
S,31,0.0,0.0,0.35
S,32,0.0,0.0,0.35
S,33,0.0,0.0,0.35
S,34,0.0,0.0,0.35
S,35,0.0,0.0,0.35
S,52,0.0,0.0,0.35
S,53,0.0,0.0,0.35
S,54,0.0,0.0,0.35
S,55,0.0,0.0,0.35
S,56,0.0,0.0,0.35
S,57,0.0,0.0,0.35
S,58,0.0,0.0,0.35
S,59,0.0,0.0,0.35
S,60,0.0,0.0,0.35
S,61,0.0,0.0,0.35
S,62,0.0,0.0,0.35
S,63,0.0,0.0,0.35
