F,0,4.686,4.619999885559082,0.38
F,1,4.702,0.7599999904632568,0.38
F,2,4.02,0.800000011920929,0.38
F,3,4.02,0.8500000238418579,0.38
F,4,4.02,0.8700000047683716,0.38
F,5,4.02,1.0299999713897705,0.38
F,6,4.02,0.9100000262260437,0.38
F,7,4.02,1.0399999618530273,0.38
F,8,4.02,1.0,0.38
F,9,4.02,1.059999942779541,0.38
F,10,4.02,1.059999942779541,0.38
F,11,4.02,1.1200000047683716,0.38
F,12,4.02,1.1799999475479126,0.38
F,13,4.02,1.1100000143051147,0.38
F,14,4.02,1.1100000143051147,0.38
F,15,4.02,1.2400000095367432,0.38
F,16,4.02,1.2300000190734863,0.38
F,17,4.02,1.1200000047683716,0.38
F,18,4.02,1.2300000190734863,0.38
F,19,4.02,1.2200000286102295,0.38
F,20,4.021,1.2699999809265137,0.38
F,21,4.02,1.2699999809265137,0.38
F,22,4.02,1.3600000143051147,0.38
F,23,4.02,1.2100000381469727,0.38
F,24,4.02,1.3600000143051147,0.38
F,25,4.021,1.3600000143051147,0.38
F,26,4.02,1.340000033378601,0.38
F,27,4.02,1.350000023841858,0.38
F,28,4.02,1.2300000190734863,0.38
F,29,4.02,1.350000023841858,0.38
F,30,4.02,1.2799999713897705,0.38
F,31,4.02,1.4199999570846558,0.38
F,32,4.021,1.3300000429153442,0.38
F,33,4.02,1.350000023841858,0.38
F,34,4.02,1.3300000429153442,0.38
F,35,4.02,1.2799999713897705,0.38
F,36,4.692,21.780000686645508,0.38
F,37,4.692,15.279999732971191,0.38
F,38,4.691,14.489999771118164,0.38
F,39,4.691,14.210000038146973,0.38
F,40,4.691,17.260000228881836,0.38
F,41,4.692,18.25,0.38
F,42,4.691,21.309999465942383,0.38
F,43,4.692,31.829999923706055,0.38
F,44,4.692,25.489999771118164,0.38
F,45,4.692,26.479999542236328,0.38
F,46,4.692,14.960000038146973,0.38
F,47,4.692,21.020000457763672,0.38
F,48,4.691,18.700000762939453,0.38
F,49,4.692,18.770000457763672,0.38
F,50,4.692,14.010000228881836,0.38
F,51,4.691,7.940000057220459,0.38
F,52,4.021,1.2000000476837158,0.38
F,53,4.021,1.2300000190734863,0.38
F,54,4.021,1.1399999856948853,0.38
F,55,4.021,1.25,0.38
F,56,4.02,1.0800000429153442,0.38
F,57,4.02,1.090000033378601,0.38
F,58,4.02,1.090000033378601,0.38
F,59,4.02,1.0499999523162842,0.38
F,60,4.02,1.0199999809265137,0.38
F,61,4.02,0.9800000190734863,0.38
F,62,4.02,0.9200000166893005,0.38
F,63,4.021,0.949999988079071,0.38
S,0,8.191,0.09000000357627869,0.38
S,1,8.098,0.09000000357627869,0.38
S,2,8.006,0.07999999821186066,0.38
S,3,8.015,0.10000000149011612,0.38
S,4,8.007,0.07999999821186066,0.38
S,5,8.0,0.10000000149011612,0.38
S,7,8.19,0.10999999940395355,0.38
S,8,8.008,0.09000000357627869,0.38
S,9,8.015,0.07999999821186066,0.38
S,10,8.179,0.09000000357627869,0.38
S,11,8.182,0.09000000357627869,0.38
S,12,8.045,0.09000000357627869,0.38
S,13,8.096,0.09000000357627869,0.38
S,14,8.194,0.09000000357627869,0.38
S,15,8.108,0.09000000357627869,0.38
S,16,8.117,0.09000000357627869,0.38
S,19,8.212,0.09000000357627869,0.38
S,20,8.252,0.10000000149011612,0.38
S,21,8.002,0.10999999940395355,0.38
S,22,8.22,0.11999999731779099,0.38
S,23,8.21,0.09000000357627869,0.38
S,24,8.101,0.09000000357627869,0.38
S,25,8.224,0.10000000149011612,0.38
S,26,8.056,0.10999999940395355,0.38
S,27,8.196,0.10999999940395355,0.38
S,28,8.246,0.10000000149011612,0.38
S,29,8.003,0.12999999523162842,0.38
S,30,8.063,0.10999999940395355,0.38
S,31,8.182,0.12999999523162842,0.38
S,32,8.037,0.10999999940395355,0.38
S,33,8.204,0.11999999731779099,0.38
S,34,8.028,0.10999999940395355,0.38
S,35,8.006,0.10999999940395355,0.38
S,36,8.015,0.1599999964237213,0.38
S,37,8.005,0.14000000059604645,0.38
S,38,8.03,0.12999999523162842,0.38
S,39,8.072,0.10999999940395355,0.38
S,40,8.059,0.11999999731779099,0.38
S,41,8.016,0.18000000715255737,0.38
S,42,8.005,0.14000000059604645,0.38
S,43,8.012,0.15000000596046448,0.38
S,44,8.056,0.11999999731779099,0.38
S,45,8.192,0.11999999731779099,0.38
S,46,8.014,0.14000000059604645,0.38
S,47,8.075,0.10000000149011612,0.38
S,48,8.072,0.10999999940395355,0.38
S,49,8.027,0.10000000149011612,0.38
S,50,8.018,0.12999999523162842,0.38
S,51,8.003,0.11999999731779099,0.38
S,52,8.019,0.10000000149011612,0.38
S,55,8.068,0.07999999821186066,0.38
S,56,8.069,0.05000000074505806,0.38
S,57,8.014,0.05000000074505806,0.38
S,58,8.141,0.05999999865889549,0.38
S,59,8.141,0.03999999910593033,0.38
S,60,8.005,0.05000000074505806,0.38
S,61,8.067,0.03999999910593033,0.38
S,62,8.138,0.03999999910593033,0.38
S,63,8.14,0.05999999865889549,0.38
S,63,0.0,0.0,0.38
S,63,0.0,0.0,0.38
S,63,0.0,0.0,0.38
S,63,0.0,0.0,0.38
S,63,0.0,0.0,0.38
