F,0,7.161,14.069999694824219,0.45
F,1,7.161,14.149999618530273,0.45
F,2,7.162,14.09000015258789,0.45
F,3,7.161,13.979999542236328,0.45
F,4,7.162,13.800000190734863,0.45
F,5,7.161,13.90999984741211,0.45
F,6,7.176,11.300000190734863,0.45
F,7,7.162,13.989999771118164,0.45
F,8,7.162,13.789999961853027,0.45
F,9,7.176,11.510000228881836,0.45
F,10,7.162,13.829999923706055,0.45
F,11,7.176,11.630000114440918,0.45
F,12,7.176,11.649999618530273,0.45
F,13,7.162,13.930000305175781,0.45
F,14,7.176,11.4399995803833,0.45
F,15,7.162,13.890000343322754,0.45
F,16,7.162,13.979999542236328,0.45
F,17,7.176,11.220000267028809,0.45
F,18,7.176,11.569999694824219,0.45
F,19,7.176,11.609999656677246,0.45
F,20,7.176,11.600000381469727,0.45
F,21,7.162,13.989999771118164,0.45
F,22,7.162,13.949999809265137,0.45
F,23,7.176,11.550000190734863,0.45
F,24,7.176,11.710000038146973,0.45
F,25,7.162,13.979999542236328,0.45
F,26,7.176,11.510000228881836,0.45
F,27,7.176,11.829999923706055,0.45
F,28,7.176,11.630000114440918,0.45
F,29,7.162,14.210000038146973,0.45
F,30,7.176,11.649999618530273,0.45
F,31,7.162,14.4399995803833,0.45
F,32,7.176,11.899999618530273,0.45
F,33,7.162,14.180000305175781,0.45
F,34,7.176,11.920000076293945,0.45
F,35,7.176,11.569999694824219,0.45
F,36,7.224,1.059999942779541,0.45
F,37,7.176,11.920000076293945,0.45
F,38,7.224,1.0099999904632568,0.45
F,39,7.176,11.489999771118164,0.45
F,40,7.176,11.739999771118164,0.45
F,41,7.224,1.1299999952316284,0.45
F,42,7.176,11.649999618530273,0.45
F,43,7.223,1.0700000524520874,0.45
F,44,7.224,1.0399999618530273,0.45
F,45,7.176,10.119999885559082,0.45
F,46,7.176,9.850000381469727,0.45
F,47,7.176,9.170000076293945,0.45
F,48,7.176,8.800000190734863,0.45
F,49,7.176,8.430000305175781,0.45
F,50,7.176,8.199999809265137,0.45
F,51,7.176,7.71999979019165,0.45
F,52,7.176,6.460000038146973,0.45
F,53,7.176,5.46999979019165,0.45
F,54,7.176,4.789999961853027,0.45
F,55,7.176,4.110000133514404,0.45
F,56,7.176,3.5299999713897705,0.45
F,57,7.176,3.119999885559082,0.45
F,58,7.181,3.0,0.45
F,59,7.181,3.0,0.45
F,60,7.181,3.0899999141693115,0.45
F,61,7.181,3.0899999141693115,0.45
F,62,7.181,3.0,0.45
F,63,7.181,3.2799999713897705,0.45
S,0,2.646,7.949999809265137,0.45
S,1,2.646,8.210000038146973,0.45
S,2,2.647,8.3100004196167,0.45
S,3,2.646,8.390000343322754,0.45
S,4,2.647,8.380000114440918,0.45
S,5,2.646,8.3100004196167,0.45
S,6,2.647,8.529999732971191,0.45
S,7,2.647,8.329999923706055,0.45
S,8,2.647,8.479999542236328,0.45
S,9,2.647,8.550000190734863,0.45
S,10,2.647,8.539999961853027,0.45
S,11,2.647,8.670000076293945,0.45
S,12,2.647,8.630000114440918,0.45
S,13,2.647,8.5600004196167,0.45
S,14,2.647,8.680000305175781,0.45
S,15,2.647,8.609999656677246,0.45
S,16,2.647,8.550000190734863,0.45
S,17,2.647,8.890000343322754,0.45
S,18,2.647,8.770000457763672,0.45
S,19,2.647,8.729999542236328,0.45
S,20,2.647,8.880000114440918,0.45
S,21,2.647,8.739999771118164,0.45
S,22,2.647,8.6899995803833,0.45
S,23,2.647,8.9399995803833,0.45
S,24,2.647,8.90999984741211,0.45
S,25,2.647,8.90999984741211,0.45
S,26,2.647,9.100000381469727,0.45
S,27,2.647,9.069999694824219,0.45
S,28,2.647,9.25,0.45
S,29,2.647,9.140000343322754,0.45
S,30,2.647,9.460000038146973,0.45
S,31,2.647,9.239999771118164,0.45
S,32,2.647,9.630000114440918,0.45
S,33,2.647,9.5,0.45
S,34,2.647,9.670000076293945,0.45
S,35,2.647,9.779999732971191,0.45
S,36,2.647,9.949999809265137,0.45
S,37,2.647,9.989999771118164,0.45
S,38,2.647,10.15999984741211,0.45
S,39,2.647,10.630000114440918,0.45
S,40,2.647,10.649999618530273,0.45
S,41,2.647,10.640000343322754,0.45
S,42,2.647,11.020000457763672,0.45
S,43,2.647,10.25,0.45
S,44,2.647,9.850000381469727,0.45
S,45,2.647,9.90999984741211,0.45
S,46,2.647,9.350000381469727,0.45
S,47,2.647,9.180000305175781,0.45
S,48,2.647,8.970000267028809,0.45
S,49,2.647,8.380000114440918,0.45
S,50,2.647,8.449999809265137,0.45
S,51,2.647,8.210000038146973,0.45
S,52,2.647,7.239999771118164,0.45
S,53,2.647,6.889999866485596,0.45
S,54,2.647,6.119999885559082,0.45
S,55,2.647,5.670000076293945,0.45
S,56,2.647,5.320000171661377,0.45
S,57,2.647,5.090000152587891,0.45
S,58,2.647,4.579999923706055,0.45
S,59,2.647,4.519999980926514,0.45
S,60,2.647,4.309999942779541,0.45
S,61,2.647,4.150000095367432,0.45
S,62,2.647,4.010000228881836,0.45
S,63,2.647,3.9100000858306885,0.45
