F,0,2.562,8.539999961853027,0.46
F,1,2.562,8.430000305175781,0.46
F,2,2.562,8.5600004196167,0.46
F,3,2.562,8.680000305175781,0.46
F,4,2.562,8.75,0.46
F,5,2.562,8.609999656677246,0.46
F,6,2.562,9.050000190734863,0.46
F,7,2.562,8.739999771118164,0.46
F,8,2.562,8.949999809265137,0.46
F,9,2.562,8.9399995803833,0.46
F,10,2.562,8.9399995803833,0.46
F,11,2.562,8.979999542236328,0.46
F,12,2.562,9.029999732971191,0.46
F,13,2.562,9.029999732971191,0.46
F,14,2.562,9.229999542236328,0.46
F,15,2.562,9.029999732971191,0.46
F,16,2.562,9.020000457763672,0.46
F,17,2.562,9.369999885559082,0.46
F,18,2.562,9.15999984741211,0.46
F,19,2.562,9.210000038146973,0.46
F,20,2.562,9.270000457763672,0.46
F,21,2.562,9.140000343322754,0.46
F,22,2.562,9.119999885559082,0.46
F,23,2.562,9.369999885559082,0.46
F,24,2.562,9.329999923706055,0.46
F,25,2.562,9.1899995803833,0.46
F,26,2.562,9.579999923706055,0.46
F,27,2.562,9.569999694824219,0.46
F,28,2.562,9.670000076293945,0.46
F,29,2.562,9.569999694824219,0.46
F,30,2.562,9.90999984741211,0.46
F,31,2.562,9.579999923706055,0.46
F,32,2.562,9.979999542236328,0.46
F,33,2.562,9.949999809265137,0.46
F,34,2.562,10.079999923706055,0.46
F,35,2.562,10.359999656677246,0.46
F,36,2.562,10.1899995803833,0.46
F,37,2.562,10.479999542236328,0.46
F,38,2.562,10.59000015258789,0.46
F,39,2.562,11.180000305175781,0.46
F,40,2.562,11.170000076293945,0.46
F,41,2.562,11.0600004196167,0.46
F,42,2.562,11.609999656677246,0.46
F,43,2.562,10.770000457763672,0.46
F,44,2.561,10.40999984741211,0.46
F,45,2.562,10.40999984741211,0.46
F,46,2.562,9.760000228881836,0.46
F,47,2.561,9.529999732971191,0.46
F,48,2.561,9.460000038146973,0.46
F,49,2.561,8.75,0.46
F,50,2.561,8.760000228881836,0.46
F,51,2.561,8.619999885559082,0.46
F,52,2.561,7.599999904632568,0.46
F,53,2.561,7.25,0.46
F,54,2.561,6.239999771118164,0.46
F,55,2.561,5.880000114440918,0.46
F,56,2.561,5.679999828338623,0.46
F,57,2.561,5.380000114440918,0.46
F,58,2.561,4.710000038146973,0.46
F,59,2.561,4.739999771118164,0.46
F,60,2.561,4.550000190734863,0.46
F,61,2.561,4.360000133514404,0.46
F,62,2.561,4.260000228881836,0.46
F,63,2.561,4.059999942779541,0.46
S,0,4.686,4.619999885559082,0.46
S,1,4.702,0.7599999904632568,0.46
S,2,4.02,0.800000011920929,0.46
S,3,4.02,0.8500000238418579,0.46
S,4,4.02,0.8700000047683716,0.46
S,5,4.02,1.0299999713897705,0.46
S,6,4.02,0.9100000262260437,0.46
S,7,4.02,1.0399999618530273,0.46
S,8,4.02,1.0,0.46
S,9,4.02,1.059999942779541,0.46
S,10,4.02,1.059999942779541,0.46
S,11,4.02,1.1200000047683716,0.46
S,12,4.02,1.1799999475479126,0.46
S,13,4.02,1.1100000143051147,0.46
S,14,4.02,1.1100000143051147,0.46
S,15,4.02,1.2400000095367432,0.46
S,16,4.02,1.2300000190734863,0.46
S,17,4.02,1.1200000047683716,0.46
S,18,4.02,1.2300000190734863,0.46
S,19,4.02,1.2200000286102295,0.46
S,20,4.021,1.2699999809265137,0.46
S,21,4.02,1.2699999809265137,0.46
S,22,4.02,1.3600000143051147,0.46
S,23,4.02,1.2100000381469727,0.46
S,24,4.02,1.3600000143051147,0.46
S,25,4.021,1.3600000143051147,0.46
S,26,4.02,1.340000033378601,0.46
S,27,4.02,1.350000023841858,0.46
S,28,4.02,1.2300000190734863,0.46
S,29,4.02,1.350000023841858,0.46
S,30,4.02,1.2799999713897705,0.46
S,31,4.02,1.4199999570846558,0.46
S,32,4.021,1.3300000429153442,0.46
S,33,4.02,1.350000023841858,0.46
S,34,4.02,1.3300000429153442,0.46
S,35,4.02,1.2799999713897705,0.46
S,36,4.692,21.780000686645508,0.46
S,37,4.692,15.279999732971191,0.46
S,38,4.691,14.489999771118164,0.46
S,39,4.691,14.210000038146973,0.46
S,40,4.691,17.260000228881836,0.46
S,41,4.692,18.25,0.46
S,42,4.691,21.309999465942383,0.46
S,43,4.692,31.829999923706055,0.46
S,44,4.692,25.489999771118164,0.46
S,45,4.692,26.479999542236328,0.46
S,46,4.692,14.960000038146973,0.46
S,47,4.692,21.020000457763672,0.46
S,48,4.691,18.700000762939453,0.46
S,49,4.692,18.770000457763672,0.46
S,50,4.692,14.010000228881836,0.46
S,51,4.691,7.940000057220459,0.46
S,52,4.021,1.2000000476837158,0.46
S,53,4.021,1.2300000190734863,0.46
S,54,4.021,1.1399999856948853,0.46
S,55,4.021,1.25,0.46
S,56,4.02,1.0800000429153442,0.46
S,57,4.02,1.090000033378601,0.46
S,58,4.02,1.090000033378601,0.46
S,59,4.02,1.0499999523162842,0.46
S,60,4.02,1.0199999809265137,0.46
S,61,4.02,0.9800000190734863,0.46
S,62,4.02,0.9200000166893005,0.46
S,63,4.021,0.949999988079071,0.46
