F,0,8.191,0.09000000357627869,0.75
F,1,8.098,0.09000000357627869,0.75
F,2,8.006,0.07999999821186066,0.75
F,3,8.015,0.10000000149011612,0.75
F,4,8.007,0.07999999821186066,0.75
F,5,8.0,0.10000000149011612,0.75
F,7,8.19,0.10999999940395355,0.75
F,8,8.008,0.09000000357627869,0.75
F,9,8.015,0.07999999821186066,0.75
F,10,8.179,0.09000000357627869,0.75
F,11,8.182,0.09000000357627869,0.75
F,12,8.045,0.09000000357627869,0.75
F,13,8.096,0.09000000357627869,0.75
F,14,8.194,0.09000000357627869,0.75
F,15,8.108,0.09000000357627869,0.75
F,16,8.117,0.09000000357627869,0.75
F,19,8.212,0.09000000357627869,0.75
F,20,8.252,0.10000000149011612,0.75
F,21,8.002,0.10999999940395355,0.75
F,22,8.22,0.11999999731779099,0.75
F,23,8.21,0.09000000357627869,0.75
F,24,8.101,0.09000000357627869,0.75
F,25,8.224,0.10000000149011612,0.75
F,26,8.056,0.10999999940395355,0.75
F,27,8.196,0.10999999940395355,0.75
F,28,8.246,0.10000000149011612,0.75
F,29,8.003,0.12999999523162842,0.75
F,30,8.063,0.10999999940395355,0.75
F,31,8.182,0.12999999523162842,0.75
F,32,8.037,0.10999999940395355,0.75
F,33,8.204,0.11999999731779099,0.75
F,34,8.028,0.10999999940395355,0.75
F,35,8.006,0.10999999940395355,0.75
F,36,8.015,0.1599999964237213,0.75
F,37,8.005,0.14000000059604645,0.75
F,38,8.03,0.12999999523162842,0.75
F,39,8.072,0.10999999940395355,0.75
F,40,8.059,0.11999999731779099,0.75
F,41,8.016,0.18000000715255737,0.75
F,42,8.005,0.14000000059604645,0.75
F,43,8.012,0.15000000596046448,0.75
F,44,8.056,0.11999999731779099,0.75
F,45,8.192,0.11999999731779099,0.75
F,46,8.014,0.14000000059604645,0.75
F,47,8.075,0.10000000149011612,0.75
F,48,8.072,0.10999999940395355,0.75
F,49,8.027,0.10000000149011612,0.75
F,50,8.018,0.12999999523162842,0.75
F,51,8.003,0.11999999731779099,0.75
F,52,8.019,0.10000000149011612,0.75
F,55,8.068,0.07999999821186066,0.75
F,56,8.069,0.05000000074505806,0.75
F,57,8.014,0.05000000074505806,0.75
F,58,8.141,0.05999999865889549,0.75
F,59,8.141,0.03999999910593033,0.75
F,60,8.005,0.05000000074505806,0.75
F,61,8.067,0.03999999910593033,0.75
F,62,8.138,0.03999999910593033,0.75
F,63,8.14,0.05999999865889549,0.75
F,63,0.0,0.0,0.75
F,63,0.0,0.0,0.75
F,63,0.0,0.0,0.75
F,63,0.0,0.0,0.75
F,63,0.0,0.0,0.75
S,0,10.507,0.12999999523162842,0.75
S,1,10.639,0.12999999523162842,0.75
S,2,10.668,0.12999999523162842,0.75
S,3,10.588,0.12999999523162842,0.75
S,4,10.625,0.10999999940395355,0.75
S,5,10.59,0.12999999523162842,0.75
S,6,10.525,0.10999999940395355,0.75
S,7,10.653,0.11999999731779099,0.75
S,8,10.69,0.14000000059604645,0.75
S,9,10.594,0.12999999523162842,0.75
S,10,10.65,0.14000000059604645,0.75
S,11,10.557,0.11999999731779099,0.75
S,12,10.572,0.11999999731779099,0.75
S,13,10.666,0.12999999523162842,0.75
S,14,10.68,0.12999999523162842,0.75
S,15,10.66,0.12999999523162842,0.75
S,16,10.619,0.12999999523162842,0.75
S,17,10.684,0.14000000059604645,0.75
S,18,10.631,0.11999999731779099,0.75
S,19,10.51,0.11999999731779099,0.75
S,20,10.625,0.11999999731779099,0.75
S,21,10.58,0.12999999523162842,0.75
S,22,10.542,0.11999999731779099,0.75
S,23,10.689,0.14000000059604645,0.75
S,24,10.605,0.10999999940395355,0.75
S,25,10.572,0.12999999523162842,0.75
S,26,10.575,0.11999999731779099,0.75
S,27,10.608,0.12999999523162842,0.75
S,28,10.671,0.15000000596046448,0.75
S,29,10.513,0.12999999523162842,0.75
S,30,10.528,0.12999999523162842,0.75
S,31,10.589,0.15000000596046448,0.75
S,32,10.573,0.12999999523162842,0.75
S,33,10.577,0.14000000059604645,0.75
S,34,10.605,0.15000000596046448,0.75
S,35,10.674,0.15000000596046448,0.75
S,36,10.58,0.15000000596046448,0.75
S,37,10.57,0.14000000059604645,0.75
S,38,10.529,0.15000000596046448,0.75
S,39,10.494,0.11999999731779099,0.75
S,40,10.597,0.14000000059604645,0.75
S,41,10.52,0.14000000059604645,0.75
S,42,10.57,0.12999999523162842,0.75
S,43,10.662,0.15000000596046448,0.75
S,44,10.571,0.1599999964237213,0.75
S,45,10.62,0.12999999523162842,0.75
S,46,10.55,0.14000000059604645,0.75
S,47,10.655,0.10999999940395355,0.75
S,48,10.652,0.11999999731779099,0.75
S,49,10.528,0.10999999940395355,0.75
S,50,10.606,0.11999999731779099,0.75
S,51,10.647,0.10999999940395355,0.75
S,52,10.517,0.09000000357627869,0.75
S,54,10.685,0.12999999523162842,0.75
S,55,10.616,0.07999999821186066,0.75
S,56,10.687,0.10999999940395355,0.75
S,57,10.688,0.10000000149011612,0.75
S,58,10.69,0.10999999940395355,0.75
S,59,10.686,0.07999999821186066,0.75
S,60,10.692,0.09000000357627869,0.75
S,61,10.672,0.07999999821186066,0.75
S,62,10.691,0.09000000357627869,0.75
S,63,10.646,0.05000000074505806,0.75
S,63,0.0,0.0,0.75
