F,0,7.161,14.069999694824219,0.82
F,1,7.161,14.149999618530273,0.82
F,2,7.162,14.09000015258789,0.82
F,3,7.161,13.979999542236328,0.82
F,4,7.162,13.800000190734863,0.82
F,5,7.161,13.90999984741211,0.82
F,6,7.162,13.510000228881836,0.82
F,7,7.162,13.989999771118164,0.82
F,8,7.162,13.789999961853027,0.82
F,9,7.162,13.8100004196167,0.82
F,10,7.162,13.829999923706055,0.82
F,11,7.162,13.729999542236328,0.82
F,12,7.162,13.59000015258789,0.82
F,13,7.162,13.930000305175781,0.82
F,14,7.162,13.779999732971191,0.82
F,15,7.162,13.890000343322754,0.82
F,16,7.162,13.979999542236328,0.82
F,17,7.162,13.520000457763672,0.82
F,18,7.162,13.800000190734863,0.82
F,19,7.162,13.75,0.82
F,20,7.162,13.619999885559082,0.82
F,21,7.162,13.989999771118164,0.82
F,22,7.162,13.949999809265137,0.82
F,23,7.162,13.930000305175781,0.82
F,24,7.162,13.630000114440918,0.82
F,25,7.162,13.979999542236328,0.82
F,26,7.162,13.510000228881836,0.82
F,27,7.162,13.970000267028809,0.82
F,28,7.162,14.010000228881836,0.82
F,29,7.162,14.210000038146973,0.82
F,30,7.162,13.65999984741211,0.82
F,31,7.162,14.4399995803833,0.82
F,32,7.162,13.869999885559082,0.82
F,33,7.162,14.180000305175781,0.82
F,34,7.162,14.0,0.82
F,35,7.162,13.890000343322754,0.82
F,36,7.162,14.300000190734863,0.82
F,37,7.162,13.970000267028809,0.82
F,38,7.162,13.90999984741211,0.82
F,39,7.162,13.579999923706055,0.82
F,40,7.162,13.859999656677246,0.82
F,41,7.162,14.140000343322754,0.82
F,42,7.162,13.779999732971191,0.82
F,43,7.162,13.630000114440918,0.82
F,44,7.162,12.869999885559082,0.82
F,45,7.162,11.960000038146973,0.82
F,46,7.162,11.539999961853027,0.82
F,47,7.162,10.920000076293945,0.82
F,48,7.162,10.510000228881836,0.82
F,49,7.162,10.050000190734863,0.82
F,50,7.162,9.510000228881836,0.82
F,51,7.162,9.239999771118164,0.82
F,52,7.162,7.78000020980835,0.82
F,53,7.162,6.639999866485596,0.82
F,54,7.161,6.309999942779541,0.82
F,55,7.161,4.960000038146973,0.82
F,56,7.161,4.75,0.82
F,57,7.161,4.199999809265137,0.82
F,58,7.161,3.8499999046325684,0.82
F,59,7.161,3.4000000953674316,0.82
F,60,7.167,3.380000114440918,0.82
F,61,7.167,3.4000000953674316,0.82
F,62,7.167,3.4100000858306885,0.82
F,63,7.167,3.5199999809265137,0.82
S,0,8.191,0.09000000357627869,0.82
S,1,8.098,0.09000000357627869,0.82
S,2,8.006,0.07999999821186066,0.82
S,3,8.015,0.10000000149011612,0.82
S,4,8.007,0.07999999821186066,0.82
S,5,8.0,0.10000000149011612,0.82
S,7,8.19,0.10999999940395355,0.82
S,8,8.008,0.09000000357627869,0.82
S,9,8.015,0.07999999821186066,0.82
S,10,8.179,0.09000000357627869,0.82
S,11,8.182,0.09000000357627869,0.82
S,12,8.045,0.09000000357627869,0.82
S,13,8.096,0.09000000357627869,0.82
S,14,8.194,0.09000000357627869,0.82
S,15,8.108,0.09000000357627869,0.82
S,16,8.117,0.09000000357627869,0.82
S,19,8.212,0.09000000357627869,0.82
S,20,8.252,0.10000000149011612,0.82
S,21,8.002,0.10999999940395355,0.82
S,22,8.22,0.11999999731779099,0.82
S,23,8.21,0.09000000357627869,0.82
S,24,8.101,0.09000000357627869,0.82
S,25,8.224,0.10000000149011612,0.82
S,26,8.056,0.10999999940395355,0.82
S,27,8.196,0.10999999940395355,0.82
S,28,8.246,0.10000000149011612,0.82
S,29,8.003,0.12999999523162842,0.82
S,30,8.063,0.10999999940395355,0.82
S,31,8.182,0.12999999523162842,0.82
S,32,8.037,0.10999999940395355,0.82
S,33,8.204,0.11999999731779099,0.82
S,34,8.028,0.10999999940395355,0.82
S,35,8.006,0.10999999940395355,0.82
S,36,8.015,0.1599999964237213,0.82
S,37,8.005,0.14000000059604645,0.82
S,38,8.03,0.12999999523162842,0.82
S,39,8.072,0.10999999940395355,0.82
S,40,8.059,0.11999999731779099,0.82
S,41,8.016,0.18000000715255737,0.82
S,42,8.005,0.14000000059604645,0.82
S,43,8.012,0.15000000596046448,0.82
S,44,8.056,0.11999999731779099,0.82
S,45,8.192,0.11999999731779099,0.82
S,46,8.014,0.14000000059604645,0.82
S,47,8.075,0.10000000149011612,0.82
S,48,8.072,0.10999999940395355,0.82
S,49,8.027,0.10000000149011612,0.82
S,50,8.018,0.12999999523162842,0.82
S,51,8.003,0.11999999731779099,0.82
S,52,8.019,0.10000000149011612,0.82
S,55,8.068,0.07999999821186066,0.82
S,56,8.069,0.05000000074505806,0.82
S,57,8.014,0.05000000074505806,0.82
S,58,8.141,0.05999999865889549,0.82
S,59,8.141,0.03999999910593033,0.82
S,60,8.005,0.05000000074505806,0.82
S,61,8.067,0.03999999910593033,0.82
S,62,8.138,0.03999999910593033,0.82
S,63,8.14,0.05999999865889549,0.82
S,63,0.0,0.0,0.82
S,63,0.0,0.0,0.82
S,63,0.0,0.0,0.82
S,63,0.0,0.0,0.82
S,63,0.0,0.0,0.82
