F,0,3.966,7.170000076293945,0.89
F,1,3.967,6.96999979019165,0.89
F,2,3.968,6.710000038146973,0.89
F,3,3.968,6.659999847412109,0.89
F,4,3.968,6.449999809265137,0.89
F,5,3.969,6.809999942779541,0.89
F,6,3.969,5.980000019073486,0.89
F,7,3.969,6.75,0.89
F,8,3.969,6.449999809265137,0.89
F,9,3.969,6.389999866485596,0.89
F,10,3.969,6.46999979019165,0.89
F,11,3.97,6.429999828338623,0.89
F,12,3.97,6.349999904632568,0.89
F,13,3.97,6.639999866485596,0.89
F,14,3.97,6.449999809265137,0.89
F,15,3.97,6.599999904632568,0.89
F,16,3.97,6.769999980926514,0.89
F,17,3.97,6.059999942779541,0.89
F,18,3.97,6.489999771118164,0.89
F,19,3.97,6.46999979019165,0.89
F,20,3.97,6.309999942779541,0.89
F,21,3.97,6.690000057220459,0.89
F,22,3.97,6.909999847412109,0.89
F,23,3.97,6.519999980926514,0.89
F,24,3.97,6.46999979019165,0.89
F,25,3.97,6.690000057220459,0.89
F,26,3.97,6.25,0.89
F,27,3.971,6.789999961853027,0.89
F,28,3.971,6.460000038146973,0.89
F,29,3.971,7.0,0.89
F,30,3.971,6.389999866485596,0.89
F,31,3.971,7.269999980926514,0.89
F,32,3.971,6.599999904632568,0.89
F,33,3.971,6.980000019073486,0.89
F,34,3.971,6.699999809265137,0.89
F,35,3.971,6.460000038146973,0.89
F,36,3.972,6.989999771118164,0.89
F,37,3.972,6.710000038146973,0.89
F,38,3.972,6.769999980926514,0.89
F,39,3.972,6.25,0.89
F,40,3.972,6.53000020980835,0.89
F,41,3.972,6.809999942779541,0.89
F,42,3.972,6.420000076293945,0.89
F,43,3.972,6.599999904632568,0.89
F,44,3.972,6.300000190734863,0.89
F,45,3.972,5.539999961853027,0.89
F,46,3.972,5.46999979019165,0.89
F,47,3.972,5.03000020980835,0.89
F,48,3.972,4.860000133514404,0.89
F,49,3.971,4.699999809265137,0.89
F,50,3.971,4.489999771118164,0.89
F,51,3.971,4.239999771118164,0.89
F,52,3.97,3.5999999046325684,0.89
F,53,3.969,3.0,0.89
F,54,3.969,2.740000009536743,0.89
F,55,3.968,2.4000000953674316,0.89
F,56,3.967,2.0999999046325684,0.89
F,57,3.967,1.8799999952316284,0.89
F,58,3.967,1.7999999523162842,0.89
F,59,3.966,1.5800000429153442,0.89
F,60,3.966,1.5,0.89
F,61,3.966,1.309999942779541,0.89
F,62,3.966,1.2100000381469727,0.89
F,63,3.966,1.1299999952316284,0.89
S,0,2.646,7.949999809265137,0.89
S,1,2.646,8.210000038146973,0.89
S,2,2.647,8.3100004196167,0.89
S,3,2.646,8.390000343322754,0.89
S,4,2.647,8.380000114440918,0.89
S,5,2.646,8.3100004196167,0.89
S,6,2.647,8.529999732971191,0.89
S,7,2.647,8.329999923706055,0.89
S,8,2.647,8.479999542236328,0.89
S,9,2.647,8.550000190734863,0.89
S,10,2.647,8.539999961853027,0.89
S,11,2.647,8.670000076293945,0.89
S,12,2.647,8.630000114440918,0.89
S,13,2.647,8.5600004196167,0.89
S,14,2.647,8.680000305175781,0.89
S,15,2.647,8.609999656677246,0.89
S,16,2.647,8.550000190734863,0.89
S,17,2.647,8.890000343322754,0.89
S,18,2.647,8.770000457763672,0.89
S,19,2.647,8.729999542236328,0.89
S,20,2.647,8.880000114440918,0.89
S,21,2.647,8.739999771118164,0.89
S,22,2.647,8.6899995803833,0.89
S,23,2.647,8.9399995803833,0.89
S,24,2.647,8.90999984741211,0.89
S,25,2.647,8.90999984741211,0.89
S,26,2.647,9.100000381469727,0.89
S,27,2.647,9.069999694824219,0.89
S,28,2.647,9.25,0.89
S,29,2.647,9.140000343322754,0.89
S,30,2.647,9.460000038146973,0.89
S,31,2.647,9.239999771118164,0.89
S,32,2.647,9.630000114440918,0.89
S,33,2.647,9.5,0.89
S,34,2.647,9.670000076293945,0.89
S,35,2.647,9.779999732971191,0.89
S,36,2.647,9.949999809265137,0.89
S,37,2.647,9.989999771118164,0.89
S,38,2.647,10.15999984741211,0.89
S,39,2.647,10.630000114440918,0.89
S,40,2.647,10.649999618530273,0.89
S,41,2.647,10.640000343322754,0.89
S,42,2.647,11.020000457763672,0.89
S,43,2.647,10.25,0.89
S,44,2.647,9.850000381469727,0.89
S,45,2.647,9.90999984741211,0.89
S,46,2.647,9.350000381469727,0.89
S,47,2.647,9.180000305175781,0.89
S,48,2.647,8.970000267028809,0.89
S,49,2.647,8.380000114440918,0.89
S,50,2.647,8.449999809265137,0.89
S,51,2.647,8.210000038146973,0.89
S,52,2.647,7.239999771118164,0.89
S,53,2.647,6.889999866485596,0.89
S,54,2.647,6.119999885559082,0.89
S,55,2.647,5.670000076293945,0.89
S,56,2.647,5.320000171661377,0.89
S,57,2.647,5.090000152587891,0.89
S,58,2.647,4.579999923706055,0.89
S,59,2.647,4.519999980926514,0.89
S,60,2.647,4.309999942779541,0.89
S,61,2.647,4.150000095367432,0.89
S,62,2.647,4.010000228881836,0.89
S,63,2.647,3.9100000858306885,0.89
