F,0,2.562,8.539999961853027,0.91
F,1,2.562,8.430000305175781,0.91
F,2,2.562,8.5600004196167,0.91
F,3,2.562,8.680000305175781,0.91
F,4,2.562,8.75,0.91
F,5,2.562,8.609999656677246,0.91
F,6,2.562,9.050000190734863,0.91
F,7,2.562,8.739999771118164,0.91
F,8,2.562,8.949999809265137,0.91
F,9,2.562,8.9399995803833,0.91
F,10,2.562,8.9399995803833,0.91
F,11,2.562,8.979999542236328,0.91
F,12,2.562,9.029999732971191,0.91
F,13,2.562,9.029999732971191,0.91
F,14,2.562,9.229999542236328,0.91
F,15,2.562,9.029999732971191,0.91
F,16,2.562,9.020000457763672,0.91
F,17,2.562,9.369999885559082,0.91
F,18,2.562,9.15999984741211,0.91
F,19,2.562,9.210000038146973,0.91
F,20,2.562,9.270000457763672,0.91
F,21,2.562,9.140000343322754,0.91
F,22,2.562,9.119999885559082,0.91
F,23,2.562,9.369999885559082,0.91
F,24,2.562,9.329999923706055,0.91
F,25,2.562,9.1899995803833,0.91
F,26,2.562,9.579999923706055,0.91
F,27,2.562,9.569999694824219,0.91
F,28,2.562,9.670000076293945,0.91
F,29,2.562,9.569999694824219,0.91
F,30,2.562,9.90999984741211,0.91
F,31,2.562,9.579999923706055,0.91
F,32,2.562,9.979999542236328,0.91
F,33,2.562,9.949999809265137,0.91
F,34,2.562,10.079999923706055,0.91
F,35,2.562,10.359999656677246,0.91
F,36,2.562,10.1899995803833,0.91
F,37,2.562,10.479999542236328,0.91
F,38,2.562,10.59000015258789,0.91
F,39,2.562,11.180000305175781,0.91
F,40,2.562,11.170000076293945,0.91
F,41,2.562,11.0600004196167,0.91
F,42,2.562,11.609999656677246,0.91
F,43,2.562,10.770000457763672,0.91
F,44,2.561,10.40999984741211,0.91
F,45,2.562,10.40999984741211,0.91
F,46,2.562,9.760000228881836,0.91
F,47,2.561,9.529999732971191,0.91
F,48,2.561,9.460000038146973,0.91
F,49,2.561,8.75,0.91
F,50,2.561,8.760000228881836,0.91
F,51,2.561,8.619999885559082,0.91
F,52,2.561,7.599999904632568,0.91
F,53,2.561,7.25,0.91
F,54,2.561,6.239999771118164,0.91
F,55,2.561,5.880000114440918,0.91
F,56,2.561,5.679999828338623,0.91
F,57,2.561,5.380000114440918,0.91
F,58,2.561,4.710000038146973,0.91
F,59,2.561,4.739999771118164,0.91
F,60,2.561,4.550000190734863,0.91
F,61,2.561,4.360000133514404,0.91
F,62,2.561,4.260000228881836,0.91
F,63,2.561,4.059999942779541,0.91
S,0,8.191,0.09000000357627869,0.91
S,1,8.098,0.09000000357627869,0.91
S,2,8.006,0.07999999821186066,0.91
S,3,8.015,0.10000000149011612,0.91
S,4,8.007,0.07999999821186066,0.91
S,5,8.0,0.10000000149011612,0.91
S,7,8.19,0.10999999940395355,0.91
S,8,8.008,0.09000000357627869,0.91
S,9,8.015,0.07999999821186066,0.91
S,10,8.179,0.09000000357627869,0.91
S,11,8.182,0.09000000357627869,0.91
S,12,8.045,0.09000000357627869,0.91
S,13,8.096,0.09000000357627869,0.91
S,14,8.194,0.09000000357627869,0.91
S,15,8.108,0.09000000357627869,0.91
S,16,8.117,0.09000000357627869,0.91
S,19,8.212,0.09000000357627869,0.91
S,20,8.252,0.10000000149011612,0.91
S,21,8.002,0.10999999940395355,0.91
S,22,8.22,0.11999999731779099,0.91
S,23,8.21,0.09000000357627869,0.91
S,24,8.101,0.09000000357627869,0.91
S,25,8.224,0.10000000149011612,0.91
S,26,8.056,0.10999999940395355,0.91
S,27,8.196,0.10999999940395355,0.91
S,28,8.246,0.10000000149011612,0.91
S,29,8.003,0.12999999523162842,0.91
S,30,8.063,0.10999999940395355,0.91
S,31,8.182,0.12999999523162842,0.91
S,32,8.037,0.10999999940395355,0.91
S,33,8.204,0.11999999731779099,0.91
S,34,8.028,0.10999999940395355,0.91
S,35,8.006,0.10999999940395355,0.91
S,36,8.015,0.1599999964237213,0.91
S,37,8.005,0.14000000059604645,0.91
S,38,8.03,0.12999999523162842,0.91
S,39,8.072,0.10999999940395355,0.91
S,40,8.059,0.11999999731779099,0.91
S,41,8.016,0.18000000715255737,0.91
S,42,8.005,0.14000000059604645,0.91
S,43,8.012,0.15000000596046448,0.91
S,44,8.056,0.11999999731779099,0.91
S,45,8.192,0.11999999731779099,0.91
S,46,8.014,0.14000000059604645,0.91
S,47,8.075,0.10000000149011612,0.91
S,48,8.072,0.10999999940395355,0.91
S,49,8.027,0.10000000149011612,0.91
S,50,8.018,0.12999999523162842,0.91
S,51,8.003,0.11999999731779099,0.91
S,52,8.019,0.10000000149011612,0.91
S,55,8.068,0.07999999821186066,0.91
S,56,8.069,0.05000000074505806,0.91
S,57,8.014,0.05000000074505806,0.91
S,58,8.141,0.05999999865889549,0.91
S,59,8.141,0.03999999910593033,0.91
S,60,8.005,0.05000000074505806,0.91
S,61,8.067,0.03999999910593033,0.91
S,62,8.138,0.03999999910593033,0.91
S,63,8.14,0.05999999865889549,0.91
S,63,0.0,0.0,0.91
S,63,0.0,0.0,0.91
S,63,0.0,0.0,0.91
S,63,0.0,0.0,0.91
S,63,0.0,0.0,0.91
