F,0,7.161,14.069999694824219,0.96
F,1,7.161,14.149999618530273,0.96
F,2,7.162,14.09000015258789,0.96
F,3,7.161,13.979999542236328,0.96
F,4,7.162,13.800000190734863,0.96
F,5,7.161,13.90999984741211,0.96
F,6,7.176,11.300000190734863,0.96
F,7,7.162,13.989999771118164,0.96
F,8,7.162,13.789999961853027,0.96
F,9,7.176,11.510000228881836,0.96
F,10,7.162,13.829999923706055,0.96
F,11,7.176,11.630000114440918,0.96
F,12,7.176,11.649999618530273,0.96
F,13,7.162,13.930000305175781,0.96
F,14,7.176,11.4399995803833,0.96
F,15,7.162,13.890000343322754,0.96
F,16,7.162,13.979999542236328,0.96
F,17,7.176,11.220000267028809,0.96
F,18,7.176,11.569999694824219,0.96
F,19,7.176,11.609999656677246,0.96
F,20,7.176,11.600000381469727,0.96
F,21,7.162,13.989999771118164,0.96
F,22,7.162,13.949999809265137,0.96
F,23,7.176,11.550000190734863,0.96
F,24,7.176,11.710000038146973,0.96
F,25,7.162,13.979999542236328,0.96
F,26,7.176,11.510000228881836,0.96
F,27,7.176,11.829999923706055,0.96
F,28,7.176,11.630000114440918,0.96
F,29,7.162,14.210000038146973,0.96
F,30,7.176,11.649999618530273,0.96
F,31,7.162,14.4399995803833,0.96
F,32,7.176,11.899999618530273,0.96
F,33,7.162,14.180000305175781,0.96
F,34,7.176,11.920000076293945,0.96
F,35,7.176,11.569999694824219,0.96
F,36,7.162,14.300000190734863,0.96
F,37,7.176,11.920000076293945,0.96
F,38,7.176,11.949999809265137,0.96
F,39,7.176,11.489999771118164,0.96
F,40,7.176,11.739999771118164,0.96
F,41,7.176,12.119999885559082,0.96
F,42,7.176,11.649999618530273,0.96
F,43,7.176,11.550000190734863,0.96
F,44,7.176,10.880000114440918,0.96
F,45,7.176,10.119999885559082,0.96
F,46,7.176,9.850000381469727,0.96
F,47,7.176,9.170000076293945,0.96
F,48,7.176,8.800000190734863,0.96
F,49,7.176,8.430000305175781,0.96
F,50,7.176,8.199999809265137,0.96
F,51,7.176,7.71999979019165,0.96
F,52,7.176,6.460000038146973,0.96
F,53,7.176,5.46999979019165,0.96
F,54,7.176,4.789999961853027,0.96
F,55,7.176,4.110000133514404,0.96
F,56,7.176,3.5299999713897705,0.96
F,57,7.176,3.119999885559082,0.96
F,58,7.181,3.0,0.96
F,59,7.181,3.0,0.96
F,60,7.181,3.0899999141693115,0.96
F,61,7.181,3.0899999141693115,0.96
F,62,7.181,3.0,0.96
F,63,7.181,3.2799999713897705,0.96
S,0,6.896,15.0,0.96
S,1,6.896,15.0,0.96
S,2,6.896,15.0,0.96
S,3,6.896,15.0,0.96
S,4,6.896,15.0,0.96
S,5,6.896,15.0,0.96
S,6,6.896,15.0,0.96
S,7,6.896,15.0,0.96
S,8,6.896,15.0,0.96
S,9,6.896,15.0,0.96
S,10,6.896,15.0,0.96
S,11,6.896,15.0,0.96
S,12,6.896,15.0,0.96
S,13,6.896,15.0,0.96
S,14,6.896,15.0,0.96
S,15,6.896,15.0,0.96
S,16,6.896,15.0,0.96
S,17,6.896,15.0,0.96
S,18,6.896,15.0,0.96
S,19,6.896,15.0,0.96
S,20,6.897,15.0,0.96
S,21,6.897,15.0,0.96
S,22,6.897,15.0,0.96
S,23,6.896,15.0,0.96
S,24,6.897,15.0,0.96
S,25,6.897,15.0,0.96
S,26,6.896,15.0,0.96
S,27,6.896,15.0,0.96
S,28,6.896,15.0,0.96
S,29,6.897,15.0,0.96
S,30,6.897,15.0,0.96
S,31,6.897,15.0,0.96
S,32,6.897,15.0,0.96
S,33,6.897,15.0,0.96
S,34,6.897,15.0,0.96
S,35,6.896,15.0,0.96
S,36,6.897,15.0,0.96
S,37,6.897,15.0,0.96
S,38,6.897,15.0,0.96
S,39,6.897,15.0,0.96
S,40,6.897,15.0,0.96
S,41,6.897,15.0,0.96
S,42,6.897,15.0,0.96
S,43,6.897,14.199999809265137,0.96
S,44,6.897,13.470000267028809,0.96
S,45,6.897,12.949999809265137,0.96
S,46,6.897,12.199999809265137,0.96
S,47,6.897,11.619999885559082,0.96
S,48,6.897,11.229999542236328,0.96
S,49,6.897,10.5600004196167,0.96
S,50,6.897,10.359999656677246,0.96
S,51,6.896,9.949999809265137,0.96
S,52,6.896,8.319999694824219,0.96
S,53,6.896,7.349999904632568,0.96
S,54,6.896,6.199999809265137,0.96
S,55,6.896,5.480000019073486,0.96
S,56,6.896,4.71999979019165,0.96
S,57,6.896,4.239999771118164,0.96
S,58,6.896,3.6500000953674316,0.96
S,59,6.896,3.3299999237060547,0.96
S,60,6.896,3.009999990463257,0.96
S,61,6.896,2.6700000762939453,0.96
S,62,6.896,2.369999885559082,0.96
S,63,6.896,2.240000009536743,0.96
