F,0,6.896,15.0,0.9
F,1,6.896,15.0,0.9
F,2,6.896,15.0,0.9
F,3,6.896,15.0,0.9
F,4,6.896,15.0,0.9
F,5,6.896,15.0,0.9
F,6,6.896,15.0,0.9
F,7,6.896,15.0,0.9
F,8,6.896,15.0,0.9
F,9,6.896,15.0,0.9
F,10,6.896,15.0,0.9
F,11,6.896,15.0,0.9
F,12,6.896,15.0,0.9
F,13,6.896,15.0,0.9
F,14,6.896,15.0,0.9
F,15,6.896,15.0,0.9
F,16,6.896,15.0,0.9
F,17,6.896,15.0,0.9
F,18,6.896,15.0,0.9
F,19,6.896,15.0,0.9
F,20,6.897,15.0,0.9
F,21,6.897,15.0,0.9
F,22,6.897,15.0,0.9
F,23,6.896,15.0,0.9
F,24,6.897,15.0,0.9
F,25,6.897,15.0,0.9
F,26,6.896,15.0,0.9
F,27,6.896,15.0,0.9
F,28,6.896,15.0,0.9
F,29,6.897,15.0,0.9
F,30,6.897,15.0,0.9
F,31,6.897,15.0,0.9
F,32,6.897,15.0,0.9
F,33,6.897,15.0,0.9
F,34,6.897,15.0,0.9
F,35,6.896,15.0,0.9
F,36,6.897,15.0,0.9
F,37,6.897,15.0,0.9
F,38,6.897,15.0,0.9
F,39,6.897,15.0,0.9
F,40,6.897,15.0,0.9
F,41,6.897,15.0,0.9
F,42,6.897,15.0,0.9
F,43,6.897,14.199999809265137,0.9
F,44,6.897,13.470000267028809,0.9
F,45,6.897,12.949999809265137,0.9
F,46,6.897,12.199999809265137,0.9
F,47,6.897,11.619999885559082,0.9
F,48,6.897,11.229999542236328,0.9
F,49,6.897,10.5600004196167,0.9
F,50,6.897,10.359999656677246,0.9
F,51,6.896,9.949999809265137,0.9
F,52,6.896,8.319999694824219,0.9
F,53,6.896,7.349999904632568,0.9
F,54,6.896,6.199999809265137,0.9
F,55,6.896,5.480000019073486,0.9
F,56,6.896,4.71999979019165,0.9
F,57,6.896,4.239999771118164,0.9
F,58,6.896,3.6500000953674316,0.9
F,59,6.896,3.3299999237060547,0.9
F,60,6.896,3.009999990463257,0.9
F,61,6.896,2.6700000762939453,0.9
F,62,6.896,2.369999885559082,0.9
F,63,6.896,2.240000009536743,0.9
S,0,2.646,7.949999809265137,0.9
S,1,2.646,8.210000038146973,0.9
S,2,2.647,8.3100004196167,0.9
S,3,2.646,8.390000343322754,0.9
S,4,2.647,8.380000114440918,0.9
S,5,2.646,8.3100004196167,0.9
S,6,2.647,8.529999732971191,0.9
S,7,2.647,8.329999923706055,0.9
S,8,2.647,8.479999542236328,0.9
S,9,2.647,8.550000190734863,0.9
S,10,2.647,8.539999961853027,0.9
S,11,2.647,8.670000076293945,0.9
S,12,2.647,8.630000114440918,0.9
S,13,2.647,8.5600004196167,0.9
S,14,2.647,8.680000305175781,0.9
S,15,2.647,8.609999656677246,0.9
S,16,2.647,8.550000190734863,0.9
S,17,2.647,8.890000343322754,0.9
S,18,2.647,8.770000457763672,0.9
S,19,2.647,8.729999542236328,0.9
S,20,2.647,8.880000114440918,0.9
S,21,2.647,8.739999771118164,0.9
S,22,2.647,8.6899995803833,0.9
S,23,2.647,8.9399995803833,0.9
S,24,2.647,8.90999984741211,0.9
S,25,2.647,8.90999984741211,0.9
S,26,2.647,9.100000381469727,0.9
S,27,2.647,9.069999694824219,0.9
S,28,2.647,9.25,0.9
S,29,2.647,9.140000343322754,0.9
S,30,2.647,9.460000038146973,0.9
S,31,2.647,9.239999771118164,0.9
S,32,2.647,9.630000114440918,0.9
S,33,2.647,9.5,0.9
S,34,2.647,9.670000076293945,0.9
S,35,2.647,9.779999732971191,0.9
S,36,2.647,9.949999809265137,0.9
S,37,2.647,9.989999771118164,0.9
S,38,2.647,10.15999984741211,0.9
S,39,2.647,10.630000114440918,0.9
S,40,2.647,10.649999618530273,0.9
S,41,2.647,10.640000343322754,0.9
S,42,2.647,11.020000457763672,0.9
S,43,2.647,10.25,0.9
S,44,2.647,9.850000381469727,0.9
S,45,2.647,9.90999984741211,0.9
S,46,2.647,9.350000381469727,0.9
S,47,2.647,9.180000305175781,0.9
S,48,2.647,8.970000267028809,0.9
S,49,2.647,8.380000114440918,0.9
S,50,2.647,8.449999809265137,0.9
S,51,2.647,8.210000038146973,0.9
S,52,2.647,7.239999771118164,0.9
S,53,2.647,6.889999866485596,0.9
S,54,2.647,6.119999885559082,0.9
S,55,2.647,5.670000076293945,0.9
S,56,2.647,5.320000171661377,0.9
S,57,2.647,5.090000152587891,0.9
S,58,2.647,4.579999923706055,0.9
S,59,2.647,4.519999980926514,0.9
S,60,2.647,4.309999942779541,0.9
S,61,2.647,4.150000095367432,0.9
S,62,2.647,4.010000228881836,0.9
S,63,2.647,3.9100000858306885,0.9
