10.6047,0.11,25
10.4804,0.1,25
10.4255,0.09,25
10.4024,0.08,25
10.353,0.07,25
8.4628,0.08,25
8.3356,0.07,25
8.2887,0.08,25
8.1751,0.09,25
8.101,0.09,25
7.9475,0.15,25
7.8823,0.14,25
7.8676,0.13,25
7.8372,0.14,25
7.7484,0.14,25
7.724,0.15,25
7.7088,0.19,25
7.6958,0.34,25
7.6816,0.32,25
7.6504,0.17,25
7.5375,0.63,25
7.5184,0.54,25
7.504,0.5,25
7.4896,0.25,25
7.4619,0.21,25
7.4124,0.23,25
7.3765,0.27,25
7.2887,0.44,25
7.2777,0.4,25
7.2658,0.44,25
7.2523,0.53,25
7.2394,0.48,25
7.2238,0.84,25
7.1811,2.87,25
7.1763,11.71,25
7.173,3.21,25
7.1651,3.99,25
7.1618,13.63,25
7.1568,2.01,25
7.1418,0.61,25
7.1244,0.24,25
7.1137,0.21,25
7.0258,0.3,25
6.911,1.19,25
6.9013,2.9,25
6.8965,15.0,25
6.893,3.01,25
6.8854,3.33,25
6.8819,11.89,25
6.877,1.62,25
6.8625,0.53,25
6.8576,0.24,25
6.843,0.21,25
6.7782,0.13,25
6.7635,0.12,25
6.7491,0.11,25
4.7054,0.51,25
4.7018,0.54,25
4.6805,0.4,25
4.6747,0.3,25
4.2531,0.11,25
4.2203,0.13,25
4.1396,0.29,25
4.1214,0.3,25
4.0979,0.23,25
4.0762,0.25,25
4.0328,0.33,25
4.0204,1.36,25
4.0035,0.53,25
3.9832,4.55,25
3.9703,6.47,25
3.9586,4.46,25
3.9453,4.14,25
3.9173,13.44,25
3.8895,13.36,25
3.8614,4.39,25
3.8243,3.23,25
3.8,4.28,25
3.7697,0.72,25
3.7405,8.74,25
3.7095,0.35,25
3.6783,0.17,25
3.6649,0.11,25
3.6161,0.23,25
3.5869,0.11,25
3.4503,1.49,25
3.2262,0.12,25
3.2177,0.17,25
3.1986,0.29,25
3.1853,0.2,25
3.177,0.16,25
3.1612,0.15,25
3.1508,0.13,25
3.137,0.13,25
3.0661,1.94,25
3.0546,2.07,25
3.043,5.66,25
3.0315,5.74,25
3.0208,5.85,25
3.0076,5.79,25
2.9977,1.95,25
2.9845,1.87,25
2.742,0.16,25
2.7339,0.16,25
2.6868,0.09,25
2.6717,4.05,25
2.6466,8.91,25
2.6188,0.39,25
2.6068,0.33,25
2.5795,0.31,25
2.5615,9.33,25
2.5364,4.26,25
2.3774,0.07,25
2.3681,0.22,25
2.3591,0.16,25
2.3197,0.16,25
2.3102,0.4,25
2.3024,0.35,25
2.2559,0.1,25
2.2423,0.14,25
2.2096,0.2,25
2.1995,0.21,25
2.1614,0.18,25
2.1484,0.29,25
2.1347,0.43,25
2.1297,0.66,25
2.1152,0.54,25
2.0984,0.37,25
2.0806,2.01,25
2.0644,0.53,25
2.0454,0.64,25
2.0262,0.42,25
1.9206,0.26,25
1.8572,0.3,25
1.8009,0.24,25
1.7819,0.24,25
1.6802,0.44,25
1.6662,0.42,25
1.657,0.4,25
1.599,0.21,25
1.551,0.11,25
1.5433,0.11,25
1.49,0.22,25
1.4777,0.23,25
1.4599,0.18,25
1.4243,0.25,25
1.4126,0.25,25
1.3572,0.12,25
1.3373,0.51,25
1.3257,0.5,25
1.294,0.09,25
1.2532,0.19,25
1.2406,0.23,25
1.2126,0.26,25
1.2023,0.25,25
1.1212,0.09,25
1.1087,0.31,25
1.0967,0.35,25
1.0504,0.23,25
1.0372,0.19,25
1.0183,0.24,25
1.0003,0.46,25
0.9833,0.7,25
0.9472,2.23,25
0.9411,1.25,25
0.9358,2.09,25
0.9299,1.28,25
0.9194,1.3,25
0.9109,1.24,25
0.9084,1.26,25
0.8983,1.21,25
0.8925,1.08,25
0.8782,1.08,25
0.8158,0.43,25
0.7728,0.27,25
0.6665,0.08,25
0.659,0.08,25
0.0968,0.38,25
0.0211,0.12,25
0.0181,0.14,25
0.0166,0.34,25
0.0152,0.31,25
0.0137,0.28,25
0.0122,0.35,25
0.0107,0.45,25
0.0092,0.66,25
0.0077,0.97,25
0.005,4.1,25
-2.0E-4,105.41,25
-0.005,3.21,25
-0.0059,3.41,25
-0.0091,0.37,25
-0.0106,0.18,25
-0.0251,0.29,25
-0.027,0.08,25
-0.0284,0.12,25
-0.0299,0.22,25
-0.0386,0.14,25
-0.1007,0.34,25
-0.8586,0.08,25
-0.8764,0.08,25
-1.0857,0.16,25
