10.6742,0.15,36
10.5876,0.14,36
10.5562,0.13,36
10.5473,0.12,36
10.5053,0.12,36
8.006,0.11,36
7.9686,0.13,36
7.9484,0.15,36
7.9333,0.12,36
7.9211,0.14,36
7.8831,0.13,36
7.8721,0.14,36
7.847,0.17,36
7.829,0.12,36
7.781,0.11,36
7.7592,0.11,36
7.7503,0.12,36
7.723,0.16,36
7.6953,0.35,36
7.6823,0.32,36
7.6436,0.16,36
7.5361,0.61,36
7.5188,0.58,36
7.5039,0.56,36
7.4899,0.27,36
7.4459,0.17,36
7.4402,0.2,36
7.3977,0.26,36
7.3881,0.28,36
7.3776,0.31,36
7.3697,0.27,36
7.357,0.26,36
7.3407,0.26,36
7.3162,0.34,36
7.3021,0.42,36
7.2879,0.44,36
7.2776,0.37,36
7.2644,0.41,36
7.2522,0.53,36
7.2396,0.48,36
7.2234,0.83,36
7.2086,0.58,36
7.1938,0.89,36
7.1813,3.13,36
7.1763,11.57,36
7.173,3.49,36
7.1654,4.08,36
7.1617,13.89,36
7.1568,2.63,36
7.1416,0.89,36
7.1301,0.41,36
7.1132,0.35,36
7.0823,0.26,36
7.0743,0.22,36
7.0243,0.33,36
6.9812,0.22,36
6.9384,0.32,36
6.9151,0.84,36
6.9111,1.08,36
6.9012,2.75,36
6.8964,15.0,36
6.893,3.44,36
6.8854,3.26,36
6.8819,12.16,36
6.8771,3.06,36
6.8663,0.73,36
6.8626,1.61,36
6.8573,0.51,36
6.8432,0.41,36
6.8044,0.25,36
6.7747,0.21,36
6.7611,0.23,36
6.7516,0.19,36
6.7441,0.18,36
6.7324,0.14,36
4.713,0.16,36
4.707,0.61,36
4.7033,0.34,36
4.7007,0.38,36
4.6831,0.21,36
4.6785,0.48,36
4.672,0.43,36
4.175,0.16,36
4.1553,0.2,36
4.1395,0.26,36
4.1234,0.25,36
4.1085,0.21,36
4.0992,0.17,36
4.0857,0.19,36
4.0782,0.21,36
4.055,0.15,36
4.0308,0.24,36
4.0203,1.28,36
4.0064,0.43,36
3.9969,0.56,36
3.9842,4.48,36
3.9713,6.46,36
3.9596,4.35,36
3.9455,4.2,36
3.9325,0.6,36
3.9174,13.31,36
3.8894,13.35,36
3.8613,4.53,36
3.8395,0.47,36
3.8242,6.58,36
3.8128,0.55,36
3.8004,8.89,36
3.7852,0.45,36
3.7791,0.47,36
3.7695,0.81,36
3.7404,8.83,36
3.7094,0.53,36
3.6912,0.24,36
3.6784,0.4,36
3.671,0.26,36
3.6632,0.19,36
3.6566,0.19,36
3.6466,0.16,36
3.633,0.19,36
3.616,0.34,36
3.6106,0.19,36
3.5929,0.12,36
3.5862,0.2,36
3.5654,0.34,36
3.5401,0.12,36
3.4502,3.99,36
3.2478,0.18,36
3.2358,0.13,36
3.2287,0.14,36
3.2181,0.28,36
3.2104,0.21,36
3.1987,0.32,36
3.1853,0.37,36
3.174,0.17,36
3.1598,0.18,36
3.1513,0.14,36
3.1388,0.14,36
3.1037,0.16,36
3.075,0.42,36
3.0666,1.93,36
3.055,2.06,36
3.0434,5.59,36
3.0319,5.72,36
3.0212,5.92,36
3.008,5.83,36
2.9981,2.12,36
2.9849,1.91,36
2.7419,0.26,36
2.7398,0.27,36
2.7334,0.2,36
2.727,0.19,36
2.6717,4.51,36
2.6466,9.78,36
2.6188,0.59,36
2.6068,0.55,36
2.5796,0.32,36
2.5615,10.36,36
2.5364,4.67,36
2.3683,0.25,36
2.3638,0.18,36
2.3591,0.21,36
2.3195,0.15,36
2.3103,0.45,36
2.3031,0.39,36
2.2803,0.14,36
2.2733,0.13,36
2.2404,0.14,36
2.2233,0.18,36
2.2097,0.22,36
2.1991,0.27,36
2.1926,0.22,36
2.1874,0.24,36
2.1733,0.22,36
2.1477,0.33,36
2.1449,0.38,36
2.1296,1.08,36
2.1257,0.61,36
2.115,0.66,36
2.0986,0.44,36
2.0805,2.13,36
2.0642,0.75,36
2.0518,0.71,36
2.0449,0.77,36
2.0249,0.5,36
2.0107,0.49,36
1.996,0.33,36
1.9388,0.31,36
1.9206,0.37,36
1.9067,0.36,36
1.8581,0.35,36
1.8427,0.26,36
1.8293,0.24,36
1.8037,0.29,36
1.7908,0.24,36
1.7634,0.27,36
1.7324,0.41,36
1.7281,0.41,36
1.7201,0.46,36
1.7042,0.5,36
1.6878,0.54,36
1.6798,0.6,36
1.666,0.56,36
1.6574,0.53,36
1.5967,0.24,36
1.5729,0.13,36
1.5654,0.13,36
1.5527,0.13,36
1.5258,0.15,36
1.5143,0.19,36
1.4904,0.42,36
1.4781,0.44,36
1.4367,0.27,36
1.4243,0.36,36
1.4128,0.32,36
1.4004,0.22,36
1.3855,0.13,36
1.3693,0.16,36
1.3565,0.18,36
1.3373,0.66,36
1.3256,0.57,36
1.3078,0.12,36
1.2815,0.12,36
1.2685,0.15,36
1.2535,0.27,36
1.2404,0.35,36
1.2303,0.3,36
1.2122,0.32,36
1.2036,0.29,36
1.1737,0.27,36
1.1526,0.22,36
1.1086,0.46,36
1.0967,0.46,36
1.0756,0.14,36
1.0715,0.15,36
1.0556,0.22,36
1.0502,0.38,36
1.0442,0.2,36
1.0381,0.44,36
1.0336,0.23,36
1.018,0.59,36
1.006,0.7,36
1.0003,0.72,36
0.9881,0.96,36
0.9838,0.99,36
0.9714,1.22,36
0.9642,1.44,36
0.9538,1.61,36
0.9472,3.1,36
0.9414,1.86,36
0.9358,2.9,36
0.9291,1.77,36
0.9195,2.07,36
0.9083,1.96,36
0.8982,1.54,36
0.8929,1.32,36
0.8855,1.35,36
0.8617,0.95,36
0.8494,0.75,36
0.8163,0.44,36
0.7831,0.28,36
0.7699,0.25,36
0.7596,0.24,36
0.0969,0.42,36
0.0239,0.14,36
0.0225,0.18,36
0.018,0.12,36
0.0165,0.33,36
0.0151,0.26,36
0.0136,0.25,36
0.0121,0.3,36
0.0107,0.42,36
0.0092,0.56,36
0.0076,0.9,36
0.0049,4.16,36
0.0032,4.16,36
-2.0E-4,117.73,36
-0.0057,3.77,36
-0.0076,1.24,36
-0.0092,0.51,36
-0.0108,0.29,36
-0.0272,0.28,36
-0.0285,0.34,36
-0.1006,0.38,36
-0.9554,0.11,36
-0.9628,0.13,36
-0.9907,0.11,36
-1.0238,0.14,36
-1.0617,0.14,36
-1.075,0.17,36
-1.1243,0.19,36
-1.1351,0.18,36
-1.1574,0.19,36
-1.1706,0.21,36
