10.5802,0.15,37
10.4905,0.13,37
10.3634,0.08,37
10.3261,0.08,37
8.4621,0.09,37
8.4168,0.08,37
8.3516,0.09,37
8.3272,0.09,37
8.2364,0.12,37
8.2054,0.12,37
8.1033,0.11,37
8.0676,0.13,37
8.0521,0.12,37
8.0152,0.16,37
7.9776,0.17,37
7.9645,0.17,37
7.9372,0.17,37
7.9041,0.19,37
7.8927,0.18,37
7.7478,0.17,37
7.7225,0.22,37
7.6957,0.43,37
7.6822,0.41,37
7.6444,0.22,37
7.5379,0.71,37
7.5187,0.63,37
7.504,0.58,37
7.489,0.33,37
7.4603,0.25,37
7.4125,0.28,37
7.3902,0.36,37
7.3048,0.53,37
7.289,0.56,37
7.2659,0.54,37
7.2524,0.65,37
7.2393,0.62,37
7.2239,1.06,37
7.2086,0.86,37
7.1941,1.27,37
7.1814,3.94,37
7.1765,12.18,37
7.1619,14.3,37
7.157,2.35,37
7.1418,0.77,37
7.1232,0.29,37
7.0989,0.19,37
7.0821,0.21,37
7.0261,0.33,37
6.9152,1.12,37
6.9111,1.33,37
6.8966,15.0,37
6.8932,2.98,37
6.8852,3.7,37
6.8821,12.06,37
6.8773,2.87,37
6.8627,1.55,37
6.8343,0.29,37
6.82,0.21,37
6.7751,0.16,37
6.7647,0.16,37
4.7204,0.37,37
4.7072,1.05,37
4.699,2.38,37
4.6978,2.78,37
4.6955,1.25,37
4.6915,21.78,37
4.6864,1.52,37
4.6834,2.45,37
4.6796,2.5,37
4.6742,0.99,37
4.6667,0.26,37
4.6646,0.25,37
4.2468,0.16,37
4.2035,0.16,37
4.139,0.37,37
4.1155,0.34,37
4.0978,0.3,37
4.0581,0.27,37
4.0205,1.46,37
4.0051,0.63,37
3.9845,4.85,37
3.9716,6.99,37
3.9599,4.82,37
3.9456,4.53,37
3.9322,0.73,37
3.9176,13.92,37
3.8896,13.8,37
3.8615,4.63,37
3.8423,0.57,37
3.8244,7.44,37
3.8127,0.62,37
3.8006,10.09,37
3.7707,0.93,37
3.7409,9.66,37
3.7111,0.48,37
3.689,0.21,37
3.6786,0.43,37
3.6711,0.21,37
3.6335,0.17,37
3.6177,0.3,37
3.6104,0.15,37
3.5935,0.12,37
3.587,0.18,37
3.5657,0.32,37
3.5402,0.12,37
3.4503,4.66,37
3.2477,0.2,37
3.2367,0.16,37
3.2191,0.35,37
3.2105,0.25,37
3.1987,0.4,37
3.1857,0.43,37
3.1761,0.21,37
3.1611,0.24,37
3.1516,0.19,37
3.1381,0.2,37
3.1267,0.15,37
3.0751,0.54,37
3.0668,2.11,37
3.0614,0.65,37
3.0552,2.31,37
3.0437,6.06,37
3.0321,6.25,37
3.0215,6.37,37
3.0083,6.28,37
2.9984,2.23,37
2.9851,2.02,37
2.7682,0.09,37
2.7527,0.13,37
2.7395,0.29,37
2.7335,0.23,37
2.727,0.24,37
2.7014,0.1,37
2.6718,4.49,37
2.6467,9.95,37
2.6188,0.57,37
2.6069,0.57,37
2.5791,0.37,37
2.5616,10.19,37
2.5364,4.63,37
2.3684,0.24,37
2.3634,0.2,37
2.3586,0.19,37
2.3265,0.11,37
2.3194,0.18,37
2.3099,0.53,37
2.3028,0.45,37
2.2878,0.18,37
2.2429,0.2,37
2.2103,0.26,37
2.1992,0.33,37
2.1861,0.28,37
2.1616,0.25,37
2.1446,0.45,37
2.1296,1.14,37
2.1149,0.72,37
2.0976,0.48,37
2.0805,2.08,37
2.0644,0.83,37
2.0517,0.8,37
2.0451,0.86,37
2.0251,0.58,37
1.9893,0.38,37
1.9553,0.3,37
1.9204,0.42,37
1.9066,0.4,37
1.8974,0.32,37
1.8582,0.43,37
1.8003,0.28,37
1.7824,0.31,37
1.7692,0.34,37
1.7325,0.47,37
1.7183,0.56,37
1.7072,0.59,37
1.6877,0.62,37
1.6797,0.68,37
1.6672,0.62,37
1.657,0.59,37
1.5961,0.29,37
1.5267,0.17,37
1.5135,0.21,37
1.4905,0.47,37
1.478,0.51,37
1.4365,0.31,37
1.4251,0.43,37
1.4115,0.34,37
1.3733,0.19,37
1.3689,0.19,37
1.361,0.21,37
1.3376,0.73,37
1.3262,0.61,37
1.2793,0.14,37
1.2684,0.21,37
1.2532,0.28,37
1.2404,0.37,37
1.2302,0.34,37
1.2125,0.36,37
1.2022,0.36,37
1.1829,0.29,37
1.1089,0.4,37
1.0967,0.47,37
1.0505,0.4,37
1.0447,0.25,37
1.038,0.49,37
1.018,0.68,37
1.0059,0.83,37
1.0002,0.9,37
0.9884,1.11,37
0.9835,1.13,37
0.9642,1.7,37
0.954,1.89,37
0.9472,3.32,37
0.9414,2.16,37
0.9357,3.08,37
0.9292,2.05,37
0.9196,2.32,37
0.9083,2.19,37
0.8984,1.74,37
0.8929,1.49,37
0.8855,1.52,37
0.8639,1.1,37
0.8501,0.85,37
0.8163,0.49,37
0.0969,0.39,37
0.0113,0.13,37
0.0098,0.24,37
0.0053,3.99,37
-2.0E-4,112.4,37
-0.0056,4.5,37
-0.0099,0.55,37
-0.0114,0.36,37
-0.0129,0.24,37
-0.0144,0.14,37
-0.0159,0.18,37
-0.0174,0.16,37
-0.0189,0.11,37
-0.0233,0.16,37
-0.0258,0.5,37
-0.0279,0.18,37
-0.1005,0.37,37
-0.9179,0.13,37
-0.9494,0.14,37
-0.9645,0.17,37
-1.0023,0.15,37
-1.085,0.19,37
-1.1194,0.22,37
