10.6156,0.08,57
8.4095,0.05,57
8.3267,0.06,57
8.2377,0.07,57
8.0675,0.08,57
7.9714,0.13,57
7.8811,0.12,57
7.847,0.19,57
7.7232,0.12,57
7.696,0.24,57
7.6822,0.26,57
7.65,0.12,57
7.536,0.28,57
7.5191,0.31,57
7.5046,0.33,57
7.4897,0.17,57
7.4374,0.16,57
7.4251,0.2,57
7.4033,0.23,57
7.3893,0.31,57
7.3774,0.29,57
7.3465,0.23,57
7.3183,0.37,57
7.3034,0.36,57
7.2774,0.28,57
7.2639,0.31,57
7.2542,0.41,57
7.2398,0.33,57
7.2235,0.59,57
7.2086,0.83,57
7.1939,1.15,57
7.1816,3.42,57
7.1762,4.11,57
7.1722,1.41,57
7.1669,3.23,57
7.1615,4.96,57
7.1564,1.01,57
7.1416,0.52,57
7.1196,0.13,57
7.0816,0.21,57
7.0295,0.15,57
6.9805,0.13,57
6.9153,1.03,57
6.9113,1.01,57
6.9007,1.79,57
6.8963,5.48,57
6.8928,1.11,57
6.8851,1.53,57
6.8818,4.51,57
6.8774,3.53,57
6.8739,0.71,57
6.8663,0.85,57
6.8629,2.81,57
6.8578,0.28,57
6.846,0.13,57
6.8312,0.13,57
6.7755,0.09,57
6.7615,0.08,57
4.7065,0.24,57
4.703,0.17,57
4.6848,0.26,57
4.6804,0.36,57
4.6744,0.29,57
4.6665,0.13,57
4.2666,0.08,57
4.2464,0.11,57
4.2296,0.1,57
4.1624,0.16,57
4.1386,0.18,57
4.1172,0.2,57
4.108,0.17,57
4.0951,0.18,57
4.0796,0.17,57
4.0597,0.17,57
4.0205,1.25,57
4.006,0.38,57
3.9917,0.57,57
3.9807,1.74,57
3.9678,2.4,57
3.9562,1.84,57
3.9449,1.68,57
3.9321,0.51,57
3.9167,4.83,57
3.9059,0.57,57
3.8894,4.75,57
3.8768,0.46,57
3.8613,1.75,57
3.8537,0.57,57
3.8473,0.52,57
3.8377,0.67,57
3.8242,11.27,57
3.7988,15.0,57
3.7845,0.36,57
3.7776,0.56,57
3.7709,0.57,57
3.7673,0.71,57
3.763,0.44,57
3.7563,0.77,57
3.7405,3.16,57
3.7263,0.25,57
3.7149,0.25,57
3.6961,0.15,57
3.678,0.58,57
3.6712,0.45,57
3.665,0.17,57
3.6553,0.25,57
3.6432,0.1,57
3.6337,0.13,57
3.6179,0.45,57
3.6105,0.35,57
3.5927,0.26,57
3.5848,0.31,57
3.5653,1.14,57
3.5402,0.44,57
3.4502,8.58,57
3.2512,0.09,57
3.2397,0.09,57
3.2296,0.18,57
3.219,0.33,57
3.2102,0.21,57
3.2045,0.19,57
3.1944,0.31,57
3.1855,0.42,57
3.1737,0.13,57
3.1601,0.19,57
3.1465,0.18,57
3.1369,0.16,57
3.1196,0.13,57
3.0766,0.51,57
3.0644,1.11,57
3.0531,0.9,57
3.0491,0.87,57
3.0418,2.05,57
3.036,0.88,57
3.0303,2.19,57
3.0195,2.29,57
3.0063,2.11,57
2.9964,0.77,57
2.9832,0.67,57
2.9633,0.1,57
2.9429,0.09,57
2.9353,0.09,57
2.8271,0.06,57
2.7983,0.07,57
2.7798,0.08,57
2.7681,0.08,57
2.752,0.23,57
2.7394,0.47,57
2.7336,0.19,57
2.7269,0.35,57
2.7237,0.31,57
2.7019,0.11,57
2.6823,0.17,57
2.6719,2.67,57
2.6468,5.67,57
2.6188,0.57,57
2.6068,0.55,57
2.5794,0.26,57
2.5612,5.88,57
2.5361,2.62,57
2.5005,0.14,57
2.4882,0.28,57
2.4758,0.08,57
2.4398,0.06,57
2.4272,0.05,57
2.3682,0.14,57
2.3587,0.22,57
2.3486,0.11,57
2.3456,0.13,57
2.3265,0.1,57
2.3197,0.12,57
2.31,0.3,57
2.3024,0.3,57
2.2902,0.13,57
2.2778,0.15,57
2.262,0.14,57
2.2472,0.15,57
2.2354,0.15,57
2.2232,0.15,57
2.2118,0.19,57
2.199,0.21,57
2.1863,0.19,57
2.1447,0.57,57
2.1343,0.54,57
2.1296,1.44,57
2.1257,0.51,57
2.121,0.4,57
2.1115,0.4,57
2.0985,0.36,57
2.0804,0.95,57
2.0717,0.53,57
2.0641,0.91,57
2.0517,1.11,57
2.0254,0.35,57
2.0141,0.34,57
1.9914,0.28,57
1.9792,0.29,57
1.9676,0.33,57
1.9561,0.34,57
1.9427,0.33,57
1.934,0.36,57
1.9242,0.36,57
1.9206,0.41,57
1.9068,0.4,57
1.9006,0.27,57
1.8967,0.3,57
1.89,0.27,57
1.8795,0.25,57
1.8552,0.28,57
1.8418,0.24,57
1.8306,0.2,57
1.8171,0.18,57
1.8009,0.17,57
1.7613,0.24,57
1.7456,0.31,57
1.733,0.44,57
1.7199,0.49,57
1.7076,0.42,57
1.6867,0.39,57
1.6797,0.44,57
1.6657,0.39,57
1.6567,0.35,57
1.6265,0.25,57
1.6007,0.17,57
1.5352,0.14,57
1.5249,0.27,57
1.513,0.27,57
1.505,0.19,57
1.4903,0.94,57
1.4779,0.94,57
1.4567,0.21,57
1.4482,0.19,57
1.435,0.23,57
1.4232,0.26,57
1.411,0.18,57
1.3836,0.11,57
1.3732,0.28,57
1.3691,0.25,57
1.3608,0.26,57
1.3568,0.27,57
1.3479,0.17,57
1.3379,0.92,57
1.3269,0.78,57
1.2909,0.13,57
1.2838,0.13,57
1.2787,0.15,57
1.2751,0.15,57
1.2676,0.26,57
1.2627,0.14,57
1.2564,0.26,57
1.2527,0.22,57
1.2406,0.29,57
1.2333,0.25,57
1.2108,0.26,57
1.2007,0.21,57
1.1794,0.18,57
1.1334,0.05,57
1.1212,0.07,57
1.1086,0.45,57
1.0966,0.5,57
1.0712,0.12,57
1.0556,0.48,57
1.0501,0.96,57
1.0439,0.49,57
1.038,1.01,57
1.0329,0.4,57
1.0179,1.44,57
1.0058,1.46,57
1.0001,1.34,57
0.9881,1.45,57
0.9832,0.87,57
0.9746,1.31,57
0.9685,1.07,57
0.964,1.8,57
0.9537,1.89,57
0.9471,2.85,57
0.9413,2.18,57
0.9358,2.56,57
0.9288,1.72,57
0.9195,3.23,57
0.9082,3.03,57
0.8982,1.27,57
0.8925,0.88,57
0.8854,1.01,57
0.8787,0.88,57
0.8742,0.83,57
0.8613,0.82,57
0.8487,0.59,57
0.0969,0.21,57
0.0332,0.22,57
0.0255,0.15,57
0.0166,0.12,57
0.0122,0.06,57
0.0107,0.1,57
0.0093,0.17,57
0.005,2.26,57
-2.0E-4,68.1,57
-0.0057,2.42,57
-0.0121,0.17,57
-0.0136,0.13,57
-0.0151,0.09,57
-0.0581,0.11,57
-0.1007,0.26,57
-0.9286,0.07,57
