10.6862,0.08,61
10.4942,0.04,61
8.141,0.04,61
7.9686,0.09,61
7.8805,0.07,61
7.8459,0.16,61
7.7702,0.05,61
7.7492,0.05,61
7.7225,0.06,61
7.6955,0.17,61
7.6814,0.16,61
7.6496,0.09,61
7.6364,0.08,61
7.5343,0.14,61
7.518,0.19,61
7.5041,0.25,61
7.49,0.09,61
7.4452,0.07,61
7.4236,0.1,61
7.413,0.1,61
7.4029,0.12,61
7.3894,0.21,61
7.3773,0.23,61
7.3445,0.13,61
7.3345,0.11,61
7.3179,0.27,61
7.3112,0.24,61
7.3048,0.25,61
7.2886,0.19,61
7.2775,0.15,61
7.2661,0.17,61
7.2527,0.27,61
7.2387,0.19,61
7.223,0.37,61
7.2081,0.46,61
7.1935,0.57,61
7.1813,3.0,61
7.1758,2.45,61
7.1712,1.12,61
7.1667,3.24,61
7.1611,3.4,61
7.1562,1.21,61
7.1415,0.72,61
7.1355,0.33,61
7.1211,0.23,61
7.103,0.18,61
7.0812,0.27,61
7.0539,0.13,61
7.0359,0.13,61
6.9956,0.12,61
6.915,0.6,61
6.911,0.72,61
6.9004,0.93,61
6.896,3.33,61
6.8926,0.91,61
6.8848,0.78,61
6.8814,2.79,61
6.8773,4.0,61
6.8739,1.22,61
6.8663,0.89,61
6.8627,3.3,61
6.8578,0.67,61
6.8343,0.28,61
6.8198,0.21,61
6.7736,0.17,61
6.7622,0.15,61
6.6658,0.05,61
6.582,0.04,61
4.7071,0.22,61
4.7035,0.19,61
4.6836,0.14,61
4.6791,0.26,61
4.6725,0.19,61
4.2465,0.07,61
4.1762,0.09,61
4.1621,0.09,61
4.1392,0.09,61
4.1303,0.09,61
4.1161,0.11,61
4.107,0.09,61
4.0933,0.08,61
4.0799,0.1,61
4.0657,0.07,61
4.0475,0.06,61
4.0353,0.08,61
4.0203,1.05,61
4.0057,0.21,61
3.9917,0.44,61
3.9851,0.44,61
3.9791,1.04,61
3.9662,1.58,61
3.9545,1.11,61
3.9444,0.99,61
3.9318,0.33,61
3.9161,2.84,61
3.9048,0.43,61
3.8891,2.84,61
3.8758,0.35,61
3.8718,0.32,61
3.8611,1.09,61
3.8534,0.49,61
3.8471,0.38,61
3.8436,0.37,61
3.8373,0.46,61
3.8239,10.98,61
3.8116,0.37,61
3.7979,15.0,61
3.7846,0.58,61
3.7772,0.65,61
3.7706,0.57,61
3.7669,0.7,61
3.7628,0.44,61
3.756,0.64,61
3.7399,2.05,61
3.726,0.38,61
3.7217,0.36,61
3.7062,0.32,61
3.6778,0.61,61
3.6711,0.57,61
3.6632,0.22,61
3.6556,0.34,61
3.634,0.18,61
3.6177,0.52,61
3.6103,0.47,61
3.6055,0.18,61
3.5925,0.36,61
3.5843,0.42,61
3.5651,1.74,61
3.555,0.08,61
3.5399,0.59,61
3.45,9.42,61
3.4318,0.09,61
3.2505,0.07,61
3.2396,0.08,61
3.2293,0.15,61
3.2186,0.25,61
3.21,0.17,61
3.2042,0.15,61
3.1943,0.25,61
3.1851,0.33,61
3.1722,0.14,61
3.1599,0.21,61
3.1464,0.2,61
3.1344,0.15,61
3.1201,0.13,61
3.1147,0.12,61
3.0978,0.12,61
3.0764,0.44,61
3.0637,1.0,61
3.049,0.8,61
3.041,1.25,61
3.0357,0.83,61
3.0294,1.38,61
3.0227,0.82,61
3.0185,1.54,61
3.0053,1.35,61
2.9955,0.59,61
2.9822,0.47,61
2.9631,0.16,61
2.9427,0.15,61
2.9352,0.18,61
2.9211,0.05,61
2.8722,0.09,61
2.8594,0.12,61
2.8442,0.05,61
2.8313,0.05,61
2.8272,0.09,61
2.8185,0.06,61
2.8047,0.1,61
2.7979,0.12,61
2.7791,0.11,61
2.7675,0.09,61
2.7595,0.1,61
2.7519,0.3,61
2.7393,0.54,61
2.7336,0.19,61
2.7268,0.38,61
2.7237,0.37,61
2.7011,0.12,61
2.6977,0.13,61
2.6825,0.18,61
2.6718,2.1,61
2.6467,4.52,61
2.6187,0.57,61
2.6068,0.52,61
2.5892,0.12,61
2.5794,0.22,61
2.5721,0.17,61
2.5609,4.74,61
2.5358,2.15,61
2.5004,0.25,61
2.4881,0.38,61
2.4755,0.16,61
2.466,0.06,61
2.4543,0.1,61
2.4389,0.11,61
2.4279,0.09,61
2.4205,0.07,61
2.4036,0.07,61
2.375,0.13,61
2.3697,0.14,61
2.362,0.24,61
2.3577,0.25,61
2.3486,0.17,61
2.3453,0.2,61
2.3264,0.11,61
2.3197,0.12,61
2.3097,0.28,61
2.3022,0.28,61
2.2898,0.17,61
2.2823,0.16,61
2.2778,0.17,61
2.2704,0.17,61
2.2586,0.15,61
2.247,0.16,61
2.2231,0.16,61
2.2117,0.18,61
2.1995,0.2,61
2.1854,0.19,61
2.1708,0.17,61
2.1447,0.53,61
2.1344,0.45,61
2.1295,1.54,61
2.1206,0.37,61
2.1161,0.34,61
2.1114,0.35,61
2.0982,0.31,61
2.0855,0.36,61
2.0803,0.69,61
2.0717,0.48,61
2.064,0.96,61
2.0516,1.28,61
2.0263,0.35,61
2.0152,0.32,61
1.9914,0.28,61
1.9789,0.32,61
1.9672,0.35,61
1.955,0.39,61
1.9442,0.4,61
1.9339,0.42,61
1.9241,0.4,61
1.9204,0.43,61
1.9068,0.44,61
1.9002,0.3,61
1.8963,0.32,61
1.8899,0.29,61
1.8792,0.24,61
1.8653,0.26,61
1.8553,0.27,61
1.8425,0.26,61
1.831,0.22,61
1.8155,0.18,61
1.8005,0.19,61
1.7911,0.18,61
1.7614,0.24,61
1.7457,0.31,61
1.7321,0.45,61
1.7183,0.48,61
1.7071,0.4,61
1.7006,0.34,61
1.6862,0.35,61
1.6794,0.4,61
1.6655,0.34,61
1.6548,0.3,61
1.643,0.27,61
1.6255,0.24,61
1.614,0.21,61
1.6003,0.19,61
1.5624,0.09,61
1.5352,0.14,61
1.5245,0.26,61
1.5123,0.26,61
1.504,0.22,61
1.4902,1.24,61
1.4778,1.27,61
1.4643,0.29,61
1.4564,0.26,61
1.4435,0.2,61
1.4345,0.22,61
1.4251,0.22,61
1.4227,0.22,61
1.4113,0.2,61
1.3962,0.16,61
1.3835,0.14,61
1.3731,0.25,61
1.3689,0.23,61
1.3608,0.23,61
1.3568,0.24,61
1.3483,0.15,61
1.3378,1.14,61
1.3268,1.01,61
1.291,0.15,61
1.2836,0.12,61
1.2783,0.17,61
1.2673,0.25,61
1.2563,0.29,61
1.2524,0.21,61
1.244,0.22,61
1.2404,0.26,61
1.2333,0.23,61
1.2112,0.24,61
1.2005,0.2,61
1.1791,0.18,61
1.1684,0.17,61
1.1548,0.12,61
1.1333,0.08,61
1.1211,0.08,61
1.1085,0.41,61
1.0966,0.42,61
1.0713,0.15,61
1.0557,0.66,61
1.05,1.17,61
1.0438,0.66,61
1.0379,1.23,61
1.0326,0.42,61
1.0177,1.56,61
1.0057,1.55,61
1.0,1.53,61
0.988,1.57,61
0.9746,1.09,61
0.9639,1.52,61
0.9537,1.69,61
0.9471,2.4,61
0.9412,2.07,61
0.9357,2.18,61
0.9286,1.54,61
0.9194,3.63,61
0.9082,3.43,61
0.8982,1.05,61
0.8931,0.75,61
0.8853,0.82,61
0.8782,0.73,61
0.8739,0.8,61
0.8613,0.9,61
0.8485,0.59,61
0.8137,0.2,61
0.7628,0.1,61
0.0969,0.2,61
0.0167,0.12,61
0.0153,0.09,61
0.0123,0.08,61
0.0108,0.12,61
0.0093,0.18,61
0.0078,0.3,61
0.005,1.92,61
0.0034,1.77,61
-2.0E-4,55.19,61
-0.0049,1.92,61
-0.0059,2.09,61
-0.009,0.39,61
-0.0106,0.25,61
-0.0121,0.18,61
-0.0135,0.14,61
-0.015,0.1,61
-0.0165,0.07,61
-0.018,0.07,61
-0.0195,0.05,61
-0.0269,0.09,61
-0.0285,0.17,61
-0.1006,0.23,61
-0.9144,0.05,61
-0.9987,0.06,61
-1.0866,0.07,61
