10.6897,0.14,9
10.4979,0.1,9
10.4853,0.09,9
10.4641,0.08,9
10.4561,0.08,9
10.4492,0.08,9
10.4327,0.08,9
8.1951,0.07,9
8.1203,0.07,9
8.0996,0.07,9
8.0876,0.07,9
8.0528,0.07,9
8.0269,0.07,9
8.0083,0.09,9
7.999,0.09,9
7.9861,0.09,9
7.9531,0.12,9
7.8927,0.1,9
7.8544,0.11,9
7.8387,0.13,9
7.825,0.1,9
7.7864,0.07,9
7.7735,0.08,9
7.7425,0.1,9
7.7211,0.12,9
7.7084,0.14,9
7.6954,0.31,9
7.6818,0.32,9
7.6423,0.13,9
7.6175,0.11,9
7.6037,0.13,9
7.5742,0.2,9
7.5355,0.64,9
7.518,0.55,9
7.5038,0.5,9
7.4878,0.26,9
7.4768,0.19,9
7.4622,0.19,9
7.441,0.18,9
7.4123,0.18,9
7.3954,0.2,9
7.3542,0.19,9
7.3467,0.21,9
7.3044,0.29,9
7.2959,0.28,9
7.2881,0.37,9
7.2667,0.32,9
7.2521,0.42,9
7.2383,0.4,9
7.2235,0.67,9
7.1809,2.07,9
7.1761,11.56,9
7.1616,13.79,9
7.1567,2.61,9
7.1417,0.76,9
7.112,0.32,9
7.0246,0.32,9
6.9818,0.2,9
6.9513,0.21,9
6.9415,0.25,9
6.9284,0.3,9
6.9109,0.9,9
6.9012,2.5,9
6.8963,15.0,9
6.8929,3.57,9
6.8852,3.14,9
6.8818,12.14,9
6.8769,1.77,9
6.8623,0.43,9
6.8566,0.39,9
6.8429,0.34,9
6.8018,0.23,9
6.7836,0.22,9
6.5536,0.07,9
6.54,0.07,9
4.7205,0.1,9
4.7115,0.4,9
4.7058,0.87,9
4.7021,0.37,9
4.6994,0.34,9
4.6979,0.2,9
4.6861,0.14,9
4.6828,0.5,9
4.6783,0.48,9
4.672,0.49,9
4.1412,0.21,9
4.123,0.23,9
4.1084,0.2,9
4.0889,0.17,9
4.0775,0.16,9
4.0317,0.22,9
4.0202,1.0,9
4.0044,0.42,9
3.9821,4.4,9
3.9692,6.45,9
3.9575,4.25,9
3.9451,4.06,9
3.917,13.28,9
3.8894,13.34,9
3.8613,4.35,9
3.8242,1.78,9
3.8122,0.41,9
3.7995,2.29,9
3.7689,0.57,9
3.7404,9.06,9
3.7109,0.45,9
3.6924,0.2,9
3.6786,0.19,9
3.6461,0.15,9
3.6162,0.28,9
3.593,0.08,9
3.5868,0.14,9
3.4503,0.36,9
3.1984,0.22,9
3.1856,0.17,9
3.1727,0.11,9
3.1591,0.1,9
3.1495,0.07,9
3.1377,0.1,9
3.113,0.09,9
3.1032,0.12,9
3.0656,1.89,9
3.054,2.03,9
3.0425,5.62,9
3.0309,5.65,9
3.0203,5.9,9
3.0071,5.76,9
2.9972,2.02,9
2.9839,1.89,9
2.9544,0.14,9
2.742,0.12,9
2.7335,0.13,9
2.6715,3.86,9
2.6465,8.48,9
2.6187,0.26,9
2.6067,0.25,9
2.5797,0.29,9
2.5615,8.95,9
2.5364,4.09,9
2.3766,0.07,9
2.3684,0.18,9
2.3593,0.14,9
2.3422,0.07,9
2.3193,0.13,9
2.3097,0.36,9
2.3031,0.34,9
2.2906,0.11,9
2.28,0.12,9
2.2634,0.11,9
2.2425,0.13,9
2.2273,0.16,9
2.2118,0.19,9
2.1991,0.21,9
2.1864,0.19,9
2.1669,0.19,9
2.1476,0.28,9
2.1348,0.37,9
2.1297,0.44,9
2.1188,0.51,9
2.0974,0.35,9
2.0806,2.09,9
2.0641,0.48,9
2.0454,0.63,9
2.0325,0.43,9
2.0253,0.4,9
2.0117,0.41,9
1.9889,0.28,9
1.9649,0.21,9
1.9401,0.2,9
1.9204,0.24,9
1.9062,0.19,9
1.8574,0.29,9
1.8307,0.19,9
1.8016,0.23,9
1.7907,0.22,9
1.7813,0.24,9
1.7697,0.24,9
1.7426,0.25,9
1.6873,0.39,9
1.6777,0.39,9
1.6663,0.39,9
1.6592,0.37,9
1.5783,0.14,9
1.5492,0.14,9
1.5121,0.12,9
1.4991,0.14,9
1.4908,0.15,9
1.4786,0.18,9
1.4622,0.16,9
1.4521,0.16,9
1.4205,0.22,9
1.4112,0.23,9
1.399,0.17,9
1.369,0.1,9
1.3373,0.47,9
1.3255,0.46,9
1.3072,0.11,9
1.2532,0.19,9
1.2403,0.22,9
1.2296,0.2,9
1.2031,0.23,9
1.1912,0.18,9
1.1735,0.21,9
1.1628,0.19,9
1.1526,0.19,9
1.1086,0.19,9
1.0965,0.22,9
1.0498,0.2,9
1.038,0.18,9
1.0185,0.22,9
1.0061,0.31,9
0.9698,0.67,9
0.9472,1.6,9
0.9414,1.05,9
0.9358,1.58,9
0.9284,1.05,9
0.9197,1.01,9
0.9084,1.0,9
0.8982,0.97,9
0.8911,0.96,9
0.8768,0.98,9
0.863,0.83,9
0.8146,0.45,9
0.8044,0.43,9
0.7446,0.27,9
0.6729,0.11,9
0.0969,0.33,9
0.0224,0.12,9
0.0209,0.15,9
0.0195,0.15,9
0.018,0.19,9
0.0165,0.39,9
0.0151,0.34,9
0.0136,0.32,9
0.0121,0.4,9
0.0106,0.5,9
0.0091,0.68,9
0.0076,1.11,9
0.0049,4.07,9
-2.0E-4,103.44,9
-0.0052,3.28,9
-0.0093,0.33,9
-0.0108,0.16,9
-0.027,0.37,9
-0.0314,0.07,9
-0.1006,0.34,9
-0.8382,0.06,9
-0.8653,0.07,9
-0.959,0.1,9
-0.9675,0.1,9
-0.9853,0.1,9
-0.9931,0.12,9
-1.0957,0.15,9
-1.1212,0.16,9
-1.1435,0.17,9
-1.1611,0.17,9
-1.2514,0.22,9
