10.6715,0.13,10
10.5938,0.13,10
10.5752,0.11,10
10.5132,0.09,10
10.4789,0.08,10
10.4423,0.07,10
10.4055,0.07,10
10.3883,0.06,10
10.3184,0.07,10
8.4622,0.07,10
8.4472,0.08,10
8.2291,0.08,10
8.2141,0.08,10
8.1871,0.08,10
8.1767,0.08,10
8.0154,0.08,10
7.9611,0.1,10
7.9459,0.11,10
7.9265,0.1,10
7.901,0.1,10
7.8943,0.1,10
7.8793,0.11,10
7.8701,0.11,10
7.8541,0.1,10
7.8397,0.11,10
7.8269,0.11,10
7.7946,0.08,10
7.771,0.1,10
7.7463,0.12,10
7.724,0.11,10
7.7085,0.14,10
7.6954,0.3,10
7.6814,0.3,10
7.6565,0.13,10
7.6388,0.14,10
7.6303,0.12,10
7.5369,0.62,10
7.5043,0.48,10
7.4897,0.25,10
7.4326,0.17,10
7.3813,0.21,10
7.3772,0.2,10
7.3671,0.21,10
7.3183,0.23,10
7.2988,0.28,10
7.2866,0.37,10
7.2768,0.31,10
7.266,0.34,10
7.2529,0.42,10
7.239,0.38,10
7.2236,0.73,10
7.2097,0.31,10
7.2048,0.32,10
7.1809,2.0,10
7.1761,11.51,10
7.1729,3.44,10
7.1616,13.81,10
7.1567,2.63,10
7.1415,0.8,10
7.1364,0.48,10
7.1248,0.32,10
7.1206,0.33,10
7.1142,0.28,10
7.0252,0.32,10
6.9395,0.25,10
6.925,0.38,10
6.9109,0.91,10
6.9011,2.4,10
6.8963,15.0,10
6.8929,3.38,10
6.8852,3.16,10
6.8818,12.14,10
6.8769,1.86,10
6.8624,0.45,10
6.8559,0.37,10
6.8503,0.29,10
6.8406,0.36,10
6.7749,0.2,10
6.7604,0.21,10
6.7452,0.18,10
6.7116,0.11,10
6.6873,0.08,10
6.6589,0.08,10
4.7206,0.21,10
4.713,0.45,10
4.7068,0.67,10
4.7031,0.7,10
4.7002,0.6,10
4.6782,0.36,10
4.6718,0.37,10
4.6635,0.12,10
4.1536,0.18,10
4.1392,0.21,10
4.1216,0.23,10
4.1167,0.21,10
4.0968,0.17,10
4.0878,0.17,10
4.0744,0.18,10
4.0509,0.15,10
4.0319,0.24,10
4.0204,1.06,10
4.0073,0.38,10
3.9822,4.36,10
3.9693,6.39,10
3.9577,4.24,10
3.9451,4.17,10
3.933,0.41,10
3.9171,13.39,10
3.8895,13.27,10
3.8766,0.46,10
3.8614,4.24,10
3.8355,0.32,10
3.8243,1.85,10
3.8125,0.42,10
3.7996,2.46,10
3.7849,0.3,10
3.7692,0.58,10
3.7405,8.92,10
3.7159,0.4,10
3.6783,0.19,10
3.6618,0.15,10
3.6321,0.15,10
3.6162,0.24,10
3.5868,0.09,10
3.4502,0.44,10
3.2176,0.11,10
3.1988,0.23,10
3.1855,0.16,10
3.1759,0.13,10
3.1628,0.11,10
3.1511,0.1,10
3.1398,0.07,10
3.1147,0.1,10
3.0657,1.88,10
3.0542,2.02,10
3.0426,5.58,10
3.031,5.63,10
3.0204,5.89,10
3.0072,5.82,10
2.9973,2.05,10
2.984,1.93,10
2.9449,0.07,10
2.7416,0.14,10
2.7333,0.15,10
2.6716,3.89,10
2.6465,8.55,10
2.6188,0.22,10
2.6067,0.28,10
2.5884,0.09,10
2.5793,0.23,10
2.5615,8.94,10
2.5364,4.06,10
2.3682,0.21,10
2.3194,0.16,10
2.3099,0.37,10
2.3034,0.33,10
2.2805,0.12,10
2.2433,0.13,10
2.2231,0.17,10
2.2103,0.19,10
2.1989,0.23,10
2.1931,0.18,10
2.1865,0.21,10
2.1632,0.19,10
2.1555,0.17,10
2.1477,0.28,10
2.1346,0.38,10
2.1295,0.47,10
2.1152,0.51,10
2.0961,0.33,10
2.0806,2.07,10
2.0642,0.47,10
2.0454,0.62,10
2.032,0.4,10
2.025,0.4,10
2.0112,0.39,10
1.9512,0.19,10
1.9258,0.19,10
1.9208,0.21,10
1.9001,0.18,10
1.8577,0.27,10
1.8488,0.2,10
1.8296,0.2,10
1.8159,0.21,10
1.8014,0.23,10
1.7915,0.24,10
1.7759,0.24,10
1.7499,0.2,10
1.7176,0.3,10
1.6994,0.34,10
1.6881,0.37,10
1.6802,0.39,10
1.666,0.41,10
1.6493,0.35,10
1.631,0.29,10
1.593,0.2,10
1.5454,0.12,10
1.4906,0.17,10
1.4786,0.16,10
1.4234,0.23,10
1.4127,0.21,10
1.3728,0.09,10
1.3566,0.11,10
1.3372,0.47,10
1.3254,0.45,10
1.2921,0.12,10
1.2752,0.11,10
1.2532,0.19,10
1.2401,0.2,10
1.213,0.22,10
1.2029,0.22,10
1.1743,0.19,10
1.1335,0.09,10
1.1086,0.21,10
1.0967,0.24,10
1.0799,0.13,10
1.0549,0.15,10
1.0508,0.21,10
1.0388,0.19,10
1.0182,0.23,10
0.9831,0.6,10
0.9472,1.62,10
0.9415,1.06,10
0.9358,1.59,10
0.9293,1.07,10
0.9191,1.0,10
0.9108,1.03,10
0.9045,0.97,10
0.8983,0.97,10
0.8914,0.95,10
0.8789,0.97,10
0.8633,0.82,10
0.8255,0.4,10
0.8143,0.45,10
0.8051,0.41,10
0.7524,0.24,10
0.7374,0.24,10
0.6616,0.07,10
0.097,0.35,10
0.043,0.09,10
0.0341,0.1,10
0.0281,0.35,10
0.0164,0.3,10
0.015,0.24,10
0.0134,0.24,10
0.0119,0.33,10
0.0104,0.44,10
0.009,0.64,10
0.0049,3.9,10
-2.0E-4,103.44,10
-0.0053,3.26,10
-0.0077,0.76,10
-0.0094,0.28,10
-0.011,0.17,10
-0.0244,0.1,10
-0.0257,0.16,10
-0.041,0.21,10
-0.1006,0.3,10
-0.8585,0.06,10
-0.8897,0.08,10
-0.9683,0.11,10
-0.9947,0.1,10
-1.0403,0.13,10
-1.076,0.14,10
-1.1439,0.16,10
