10.638600,0.130000,1.000000
10.593300,0.110000,1.000000
10.541900,0.110000,1.000000
10.460600,0.080000,1.000000
10.454900,0.080000,1.000000
10.426200,0.070000,1.000000
10.375000,0.070000,1.000000
10.322200,0.060000,1.000000
8.495200,0.060000,1.000000
8.479900,0.060000,1.000000
8.469800,0.080000,1.000000
8.439800,0.070000,1.000000
8.363600,0.070000,1.000000
8.335000,0.060000,1.000000
8.273300,0.060000,1.000000
8.241800,0.080000,1.000000
8.208500,0.090000,1.000000
8.184200,0.090000,1.000000
8.168200,0.070000,1.000000
8.137200,0.060000,1.000000
8.113500,0.070000,1.000000
8.104600,0.080000,1.000000
8.098400,0.090000,1.000000
8.044400,0.070000,1.000000
7.983900,0.090000,1.000000
7.977100,0.090000,1.000000
7.945000,0.120000,1.000000
7.942100,0.120000,1.000000
7.918200,0.100000,1.000000
7.863200,0.120000,1.000000
7.838600,0.150000,1.000000
7.826900,0.110000,1.000000
7.804500,0.110000,1.000000
7.770400,0.100000,1.000000
7.746000,0.110000,1.000000
7.723800,0.130000,1.000000
7.708700,0.140000,1.000000
7.695800,0.300000,1.000000
7.682000,0.330000,1.000000
7.631900,0.170000,1.000000
7.574800,0.240000,1.000000
7.533900,0.690000,1.000000
7.518700,0.610000,1.000000
7.504500,0.520000,1.000000
7.490600,0.260000,1.000000
7.459900,0.200000,1.000000
7.441600,0.180000,1.000000
7.377100,0.210000,1.000000
7.321900,0.260000,1.000000
7.288100,0.400000,1.000000
7.265800,0.360000,1.000000
7.252100,0.460000,1.000000
7.239300,0.450000,1.000000
7.223800,0.780000,1.000000
7.206600,0.380000,1.000000
7.176100,11.880000,1.000000
7.161500,14.150000,1.000000
7.141900,0.650000,1.000000
7.135800,0.480000,1.000000
7.121300,0.390000,1.000000
7.104100,0.230000,1.000000
7.043500,0.230000,1.000000
7.025600,0.320000,1.000000
7.013000,0.260000,1.000000
7.001300,0.200000,1.000000
6.994800,0.200000,1.000000
6.938700,0.340000,1.000000
6.925100,0.350000,1.000000
6.910900,0.810000,1.000000
6.901000,2.660000,1.000000
6.896300,15.000000,1.000000
6.893000,3.400000,1.000000
6.885100,3.320000,1.000000
6.881800,12.160000,1.000000
6.876800,1.570000,1.000000
6.856000,0.430000,1.000000
6.841200,0.370000,1.000000
6.834700,0.230000,1.000000
6.778000,0.180000,1.000000
6.763000,0.180000,1.000000
6.744000,0.140000,1.000000
6.699000,0.070000,1.000000
6.664800,0.060000,1.000000
4.716600,0.110000,1.000000
4.708400,0.160000,1.000000
4.702500,0.760000,1.000000
4.696800,0.070000,1.000000
4.681700,0.210000,1.000000
4.677400,0.370000,1.000000
4.671300,0.360000,1.000000
4.663500,0.110000,1.000000
4.269800,0.070000,1.000000
4.254300,0.090000,1.000000
4.228800,0.100000,1.000000
4.213600,0.090000,1.000000
4.205900,0.090000,1.000000
4.186000,0.130000,1.000000
4.166800,0.150000,1.000000
4.137400,0.240000,1.000000
4.126700,0.240000,1.000000
4.109300,0.210000,1.000000
4.086800,0.210000,1.000000
4.074500,0.210000,1.000000
4.032100,0.290000,1.000000
4.020100,0.690000,1.000000
4.005500,0.430000,1.000000
3.998600,0.410000,1.000000
3.980300,4.670000,1.000000
3.967400,6.970000,1.000000
3.955700,4.540000,1.000000
3.944900,4.250000,1.000000
3.926200,0.470000,1.000000
3.916800,13.760000,1.000000
3.904400,0.700000,1.000000
3.889500,13.500000,1.000000
3.876300,0.560000,1.000000
3.861400,4.330000,1.000000
3.849300,0.450000,1.000000
3.841800,0.290000,1.000000
3.834000,0.290000,1.000000
3.824200,1.000000,1.000000
3.812100,0.420000,1.000000
3.798700,1.340000,1.000000
3.769800,0.530000,1.000000
3.740600,9.700000,1.000000
3.710400,0.510000,1.000000
3.680100,0.150000,1.000000
3.633000,0.150000,1.000000
3.616200,0.240000,1.000000
3.608400,0.110000,1.000000
3.586600,0.090000,1.000000
3.221200,0.120000,1.000000
3.198500,0.210000,1.000000
3.185500,0.160000,1.000000
3.175200,0.140000,1.000000
3.161100,0.130000,1.000000
3.138000,0.080000,1.000000
3.088900,0.210000,1.000000
3.064800,1.990000,1.000000
3.053200,2.130000,1.000000
3.041700,5.900000,1.000000
3.030100,6.000000,1.000000
3.019600,6.190000,1.000000
3.006300,6.090000,1.000000
2.996500,2.160000,1.000000
2.983200,2.000000,1.000000
2.973000,0.200000,1.000000
2.966000,0.210000,1.000000
2.956000,0.130000,1.000000
2.942300,0.080000,1.000000
2.759700,0.060000,1.000000
2.741600,0.120000,1.000000
2.733600,0.150000,1.000000
2.671500,3.680000,1.000000
2.646400,8.210000,1.000000
2.618800,0.160000,1.000000
2.606200,0.230000,1.000000
2.579100,0.270000,1.000000
2.561600,8.430000,1.000000
2.536500,3.890000,1.000000
2.428200,0.060000,1.000000
2.368100,0.210000,1.000000
2.358200,0.140000,1.000000
2.348300,0.060000,1.000000
2.326600,0.100000,1.000000
2.319700,0.150000,1.000000
2.309900,0.370000,1.000000
2.302300,0.320000,1.000000
2.281100,0.100000,1.000000
2.242400,0.140000,1.000000
2.220400,0.170000,1.000000
2.209700,0.210000,1.000000
2.199100,0.220000,1.000000
2.188500,0.190000,1.000000
2.166800,0.190000,1.000000
2.148900,0.290000,1.000000
2.118900,0.470000,1.000000
2.094400,0.320000,1.000000
2.080700,2.030000,1.000000
2.045000,0.640000,1.000000
2.023300,0.390000,1.000000
2.014700,0.420000,1.000000
1.987700,0.300000,1.000000
1.964600,0.210000,1.000000
1.939900,0.200000,1.000000
1.921000,0.200000,1.000000
1.900200,0.170000,1.000000
1.877400,0.180000,1.000000
1.857700,0.280000,1.000000
1.828600,0.190000,1.000000
1.802200,0.240000,1.000000
1.790900,0.240000,1.000000
1.776800,0.250000,1.000000
1.768800,0.240000,1.000000
1.748500,0.220000,1.000000
1.680800,0.380000,1.000000
1.666500,0.380000,1.000000
1.653800,0.340000,1.000000
1.550200,0.150000,1.000000
1.487600,0.160000,1.000000
1.472900,0.160000,1.000000
1.434400,0.150000,1.000000
1.411700,0.190000,1.000000
1.360200,0.100000,1.000000
1.337300,0.440000,1.000000
1.325600,0.440000,1.000000
1.291800,0.120000,1.000000
1.269000,0.120000,1.000000
1.253500,0.170000,1.000000
1.211600,0.200000,1.000000
1.196200,0.230000,1.000000
1.152100,0.190000,1.000000
1.109000,0.150000,1.000000
1.096900,0.180000,1.000000
1.077200,0.160000,1.000000
1.052800,0.180000,1.000000
1.039000,0.190000,1.000000
1.018200,0.230000,1.000000
0.982700,0.530000,1.000000
0.947200,1.150000,1.000000
0.941800,0.880000,1.000000
0.935800,1.190000,1.000000
0.922600,0.860000,1.000000
0.908800,0.870000,1.000000
0.898400,0.840000,1.000000
0.891000,0.890000,1.000000
0.876800,0.930000,1.000000
0.863700,0.860000,1.000000
0.814300,0.480000,1.000000
0.804700,0.470000,1.000000
0.742600,0.310000,1.000000
0.674700,0.120000,1.000000
0.660000,0.120000,1.000000
0.096900,0.330000,1.000000
0.042800,0.390000,1.000000
0.005000,3.390000,1.000000
-0.000200,97.810000,1.000000
-0.005400,3.930000,1.000000
-0.024600,0.370000,1.000000
-0.027400,0.320000,1.000000
-0.034300,0.230000,1.000000
-0.040700,1.100000,1.000000
-0.100600,0.300000,1.000000
-0.814900,0.060000,1.000000
-0.849700,0.060000,1.000000
-0.860600,0.070000,1.000000
-0.913500,0.090000,1.000000
-0.963600,0.120000,1.000000
-1.034100,0.130000,1.000000
-1.058600,0.150000,1.000000
-1.089200,0.140000,1.000000
-1.113900,0.150000,1.000000
-1.143100,0.170000,1.000000
-1.155100,0.200000,1.000000
-1.165900,0.180000,1.000000
-1.183700,0.190000,1.000000
