10.689400,0.140000,23.000000
10.554600,0.120000,23.000000
10.544300,0.110000,23.000000
10.490100,0.100000,23.000000
10.473400,0.090000,23.000000
10.458200,0.090000,23.000000
10.449400,0.080000,23.000000
10.433000,0.080000,23.000000
10.381300,0.070000,23.000000
8.466500,0.070000,23.000000
8.209700,0.090000,23.000000
8.116400,0.080000,23.000000
8.095200,0.070000,23.000000
8.079700,0.070000,23.000000
7.997400,0.090000,23.000000
7.981700,0.100000,23.000000
7.946500,0.120000,23.000000
7.909100,0.120000,23.000000
7.901200,0.110000,23.000000
7.873800,0.120000,23.000000
7.845800,0.140000,23.000000
7.760400,0.100000,23.000000
7.750700,0.100000,23.000000
7.723300,0.110000,23.000000
7.694500,0.300000,23.000000
7.682100,0.320000,23.000000
7.660400,0.140000,23.000000
7.607100,0.130000,23.000000
7.586400,0.180000,23.000000
7.577200,0.210000,23.000000
7.536700,0.610000,23.000000
7.518100,0.530000,23.000000
7.503900,0.500000,23.000000
7.490100,0.250000,23.000000
7.458400,0.180000,23.000000
7.451600,0.160000,23.000000
7.400100,0.200000,23.000000
7.353900,0.220000,23.000000
7.340400,0.220000,23.000000
7.306300,0.310000,23.000000
7.288700,0.360000,23.000000
7.276500,0.330000,23.000000
7.264100,0.350000,23.000000
7.251900,0.430000,23.000000
7.239000,0.420000,23.000000
7.223200,0.750000,23.000000
7.181100,2.170000,23.000000
7.176200,11.550000,23.000000
7.173000,3.580000,23.000000
7.165100,3.520000,23.000000
7.161600,13.930000,23.000000
7.156700,2.810000,23.000000
7.141400,0.900000,23.000000
7.129700,0.370000,23.000000
7.112500,0.330000,23.000000
7.054700,0.220000,23.000000
7.024300,0.310000,23.000000
6.937100,0.370000,23.000000
6.925000,0.360000,23.000000
6.910900,0.940000,23.000000
6.901200,2.310000,23.000000
6.896300,15.000000,23.000000
6.892900,3.570000,23.000000
6.885300,3.120000,23.000000
6.881800,12.180000,23.000000
6.877000,2.260000,23.000000
6.862500,0.770000,23.000000
6.848100,0.390000,23.000000
6.831100,0.360000,23.000000
6.744100,0.210000,23.000000
6.719800,0.130000,23.000000
6.703500,0.120000,23.000000
6.661200,0.080000,23.000000
6.632800,0.060000,23.000000
6.557800,0.070000,23.000000
4.712200,0.170000,23.000000
4.706200,0.430000,23.000000
4.702600,0.320000,23.000000
4.683800,0.250000,23.000000
4.679200,0.520000,23.000000
4.672900,0.330000,23.000000
4.664400,0.130000,23.000000
4.213200,0.070000,23.000000
4.201100,0.080000,23.000000
4.190200,0.090000,23.000000
4.142900,0.210000,23.000000
4.138900,0.220000,23.000000
4.123200,0.250000,23.000000
4.108600,0.180000,23.000000
4.087300,0.170000,23.000000
4.020300,1.210000,23.000000
4.004600,0.410000,23.000000
3.996000,0.490000,23.000000
3.983100,4.510000,23.000000
3.970200,6.520000,23.000000
3.958500,4.530000,23.000000
3.945300,4.100000,23.000000
3.931000,0.480000,23.000000
3.917200,13.360000,23.000000
3.889400,13.470000,23.000000
3.861300,4.450000,23.000000
3.838700,0.400000,23.000000
3.824200,3.090000,23.000000
3.812200,0.470000,23.000000
3.800000,4.230000,23.000000
3.769700,0.590000,23.000000
3.740400,8.990000,23.000000
3.715900,0.490000,23.000000
3.689900,0.220000,23.000000
3.678300,0.200000,23.000000
3.656100,0.180000,23.000000
3.645800,0.150000,23.000000
3.633400,0.180000,23.000000
3.616400,0.270000,23.000000
3.587200,0.150000,23.000000
3.565400,0.110000,23.000000
3.450200,1.420000,23.000000
3.205800,0.180000,23.000000
3.198200,0.260000,23.000000
3.185200,0.200000,23.000000
3.173800,0.140000,23.000000
3.162000,0.150000,23.000000
3.149800,0.090000,23.000000
3.138000,0.110000,23.000000
3.096800,0.180000,23.000000
3.066100,1.920000,23.000000
3.054600,2.000000,23.000000
3.043000,5.640000,23.000000
3.031400,5.690000,23.000000
3.020800,5.960000,23.000000
3.007500,5.850000,23.000000
2.997700,2.130000,23.000000
2.984400,1.890000,23.000000
2.958100,0.120000,23.000000
2.933900,0.060000,23.000000
2.768100,0.090000,23.000000
2.759700,0.070000,23.000000
2.741800,0.150000,23.000000
2.733600,0.160000,23.000000
2.727200,0.100000,23.000000
2.713400,0.070000,23.000000
2.701200,0.060000,23.000000
2.687100,0.110000,23.000000
2.671600,4.040000,23.000000
2.646500,8.940000,23.000000
2.618800,0.430000,23.000000
2.606800,0.320000,23.000000
2.590100,0.080000,23.000000
2.579400,0.260000,23.000000
2.561500,9.370000,23.000000
2.536400,4.280000,23.000000
2.427700,0.070000,23.000000
2.376100,0.070000,23.000000
2.367400,0.210000,23.000000
2.359200,0.160000,23.000000
2.343300,0.060000,23.000000
2.319900,0.150000,23.000000
2.310100,0.410000,23.000000
2.303400,0.360000,23.000000
2.290100,0.140000,23.000000
2.280500,0.120000,23.000000
2.256300,0.110000,23.000000
2.242400,0.140000,23.000000
2.212100,0.200000,23.000000
2.198700,0.250000,23.000000
2.186600,0.190000,23.000000
2.173700,0.190000,23.000000
2.166600,0.210000,23.000000
2.148000,0.280000,23.000000
2.134800,0.420000,23.000000
2.129700,0.630000,23.000000
2.115300,0.570000,23.000000
2.098600,0.370000,23.000000
2.080500,2.040000,23.000000
2.071200,0.560000,23.000000
2.064300,0.580000,23.000000
2.045100,0.670000,23.000000
2.032400,0.430000,23.000000
2.024600,0.430000,23.000000
2.011400,0.410000,23.000000
1.966500,0.220000,23.000000
1.941700,0.230000,23.000000
1.920700,0.280000,23.000000
1.906400,0.220000,23.000000
1.884100,0.220000,23.000000
1.856300,0.300000,23.000000
1.841200,0.220000,23.000000
1.800900,0.230000,23.000000
1.790700,0.250000,23.000000
1.776100,0.250000,23.000000
1.720100,0.350000,23.000000
1.680800,0.440000,23.000000
1.666000,0.440000,23.000000
1.655200,0.400000,23.000000
1.650100,0.390000,23.000000
1.552400,0.120000,23.000000
1.537500,0.120000,23.000000
1.490200,0.220000,23.000000
1.478000,0.270000,23.000000
1.472300,0.200000,23.000000
1.459700,0.190000,23.000000
1.448500,0.180000,23.000000
1.435800,0.210000,23.000000
1.424600,0.260000,23.000000
1.412600,0.260000,23.000000
1.399400,0.190000,23.000000
1.361500,0.130000,23.000000
1.337300,0.540000,23.000000
1.325500,0.480000,23.000000
1.307600,0.100000,23.000000
1.274400,0.110000,23.000000
1.268500,0.140000,23.000000
1.253400,0.190000,23.000000
1.240100,0.260000,23.000000
1.229300,0.240000,23.000000
1.213500,0.260000,23.000000
1.202500,0.240000,23.000000
1.184000,0.220000,23.000000
1.163000,0.220000,23.000000
1.141500,0.140000,23.000000
1.121500,0.100000,23.000000
1.108600,0.300000,23.000000
1.096700,0.350000,23.000000
1.071300,0.140000,23.000000
1.049800,0.190000,23.000000
1.037700,0.230000,23.000000
1.018000,0.250000,23.000000
0.983400,0.710000,23.000000
0.971900,0.840000,23.000000
0.947200,2.200000,23.000000
0.941800,1.240000,23.000000
0.935700,2.090000,23.000000
0.919600,1.270000,23.000000
0.910800,1.220000,23.000000
0.908400,1.230000,23.000000
0.903900,1.140000,23.000000
0.898300,1.190000,23.000000
0.892100,1.070000,23.000000
0.885400,1.050000,23.000000
0.878100,1.070000,23.000000
0.863500,0.860000,23.000000
0.814400,0.450000,23.000000
0.804200,0.400000,23.000000
0.739900,0.230000,23.000000
0.669200,0.090000,23.000000
0.096900,0.350000,23.000000
0.041000,0.700000,23.000000
0.039000,0.470000,23.000000
0.037000,0.180000,23.000000
0.034100,0.090000,23.000000
0.028600,0.260000,23.000000
0.016500,0.250000,23.000000
0.015200,0.170000,23.000000
0.013600,0.180000,23.000000
0.012200,0.230000,23.000000
0.010600,0.310000,23.000000
0.009200,0.460000,23.000000
0.007500,0.830000,23.000000
0.005000,3.930000,23.000000
-0.000200,105.750000,23.000000
-0.005700,3.340000,23.000000
-0.009200,0.390000,23.000000
-0.010700,0.200000,23.000000
-0.012200,0.090000,23.000000
-0.025500,0.440000,23.000000
-0.027400,0.450000,23.000000
-0.100600,0.320000,23.000000
-0.810300,0.060000,23.000000
-0.861800,0.070000,23.000000
-0.886600,0.080000,23.000000
-0.911800,0.100000,23.000000
-0.993100,0.130000,23.000000
-1.066600,0.150000,23.000000
-1.092600,0.170000,23.000000
-1.143800,0.180000,23.000000
