10.570100,0.140000,41.000000
10.520400,0.140000,41.000000
10.437000,0.120000,41.000000
10.401700,0.130000,41.000000
10.390100,0.110000,41.000000
10.383700,0.100000,41.000000
10.362500,0.110000,41.000000
8.495000,0.100000,41.000000
8.467800,0.100000,41.000000
8.230900,0.120000,41.000000
8.197300,0.140000,41.000000
8.150600,0.130000,41.000000
8.064100,0.130000,41.000000
8.016200,0.180000,41.000000
7.990600,0.180000,41.000000
7.963800,0.200000,41.000000
7.884700,0.220000,41.000000
7.847200,0.210000,41.000000
7.721900,0.240000,41.000000
7.709500,0.240000,41.000000
7.695700,0.480000,41.000000
7.682200,0.430000,41.000000
7.638500,0.230000,41.000000
7.538300,0.730000,41.000000
7.519100,0.630000,41.000000
7.504300,0.640000,41.000000
7.490000,0.320000,41.000000
7.390600,0.440000,41.000000
7.352900,0.370000,41.000000
7.304600,0.620000,41.000000
7.288300,0.580000,41.000000
7.252700,0.720000,41.000000
7.239600,0.670000,41.000000
7.223600,1.130000,41.000000
7.208600,1.070000,41.000000
7.194000,1.590000,41.000000
7.181500,4.760000,41.000000
7.176500,12.120000,41.000000
7.165700,5.300000,41.000000
7.161900,14.140000,41.000000
7.156900,2.270000,41.000000
7.142000,0.760000,41.000000
7.123100,0.250000,41.000000
7.113200,0.260000,41.000000
7.083200,0.260000,41.000000
7.059300,0.270000,41.000000
7.025400,0.330000,41.000000
6.932600,0.500000,41.000000
6.915300,1.360000,41.000000
6.911200,1.490000,41.000000
6.900900,3.660000,41.000000
6.896600,15.000000,41.000000
6.893200,3.010000,41.000000
6.885300,3.710000,41.000000
6.882100,12.160000,41.000000
6.877300,3.810000,41.000000
6.862800,2.410000,41.000000
6.830900,0.270000,41.000000
6.762100,0.160000,41.000000
4.705500,1.550000,41.000000
4.703100,1.640000,41.000000
4.701300,0.930000,41.000000
4.698000,4.360000,41.000000
4.692000,18.250000,41.000000
4.684400,2.710000,41.000000
4.680700,2.290000,41.000000
4.675900,1.080000,41.000000
4.245000,0.190000,41.000000
4.122200,0.410000,41.000000
4.078600,0.340000,41.000000
4.067700,0.340000,41.000000
4.020500,1.530000,41.000000
4.005500,0.670000,41.000000
3.997700,0.870000,41.000000
3.984900,4.860000,41.000000
3.972100,6.810000,41.000000
3.960200,4.750000,41.000000
3.945700,4.540000,41.000000
3.932100,0.870000,41.000000
3.917600,13.840000,41.000000
3.889500,13.660000,41.000000
3.861400,4.690000,41.000000
3.839500,0.740000,41.000000
3.824300,10.500000,41.000000
3.812600,0.740000,41.000000
3.800700,14.200000,41.000000
3.768600,1.170000,41.000000
3.740600,9.510000,41.000000
3.711000,0.470000,41.000000
3.688300,0.240000,41.000000
3.678600,0.580000,41.000000
3.671400,0.370000,41.000000
3.656000,0.230000,41.000000
3.634500,0.210000,41.000000
3.616700,0.380000,41.000000
3.610700,0.280000,41.000000
3.593100,0.170000,41.000000
3.586300,0.240000,41.000000
3.565500,0.520000,41.000000
3.540100,0.260000,41.000000
3.450300,7.320000,41.000000
3.259600,0.130000,41.000000
3.247600,0.340000,41.000000
3.235900,0.270000,41.000000
3.219100,0.460000,41.000000
3.210300,0.340000,41.000000
3.197800,0.470000,41.000000
3.185700,0.570000,41.000000
3.173000,0.230000,41.000000
3.161600,0.280000,41.000000
3.138200,0.220000,41.000000
3.104000,0.230000,41.000000
3.074100,0.660000,41.000000
3.066900,2.090000,41.000000
3.061400,0.770000,41.000000
3.055400,2.290000,41.000000
3.043800,6.010000,41.000000
3.032200,6.240000,41.000000
3.021700,6.320000,41.000000
3.008400,6.200000,41.000000
2.998500,2.210000,41.000000
2.985300,2.050000,41.000000
2.782000,0.100000,41.000000
2.768100,0.140000,41.000000
2.751900,0.220000,41.000000
2.739400,0.450000,41.000000
2.733300,0.260000,41.000000
2.726800,0.320000,41.000000
2.701700,0.150000,41.000000
2.686300,0.150000,41.000000
2.671800,4.920000,41.000000
2.646700,10.640000,41.000000
2.618800,0.720000,41.000000
2.606800,0.720000,41.000000
2.579400,0.410000,41.000000
2.561500,11.060000,41.000000
2.536400,4.940000,41.000000
2.488400,0.130000,41.000000
2.427700,0.080000,41.000000
2.368100,0.280000,41.000000
2.359200,0.280000,41.000000
2.344800,0.130000,41.000000
2.325700,0.150000,41.000000
2.319600,0.210000,41.000000
2.310100,0.550000,41.000000
2.303100,0.500000,41.000000
2.278700,0.200000,41.000000
2.259700,0.210000,41.000000
2.247200,0.230000,41.000000
2.211500,0.330000,41.000000
2.198800,0.360000,41.000000
2.186900,0.340000,41.000000
2.173700,0.280000,41.000000
2.145000,0.550000,41.000000
2.129700,1.540000,41.000000
2.115300,0.780000,41.000000
2.098800,0.570000,41.000000
2.080500,2.200000,41.000000
2.064400,1.070000,41.000000
2.051700,1.040000,41.000000
2.045300,0.960000,41.000000
1.992300,0.460000,41.000000
1.967500,0.370000,41.000000
1.956000,0.370000,41.000000
1.925100,0.450000,41.000000
1.920500,0.510000,41.000000
1.906700,0.560000,41.000000
1.896700,0.400000,41.000000
1.878400,0.370000,41.000000
1.857700,0.440000,41.000000
1.843300,0.350000,41.000000
1.830900,0.310000,41.000000
1.802400,0.320000,41.000000
1.761900,0.400000,41.000000
1.732700,0.580000,41.000000
1.718200,0.670000,41.000000
1.706400,0.670000,41.000000
1.678900,0.770000,41.000000
1.665900,0.720000,41.000000
1.657200,0.680000,41.000000
1.526200,0.230000,41.000000
1.513900,0.250000,41.000000
1.490400,0.710000,41.000000
1.478100,0.740000,41.000000
1.436900,0.360000,41.000000
1.424800,0.480000,41.000000
1.411800,0.380000,41.000000
1.373500,0.250000,41.000000
1.356800,0.290000,41.000000
1.337800,0.890000,41.000000
1.326100,0.730000,41.000000
1.274900,0.190000,41.000000
1.269000,0.240000,41.000000
1.253400,0.320000,41.000000
1.240500,0.490000,41.000000
1.229900,0.400000,41.000000
1.211500,0.410000,41.000000
1.182900,0.340000,41.000000
1.108600,0.550000,41.000000
1.096600,0.590000,41.000000
1.055900,0.330000,41.000000
1.050200,0.660000,41.000000
1.044300,0.290000,41.000000
1.038000,0.780000,41.000000
1.024700,0.460000,41.000000
1.018000,1.090000,41.000000
1.005800,1.230000,41.000000
1.000300,1.200000,41.000000
0.988200,1.450000,41.000000
0.983900,1.360000,41.000000
0.973700,1.720000,41.000000
0.964100,2.200000,41.000000
0.953800,2.380000,41.000000
0.947200,4.070000,41.000000
0.941400,2.680000,41.000000
0.935700,3.720000,41.000000
0.929100,2.470000,41.000000
0.919500,3.120000,41.000000
0.908300,2.890000,41.000000
0.898200,2.030000,41.000000
0.892800,1.700000,41.000000
0.885400,1.750000,41.000000
0.862100,1.180000,41.000000
0.849100,0.950000,41.000000
0.819700,0.550000,41.000000
0.097000,0.390000,41.000000
0.041100,0.300000,41.000000
0.005200,3.880000,41.000000
-0.000200,121.800000,41.000000
-0.005600,5.040000,41.000000
-0.016100,0.200000,41.000000
-0.100500,0.450000,41.000000
-0.834700,0.090000,41.000000
-0.935200,0.120000,41.000000
-0.951900,0.150000,41.000000
