10.634600,0.120000,5.000000
10.590100,0.130000,5.000000
10.580200,0.120000,5.000000
10.555900,0.110000,5.000000
10.545300,0.100000,5.000000
10.515300,0.110000,5.000000
10.452800,0.080000,5.000000
10.368200,0.080000,5.000000
8.487600,0.080000,5.000000
8.461700,0.080000,5.000000
8.431100,0.070000,5.000000
8.258800,0.070000,5.000000
8.253500,0.070000,5.000000
8.238700,0.080000,5.000000
8.196100,0.090000,5.000000
8.133500,0.070000,5.000000
8.110000,0.070000,5.000000
8.100300,0.080000,5.000000
8.074000,0.070000,5.000000
8.051500,0.070000,5.000000
8.000200,0.100000,5.000000
7.944600,0.130000,5.000000
7.922400,0.100000,5.000000
7.854700,0.120000,5.000000
7.837800,0.150000,5.000000
7.805400,0.100000,5.000000
7.792100,0.090000,5.000000
7.777500,0.100000,5.000000
7.772900,0.130000,5.000000
7.740400,0.120000,5.000000
7.722100,0.140000,5.000000
7.708300,0.160000,5.000000
7.695300,0.320000,5.000000
7.681700,0.330000,5.000000
7.656400,0.160000,5.000000
7.635500,0.160000,5.000000
7.573200,0.250000,5.000000
7.537100,0.690000,5.000000
7.518600,0.570000,5.000000
7.504100,0.510000,5.000000
7.489900,0.250000,5.000000
7.457300,0.200000,5.000000
7.414500,0.190000,5.000000
7.400900,0.220000,5.000000
7.393700,0.220000,5.000000
7.377100,0.220000,5.000000
7.360100,0.220000,5.000000
7.351300,0.230000,5.000000
7.304800,0.340000,5.000000
7.285800,0.410000,5.000000
7.274300,0.360000,5.000000
7.267700,0.370000,5.000000
7.254100,0.480000,5.000000
7.238300,0.440000,5.000000
7.223800,0.760000,5.000000
7.206000,0.360000,5.000000
7.176100,11.920000,5.000000
7.161500,13.910000,5.000000
7.141600,0.510000,5.000000
7.133800,0.370000,5.000000
7.123200,0.270000,5.000000
7.112700,0.250000,5.000000
7.105900,0.220000,5.000000
7.055400,0.190000,5.000000
7.024400,0.310000,5.000000
6.960900,0.220000,5.000000
6.925400,0.350000,5.000000
6.911000,1.020000,5.000000
6.901000,2.960000,5.000000
6.896300,15.000000,5.000000
6.885100,3.280000,5.000000
6.881700,11.950000,5.000000
6.876900,1.300000,5.000000
6.869200,0.220000,5.000000
6.854100,0.340000,5.000000
6.840100,0.280000,5.000000
6.786800,0.150000,5.000000
6.759900,0.150000,5.000000
6.749000,0.130000,5.000000
6.737000,0.100000,5.000000
4.702900,0.460000,5.000000
4.699500,0.410000,5.000000
4.686800,0.330000,5.000000
4.683800,0.490000,5.000000
4.679700,0.630000,5.000000
4.674100,0.410000,5.000000
4.666100,0.100000,5.000000
4.269800,0.100000,5.000000
4.241700,0.110000,5.000000
4.221500,0.130000,5.000000
4.201100,0.130000,5.000000
4.163300,0.240000,5.000000
4.139300,0.310000,5.000000
4.122600,0.310000,5.000000
4.109100,0.270000,5.000000
4.087100,0.260000,5.000000
4.076800,0.260000,5.000000
4.020200,1.030000,5.000000
4.006800,0.590000,5.000000
3.981500,4.720000,5.000000
3.968700,6.810000,5.000000
3.956900,4.530000,5.000000
3.945000,4.100000,5.000000
3.916900,13.580000,5.000000
3.889400,13.440000,5.000000
3.861300,4.350000,5.000000
3.847300,0.330000,5.000000
3.824200,1.490000,5.000000
3.812100,0.440000,5.000000
3.799200,1.940000,5.000000
3.740700,9.360000,5.000000
3.709400,0.320000,5.000000
3.680200,0.100000,5.000000
3.661900,0.080000,5.000000
3.632000,0.090000,5.000000
3.616500,0.200000,5.000000
3.587200,0.070000,5.000000
3.450100,0.130000,5.000000
3.198700,0.250000,5.000000
3.185900,0.200000,5.000000
3.173000,0.180000,5.000000
3.161700,0.160000,5.000000
3.149100,0.110000,5.000000
3.137800,0.120000,5.000000
3.112300,0.130000,5.000000
3.087800,0.280000,5.000000
3.065400,2.130000,5.000000
3.053800,2.340000,5.000000
3.042200,5.940000,5.000000
3.030700,5.990000,5.000000
3.020100,5.990000,5.000000
3.006900,5.830000,5.000000
2.997000,1.880000,5.000000
2.983700,1.810000,5.000000
2.967600,0.100000,5.000000
2.741500,0.130000,5.000000
2.733300,0.140000,5.000000
2.680800,0.080000,5.000000
2.671500,3.840000,5.000000
2.646400,8.310000,5.000000
2.618500,0.210000,5.000000
2.606800,0.220000,5.000000
2.579600,0.310000,5.000000
2.561500,8.610000,5.000000
2.536400,3.830000,5.000000
2.377900,0.090000,5.000000
2.368100,0.220000,5.000000
2.359600,0.160000,5.000000
2.326700,0.110000,5.000000
2.319900,0.150000,5.000000
2.310100,0.390000,5.000000
2.303300,0.340000,5.000000
2.291000,0.120000,5.000000
2.280600,0.120000,5.000000
2.263800,0.110000,5.000000
2.223300,0.170000,5.000000
2.210900,0.200000,5.000000
2.198600,0.240000,5.000000
2.186700,0.210000,5.000000
2.165800,0.210000,5.000000
2.148200,0.300000,5.000000
2.134600,0.400000,5.000000
2.116500,0.520000,5.000000
2.096700,0.370000,5.000000
2.080600,2.070000,5.000000
2.064100,0.440000,5.000000
2.045200,0.640000,5.000000
2.032400,0.390000,5.000000
2.024600,0.400000,5.000000
2.012700,0.390000,5.000000
1.988900,0.270000,5.000000
1.964700,0.200000,5.000000
1.953800,0.180000,5.000000
1.941400,0.190000,5.000000
1.920700,0.200000,5.000000
1.883100,0.170000,5.000000
1.858400,0.280000,5.000000
1.842900,0.190000,5.000000
1.805900,0.230000,5.000000
1.790900,0.220000,5.000000
1.769700,0.250000,5.000000
1.762000,0.220000,5.000000
1.723100,0.300000,5.000000
1.709600,0.350000,5.000000
1.678800,0.400000,5.000000
1.667200,0.370000,5.000000
1.657600,0.340000,5.000000
1.566300,0.110000,5.000000
1.551500,0.130000,5.000000
1.502400,0.140000,5.000000
1.478700,0.160000,5.000000
1.461100,0.170000,5.000000
1.457700,0.150000,5.000000
1.424300,0.230000,5.000000
1.412800,0.220000,5.000000
1.398600,0.150000,5.000000
1.360900,0.110000,5.000000
1.337200,0.440000,5.000000
1.325500,0.440000,5.000000
1.307900,0.090000,5.000000
1.296100,0.110000,5.000000
1.265500,0.120000,5.000000
1.253300,0.180000,5.000000
1.240300,0.220000,5.000000
1.229000,0.200000,5.000000
1.213500,0.230000,5.000000
1.203300,0.240000,5.000000
1.185200,0.200000,5.000000
1.157700,0.200000,5.000000
1.152100,0.200000,5.000000
1.120700,0.100000,5.000000
1.108800,0.180000,5.000000
1.096700,0.230000,5.000000
1.075300,0.180000,5.000000
1.060100,0.200000,5.000000
1.050400,0.210000,5.000000
1.037500,0.210000,5.000000
0.983500,0.610000,5.000000
0.969400,0.680000,5.000000
0.947200,1.480000,5.000000
0.941800,1.040000,5.000000
0.935800,1.430000,5.000000
0.919500,0.960000,5.000000
0.904300,0.970000,5.000000
0.898200,0.910000,5.000000
0.891600,0.950000,5.000000
0.878800,0.950000,5.000000
0.814800,0.420000,5.000000
0.802500,0.390000,5.000000
0.794000,0.310000,5.000000
0.758700,0.230000,5.000000
0.746400,0.210000,5.000000
0.096800,0.430000,5.000000
0.046200,0.080000,5.000000
0.034400,0.300000,5.000000
0.030200,0.140000,5.000000
0.024300,0.980000,5.000000
0.022700,0.900000,5.000000
0.021200,0.850000,5.000000
0.019600,0.910000,5.000000
0.018100,0.980000,5.000000
0.016600,1.180000,5.000000
0.015200,1.180000,5.000000
0.013700,1.190000,5.000000
0.012200,1.400000,5.000000
0.010700,1.620000,5.000000
0.009100,1.960000,5.000000
0.004900,6.290000,5.000000
-0.000200,98.960000,5.000000
-0.005900,0.980000,5.000000
-0.041700,0.120000,5.000000
-0.100600,0.210000,5.000000
-0.880800,0.080000,5.000000
-0.888000,0.080000,5.000000
-0.928500,0.100000,5.000000
-0.962000,0.100000,5.000000
-0.979000,0.120000,5.000000
-0.994700,0.110000,5.000000
-1.010300,0.130000,5.000000
-1.031400,0.130000,5.000000
-1.059400,0.150000,5.000000
-1.095000,0.180000,5.000000
-1.107000,0.190000,5.000000
-1.130300,0.190000,5.000000
-1.143500,0.190000,5.000000
-1.182500,0.220000,5.000000
