10.647000,0.110000,51.000000
10.546100,0.100000,51.000000
10.502700,0.100000,51.000000
8.212900,0.100000,51.000000
8.002600,0.120000,51.000000
7.973900,0.140000,51.000000
7.948700,0.140000,51.000000
7.924200,0.130000,51.000000
7.906600,0.140000,51.000000
7.882100,0.140000,51.000000
7.846800,0.190000,51.000000
7.773300,0.100000,51.000000
7.746800,0.120000,51.000000
7.724100,0.140000,51.000000
7.695800,0.350000,51.000000
7.682000,0.320000,51.000000
7.660300,0.140000,51.000000
7.647500,0.150000,51.000000
7.538700,0.430000,51.000000
7.518400,0.430000,51.000000
7.503800,0.460000,51.000000
7.489800,0.220000,51.000000
7.458700,0.160000,51.000000
7.450200,0.160000,51.000000
7.437600,0.180000,51.000000
7.424600,0.210000,51.000000
7.412400,0.220000,51.000000
7.389500,0.340000,51.000000
7.377500,0.340000,51.000000
7.344600,0.290000,51.000000
7.316500,0.400000,51.000000
7.303100,0.440000,51.000000
7.288300,0.380000,51.000000
7.264700,0.380000,51.000000
7.252400,0.490000,51.000000
7.238900,0.430000,51.000000
7.223300,0.770000,51.000000
7.208500,0.870000,51.000000
7.193900,1.170000,51.000000
7.181400,3.920000,51.000000
7.176300,7.720000,51.000000
7.172800,2.320000,51.000000
7.166000,3.910000,51.000000
7.161700,9.240000,51.000000
7.156700,1.720000,51.000000
7.141600,0.640000,51.000000
7.082200,0.220000,51.000000
7.059900,0.180000,51.000000
7.026100,0.240000,51.000000
6.995300,0.170000,51.000000
6.937400,0.300000,51.000000
6.915200,1.060000,51.000000
6.911200,1.040000,51.000000
6.901000,2.370000,51.000000
6.896400,9.950000,51.000000
6.893000,2.170000,51.000000
6.885400,2.400000,51.000000
6.881900,8.230000,51.000000
6.877300,4.010000,51.000000
6.873900,0.950000,51.000000
6.866300,0.940000,51.000000
6.862700,2.880000,51.000000
6.857500,0.440000,51.000000
6.853900,0.310000,51.000000
6.846200,0.290000,51.000000
6.839000,0.220000,51.000000
6.834300,0.240000,51.000000
6.819600,0.200000,51.000000
6.774500,0.150000,51.000000
6.761700,0.140000,51.000000
4.705800,1.190000,51.000000
4.703300,1.140000,51.000000
4.699700,1.030000,51.000000
4.698300,2.020000,51.000000
4.691400,7.940000,51.000000
4.688500,1.440000,51.000000
4.686400,1.880000,51.000000
4.683500,2.200000,51.000000
4.679600,1.890000,51.000000
4.674600,0.900000,51.000000
4.244700,0.110000,51.000000
4.228000,0.100000,51.000000
4.220500,0.100000,51.000000
4.137700,0.230000,51.000000
4.122300,0.230000,51.000000
4.098800,0.200000,51.000000
4.075100,0.210000,51.000000
4.060900,0.190000,51.000000
4.020400,1.170000,51.000000
4.005000,0.410000,51.000000
3.996700,0.570000,51.000000
3.991800,0.710000,51.000000
3.983800,3.060000,51.000000
3.970900,4.240000,51.000000
3.959200,2.990000,51.000000
3.945400,2.960000,51.000000
3.936600,0.460000,51.000000
3.932100,0.610000,51.000000
3.917300,8.840000,51.000000
3.903400,0.670000,51.000000
3.889400,8.830000,51.000000
3.879200,0.520000,51.000000
3.861300,3.090000,51.000000
3.847700,0.530000,51.000000
3.839100,0.650000,51.000000
3.824200,11.130000,51.000000
3.812900,0.570000,51.000000
3.800200,15.000000,51.000000
3.784800,0.440000,51.000000
3.778900,0.510000,51.000000
3.768500,0.940000,51.000000
3.740500,5.750000,51.000000
3.726000,0.410000,51.000000
3.708900,0.360000,51.000000
3.698400,0.190000,51.000000
3.687300,0.240000,51.000000
3.678200,0.620000,51.000000
3.671300,0.410000,51.000000
3.655900,0.260000,51.000000
3.634300,0.170000,51.000000
3.618000,0.400000,51.000000
3.610600,0.310000,51.000000
3.593100,0.230000,51.000000
3.585500,0.260000,51.000000
3.565400,0.810000,51.000000
3.540100,0.380000,51.000000
3.450200,8.360000,51.000000
3.259300,0.200000,51.000000
3.247500,0.500000,51.000000
3.235700,0.290000,51.000000
3.219200,0.350000,51.000000
3.210200,0.260000,51.000000
3.204400,0.260000,51.000000
3.194600,0.340000,51.000000
3.185800,0.460000,51.000000
3.176000,0.160000,51.000000
3.161400,0.220000,51.000000
3.148400,0.170000,51.000000
3.137500,0.180000,51.000000
3.124900,0.130000,51.000000
3.109400,0.150000,51.000000
3.102600,0.150000,51.000000
3.090200,0.210000,51.000000
3.074300,0.500000,51.000000
3.066400,1.320000,51.000000
3.061100,0.570000,51.000000
3.054900,1.450000,51.000000
3.043300,3.750000,51.000000
3.031700,3.920000,51.000000
3.021100,4.010000,51.000000
3.007800,3.880000,51.000000
2.998000,1.420000,51.000000
2.984700,1.260000,51.000000
2.964000,0.150000,51.000000
2.934300,0.120000,51.000000
2.760000,0.110000,51.000000
2.751900,0.230000,51.000000
2.739400,0.470000,51.000000
2.733300,0.230000,51.000000
2.727000,0.370000,51.000000
2.723800,0.300000,51.000000
2.702300,0.100000,51.000000
2.687300,0.120000,51.000000
2.671800,3.830000,51.000000
2.646700,8.210000,51.000000
2.618800,0.710000,51.000000
2.606800,0.700000,51.000000
2.579300,0.330000,51.000000
2.561300,8.620000,51.000000
2.536200,3.860000,51.000000
2.500500,0.110000,51.000000
2.488200,0.230000,51.000000
2.439900,0.090000,51.000000
2.368100,0.220000,51.000000
2.358900,0.240000,51.000000
2.348600,0.130000,51.000000
2.320300,0.140000,51.000000
2.309700,0.420000,51.000000
2.303500,0.370000,51.000000
2.290500,0.160000,51.000000
2.262800,0.170000,51.000000
2.247100,0.170000,51.000000
2.236100,0.170000,51.000000
2.223600,0.190000,51.000000
2.212000,0.240000,51.000000
2.199100,0.260000,51.000000
2.186900,0.220000,51.000000
2.174400,0.200000,51.000000
2.144700,0.540000,51.000000
2.134200,0.600000,51.000000
2.129600,1.530000,51.000000
2.126000,0.640000,51.000000
2.111900,0.560000,51.000000
2.098100,0.450000,51.000000
2.080500,1.560000,51.000000
2.071500,0.650000,51.000000
2.064200,0.990000,51.000000
2.051700,1.080000,51.000000
2.045100,0.720000,51.000000
2.024300,0.460000,51.000000
1.991100,0.340000,51.000000
1.979100,0.300000,51.000000
1.967400,0.330000,51.000000
1.956000,0.290000,51.000000
1.934800,0.390000,51.000000
1.924600,0.430000,51.000000
1.920200,0.440000,51.000000
1.916900,0.460000,51.000000
1.907000,0.530000,51.000000
1.896900,0.350000,51.000000
1.890400,0.320000,51.000000
1.876100,0.280000,51.000000
1.857100,0.330000,51.000000
1.842700,0.250000,51.000000
1.830100,0.240000,51.000000
1.805200,0.220000,51.000000
1.790200,0.220000,51.000000
1.761100,0.300000,51.000000
1.733000,0.490000,51.000000
1.717900,0.560000,51.000000
1.707600,0.520000,51.000000
1.687900,0.560000,51.000000
1.679400,0.610000,51.000000
1.666000,0.570000,51.000000
1.658100,0.500000,51.000000
1.627600,0.320000,51.000000
1.594100,0.220000,51.000000
1.525600,0.240000,51.000000
1.514000,0.260000,51.000000
1.500200,0.210000,51.000000
1.490300,0.790000,51.000000
1.478000,0.760000,51.000000
1.464300,0.280000,51.000000
1.456300,0.270000,51.000000
1.443800,0.230000,51.000000
1.436300,0.310000,51.000000
1.424500,0.390000,51.000000
1.413000,0.290000,51.000000
1.387500,0.140000,51.000000
1.373200,0.270000,51.000000
1.369100,0.270000,51.000000
1.361000,0.260000,51.000000
1.356800,0.290000,51.000000
1.347700,0.240000,51.000000
1.337800,0.860000,51.000000
1.327100,0.660000,51.000000
1.288100,0.130000,51.000000
1.278700,0.170000,51.000000
1.273700,0.190000,51.000000
1.268300,0.250000,51.000000
1.257800,0.250000,51.000000
1.253500,0.260000,51.000000
1.240400,0.360000,51.000000
1.233500,0.310000,51.000000
1.211400,0.320000,51.000000
1.201900,0.270000,51.000000
1.180300,0.250000,51.000000
1.169300,0.250000,51.000000
1.152200,0.190000,51.000000
1.108600,0.520000,51.000000
1.096700,0.590000,51.000000
1.071300,0.170000,51.000000
1.055600,0.330000,51.000000
1.050100,0.770000,51.000000
1.044000,0.360000,51.000000
1.038000,0.860000,51.000000
1.033300,0.380000,51.000000
1.025000,0.390000,51.000000
1.017900,1.260000,51.000000
1.005900,1.340000,51.000000
1.000100,1.200000,51.000000
0.988200,1.410000,51.000000
0.983600,1.070000,51.000000
0.974700,1.450000,51.000000
0.968600,1.310000,51.000000
0.964100,1.870000,51.000000
0.953700,2.070000,51.000000
0.947100,3.610000,51.000000
0.941300,2.370000,51.000000
0.935700,3.220000,51.000000
0.928800,2.020000,51.000000
0.919500,3.230000,51.000000
0.910700,1.660000,51.000000
0.908200,2.990000,51.000000
0.898200,1.620000,51.000000
0.892600,1.230000,51.000000
0.885500,1.330000,51.000000
0.861400,0.920000,51.000000
0.848800,0.700000,51.000000
0.818600,0.340000,51.000000
0.096800,0.330000,51.000000
0.041100,0.350000,51.000000
0.016600,0.240000,51.000000
0.015300,0.170000,51.000000
0.012200,0.140000,51.000000
0.010700,0.220000,51.000000
0.009300,0.330000,51.000000
0.007700,0.560000,51.000000
0.005000,3.290000,51.000000
0.003200,3.060000,51.000000
-0.000200,99.430000,51.000000
-0.005900,3.520000,51.000000
-0.009200,0.630000,51.000000
-0.010700,0.400000,51.000000
-0.012200,0.260000,51.000000
-0.013600,0.190000,51.000000
-0.015100,0.160000,51.000000
-0.016600,0.110000,51.000000
-0.029700,0.160000,51.000000
-0.100600,0.390000,51.000000
-0.971300,0.130000,51.000000
-1.006000,0.100000,51.000000
-1.017900,0.110000,51.000000
-1.088200,0.140000,51.000000
-1.101100,0.140000,51.000000
-1.120600,0.140000,51.000000
-1.131400,0.160000,51.000000
