10.690400,0.110000,58.000000
8.193400,0.050000,58.000000
8.140900,0.060000,58.000000
7.970200,0.100000,58.000000
7.941800,0.090000,58.000000
7.846200,0.170000,58.000000
7.722900,0.060000,58.000000
7.694800,0.190000,58.000000
7.681400,0.190000,58.000000
7.649900,0.080000,58.000000
7.636100,0.070000,58.000000
7.518300,0.230000,58.000000
7.503400,0.250000,58.000000
7.490600,0.100000,58.000000
7.424100,0.090000,58.000000
7.389500,0.210000,58.000000
7.377100,0.240000,58.000000
7.342500,0.130000,58.000000
7.317100,0.270000,58.000000
7.303900,0.280000,58.000000
7.288300,0.210000,58.000000
7.276900,0.170000,58.000000
7.252800,0.290000,58.000000
7.239900,0.200000,58.000000
7.223100,0.370000,58.000000
7.208200,0.490000,58.000000
7.193500,0.600000,58.000000
7.181300,3.000000,58.000000
7.175800,2.800000,58.000000
7.171500,1.240000,58.000000
7.166600,3.300000,58.000000
7.161100,3.850000,58.000000
7.156300,1.440000,58.000000
7.141400,0.800000,58.000000
7.081000,0.300000,58.000000
7.029900,0.170000,58.000000
6.935600,0.120000,58.000000
6.915000,0.620000,58.000000
6.911000,0.740000,58.000000
6.900300,1.010000,58.000000
6.895900,3.650000,58.000000
6.881400,3.080000,58.000000
6.877200,3.940000,58.000000
6.862600,3.210000,58.000000
6.773700,0.200000,58.000000
6.759400,0.200000,58.000000
6.555400,0.060000,58.000000
4.706000,0.260000,58.000000
4.702600,0.220000,58.000000
4.685200,0.110000,58.000000
4.681000,0.210000,58.000000
4.674700,0.200000,58.000000
4.245900,0.040000,58.000000
4.163000,0.090000,58.000000
4.116900,0.120000,58.000000
4.093600,0.080000,58.000000
4.079300,0.100000,58.000000
4.036000,0.070000,58.000000
4.020400,1.090000,58.000000
4.005300,0.220000,58.000000
3.991900,0.420000,58.000000
3.984900,0.480000,58.000000
3.979500,1.180000,58.000000
3.966600,1.800000,58.000000
3.954800,1.270000,58.000000
3.944400,1.120000,58.000000
3.931700,0.370000,58.000000
3.916200,3.240000,58.000000
3.904700,0.460000,58.000000
3.889200,3.210000,58.000000
3.876000,0.390000,58.000000
3.861100,1.170000,58.000000
3.853600,0.510000,58.000000
3.847300,0.390000,58.000000
3.843500,0.380000,58.000000
3.837200,0.430000,58.000000
3.823900,10.970000,58.000000
3.798000,15.000000,58.000000
3.784500,0.630000,58.000000
3.777300,0.680000,58.000000
3.771300,0.600000,58.000000
3.766900,0.760000,58.000000
3.757000,0.720000,58.000000
3.739900,2.490000,58.000000
3.721800,0.410000,58.000000
3.695000,0.230000,58.000000
3.677700,0.630000,58.000000
3.671100,0.560000,58.000000
3.663500,0.270000,58.000000
3.655600,0.360000,58.000000
3.634800,0.180000,58.000000
3.617600,0.520000,58.000000
3.610300,0.450000,58.000000
3.592600,0.350000,58.000000
3.584400,0.410000,58.000000
3.565100,1.450000,58.000000
3.540000,0.580000,58.000000
3.450100,9.350000,58.000000
3.430300,0.110000,58.000000
3.251100,0.090000,58.000000
3.230000,0.170000,58.000000
3.218300,0.300000,58.000000
3.209700,0.190000,58.000000
3.194300,0.280000,58.000000
3.185100,0.370000,58.000000
3.159600,0.230000,58.000000
3.146600,0.210000,58.000000
3.136700,0.170000,58.000000
3.120500,0.140000,58.000000
3.076300,0.480000,58.000000
3.063800,1.060000,58.000000
3.049400,0.850000,58.000000
3.041100,1.460000,58.000000
3.035800,0.900000,58.000000
3.029600,1.610000,58.000000
3.018700,1.780000,58.000000
3.005500,1.600000,58.000000
2.995700,0.700000,58.000000
2.982400,0.580000,58.000000
2.963700,0.180000,58.000000
2.942500,0.160000,58.000000
2.935000,0.180000,58.000000
2.872600,0.100000,58.000000
2.859400,0.110000,58.000000
2.844400,0.060000,58.000000
2.826800,0.100000,58.000000
2.804900,0.100000,58.000000
2.797700,0.120000,58.000000
2.787300,0.090000,58.000000
2.779300,0.100000,58.000000
2.768100,0.120000,58.000000
2.752100,0.280000,58.000000
2.739400,0.510000,58.000000
2.733600,0.210000,58.000000
2.726700,0.380000,58.000000
2.723600,0.340000,58.000000
2.701200,0.140000,58.000000
2.681900,0.150000,58.000000
2.671800,2.110000,58.000000
2.646700,4.580000,58.000000
2.618700,0.530000,58.000000
2.606700,0.520000,58.000000
2.588500,0.150000,58.000000
2.579300,0.240000,58.000000
2.561000,4.710000,58.000000
2.535800,2.120000,58.000000
2.500500,0.220000,58.000000
2.488100,0.350000,58.000000
2.475400,0.140000,58.000000
2.465500,0.070000,58.000000
2.453900,0.110000,58.000000
2.439500,0.130000,58.000000
2.428000,0.100000,58.000000
2.403700,0.070000,58.000000
2.374900,0.130000,58.000000
2.367400,0.150000,58.000000
2.358100,0.290000,58.000000
2.345300,0.190000,58.000000
2.327200,0.130000,58.000000
2.318900,0.130000,58.000000
2.309700,0.310000,58.000000
2.302400,0.310000,58.000000
2.290000,0.170000,58.000000
2.277700,0.180000,58.000000
2.270400,0.170000,58.000000
2.259200,0.150000,58.000000
2.234800,0.180000,58.000000
2.223000,0.180000,58.000000
2.211400,0.200000,58.000000
2.199400,0.240000,58.000000
2.186000,0.220000,58.000000
2.171700,0.190000,58.000000
2.153000,0.200000,58.000000
2.144700,0.540000,58.000000
2.133800,0.500000,58.000000
2.129500,1.420000,58.000000
2.121000,0.410000,58.000000
2.098300,0.350000,58.000000
2.080100,0.750000,58.000000
2.072000,0.550000,58.000000
2.064100,0.970000,58.000000
2.051500,1.230000,58.000000
2.026200,0.390000,58.000000
2.011000,0.360000,58.000000
1.991500,0.320000,58.000000
1.979300,0.340000,58.000000
1.967500,0.380000,58.000000
1.955400,0.420000,58.000000
1.943500,0.420000,58.000000
1.934200,0.460000,58.000000
1.924100,0.420000,58.000000
1.920400,0.460000,58.000000
1.907000,0.470000,58.000000
1.900400,0.330000,58.000000
1.896300,0.360000,58.000000
1.889200,0.310000,58.000000
1.876600,0.290000,58.000000
1.865100,0.290000,58.000000
1.855500,0.320000,58.000000
1.842300,0.290000,58.000000
1.831100,0.250000,58.000000
1.802300,0.200000,58.000000
1.788800,0.200000,58.000000
1.760500,0.280000,58.000000
1.748100,0.350000,58.000000
1.732400,0.500000,58.000000
1.718700,0.530000,58.000000
1.707200,0.460000,58.000000
1.680100,0.450000,58.000000
1.665300,0.380000,58.000000
1.655300,0.350000,58.000000
1.624900,0.260000,58.000000
1.615000,0.250000,58.000000
1.599500,0.210000,58.000000
1.534000,0.170000,58.000000
1.524200,0.280000,58.000000
1.512600,0.280000,58.000000
1.504300,0.240000,58.000000
1.490300,1.160000,58.000000
1.477700,1.190000,58.000000
1.464200,0.290000,58.000000
1.456200,0.260000,58.000000
1.444500,0.220000,58.000000
1.422300,0.250000,58.000000
1.411400,0.220000,58.000000
1.396200,0.180000,58.000000
1.373200,0.280000,58.000000
1.369100,0.250000,58.000000
1.360900,0.270000,58.000000
1.357000,0.270000,58.000000
1.337800,1.050000,58.000000
1.326700,0.940000,58.000000
1.290800,0.170000,58.000000
1.278400,0.180000,58.000000
1.267500,0.280000,58.000000
1.256400,0.310000,58.000000
1.240000,0.290000,58.000000
1.232900,0.260000,58.000000
1.210700,0.280000,58.000000
1.200500,0.230000,58.000000
1.179600,0.200000,58.000000
1.169100,0.200000,58.000000
1.120900,0.080000,58.000000
1.108500,0.390000,58.000000
1.096500,0.410000,58.000000
1.071400,0.160000,58.000000
1.055600,0.620000,58.000000
1.050000,1.090000,58.000000
1.043900,0.600000,58.000000
1.037900,1.180000,58.000000
1.017800,1.500000,58.000000
1.005700,1.530000,58.000000
1.000200,1.460000,58.000000
0.988000,1.560000,58.000000
0.974500,1.230000,58.000000
0.963900,1.660000,58.000000
0.953700,1.810000,58.000000
0.947200,2.430000,58.000000
0.941200,2.110000,58.000000
0.935700,2.200000,58.000000
0.928600,1.670000,58.000000
0.919500,3.380000,58.000000
0.908100,3.180000,58.000000
0.898200,1.130000,58.000000
0.892600,0.840000,58.000000
0.885400,0.940000,58.000000
0.874300,0.850000,58.000000
0.861400,0.890000,58.000000
0.848400,0.600000,58.000000
0.097000,0.190000,58.000000
0.027400,0.080000,58.000000
0.017000,0.130000,58.000000
0.015700,0.170000,58.000000
0.014200,0.120000,58.000000
0.012700,0.140000,58.000000
0.011200,0.180000,58.000000
0.009700,0.260000,58.000000
0.008100,0.420000,58.000000
0.005200,2.080000,58.000000
0.003700,2.240000,58.000000
-0.000200,51.520000,58.000000
-0.005700,2.120000,58.000000
-0.008700,0.450000,58.000000
-0.010200,0.250000,58.000000
-0.011700,0.160000,58.000000
-0.013200,0.120000,58.000000
-0.014600,0.090000,58.000000
-0.016100,0.060000,58.000000
-0.040000,0.090000,58.000000
-0.100400,0.220000,58.000000
