10.686200,0.080000,59.000000
10.494200,0.040000,59.000000
8.141000,0.040000,59.000000
7.968600,0.090000,59.000000
7.880500,0.070000,59.000000
7.845900,0.160000,59.000000
7.770200,0.050000,59.000000
7.749200,0.050000,59.000000
7.722500,0.060000,59.000000
7.695500,0.170000,59.000000
7.681400,0.160000,59.000000
7.649600,0.090000,59.000000
7.636400,0.080000,59.000000
7.534300,0.140000,59.000000
7.518000,0.190000,59.000000
7.504100,0.250000,59.000000
7.490000,0.090000,59.000000
7.445200,0.070000,59.000000
7.423600,0.100000,59.000000
7.413000,0.100000,59.000000
7.402900,0.120000,59.000000
7.389400,0.210000,59.000000
7.377300,0.230000,59.000000
7.344500,0.130000,59.000000
7.334500,0.110000,59.000000
7.317900,0.270000,59.000000
7.311200,0.240000,59.000000
7.304800,0.250000,59.000000
7.288600,0.190000,59.000000
7.277500,0.150000,59.000000
7.266100,0.170000,59.000000
7.252700,0.270000,59.000000
7.238700,0.190000,59.000000
7.223000,0.370000,59.000000
7.208100,0.460000,59.000000
7.193500,0.570000,59.000000
7.181300,3.000000,59.000000
7.175800,2.450000,59.000000
7.171200,1.120000,59.000000
7.166700,3.240000,59.000000
7.161100,3.400000,59.000000
7.156200,1.210000,59.000000
7.141500,0.720000,59.000000
7.135500,0.330000,59.000000
7.121100,0.230000,59.000000
7.103000,0.180000,59.000000
7.081200,0.270000,59.000000
7.053900,0.130000,59.000000
7.035900,0.130000,59.000000
6.995600,0.120000,59.000000
6.915000,0.600000,59.000000
6.911000,0.720000,59.000000
6.900400,0.930000,59.000000
6.896000,3.330000,59.000000
6.892600,0.910000,59.000000
6.884800,0.780000,59.000000
6.881400,2.790000,59.000000
6.877300,4.000000,59.000000
6.873900,1.220000,59.000000
6.866300,0.890000,59.000000
6.862700,3.300000,59.000000
6.857800,0.670000,59.000000
6.834300,0.280000,59.000000
6.819800,0.210000,59.000000
6.773600,0.170000,59.000000
6.762200,0.150000,59.000000
6.665800,0.050000,59.000000
6.582000,0.040000,59.000000
4.707100,0.220000,59.000000
4.703500,0.190000,59.000000
4.683600,0.140000,59.000000
4.679100,0.260000,59.000000
4.672500,0.190000,59.000000
4.246500,0.070000,59.000000
4.176200,0.090000,59.000000
4.162100,0.090000,59.000000
4.139200,0.090000,59.000000
4.130300,0.090000,59.000000
4.116100,0.110000,59.000000
4.107000,0.090000,59.000000
4.093300,0.080000,59.000000
4.079900,0.100000,59.000000
4.065700,0.070000,59.000000
4.047500,0.060000,59.000000
4.035300,0.080000,59.000000
4.020300,1.050000,59.000000
4.005700,0.210000,59.000000
3.991700,0.440000,59.000000
3.985100,0.440000,59.000000
3.979100,1.040000,59.000000
3.966200,1.580000,59.000000
3.954500,1.110000,59.000000
3.944400,0.990000,59.000000
3.931800,0.330000,59.000000
3.916100,2.840000,59.000000
3.904800,0.430000,59.000000
3.889100,2.840000,59.000000
3.875800,0.350000,59.000000
3.871800,0.320000,59.000000
3.861100,1.090000,59.000000
3.853400,0.490000,59.000000
3.847100,0.380000,59.000000
3.843600,0.370000,59.000000
3.837300,0.460000,59.000000
3.823900,10.980000,59.000000
3.811600,0.370000,59.000000
3.797900,15.000000,59.000000
3.784600,0.580000,59.000000
3.777200,0.650000,59.000000
3.770600,0.570000,59.000000
3.766900,0.700000,59.000000
3.762800,0.440000,59.000000
3.756000,0.640000,59.000000
3.739900,2.050000,59.000000
3.726000,0.380000,59.000000
3.721700,0.360000,59.000000
3.706200,0.320000,59.000000
3.677800,0.610000,59.000000
3.671100,0.570000,59.000000
3.663200,0.220000,59.000000
3.655600,0.340000,59.000000
3.634000,0.180000,59.000000
3.617700,0.520000,59.000000
3.610300,0.470000,59.000000
3.605500,0.180000,59.000000
3.592500,0.360000,59.000000
3.584300,0.420000,59.000000
3.565100,1.740000,59.000000
3.555000,0.080000,59.000000
3.539900,0.590000,59.000000
3.450000,9.420000,59.000000
3.431800,0.090000,59.000000
3.250500,0.070000,59.000000
3.239600,0.080000,59.000000
3.229300,0.150000,59.000000
3.218600,0.250000,59.000000
3.210000,0.170000,59.000000
3.204200,0.150000,59.000000
3.194300,0.250000,59.000000
3.185100,0.330000,59.000000
3.172200,0.140000,59.000000
3.159900,0.210000,59.000000
3.146400,0.200000,59.000000
3.134400,0.150000,59.000000
3.120100,0.130000,59.000000
3.114700,0.120000,59.000000
3.097800,0.120000,59.000000
3.076400,0.440000,59.000000
3.063700,1.000000,59.000000
3.049000,0.800000,59.000000
3.041000,1.250000,59.000000
3.035700,0.830000,59.000000
3.029400,1.380000,59.000000
3.022700,0.820000,59.000000
3.018500,1.540000,59.000000
3.005300,1.350000,59.000000
2.995500,0.590000,59.000000
2.982200,0.470000,59.000000
2.963100,0.160000,59.000000
2.942700,0.150000,59.000000
2.935200,0.180000,59.000000
2.921100,0.050000,59.000000
2.872200,0.090000,59.000000
2.859400,0.120000,59.000000
2.844200,0.050000,59.000000
2.831300,0.050000,59.000000
2.827200,0.090000,59.000000
2.818500,0.060000,59.000000
2.804700,0.100000,59.000000
2.797900,0.120000,59.000000
2.779100,0.110000,59.000000
2.767500,0.090000,59.000000
2.759500,0.100000,59.000000
2.751900,0.300000,59.000000
2.739300,0.540000,59.000000
2.733600,0.190000,59.000000
2.726800,0.380000,59.000000
2.723700,0.370000,59.000000
2.701100,0.120000,59.000000
2.697700,0.130000,59.000000
2.682500,0.180000,59.000000
2.671800,2.100000,59.000000
2.646700,4.520000,59.000000
2.618700,0.570000,59.000000
2.606800,0.520000,59.000000
2.589200,0.120000,59.000000
2.579400,0.220000,59.000000
2.572100,0.170000,59.000000
2.560900,4.740000,59.000000
2.535800,2.150000,59.000000
2.500400,0.250000,59.000000
2.488100,0.380000,59.000000
2.475500,0.160000,59.000000
2.466000,0.060000,59.000000
2.454300,0.100000,59.000000
2.438900,0.110000,59.000000
2.427900,0.090000,59.000000
2.420500,0.070000,59.000000
2.403600,0.070000,59.000000
2.375000,0.130000,59.000000
2.369700,0.140000,59.000000
2.362000,0.240000,59.000000
2.357700,0.250000,59.000000
2.348600,0.170000,59.000000
2.345300,0.200000,59.000000
2.326400,0.110000,59.000000
2.319700,0.120000,59.000000
2.309700,0.280000,59.000000
2.302200,0.280000,59.000000
2.289800,0.170000,59.000000
2.282300,0.160000,59.000000
2.277800,0.170000,59.000000
2.270400,0.170000,59.000000
2.258600,0.150000,59.000000
2.247000,0.160000,59.000000
2.223100,0.160000,59.000000
2.211700,0.180000,59.000000
2.199500,0.200000,59.000000
2.185400,0.190000,59.000000
2.170800,0.170000,59.000000
2.144700,0.530000,59.000000
2.134400,0.450000,59.000000
2.129500,1.540000,59.000000
2.120600,0.370000,59.000000
2.116100,0.340000,59.000000
2.111400,0.350000,59.000000
2.098200,0.310000,59.000000
2.085500,0.360000,59.000000
2.080300,0.690000,59.000000
2.071700,0.480000,59.000000
2.064000,0.960000,59.000000
2.051600,1.280000,59.000000
2.026300,0.350000,59.000000
2.015200,0.320000,59.000000
1.991400,0.280000,59.000000
1.978900,0.320000,59.000000
1.967200,0.350000,59.000000
1.955000,0.390000,59.000000
1.944200,0.400000,59.000000
1.933900,0.420000,59.000000
1.924100,0.400000,59.000000
1.920400,0.430000,59.000000
1.906800,0.440000,59.000000
1.900200,0.300000,59.000000
1.896300,0.320000,59.000000
1.889900,0.290000,59.000000
1.879200,0.240000,59.000000
1.865300,0.260000,59.000000
1.855300,0.270000,59.000000
1.842500,0.260000,59.000000
1.831000,0.220000,59.000000
1.815500,0.180000,59.000000
1.800500,0.190000,59.000000
1.791100,0.180000,59.000000
1.761400,0.240000,59.000000
1.745700,0.310000,59.000000
1.732100,0.450000,59.000000
1.718300,0.480000,59.000000
1.707100,0.400000,59.000000
1.700600,0.340000,59.000000
1.686200,0.350000,59.000000
1.679400,0.400000,59.000000
1.665500,0.340000,59.000000
1.654800,0.300000,59.000000
1.643000,0.270000,59.000000
1.625500,0.240000,59.000000
1.614000,0.210000,59.000000
1.600300,0.190000,59.000000
1.562400,0.090000,59.000000
1.535200,0.140000,59.000000
1.524500,0.260000,59.000000
1.512300,0.260000,59.000000
1.504000,0.220000,59.000000
1.490200,1.240000,59.000000
1.477800,1.270000,59.000000
1.464300,0.290000,59.000000
1.456400,0.260000,59.000000
1.443500,0.200000,59.000000
1.434500,0.220000,59.000000
1.425100,0.220000,59.000000
1.422700,0.220000,59.000000
1.411300,0.200000,59.000000
1.396200,0.160000,59.000000
1.383500,0.140000,59.000000
1.373100,0.250000,59.000000
1.368900,0.230000,59.000000
1.360800,0.230000,59.000000
1.356800,0.240000,59.000000
1.348300,0.150000,59.000000
1.337800,1.140000,59.000000
1.326800,1.010000,59.000000
1.291000,0.150000,59.000000
1.283600,0.120000,59.000000
1.278300,0.170000,59.000000
1.267300,0.250000,59.000000
1.256300,0.290000,59.000000
1.252400,0.210000,59.000000
1.244000,0.220000,59.000000
1.240400,0.260000,59.000000
1.233300,0.230000,59.000000
1.211200,0.240000,59.000000
1.200500,0.200000,59.000000
1.179100,0.180000,59.000000
1.168400,0.170000,59.000000
1.154800,0.120000,59.000000
1.133300,0.080000,59.000000
1.121100,0.080000,59.000000
1.108500,0.410000,59.000000
1.096600,0.420000,59.000000
1.071300,0.150000,59.000000
1.055700,0.660000,59.000000
1.050000,1.170000,59.000000
1.043800,0.660000,59.000000
1.037900,1.230000,59.000000
1.032600,0.420000,59.000000
1.017700,1.560000,59.000000
1.005700,1.550000,59.000000
1.000000,1.530000,59.000000
0.988000,1.570000,59.000000
0.974600,1.090000,59.000000
0.963900,1.520000,59.000000
0.953700,1.690000,59.000000
0.947100,2.400000,59.000000
0.941200,2.070000,59.000000
0.935700,2.180000,59.000000
0.928600,1.540000,59.000000
0.919400,3.630000,59.000000
0.908200,3.430000,59.000000
0.898200,1.050000,59.000000
0.893100,0.750000,59.000000
0.885300,0.820000,59.000000
0.878200,0.730000,59.000000
0.873900,0.800000,59.000000
0.861300,0.900000,59.000000
0.848500,0.590000,59.000000
0.813700,0.200000,59.000000
0.762800,0.100000,59.000000
0.096900,0.200000,59.000000
0.016700,0.120000,59.000000
0.015300,0.090000,59.000000
0.012300,0.080000,59.000000
0.010800,0.120000,59.000000
0.009300,0.180000,59.000000
0.007800,0.300000,59.000000
0.005000,1.920000,59.000000
0.003400,1.770000,59.000000
-0.000200,55.190000,59.000000
-0.004900,1.920000,59.000000
-0.005900,2.090000,59.000000
-0.009000,0.390000,59.000000
-0.010600,0.250000,59.000000
-0.012100,0.180000,59.000000
-0.013500,0.140000,59.000000
-0.015000,0.100000,59.000000
-0.016500,0.070000,59.000000
-0.018000,0.070000,59.000000
-0.019500,0.050000,59.000000
-0.026900,0.090000,59.000000
-0.028500,0.170000,59.000000
-0.100600,0.230000,59.000000
-0.914400,0.050000,59.000000
-0.998700,0.060000,59.000000
-1.086600,0.070000,59.000000
