10.671500,0.130000,9.000000
10.593800,0.130000,9.000000
10.575200,0.110000,9.000000
10.513200,0.090000,9.000000
10.478900,0.080000,9.000000
10.442300,0.070000,9.000000
10.405500,0.070000,9.000000
10.388300,0.060000,9.000000
10.318400,0.070000,9.000000
8.462200,0.070000,9.000000
8.447200,0.080000,9.000000
8.229100,0.080000,9.000000
8.214100,0.080000,9.000000
8.187100,0.080000,9.000000
8.176700,0.080000,9.000000
8.015400,0.080000,9.000000
7.961100,0.100000,9.000000
7.945900,0.110000,9.000000
7.926500,0.100000,9.000000
7.901000,0.100000,9.000000
7.894300,0.100000,9.000000
7.879300,0.110000,9.000000
7.870100,0.110000,9.000000
7.854100,0.100000,9.000000
7.839700,0.110000,9.000000
7.826900,0.110000,9.000000
7.794600,0.080000,9.000000
7.771000,0.100000,9.000000
7.746300,0.120000,9.000000
7.724000,0.110000,9.000000
7.708500,0.140000,9.000000
7.695400,0.300000,9.000000
7.681400,0.300000,9.000000
7.656500,0.130000,9.000000
7.638800,0.140000,9.000000
7.630300,0.120000,9.000000
7.536900,0.620000,9.000000
7.504300,0.480000,9.000000
7.489700,0.250000,9.000000
7.432600,0.170000,9.000000
7.381300,0.210000,9.000000
7.377200,0.200000,9.000000
7.367100,0.210000,9.000000
7.318300,0.230000,9.000000
7.298800,0.280000,9.000000
7.286600,0.370000,9.000000
7.276800,0.310000,9.000000
7.266000,0.340000,9.000000
7.252900,0.420000,9.000000
7.239000,0.380000,9.000000
7.223600,0.730000,9.000000
7.209700,0.310000,9.000000
7.204800,0.320000,9.000000
7.180900,2.000000,9.000000
7.176100,11.510000,9.000000
7.172900,3.440000,9.000000
7.161600,13.810000,9.000000
7.156700,2.630000,9.000000
7.141500,0.800000,9.000000
7.136400,0.480000,9.000000
7.124800,0.320000,9.000000
7.120600,0.330000,9.000000
7.114200,0.280000,9.000000
7.025200,0.320000,9.000000
6.939500,0.250000,9.000000
6.925000,0.380000,9.000000
6.910900,0.910000,9.000000
6.901100,2.400000,9.000000
6.896300,15.000000,9.000000
6.892900,3.380000,9.000000
6.885200,3.160000,9.000000
6.881800,12.140000,9.000000
6.876900,1.860000,9.000000
6.862400,0.450000,9.000000
6.855900,0.370000,9.000000
6.850300,0.290000,9.000000
6.840600,0.360000,9.000000
6.774900,0.200000,9.000000
6.760400,0.210000,9.000000
6.745200,0.180000,9.000000
6.711600,0.110000,9.000000
6.687300,0.080000,9.000000
6.658900,0.080000,9.000000
4.720600,0.210000,9.000000
4.713000,0.450000,9.000000
4.706800,0.670000,9.000000
4.703100,0.700000,9.000000
4.700200,0.600000,9.000000
4.678200,0.360000,9.000000
4.671800,0.370000,9.000000
4.663500,0.120000,9.000000
4.153600,0.180000,9.000000
4.139200,0.210000,9.000000
4.121600,0.230000,9.000000
4.116700,0.210000,9.000000
4.096800,0.170000,9.000000
4.087800,0.170000,9.000000
4.074400,0.180000,9.000000
4.050900,0.150000,9.000000
4.031900,0.240000,9.000000
4.020400,1.060000,9.000000
4.007300,0.380000,9.000000
3.982200,4.360000,9.000000
3.969300,6.390000,9.000000
3.957700,4.240000,9.000000
3.945100,4.170000,9.000000
3.933000,0.410000,9.000000
3.917100,13.390000,9.000000
3.889500,13.270000,9.000000
3.876600,0.460000,9.000000
3.861400,4.240000,9.000000
3.835500,0.320000,9.000000
3.824300,1.850000,9.000000
3.812500,0.420000,9.000000
3.799600,2.460000,9.000000
3.784900,0.300000,9.000000
3.769200,0.580000,9.000000
3.740500,8.920000,9.000000
3.715900,0.400000,9.000000
3.678300,0.190000,9.000000
3.661800,0.150000,9.000000
3.632100,0.150000,9.000000
3.616200,0.240000,9.000000
3.586800,0.090000,9.000000
3.450200,0.440000,9.000000
3.217600,0.110000,9.000000
3.198800,0.230000,9.000000
3.185500,0.160000,9.000000
3.175900,0.130000,9.000000
3.162800,0.110000,9.000000
3.151100,0.100000,9.000000
3.139800,0.070000,9.000000
3.114700,0.100000,9.000000
3.065700,1.880000,9.000000
3.054200,2.020000,9.000000
3.042600,5.580000,9.000000
3.031000,5.630000,9.000000
3.020400,5.890000,9.000000
3.007200,5.820000,9.000000
2.997300,2.050000,9.000000
2.984000,1.930000,9.000000
2.944900,0.070000,9.000000
2.741600,0.140000,9.000000
2.733300,0.150000,9.000000
2.671600,3.890000,9.000000
2.646500,8.550000,9.000000
2.618800,0.220000,9.000000
2.606700,0.280000,9.000000
2.588400,0.090000,9.000000
2.579300,0.230000,9.000000
2.561500,8.940000,9.000000
2.536400,4.060000,9.000000
2.368200,0.210000,9.000000
2.319400,0.160000,9.000000
2.309900,0.370000,9.000000
2.303400,0.330000,9.000000
2.280500,0.120000,9.000000
2.243300,0.130000,9.000000
2.223100,0.170000,9.000000
2.210300,0.190000,9.000000
2.198900,0.230000,9.000000
2.193100,0.180000,9.000000
2.186500,0.210000,9.000000
2.163200,0.190000,9.000000
2.155500,0.170000,9.000000
2.147700,0.280000,9.000000
2.134600,0.380000,9.000000
2.129500,0.470000,9.000000
2.115200,0.510000,9.000000
2.096100,0.330000,9.000000
2.080600,2.070000,9.000000
2.064200,0.470000,9.000000
2.045400,0.620000,9.000000
2.032000,0.400000,9.000000
2.025000,0.400000,9.000000
2.011200,0.390000,9.000000
1.951200,0.190000,9.000000
1.925800,0.190000,9.000000
1.920800,0.210000,9.000000
1.900100,0.180000,9.000000
1.857700,0.270000,9.000000
1.848800,0.200000,9.000000
1.829600,0.200000,9.000000
1.815900,0.210000,9.000000
1.801400,0.230000,9.000000
1.791500,0.240000,9.000000
1.775900,0.240000,9.000000
1.749900,0.200000,9.000000
1.717600,0.300000,9.000000
1.699400,0.340000,9.000000
1.688100,0.370000,9.000000
1.680200,0.390000,9.000000
1.666000,0.410000,9.000000
1.649300,0.350000,9.000000
1.631000,0.290000,9.000000
1.593000,0.200000,9.000000
1.545400,0.120000,9.000000
1.490600,0.170000,9.000000
1.478600,0.160000,9.000000
1.423400,0.230000,9.000000
1.412700,0.210000,9.000000
1.372800,0.090000,9.000000
1.356600,0.110000,9.000000
1.337200,0.470000,9.000000
1.325400,0.450000,9.000000
1.292100,0.120000,9.000000
1.275200,0.110000,9.000000
1.253200,0.190000,9.000000
1.240100,0.200000,9.000000
1.213000,0.220000,9.000000
1.202900,0.220000,9.000000
1.174300,0.190000,9.000000
1.133500,0.090000,9.000000
1.108600,0.210000,9.000000
1.096700,0.240000,9.000000
1.079900,0.130000,9.000000
1.054900,0.150000,9.000000
1.050800,0.210000,9.000000
1.038800,0.190000,9.000000
1.018200,0.230000,9.000000
0.983100,0.600000,9.000000
0.947200,1.620000,9.000000
0.941500,1.060000,9.000000
0.935800,1.590000,9.000000
0.929300,1.070000,9.000000
0.919100,1.000000,9.000000
0.910800,1.030000,9.000000
0.904500,0.970000,9.000000
0.898300,0.970000,9.000000
0.891400,0.950000,9.000000
0.878900,0.970000,9.000000
0.863300,0.820000,9.000000
0.825500,0.400000,9.000000
0.814300,0.450000,9.000000
0.805100,0.410000,9.000000
0.752400,0.240000,9.000000
0.737400,0.240000,9.000000
0.661600,0.070000,9.000000
0.097000,0.350000,9.000000
0.043000,0.090000,9.000000
0.034100,0.100000,9.000000
0.028100,0.350000,9.000000
0.016400,0.300000,9.000000
0.015000,0.240000,9.000000
0.013400,0.240000,9.000000
0.011900,0.330000,9.000000
0.010400,0.440000,9.000000
0.009000,0.640000,9.000000
0.004900,3.900000,9.000000
-0.000200,103.440000,9.000000
-0.005300,3.260000,9.000000
-0.007700,0.760000,9.000000
-0.009400,0.280000,9.000000
-0.011000,0.170000,9.000000
-0.024400,0.100000,9.000000
-0.025700,0.160000,9.000000
-0.041000,0.210000,9.000000
-0.100600,0.300000,9.000000
-0.858500,0.060000,9.000000
-0.889700,0.080000,9.000000
-0.968300,0.110000,9.000000
-0.994700,0.100000,9.000000
-1.040300,0.130000,9.000000
-1.076000,0.140000,9.000000
-1.143900,0.160000,9.000000
