F,0,0.0,96.20999908447266,-0.53
F,1,0.0,97.80999755859375,-0.53
F,2,0.0,99.4800033569336,-0.53
F,3,0.0,101.80999755859375,-0.53
F,4,0.0,101.58999633789062,-0.53
F,5,0.0,98.95999908447266,-0.53
F,6,0.0,107.0999984741211,-0.53
F,7,0.0,99.45999908447266,-0.53
F,8,0.0,103.44000244140625,-0.53
F,9,0.0,103.44000244140625,-0.53
F,10,0.0,102.98999786376953,-0.53
F,11,0.0,103.9000015258789,-0.53
F,12,0.0,104.45999908447266,-0.53
F,13,0.0,102.23999786376953,-0.53
F,14,0.0,105.68000030517578,-0.53
F,15,0.0,101.69000244140625,-0.53
F,16,0.0,101.23999786376953,-0.53
F,17,0.0,109.45999908447266,-0.53
F,18,0.0,104.29000091552734,-0.53
F,19,0.0,104.02999877929688,-0.53
F,20,0.0,106.1500015258789,-0.53
F,21,0.0,101.63999938964844,-0.53
F,22,0.0,100.05999755859375,-0.53
F,23,0.0,105.75,-0.53
F,24,0.0,105.41000366210938,-0.53
F,25,0.0,102.22000122070312,-0.53
F,26,0.0,109.36000061035156,-0.53
F,27,0.0,106.16999816894531,-0.53
F,28,0.0,109.19000244140625,-0.53
F,29,0.0,104.16999816894531,-0.53
F,30,0.0,114.19000244140625,-0.53
F,31,0.0,102.33999633789062,-0.53
F,32,0.0,113.31999969482422,-0.53
F,33,0.0,107.79000091552734,-0.53
F,34,0.0,112.18000030517578,-0.53
F,35,0.0,117.7300033569336,-0.53
F,36,0.0,112.4000015258789,-0.53
F,37,0.0,116.75,-0.53
F,38,0.0,118.30000305175781,-0.53
F,39,0.0,129.9199981689453,-0.53
F,40,0.0,126.79000091552734,-0.53
F,41,0.0,121.80000305175781,-0.53
F,42,0.0,132.49000549316406,-0.53
F,43,0.0,117.20999908447266,-0.53
F,44,0.0,113.8499984741211,-0.53
F,45,0.0,119.0999984741211,-0.53
F,46,0.0,108.06999969482422,-0.53
F,47,0.0,108.83999633789062,-0.53
F,48,0.0,107.5999984741211,-0.53
F,49,0.0,96.81999969482422,-0.53
F,50,0.0,99.55000305175781,-0.53
F,51,0.0,99.43000030517578,-0.53
F,52,0.0,86.55999755859375,-0.53
F,53,0.0,85.45999908447266,-0.53
F,54,0.0,70.18000030517578,-0.53
F,55,0.0,68.0999984741211,-0.53
F,56,0.0,64.94000244140625,-0.53
F,57,0.0,62.66999816894531,-0.53
F,58,0.0,51.52000045776367,-0.53
F,59,0.0,55.189998626708984,-0.53
F,60,0.0,52.70000076293945,-0.53
F,61,0.0,50.689998626708984,-0.53
F,62,0.0,50.31999969482422,-0.53
F,63,0.0,48.15999984741211,-0.53
S,0,1.337,0.4399999976158142,-0.53
S,1,1.326,0.4399999976158142,-0.53
S,2,1.326,0.44999998807907104,-0.53
S,3,1.337,0.44999998807907104,-0.53
S,4,1.337,0.4399999976158142,-0.53
S,5,1.326,0.4399999976158142,-0.53
S,6,1.337,0.4699999988079071,-0.53
S,7,1.337,0.46000000834465027,-0.53
S,8,1.337,0.4699999988079071,-0.53
S,9,1.337,0.4699999988079071,-0.53
S,10,1.337,0.49000000953674316,-0.53
S,11,1.337,0.4699999988079071,-0.53
S,12,1.326,0.5,-0.53
S,13,1.337,0.5099999904632568,-0.53
S,14,1.337,0.5299999713897705,-0.53
S,15,1.326,0.49000000953674316,-0.53
S,16,1.326,0.47999998927116394,-0.53
S,17,1.337,0.5199999809265137,-0.53
S,18,1.337,0.5,-0.53
S,19,1.326,0.5199999809265137,-0.53
S,20,1.337,0.5099999904632568,-0.53
S,21,1.337,0.49000000953674316,-0.53
S,22,1.337,0.550000011920929,-0.53
S,23,1.337,0.5400000214576721,-0.53
S,24,1.337,0.5099999904632568,-0.53
S,25,1.337,0.5199999809265137,-0.53
S,26,1.337,0.5400000214576721,-0.53
S,27,1.337,0.5600000023841858,-0.53
S,28,1.0,0.550000011920929,-0.53
S,29,1.0,0.6299999952316284,-0.53
S,30,1.0,0.5899999737739563,-0.53
S,31,1.0,0.7300000190734863,-0.53
S,32,1.0,0.6499999761581421,-0.53
S,33,1.0,0.7300000190734863,-0.53
S,34,1.0,0.7099999785423279,-0.53
S,35,1.0,0.7200000286102295,-0.53
S,36,1.0,0.8999999761581421,-0.53
S,37,1.0,0.9100000262260437,-0.53
S,38,1.0,0.9700000286102295,-0.53
S,39,1.006,1.0199999809265137,-0.53
S,40,1.006,1.1100000143051147,-0.53
S,41,1.006,1.2300000190734863,-0.53
S,42,1.006,1.2200000286102295,-0.53
S,43,1.006,1.340000033378601,-0.53
S,44,1.006,1.3600000143051147,-0.53
S,45,1.006,1.309999942779541,-0.53
S,46,1.006,1.3200000524520874,-0.53
S,47,1.006,1.3200000524520874,-0.53
S,48,1.006,1.350000023841858,-0.53
S,49,1.006,1.3300000429153442,-0.53
S,50,1.006,1.3200000524520874,-0.53
S,51,1.006,1.340000033378601,-0.53
S,52,1.006,1.3799999952316284,-0.53
S,53,1.006,1.4600000381469727,-0.53
S,54,1.006,1.5399999618530273,-0.53
S,55,1.006,1.4600000381469727,-0.53
S,56,1.006,1.4900000095367432,-0.53
S,57,1.006,1.5399999618530273,-0.53
S,58,1.006,1.5299999713897705,-0.53
S,59,1.018,1.559999942779541,-0.53
S,60,1.0,1.600000023841858,-0.53
S,61,1.0,1.6100000143051147,-0.53
S,62,1.0,1.690000057220459,-0.53
S,63,1.0,1.690000057220459,-0.53
