F,0,1.337,0.4399999976158142,-0.51
F,1,1.326,0.4399999976158142,-0.51
F,2,1.326,0.44999998807907104,-0.51
F,3,1.337,0.44999998807907104,-0.51
F,4,1.337,0.4399999976158142,-0.51
F,5,1.326,0.4399999976158142,-0.51
F,6,1.337,0.4699999988079071,-0.51
F,7,1.337,0.46000000834465027,-0.51
F,8,1.337,0.4699999988079071,-0.51
F,9,1.337,0.4699999988079071,-0.51
F,10,1.337,0.49000000953674316,-0.51
F,11,1.337,0.4699999988079071,-0.51
F,12,1.326,0.5,-0.51
F,13,1.337,0.5099999904632568,-0.51
F,14,1.337,0.5299999713897705,-0.51
F,15,1.326,0.49000000953674316,-0.51
F,16,1.326,0.47999998927116394,-0.51
F,17,1.337,0.5199999809265137,-0.51
F,18,1.337,0.5,-0.51
F,19,1.326,0.5199999809265137,-0.51
F,20,1.337,0.5099999904632568,-0.51
F,21,1.337,0.49000000953674316,-0.51
F,22,1.337,0.550000011920929,-0.51
F,23,1.337,0.5400000214576721,-0.51
F,24,1.337,0.5099999904632568,-0.51
F,25,1.337,0.5199999809265137,-0.51
F,26,1.337,0.5400000214576721,-0.51
F,27,1.337,0.5600000023841858,-0.51
F,28,1.0,0.550000011920929,-0.51
F,29,1.0,0.6299999952316284,-0.51
F,30,1.0,0.5899999737739563,-0.51
F,31,1.0,0.7300000190734863,-0.51
F,32,1.0,0.6499999761581421,-0.51
F,33,1.0,0.7300000190734863,-0.51
F,34,1.0,0.7099999785423279,-0.51
F,35,1.0,0.7200000286102295,-0.51
F,36,1.0,0.8999999761581421,-0.51
F,37,1.0,0.9100000262260437,-0.51
F,38,1.0,0.9700000286102295,-0.51
F,39,1.006,1.0199999809265137,-0.51
F,40,1.006,1.1100000143051147,-0.51
F,41,1.006,1.2300000190734863,-0.51
F,42,1.006,1.2200000286102295,-0.51
F,43,1.006,1.340000033378601,-0.51
F,44,1.006,1.3600000143051147,-0.51
F,45,1.006,1.309999942779541,-0.51
F,46,1.006,1.3200000524520874,-0.51
F,47,1.006,1.3200000524520874,-0.51
F,48,1.006,1.350000023841858,-0.51
F,49,1.006,1.3300000429153442,-0.51
F,50,1.006,1.3200000524520874,-0.51
F,51,1.006,1.340000033378601,-0.51
F,52,1.006,1.3799999952316284,-0.51
F,53,1.006,1.4600000381469727,-0.51
F,54,1.006,1.5399999618530273,-0.51
F,55,1.006,1.4600000381469727,-0.51
F,56,1.006,1.4900000095367432,-0.51
F,57,1.006,1.5399999618530273,-0.51
F,58,1.006,1.5299999713897705,-0.51
F,59,1.018,1.559999942779541,-0.51
F,60,1.0,1.600000023841858,-0.51
F,61,1.0,1.6100000143051147,-0.51
F,62,1.0,1.690000057220459,-0.51
F,63,1.0,1.690000057220459,-0.51
S,0,10.507,0.12999999523162842,-0.51
S,1,10.639,0.12999999523162842,-0.51
S,2,10.668,0.12999999523162842,-0.51
S,3,10.588,0.12999999523162842,-0.51
S,4,10.625,0.10999999940395355,-0.51
S,5,10.59,0.12999999523162842,-0.51
S,6,10.525,0.10999999940395355,-0.51
S,7,10.653,0.11999999731779099,-0.51
S,8,10.69,0.14000000059604645,-0.51
S,9,10.594,0.12999999523162842,-0.51
S,10,10.65,0.14000000059604645,-0.51
S,11,10.557,0.11999999731779099,-0.51
S,12,10.572,0.11999999731779099,-0.51
S,13,10.666,0.12999999523162842,-0.51
S,14,10.68,0.12999999523162842,-0.51
S,15,10.66,0.12999999523162842,-0.51
S,16,10.619,0.12999999523162842,-0.51
S,17,10.684,0.14000000059604645,-0.51
S,18,10.631,0.11999999731779099,-0.51
S,19,10.51,0.11999999731779099,-0.51
S,20,10.625,0.11999999731779099,-0.51
S,21,10.58,0.12999999523162842,-0.51
S,22,10.542,0.11999999731779099,-0.51
S,23,10.689,0.14000000059604645,-0.51
S,24,10.605,0.10999999940395355,-0.51
S,25,10.572,0.12999999523162842,-0.51
S,26,10.575,0.11999999731779099,-0.51
S,27,10.608,0.12999999523162842,-0.51
S,28,10.671,0.15000000596046448,-0.51
S,29,10.513,0.12999999523162842,-0.51
S,30,10.528,0.12999999523162842,-0.51
S,31,10.589,0.15000000596046448,-0.51
S,32,10.573,0.12999999523162842,-0.51
S,33,10.577,0.14000000059604645,-0.51
S,34,10.605,0.15000000596046448,-0.51
S,35,10.674,0.15000000596046448,-0.51
S,36,10.58,0.15000000596046448,-0.51
S,37,10.57,0.14000000059604645,-0.51
S,38,10.529,0.15000000596046448,-0.51
S,39,10.494,0.11999999731779099,-0.51
S,40,10.597,0.14000000059604645,-0.51
S,41,10.52,0.14000000059604645,-0.51
S,42,10.57,0.12999999523162842,-0.51
S,43,10.662,0.15000000596046448,-0.51
S,44,10.571,0.1599999964237213,-0.51
S,45,10.62,0.12999999523162842,-0.51
S,46,10.55,0.14000000059604645,-0.51
S,47,10.655,0.10999999940395355,-0.51
S,48,10.652,0.11999999731779099,-0.51
S,49,10.528,0.10999999940395355,-0.51
S,50,10.606,0.11999999731779099,-0.51
S,51,10.647,0.10999999940395355,-0.51
S,52,10.517,0.09000000357627869,-0.51
S,54,10.685,0.12999999523162842,-0.51
S,55,10.616,0.07999999821186066,-0.51
S,56,10.687,0.10999999940395355,-0.51
S,57,10.688,0.10000000149011612,-0.51
S,58,10.69,0.10999999940395355,-0.51
S,59,10.686,0.07999999821186066,-0.51
S,60,10.692,0.09000000357627869,-0.51
S,61,10.672,0.07999999821186066,-0.51
S,62,10.691,0.09000000357627869,-0.51
S,63,10.646,0.05000000074505806,-0.51
S,63,0.0,0.0,-0.51
