F,0,3.917,13.5600004196167,-0.77
F,1,3.917,13.760000228881836,-0.77
F,2,3.917,13.75,-0.77
F,3,3.917,13.449999809265137,-0.77
F,4,3.917,13.4399995803833,-0.77
F,5,3.917,13.579999923706055,-0.77
F,6,3.917,13.069999694824219,-0.77
F,7,3.917,13.539999961853027,-0.77
F,8,3.889,13.34000015258789,-0.77
F,9,3.917,13.390000343322754,-0.77
F,10,3.917,13.369999885559082,-0.77
F,11,3.917,13.4399995803833,-0.77
F,12,3.917,13.359999656677246,-0.77
F,13,3.917,13.390000343322754,-0.77
F,14,3.917,13.3100004196167,-0.77
F,15,3.917,13.59000015258789,-0.77
F,16,3.917,13.550000190734863,-0.77
F,17,3.917,13.069999694824219,-0.77
F,18,3.889,13.369999885559082,-0.77
F,19,3.917,13.369999885559082,-0.77
F,20,3.917,13.40999984741211,-0.77
F,21,3.917,13.739999771118164,-0.77
F,22,3.917,13.640000343322754,-0.77
F,23,3.889,13.470000267028809,-0.77
F,24,3.917,13.4399995803833,-0.77
F,25,3.917,13.6899995803833,-0.77
F,26,3.917,13.34000015258789,-0.77
F,27,3.917,13.600000381469727,-0.77
F,28,3.917,13.489999771118164,-0.77
F,29,3.917,13.880000114440918,-0.77
F,30,3.918,13.40999984741211,-0.77
F,31,3.917,14.09000015258789,-0.77
F,32,3.918,13.649999618530273,-0.77
F,33,3.917,13.829999923706055,-0.77
F,34,3.918,13.739999771118164,-0.77
F,35,3.889,13.350000381469727,-0.77
F,36,3.918,13.920000076293945,-0.77
F,37,3.918,13.59000015258789,-0.77
F,38,3.918,13.699999809265137,-0.77
F,39,3.918,13.229999542236328,-0.77
F,40,3.918,13.470000267028809,-0.77
F,41,3.801,14.199999809265137,-0.77
F,42,3.801,14.770000457763672,-0.77
F,43,3.8,15.0,-0.77
F,44,3.8,15.0,-0.77
F,45,3.801,15.0,-0.77
F,46,3.801,15.0,-0.77
F,47,3.8,15.0,-0.77
F,48,3.8,15.0,-0.77
F,49,3.8,15.0,-0.77
F,50,3.8,15.0,-0.77
F,51,3.8,15.0,-0.77
F,52,3.8,15.0,-0.77
F,53,3.799,15.0,-0.77
F,54,3.799,15.0,-0.77
F,55,3.799,15.0,-0.77
F,56,3.798,15.0,-0.77
F,57,3.798,15.0,-0.77
F,58,3.798,15.0,-0.77
F,59,3.798,15.0,-0.77
F,60,3.798,15.0,-0.77
F,61,3.798,15.0,-0.77
F,62,3.798,15.0,-0.77
F,63,3.798,15.0,-0.77
S,0,7.161,14.069999694824219,-0.77
S,1,7.161,14.149999618530273,-0.77
S,2,7.162,14.09000015258789,-0.77
S,3,7.161,13.979999542236328,-0.77
S,4,7.162,13.800000190734863,-0.77
S,5,7.161,13.90999984741211,-0.77
S,6,7.162,13.510000228881836,-0.77
S,7,7.162,13.989999771118164,-0.77
S,8,7.162,13.789999961853027,-0.77
S,9,7.162,13.8100004196167,-0.77
S,10,7.162,13.829999923706055,-0.77
S,11,7.162,13.729999542236328,-0.77
S,12,7.162,13.59000015258789,-0.77
S,13,7.162,13.930000305175781,-0.77
S,14,7.162,13.779999732971191,-0.77
S,15,7.162,13.890000343322754,-0.77
S,16,7.162,13.979999542236328,-0.77
S,17,7.162,13.520000457763672,-0.77
S,18,7.162,13.800000190734863,-0.77
S,19,7.162,13.75,-0.77
S,20,7.162,13.619999885559082,-0.77
S,21,7.162,13.989999771118164,-0.77
S,22,7.162,13.949999809265137,-0.77
S,23,7.162,13.930000305175781,-0.77
S,24,7.162,13.630000114440918,-0.77
S,25,7.162,13.979999542236328,-0.77
S,26,7.162,13.510000228881836,-0.77
S,27,7.162,13.970000267028809,-0.77
S,28,7.162,14.010000228881836,-0.77
S,29,7.162,14.210000038146973,-0.77
S,30,7.162,13.65999984741211,-0.77
S,31,7.162,14.4399995803833,-0.77
S,32,7.162,13.869999885559082,-0.77
S,33,7.162,14.180000305175781,-0.77
S,34,7.162,14.0,-0.77
S,35,7.162,13.890000343322754,-0.77
S,36,7.162,14.300000190734863,-0.77
S,37,7.162,13.970000267028809,-0.77
S,38,7.162,13.90999984741211,-0.77
S,39,7.162,13.579999923706055,-0.77
S,40,7.162,13.859999656677246,-0.77
S,41,7.162,14.140000343322754,-0.77
S,42,7.162,13.779999732971191,-0.77
S,43,7.162,13.630000114440918,-0.77
S,44,7.162,12.869999885559082,-0.77
S,45,7.162,11.960000038146973,-0.77
S,46,7.162,11.539999961853027,-0.77
S,47,7.162,10.920000076293945,-0.77
S,48,7.162,10.510000228881836,-0.77
S,49,7.162,10.050000190734863,-0.77
S,50,7.162,9.510000228881836,-0.77
S,51,7.162,9.239999771118164,-0.77
S,52,7.162,7.78000020980835,-0.77
S,53,7.162,6.639999866485596,-0.77
S,54,7.161,6.309999942779541,-0.77
S,55,7.161,4.960000038146973,-0.77
S,56,7.161,4.75,-0.77
S,57,7.161,4.199999809265137,-0.77
S,58,7.161,3.8499999046325684,-0.77
S,59,7.161,3.4000000953674316,-0.77
S,60,7.167,3.380000114440918,-0.77
S,61,7.167,3.4000000953674316,-0.77
S,62,7.167,3.4100000858306885,-0.77
S,63,7.167,3.5199999809265137,-0.77
