S,0,6.896,15.0,0.0
S,1,6.896,15.0,0.0
S,2,6.896,15.0,0.0
S,3,6.896,15.0,0.0
S,4,6.896,15.0,0.0
S,5,6.896,15.0,0.0
S,6,6.896,15.0,0.0
S,7,6.896,15.0,0.0
S,8,6.896,15.0,0.0
S,9,6.896,15.0,0.0
S,10,6.896,15.0,0.0
S,11,6.896,15.0,0.0
S,12,6.896,15.0,0.0
S,13,6.896,15.0,0.0
S,14,6.896,15.0,0.0
S,15,6.896,15.0,0.0
S,16,6.896,15.0,0.0
S,17,6.896,15.0,0.0
S,18,6.896,15.0,0.0
S,19,6.896,15.0,0.0
S,20,6.897,15.0,0.0
S,21,6.897,15.0,0.0
S,22,6.897,15.0,0.0
S,23,6.896,15.0,0.0
S,24,6.897,15.0,0.0
S,25,6.897,15.0,0.0
S,26,6.896,15.0,0.0
S,27,6.896,15.0,0.0
S,28,6.896,15.0,0.0
S,29,6.897,15.0,0.0
S,30,6.897,15.0,0.0
S,31,6.897,15.0,0.0
S,32,6.897,15.0,0.0
S,33,6.897,15.0,0.0
S,34,6.897,15.0,0.0
S,35,6.896,15.0,0.0
S,36,6.897,15.0,0.0
S,37,6.897,15.0,0.0
S,38,6.897,15.0,0.0
S,39,6.897,15.0,0.0
S,40,6.897,15.0,0.0
S,41,6.897,15.0,0.0
S,42,6.897,15.0,0.0
S,43,6.897,14.199999809265137,0.0
S,44,6.897,13.470000267028809,0.0
S,45,6.897,12.949999809265137,0.0
S,46,6.897,12.199999809265137,0.0
S,47,6.897,11.619999885559082,0.0
S,48,6.897,11.229999542236328,0.0
S,49,6.897,10.5600004196167,0.0
S,50,6.897,10.359999656677246,0.0
S,51,6.896,9.949999809265137,0.0
S,52,6.896,8.319999694824219,0.0
S,53,6.896,7.349999904632568,0.0
S,54,6.896,6.199999809265137,0.0
S,55,6.896,5.480000019073486,0.0
S,56,6.896,4.71999979019165,0.0
S,57,6.896,4.239999771118164,0.0
S,58,6.896,3.6500000953674316,0.0
S,59,6.896,3.3299999237060547,0.0
S,60,6.896,3.009999990463257,0.0
S,61,6.877,4.110000133514404,0.0
S,62,6.877,4.159999847412109,0.0
S,63,6.878,4.159999847412109,0.0
