F,0,7.161,14.069999694824219,0.15
F,1,7.161,14.149999618530273,0.15
F,2,7.162,14.09000015258789,0.15
F,3,7.161,13.979999542236328,0.15
F,4,7.162,13.800000190734863,0.15
F,5,7.161,13.90999984741211,0.15
F,6,7.162,13.510000228881836,0.15
F,7,7.162,13.989999771118164,0.15
F,8,7.162,13.789999961853027,0.15
F,9,7.162,13.8100004196167,0.15
F,10,7.162,13.829999923706055,0.15
F,11,7.162,13.729999542236328,0.15
F,12,7.162,13.59000015258789,0.15
F,13,7.162,13.930000305175781,0.15
F,14,7.162,13.779999732971191,0.15
F,15,7.162,13.890000343322754,0.15
F,16,7.162,13.979999542236328,0.15
F,17,7.162,13.520000457763672,0.15
F,18,7.162,13.800000190734863,0.15
F,19,7.162,13.75,0.15
F,20,7.162,13.619999885559082,0.15
F,21,7.162,13.989999771118164,0.15
F,22,7.162,13.949999809265137,0.15
F,23,7.162,13.930000305175781,0.15
F,24,7.162,13.630000114440918,0.15
F,25,7.162,13.979999542236328,0.15
F,26,7.162,13.510000228881836,0.15
F,27,7.162,13.970000267028809,0.15
F,28,7.162,14.010000228881836,0.15
F,29,7.162,14.210000038146973,0.15
F,30,7.162,13.65999984741211,0.15
F,31,7.162,14.4399995803833,0.15
F,32,7.162,13.869999885559082,0.15
F,33,7.162,14.180000305175781,0.15
F,34,7.162,14.0,0.15
F,35,7.162,13.890000343322754,0.15
F,36,7.162,14.300000190734863,0.15
F,37,7.162,13.970000267028809,0.15
F,38,7.162,13.90999984741211,0.15
F,39,7.162,13.579999923706055,0.15
F,40,7.162,13.859999656677246,0.15
F,41,7.162,14.140000343322754,0.15
F,42,7.162,13.779999732971191,0.15
F,43,7.162,13.630000114440918,0.15
F,44,7.162,12.869999885559082,0.15
F,45,7.162,11.960000038146973,0.15
F,46,7.162,11.539999961853027,0.15
F,47,7.162,10.920000076293945,0.15
F,48,7.162,10.510000228881836,0.15
F,49,7.162,10.050000190734863,0.15
F,50,7.162,9.510000228881836,0.15
F,51,7.162,9.239999771118164,0.15
F,52,7.162,7.78000020980835,0.15
F,53,7.162,6.639999866485596,0.15
F,54,7.161,6.309999942779541,0.15
F,55,7.161,4.960000038146973,0.15
F,56,7.161,4.75,0.15
F,57,7.161,4.199999809265137,0.15
F,58,7.161,3.8499999046325684,0.15
F,59,7.161,3.4000000953674316,0.15
F,60,0.0,0.0,0.15
F,61,0.0,0.0,0.15
F,62,0.0,0.0,0.15
F,63,0.0,0.0,0.15
S,0,3.966,7.170000076293945,0.15
S,1,3.967,6.96999979019165,0.15
S,2,3.968,6.710000038146973,0.15
S,3,3.968,6.659999847412109,0.15
S,4,3.968,6.449999809265137,0.15
S,5,3.969,6.809999942779541,0.15
S,6,3.969,5.980000019073486,0.15
S,7,3.969,6.75,0.15
S,8,3.969,6.449999809265137,0.15
S,9,3.969,6.389999866485596,0.15
S,10,3.969,6.46999979019165,0.15
S,11,3.97,6.429999828338623,0.15
S,12,3.97,6.349999904632568,0.15
S,13,3.97,6.639999866485596,0.15
S,14,3.97,6.449999809265137,0.15
S,15,3.97,6.599999904632568,0.15
S,16,3.97,6.769999980926514,0.15
S,17,3.97,6.059999942779541,0.15
S,18,3.97,6.489999771118164,0.15
S,19,3.97,6.46999979019165,0.15
S,20,3.97,6.309999942779541,0.15
S,21,3.97,6.690000057220459,0.15
S,22,3.97,6.909999847412109,0.15
S,23,3.97,6.519999980926514,0.15
S,24,3.97,6.46999979019165,0.15
S,25,3.97,6.690000057220459,0.15
S,26,3.97,6.25,0.15
S,27,3.971,6.789999961853027,0.15
S,28,3.971,6.460000038146973,0.15
S,29,3.971,7.0,0.15
S,30,3.971,6.389999866485596,0.15
S,31,3.971,7.269999980926514,0.15
S,32,3.971,6.599999904632568,0.15
S,33,3.971,6.980000019073486,0.15
S,34,3.971,6.699999809265137,0.15
S,35,3.971,6.460000038146973,0.15
S,49,3.971,4.699999809265137,0.15
S,50,3.971,4.489999771118164,0.15
S,51,3.971,4.239999771118164,0.15
S,52,3.97,3.5999999046325684,0.15
S,53,3.969,3.0,0.15
S,54,3.969,2.740000009536743,0.15
S,55,3.968,2.4000000953674316,0.15
S,56,3.967,2.0999999046325684,0.15
S,36,3.918,13.920000076293945,0.15
S,37,3.918,13.59000015258789,0.15
S,38,3.918,13.699999809265137,0.15
S,39,3.918,13.229999542236328,0.15
S,40,3.918,13.470000267028809,0.15
S,41,3.918,13.84000015258789,0.15
S,42,3.918,13.380000114440918,0.15
S,43,3.918,13.029999732971191,0.15
S,44,3.917,12.300000190734863,0.15
S,45,3.918,11.539999961853027,0.15
S,46,3.918,11.180000305175781,0.15
S,48,3.918,10.09000015258789,0.15
S,57,3.916,3.640000104904175,0.15
S,58,3.916,3.240000009536743,0.15
S,59,3.916,2.8399999141693115,0.15
S,60,3.916,2.559999942779541,0.15
S,61,3.916,2.2899999618530273,0.15
S,62,3.916,2.0299999713897705,0.15
S,47,3.861,3.6600000858306885,0.15
S,63,0.0,0.0,0.15
