F,0,7.161,14.069999694824219,0.21
F,1,7.161,14.149999618530273,0.21
F,2,7.162,14.09000015258789,0.21
F,3,7.161,13.979999542236328,0.21
F,4,7.162,13.800000190734863,0.21
F,5,7.161,13.90999984741211,0.21
F,6,7.162,13.510000228881836,0.21
F,7,7.162,13.989999771118164,0.21
F,8,7.162,13.789999961853027,0.21
F,9,7.162,13.8100004196167,0.21
F,10,7.162,13.829999923706055,0.21
F,11,7.162,13.729999542236328,0.21
F,12,7.162,13.59000015258789,0.21
F,13,7.162,13.930000305175781,0.21
F,14,7.162,13.779999732971191,0.21
F,15,7.162,13.890000343322754,0.21
F,16,7.162,13.979999542236328,0.21
F,17,7.162,13.520000457763672,0.21
F,18,7.162,13.800000190734863,0.21
F,19,7.162,13.75,0.21
F,20,7.162,13.619999885559082,0.21
F,21,7.162,13.989999771118164,0.21
F,22,7.162,13.949999809265137,0.21
F,23,7.162,13.930000305175781,0.21
F,24,7.162,13.630000114440918,0.21
F,25,7.162,13.979999542236328,0.21
F,26,7.162,13.510000228881836,0.21
F,27,7.162,13.970000267028809,0.21
F,28,7.162,14.010000228881836,0.21
F,29,7.162,14.210000038146973,0.21
F,30,7.162,13.65999984741211,0.21
F,31,7.162,14.4399995803833,0.21
F,32,7.162,13.869999885559082,0.21
F,33,7.162,14.180000305175781,0.21
F,34,7.162,14.0,0.21
F,35,7.162,13.890000343322754,0.21
F,36,7.162,14.300000190734863,0.21
F,37,7.162,13.970000267028809,0.21
F,38,7.162,13.90999984741211,0.21
F,39,7.162,13.579999923706055,0.21
F,40,7.162,13.859999656677246,0.21
F,41,7.162,14.140000343322754,0.21
F,42,7.162,13.779999732971191,0.21
F,43,7.162,13.630000114440918,0.21
F,44,7.162,12.869999885559082,0.21
F,45,7.162,11.960000038146973,0.21
F,46,7.162,11.539999961853027,0.21
F,47,7.162,10.920000076293945,0.21
F,48,7.162,10.510000228881836,0.21
F,49,7.162,10.050000190734863,0.21
F,50,7.162,9.510000228881836,0.21
F,51,7.162,9.239999771118164,0.21
F,52,7.162,7.78000020980835,0.21
F,53,7.162,6.639999866485596,0.21
F,54,7.161,6.309999942779541,0.21
F,55,7.161,4.960000038146973,0.21
F,56,7.161,4.75,0.21
F,57,7.161,4.199999809265137,0.21
F,58,7.161,3.8499999046325684,0.21
F,59,7.161,3.4000000953674316,0.21
F,60,0.0,0.0,0.21
F,61,0.0,0.0,0.21
F,62,0.0,0.0,0.21
S,0,4.686,4.619999885559082,0.21
S,38,4.691,14.489999771118164,0.21
S,39,4.691,14.210000038146973,0.21
S,40,4.691,17.260000228881836,0.21
S,42,4.691,21.309999465942383,0.21
S,43,4.684,2.930000066757202,0.21
S,45,4.683,2.25,0.21
S,46,4.683,2.630000114440918,0.21
S,47,4.683,2.3299999237060547,0.21
S,48,4.691,18.700000762939453,0.21
S,49,4.684,2.0999999046325684,0.21
S,50,4.682,2.1500000953674316,0.21
S,51,4.691,7.940000057220459,0.21
S,1,0.0,0.0,0.21
S,2,0.0,0.0,0.21
S,3,0.0,0.0,0.21
S,4,0.0,0.0,0.21
S,5,0.0,0.0,0.21
S,6,0.0,0.0,0.21
S,7,0.0,0.0,0.21
S,8,0.0,0.0,0.21
S,9,0.0,0.0,0.21
S,10,0.0,0.0,0.21
S,11,0.0,0.0,0.21
S,12,0.0,0.0,0.21
S,13,0.0,0.0,0.21
S,14,0.0,0.0,0.21
S,15,0.0,0.0,0.21
S,16,0.0,0.0,0.21
S,17,0.0,0.0,0.21
S,18,0.0,0.0,0.21
S,19,0.0,0.0,0.21
S,20,0.0,0.0,0.21
S,21,0.0,0.0,0.21
S,22,0.0,0.0,0.21
S,23,0.0,0.0,0.21
S,24,0.0,0.0,0.21
S,25,0.0,0.0,0.21
S,26,0.0,0.0,0.21
S,27,0.0,0.0,0.21
S,28,0.0,0.0,0.21
S,29,0.0,0.0,0.21
S,30,0.0,0.0,0.21
S,31,0.0,0.0,0.21
S,32,0.0,0.0,0.21
S,33,0.0,0.0,0.21
S,34,0.0,0.0,0.21
S,35,0.0,0.0,0.21
S,36,0.0,0.0,0.21
S,37,0.0,0.0,0.21
S,41,0.0,0.0,0.21
S,44,0.0,0.0,0.21
S,52,0.0,0.0,0.21
S,53,0.0,0.0,0.21
S,54,0.0,0.0,0.21
S,55,0.0,0.0,0.21
S,56,0.0,0.0,0.21
S,57,0.0,0.0,0.21
S,58,0.0,0.0,0.21
S,59,0.0,0.0,0.21
S,60,0.0,0.0,0.21
S,61,0.0,0.0,0.21
S,62,0.0,0.0,0.21
