F,0,7.161,14.069999694824219,0.58
F,1,7.161,14.149999618530273,0.58
F,2,7.162,14.09000015258789,0.58
F,3,7.161,13.979999542236328,0.58
F,4,7.162,13.800000190734863,0.58
F,5,7.161,13.90999984741211,0.58
F,6,7.176,11.300000190734863,0.58
F,7,7.162,13.989999771118164,0.58
F,8,7.162,13.789999961853027,0.58
F,9,7.176,11.510000228881836,0.58
F,10,7.162,13.829999923706055,0.58
F,11,7.176,11.630000114440918,0.58
F,12,7.176,11.649999618530273,0.58
F,13,7.162,13.930000305175781,0.58
F,14,7.176,11.4399995803833,0.58
F,15,7.162,13.890000343322754,0.58
F,16,7.162,13.979999542236328,0.58
F,17,7.176,11.220000267028809,0.58
F,18,7.176,11.569999694824219,0.58
F,19,7.176,11.609999656677246,0.58
F,20,7.176,11.600000381469727,0.58
F,21,7.162,13.989999771118164,0.58
F,22,7.162,13.949999809265137,0.58
F,23,7.176,11.550000190734863,0.58
F,24,7.176,11.710000038146973,0.58
F,25,7.162,13.979999542236328,0.58
F,26,7.176,11.510000228881836,0.58
F,27,7.176,11.829999923706055,0.58
F,28,7.176,11.630000114440918,0.58
F,29,7.162,14.210000038146973,0.58
F,30,7.176,11.649999618530273,0.58
F,31,7.162,14.4399995803833,0.58
F,32,7.176,11.899999618530273,0.58
F,33,7.162,14.180000305175781,0.58
F,34,7.176,11.920000076293945,0.58
F,35,7.176,11.569999694824219,0.58
F,36,7.224,1.059999942779541,0.58
F,37,7.176,11.920000076293945,0.58
F,38,7.224,1.0099999904632568,0.58
F,39,7.176,11.489999771118164,0.58
F,40,7.176,11.739999771118164,0.58
F,41,7.224,1.1299999952316284,0.58
F,42,7.176,11.649999618530273,0.58
F,43,7.223,1.0700000524520874,0.58
F,44,7.224,1.0399999618530273,0.58
F,45,7.176,10.119999885559082,0.58
F,46,7.176,9.850000381469727,0.58
F,47,7.176,9.170000076293945,0.58
F,48,7.176,8.800000190734863,0.58
F,49,7.176,8.430000305175781,0.58
F,50,7.176,8.199999809265137,0.58
F,51,7.176,7.71999979019165,0.58
F,52,7.176,6.460000038146973,0.58
F,53,7.176,5.46999979019165,0.58
F,54,7.176,4.789999961853027,0.58
F,55,7.176,4.110000133514404,0.58
F,56,7.176,3.5299999713897705,0.58
F,57,7.176,3.119999885559082,0.58
F,58,7.181,3.0,0.58
F,59,7.181,3.0,0.58
F,60,7.181,3.0899999141693115,0.58
F,61,7.181,3.0899999141693115,0.58
F,62,7.181,3.0,0.58
F,63,7.181,3.2799999713897705,0.58
S,0,6.896,15.0,0.58
S,1,6.896,15.0,0.58
S,2,6.896,15.0,0.58
S,3,6.896,15.0,0.58
S,4,6.896,15.0,0.58
S,5,6.896,15.0,0.58
S,6,6.896,15.0,0.58
S,7,6.896,15.0,0.58
S,8,6.896,15.0,0.58
S,9,6.896,15.0,0.58
S,10,6.896,15.0,0.58
S,11,6.896,15.0,0.58
S,12,6.896,15.0,0.58
S,13,6.896,15.0,0.58
S,14,6.896,15.0,0.58
S,15,6.896,15.0,0.58
S,16,6.896,15.0,0.58
S,17,6.896,15.0,0.58
S,18,6.896,15.0,0.58
S,19,6.896,15.0,0.58
S,20,6.897,15.0,0.58
S,21,6.897,15.0,0.58
S,22,6.897,15.0,0.58
S,23,6.896,15.0,0.58
S,24,6.897,15.0,0.58
S,25,6.897,15.0,0.58
S,26,6.896,15.0,0.58
S,27,6.896,15.0,0.58
S,28,6.896,15.0,0.58
S,29,6.897,15.0,0.58
S,30,6.897,15.0,0.58
S,31,6.897,15.0,0.58
S,32,6.897,15.0,0.58
S,33,6.897,15.0,0.58
S,34,6.897,15.0,0.58
S,35,6.896,15.0,0.58
S,36,6.897,15.0,0.58
S,37,6.897,15.0,0.58
S,38,6.897,15.0,0.58
S,39,6.897,15.0,0.58
S,40,6.897,15.0,0.58
S,41,6.897,15.0,0.58
S,42,6.897,15.0,0.58
S,43,6.897,14.199999809265137,0.58
S,44,6.897,13.470000267028809,0.58
S,45,6.915,1.2599999904632568,0.58
S,46,6.915,1.2599999904632568,0.58
S,47,6.915,1.149999976158142,0.58
S,48,6.915,1.1799999475479126,0.58
S,49,6.915,1.1200000047683716,0.58
S,50,6.915,1.2599999904632568,0.58
S,51,6.915,1.059999942779541,0.58
S,52,6.915,1.0800000429153442,0.58
S,53,6.915,1.100000023841858,0.58
S,54,6.896,6.199999809265137,0.58
S,55,6.915,1.0299999713897705,0.58
S,56,6.896,4.71999979019165,0.58
S,57,6.896,4.239999771118164,0.58
S,58,6.896,3.6500000953674316,0.58
S,59,6.896,3.3299999237060547,0.58
S,60,6.896,3.009999990463257,0.58
S,61,6.896,2.6700000762939453,0.58
S,62,6.896,2.369999885559082,0.58
S,63,6.896,2.240000009536743,0.58
