F,0,6.896,15.0,0.75
F,1,6.896,15.0,0.75
F,2,6.896,15.0,0.75
F,3,6.896,15.0,0.75
F,4,6.896,15.0,0.75
F,5,6.896,15.0,0.75
F,6,6.896,15.0,0.75
F,7,6.896,15.0,0.75
F,8,6.896,15.0,0.75
F,9,6.896,15.0,0.75
F,10,6.896,15.0,0.75
F,11,6.896,15.0,0.75
F,12,6.896,15.0,0.75
F,13,6.896,15.0,0.75
F,14,6.896,15.0,0.75
F,15,6.896,15.0,0.75
F,16,6.896,15.0,0.75
F,17,6.896,15.0,0.75
F,18,6.896,15.0,0.75
F,19,6.896,15.0,0.75
F,20,6.897,15.0,0.75
F,21,6.897,15.0,0.75
F,22,6.897,15.0,0.75
F,23,6.896,15.0,0.75
F,24,6.897,15.0,0.75
F,25,6.897,15.0,0.75
F,26,6.896,15.0,0.75
F,27,6.896,15.0,0.75
F,28,6.896,15.0,0.75
F,29,6.897,15.0,0.75
F,30,6.897,15.0,0.75
F,31,6.897,15.0,0.75
F,32,6.897,15.0,0.75
F,33,6.897,15.0,0.75
F,34,6.897,15.0,0.75
F,35,6.896,15.0,0.75
F,36,6.897,15.0,0.75
F,37,6.897,15.0,0.75
F,38,6.897,15.0,0.75
F,39,6.897,15.0,0.75
F,40,6.897,15.0,0.75
F,41,6.897,15.0,0.75
F,42,6.897,15.0,0.75
F,43,6.897,14.199999809265137,0.75
F,44,6.897,13.470000267028809,0.75
F,45,6.897,12.949999809265137,0.75
F,46,6.897,12.199999809265137,0.75
F,47,6.897,11.619999885559082,0.75
F,48,6.897,11.229999542236328,0.75
F,49,6.897,10.5600004196167,0.75
F,50,6.897,10.359999656677246,0.75
F,51,6.896,9.949999809265137,0.75
F,52,6.896,8.319999694824219,0.75
F,53,6.896,7.349999904632568,0.75
F,54,6.896,6.199999809265137,0.75
F,55,6.896,5.480000019073486,0.75
F,56,6.896,4.71999979019165,0.75
F,57,6.896,4.239999771118164,0.75
F,58,6.877,3.940000057220459,0.75
F,59,6.877,4.0,0.75
F,60,6.877,4.079999923706055,0.75
F,61,6.877,4.110000133514404,0.75
F,62,6.877,4.159999847412109,0.75
F,63,6.878,4.159999847412109,0.75
S,0,10.507,0.12999999523162842,0.75
S,1,10.639,0.12999999523162842,0.75
S,2,10.668,0.12999999523162842,0.75
S,3,10.588,0.12999999523162842,0.75
S,4,10.625,0.10999999940395355,0.75
S,5,10.59,0.12999999523162842,0.75
S,6,10.525,0.10999999940395355,0.75
S,7,10.653,0.11999999731779099,0.75
S,8,10.69,0.14000000059604645,0.75
S,9,10.594,0.12999999523162842,0.75
S,10,10.65,0.14000000059604645,0.75
S,11,10.557,0.11999999731779099,0.75
S,12,10.572,0.11999999731779099,0.75
S,13,10.666,0.12999999523162842,0.75
S,14,10.68,0.12999999523162842,0.75
S,15,10.66,0.12999999523162842,0.75
S,16,10.619,0.12999999523162842,0.75
S,17,10.684,0.14000000059604645,0.75
S,18,10.631,0.11999999731779099,0.75
S,19,10.51,0.11999999731779099,0.75
S,20,10.625,0.11999999731779099,0.75
S,21,10.58,0.12999999523162842,0.75
S,22,10.542,0.11999999731779099,0.75
S,23,10.689,0.14000000059604645,0.75
S,24,10.605,0.10999999940395355,0.75
S,25,10.572,0.12999999523162842,0.75
S,26,10.575,0.11999999731779099,0.75
S,27,10.608,0.12999999523162842,0.75
S,28,10.671,0.15000000596046448,0.75
S,29,10.513,0.12999999523162842,0.75
S,30,10.528,0.12999999523162842,0.75
S,31,10.589,0.15000000596046448,0.75
S,32,10.573,0.12999999523162842,0.75
S,33,10.577,0.14000000059604645,0.75
S,34,10.605,0.15000000596046448,0.75
S,35,10.674,0.15000000596046448,0.75
S,36,10.58,0.15000000596046448,0.75
S,37,10.57,0.14000000059604645,0.75
S,38,10.529,0.15000000596046448,0.75
S,39,10.494,0.11999999731779099,0.75
S,40,10.597,0.14000000059604645,0.75
S,41,10.52,0.14000000059604645,0.75
S,42,10.57,0.12999999523162842,0.75
S,43,10.662,0.15000000596046448,0.75
S,44,10.571,0.1599999964237213,0.75
S,45,10.62,0.12999999523162842,0.75
S,46,10.55,0.14000000059604645,0.75
S,47,10.655,0.10999999940395355,0.75
S,48,10.652,0.11999999731779099,0.75
S,49,10.528,0.10999999940395355,0.75
S,50,10.606,0.11999999731779099,0.75
S,51,10.647,0.10999999940395355,0.75
S,52,10.517,0.09000000357627869,0.75
S,54,10.685,0.12999999523162842,0.75
S,55,10.616,0.07999999821186066,0.75
S,56,10.687,0.10999999940395355,0.75
S,57,10.688,0.10000000149011612,0.75
S,58,10.69,0.10999999940395355,0.75
S,59,10.686,0.07999999821186066,0.75
S,60,10.692,0.09000000357627869,0.75
S,61,10.672,0.07999999821186066,0.75
S,62,10.691,0.09000000357627869,0.75
S,63,10.646,0.05000000074505806,0.75
S,63,0.0,0.0,0.75
