F,0,2.562,8.539999961853027,0.8
F,1,2.562,8.430000305175781,0.8
F,2,2.562,8.5600004196167,0.8
F,3,2.562,8.680000305175781,0.8
F,4,2.562,8.75,0.8
F,5,2.562,8.609999656677246,0.8
F,6,2.562,9.050000190734863,0.8
F,7,2.562,8.739999771118164,0.8
F,8,2.562,8.949999809265137,0.8
F,9,2.562,8.9399995803833,0.8
F,10,2.562,8.9399995803833,0.8
F,11,2.562,8.979999542236328,0.8
F,12,2.562,9.029999732971191,0.8
F,13,2.562,9.029999732971191,0.8
F,14,2.562,9.229999542236328,0.8
F,15,2.562,9.029999732971191,0.8
F,16,2.562,9.020000457763672,0.8
F,17,2.562,9.369999885559082,0.8
F,18,2.562,9.15999984741211,0.8
F,19,2.562,9.210000038146973,0.8
F,20,2.562,9.270000457763672,0.8
F,21,2.562,9.140000343322754,0.8
F,22,2.562,9.119999885559082,0.8
F,23,2.562,9.369999885559082,0.8
F,24,2.562,9.329999923706055,0.8
F,25,2.562,9.1899995803833,0.8
F,26,2.562,9.579999923706055,0.8
F,27,2.562,9.569999694824219,0.8
F,28,2.562,9.670000076293945,0.8
F,29,2.562,9.569999694824219,0.8
F,30,2.562,9.90999984741211,0.8
F,31,2.562,9.579999923706055,0.8
F,32,2.562,9.979999542236328,0.8
F,33,2.562,9.949999809265137,0.8
F,34,2.562,10.079999923706055,0.8
F,35,2.562,10.359999656677246,0.8
F,36,2.562,10.1899995803833,0.8
F,37,2.562,10.479999542236328,0.8
F,38,2.562,10.59000015258789,0.8
F,39,2.562,11.180000305175781,0.8
F,40,2.562,11.170000076293945,0.8
F,41,2.562,11.0600004196167,0.8
F,42,2.562,11.609999656677246,0.8
F,43,2.562,10.770000457763672,0.8
F,44,2.561,10.40999984741211,0.8
F,45,2.562,10.40999984741211,0.8
F,46,2.562,9.760000228881836,0.8
F,47,2.561,9.529999732971191,0.8
F,48,2.561,9.460000038146973,0.8
F,49,2.561,8.75,0.8
F,50,2.561,8.760000228881836,0.8
F,51,2.561,8.619999885559082,0.8
F,52,2.561,7.599999904632568,0.8
F,53,2.561,7.25,0.8
F,54,2.561,6.239999771118164,0.8
F,55,2.561,5.880000114440918,0.8
F,56,2.561,5.679999828338623,0.8
F,57,2.561,5.380000114440918,0.8
F,58,2.561,4.710000038146973,0.8
F,59,2.561,4.739999771118164,0.8
F,60,2.561,4.550000190734863,0.8
F,61,2.561,4.360000133514404,0.8
F,62,2.561,4.260000228881836,0.8
F,63,2.561,4.059999942779541,0.8
S,0,10.507,0.12999999523162842,0.8
S,1,10.639,0.12999999523162842,0.8
S,2,10.668,0.12999999523162842,0.8
S,3,10.588,0.12999999523162842,0.8
S,4,10.625,0.10999999940395355,0.8
S,5,10.59,0.12999999523162842,0.8
S,6,10.525,0.10999999940395355,0.8
S,7,10.653,0.11999999731779099,0.8
S,8,10.69,0.14000000059604645,0.8
S,9,10.594,0.12999999523162842,0.8
S,10,10.65,0.14000000059604645,0.8
S,11,10.557,0.11999999731779099,0.8
S,12,10.572,0.11999999731779099,0.8
S,13,10.666,0.12999999523162842,0.8
S,14,10.68,0.12999999523162842,0.8
S,15,10.66,0.12999999523162842,0.8
S,16,10.619,0.12999999523162842,0.8
S,17,10.684,0.14000000059604645,0.8
S,18,10.631,0.11999999731779099,0.8
S,19,10.51,0.11999999731779099,0.8
S,20,10.625,0.11999999731779099,0.8
S,21,10.58,0.12999999523162842,0.8
S,22,10.542,0.11999999731779099,0.8
S,23,10.689,0.14000000059604645,0.8
S,24,10.605,0.10999999940395355,0.8
S,25,10.572,0.12999999523162842,0.8
S,26,10.575,0.11999999731779099,0.8
S,27,10.608,0.12999999523162842,0.8
S,28,10.671,0.15000000596046448,0.8
S,29,10.513,0.12999999523162842,0.8
S,30,10.528,0.12999999523162842,0.8
S,31,10.589,0.15000000596046448,0.8
S,32,10.573,0.12999999523162842,0.8
S,33,10.577,0.14000000059604645,0.8
S,34,10.605,0.15000000596046448,0.8
S,35,10.674,0.15000000596046448,0.8
S,36,10.58,0.15000000596046448,0.8
S,37,10.57,0.14000000059604645,0.8
S,38,10.529,0.15000000596046448,0.8
S,39,10.494,0.11999999731779099,0.8
S,40,10.597,0.14000000059604645,0.8
S,41,10.52,0.14000000059604645,0.8
S,42,10.57,0.12999999523162842,0.8
S,43,10.662,0.15000000596046448,0.8
S,44,10.571,0.1599999964237213,0.8
S,45,10.62,0.12999999523162842,0.8
S,46,10.55,0.14000000059604645,0.8
S,47,10.655,0.10999999940395355,0.8
S,48,10.652,0.11999999731779099,0.8
S,49,10.528,0.10999999940395355,0.8
S,50,10.606,0.11999999731779099,0.8
S,51,10.647,0.10999999940395355,0.8
S,52,10.517,0.09000000357627869,0.8
S,54,10.685,0.12999999523162842,0.8
S,55,10.616,0.07999999821186066,0.8
S,56,10.687,0.10999999940395355,0.8
S,57,10.688,0.10000000149011612,0.8
S,58,10.69,0.10999999940395355,0.8
S,59,10.686,0.07999999821186066,0.8
S,60,10.692,0.09000000357627869,0.8
S,61,10.672,0.07999999821186066,0.8
S,62,10.691,0.09000000357627869,0.8
S,63,10.646,0.05000000074505806,0.8
S,63,0.0,0.0,0.8
