F,0,7.217,2.0399999618530273,0.95
F,2,7.177,11.220000267028809,0.95
F,3,7.178,10.220000267028809,0.95
F,4,7.176,10.890000343322754,0.95
F,5,7.19,10.09000015258789,0.95
F,6,7.178,11.539999961853027,0.95
F,7,7.175,11.0,0.95
F,8,7.175,11.039999961853027,0.95
F,9,7.176,11.229999542236328,0.95
F,10,7.175,11.149999618530273,0.95
F,11,7.176,11.710000038146973,0.95
F,12,7.176,11.510000228881836,0.95
F,13,7.175,11.369999885559082,0.95
F,14,7.175,10.949999809265137,0.95
F,15,7.176,11.210000038146973,0.95
F,16,7.189,10.75,0.95
F,17,7.175,11.380000114440918,0.95
F,18,7.175,11.3100004196167,0.95
F,19,7.19,11.4399995803833,0.95
F,20,7.19,11.050000190734863,0.95
F,21,7.19,11.430000305175781,0.95
F,22,7.19,11.479999542236328,0.95
F,23,7.19,11.359999656677246,0.95
F,24,7.19,11.59000015258789,0.95
F,25,7.174,11.119999885559082,0.95
F,26,7.19,10.0600004196167,0.95
F,27,7.19,10.149999618530273,0.95
F,28,7.19,9.600000381469727,0.95
F,29,7.19,9.319999694824219,0.95
F,30,7.19,8.960000038146973,0.95
F,31,7.19,8.6899995803833,0.95
F,32,7.19,8.529999732971191,0.95
F,33,7.191,8.5600004196167,0.95
F,34,7.19,8.229999542236328,0.95
F,35,7.19,8.020000457763672,0.95
F,36,7.217,1.9700000286102295,0.95
F,37,7.216,2.140000104904175,0.95
F,38,7.216,1.9600000381469727,0.95
F,39,7.217,2.0799999237060547,0.95
F,40,7.216,2.2300000190734863,0.95
F,41,7.216,2.2100000381469727,0.95
F,42,7.216,2.2699999809265137,0.95
F,43,7.216,2.3299999237060547,0.95
F,44,7.217,2.2100000381469727,0.95
F,45,7.216,2.25,0.95
F,46,7.216,2.2200000286102295,0.95
F,47,7.216,2.2200000286102295,0.95
F,48,7.216,2.319999933242798,0.95
F,49,7.216,2.4000000953674316,0.95
F,50,7.216,2.2699999809265137,0.95
F,51,7.217,2.2200000286102295,0.95
F,52,7.216,2.2100000381469727,0.95
F,53,7.216,2.259999990463257,0.95
F,54,7.216,2.2100000381469727,0.95
F,55,7.217,2.299999952316284,0.95
F,56,7.216,2.240000009536743,0.95
F,57,7.217,2.309999942779541,0.95
F,58,7.216,2.3499999046325684,0.95
F,59,7.217,2.4000000953674316,0.95
F,60,7.217,2.1500000953674316,0.95
F,61,7.216,2.1500000953674316,0.95
F,62,7.216,2.0799999237060547,0.95
F,63,7.216,2.109999895095825,0.95
F,64,7.216,2.0999999046325684,0.95
F,65,7.216,2.109999895095825,0.95
F,66,7.217,2.0799999237060547,0.95
F,67,7.216,2.0899999141693115,0.95
F,1,0.0,0.0,0.95
S,0,3.918,4.5,0.95
S,1,3.92,15.0,0.95
S,2,3.913,15.0,0.95
S,3,3.919,15.0,0.95
S,4,3.918,15.0,0.95
S,5,3.918,15.0,0.95
S,6,3.914,15.0,0.95
S,7,3.918,15.0,0.95
S,8,3.918,15.0,0.95
S,9,3.918,15.0,0.95
S,10,3.918,15.0,0.95
S,11,3.912,15.0,0.95
S,12,3.918,15.0,0.95
S,13,3.911,15.0,0.95
S,14,3.918,15.0,0.95
S,15,3.911,15.0,0.95
S,16,3.918,15.0,0.95
S,17,3.911,15.0,0.95
S,18,3.918,15.0,0.95
S,19,3.918,15.0,0.95
S,20,3.918,15.0,0.95
S,21,3.911,15.0,0.95
S,22,3.911,15.0,0.95
S,23,3.918,15.0,0.95
S,24,3.911,14.970000267028809,0.95
S,25,3.911,14.029999732971191,0.95
S,26,3.911,13.180000305175781,0.95
S,27,3.911,13.119999885559082,0.95
S,28,3.911,12.300000190734863,0.95
S,29,3.918,12.239999771118164,0.95
S,30,3.911,11.479999542236328,0.95
S,31,3.91,11.260000228881836,0.95
S,32,3.911,11.100000381469727,0.95
S,33,3.911,10.34000015258789,0.95
S,34,3.911,10.239999771118164,0.95
S,35,3.911,10.079999923706055,0.95
S,36,3.911,9.529999732971191,0.95
S,37,3.917,9.710000038146973,0.95
S,38,3.911,9.130000114440918,0.95
S,39,3.911,8.720000267028809,0.95
S,40,3.918,9.399999618530273,0.95
S,41,3.911,8.859999656677246,0.95
S,42,3.911,8.720000267028809,0.95
S,43,3.911,8.899999618530273,0.95
S,44,3.911,8.029999732971191,0.95
S,45,3.911,7.739999771118164,0.95
S,46,3.911,7.510000228881836,0.95
S,47,3.911,7.349999904632568,0.95
S,48,3.911,7.460000038146973,0.95
S,49,3.871,4.070000171661377,0.95
S,50,3.911,6.960000038146973,0.95
S,51,3.911,6.420000076293945,0.95
S,52,3.911,6.349999904632568,0.95
S,53,3.911,6.449999809265137,0.95
S,54,3.911,6.289999961853027,0.95
S,55,3.911,6.320000171661377,0.95
S,56,3.911,6.050000190734863,0.95
S,57,3.911,6.170000076293945,0.95
S,58,3.918,6.010000228881836,0.95
S,59,3.911,6.199999809265137,0.95
S,60,3.911,5.380000114440918,0.95
S,61,3.911,5.349999904632568,0.95
S,62,3.911,5.099999904632568,0.95
S,63,3.911,5.130000114440918,0.95
S,64,3.911,4.929999828338623,0.95
S,65,3.911,4.860000133514404,0.95
S,66,3.911,4.699999809265137,0.95
S,67,3.911,4.710000038146973,0.95
