F,0,6.912,3.549999952316284,0.97
F,1,6.914,11.619999885559082,0.97
F,2,6.913,12.420000076293945,0.97
F,3,6.912,11.569999694824219,0.97
F,4,6.912,12.069999694824219,0.97
F,5,6.911,11.890000343322754,0.97
F,6,6.914,12.489999771118164,0.97
F,7,6.911,12.15999984741211,0.97
F,8,6.912,12.069999694824219,0.97
F,9,6.912,11.920000076293945,0.97
F,10,6.911,12.25,0.97
F,11,6.912,12.510000228881836,0.97
F,12,6.912,12.109999656677246,0.97
F,13,6.911,12.229999542236328,0.97
F,14,6.911,11.6899995803833,0.97
F,15,6.912,12.020000457763672,0.97
F,16,6.911,11.979999542236328,0.97
F,17,6.911,11.880000114440918,0.97
F,18,6.912,12.069999694824219,0.97
F,19,6.912,12.0600004196167,0.97
F,20,6.911,11.819999694824219,0.97
F,21,6.912,12.25,0.97
F,22,6.911,11.920000076293945,0.97
F,23,6.911,11.800000190734863,0.97
F,24,6.911,12.279999732971191,0.97
F,25,6.911,11.510000228881836,0.97
F,26,6.911,10.180000305175781,0.97
F,27,6.911,10.600000381469727,0.97
F,28,6.912,9.649999618530273,0.97
F,29,6.911,9.460000038146973,0.97
F,30,6.911,8.9399995803833,0.97
F,31,6.911,8.75,0.97
F,32,6.911,8.90999984741211,0.97
F,33,6.913,8.5600004196167,0.97
F,34,6.911,8.350000381469727,0.97
F,35,6.911,8.050000190734863,0.97
F,36,6.912,7.829999923706055,0.97
F,37,6.911,7.880000114440918,0.97
F,38,6.911,7.360000133514404,0.97
F,39,6.912,6.920000076293945,0.97
F,40,6.911,7.550000190734863,0.97
F,41,6.911,7.130000114440918,0.97
F,42,6.911,7.329999923706055,0.97
F,43,6.911,7.510000228881836,0.97
F,44,6.912,6.849999904632568,0.97
F,45,6.911,6.409999847412109,0.97
F,46,6.911,6.079999923706055,0.97
F,47,6.911,6.079999923706055,0.97
F,48,6.937,2.4800000190734863,0.97
F,49,6.911,6.130000114440918,0.97
F,50,6.911,5.809999942779541,0.97
F,51,6.912,5.329999923706055,0.97
F,52,6.911,5.150000095367432,0.97
F,53,6.911,5.320000171661377,0.97
F,54,6.937,2.4100000858306885,0.97
F,55,6.938,2.4800000190734863,0.97
F,56,6.911,5.019999980926514,0.97
F,57,6.938,2.559999942779541,0.97
F,58,6.937,2.5399999618530273,0.97
F,59,6.912,5.289999961853027,0.97
F,60,6.938,2.299999952316284,0.97
F,61,6.937,2.2899999618530273,0.97
F,62,6.937,2.25,0.97
F,63,6.937,2.390000104904175,0.97
F,64,6.937,2.2799999713897705,0.97
F,65,6.911,4.0,0.97
F,66,6.912,3.890000104904175,0.97
F,67,6.937,2.240000009536743,0.97
S,0,3.918,4.5,0.97
S,1,3.92,15.0,0.97
S,2,3.913,15.0,0.97
S,3,3.919,15.0,0.97
S,4,3.918,15.0,0.97
S,5,3.918,15.0,0.97
S,6,3.914,15.0,0.97
S,7,3.918,15.0,0.97
S,8,3.918,15.0,0.97
S,9,3.918,15.0,0.97
S,10,3.918,15.0,0.97
S,11,3.912,15.0,0.97
S,12,3.918,15.0,0.97
S,13,3.911,15.0,0.97
S,14,3.918,15.0,0.97
S,15,3.911,15.0,0.97
S,16,3.918,15.0,0.97
S,17,3.911,15.0,0.97
S,18,3.918,15.0,0.97
S,19,3.918,15.0,0.97
S,20,3.918,15.0,0.97
S,21,3.911,15.0,0.97
S,22,3.911,15.0,0.97
S,23,3.918,15.0,0.97
S,24,3.911,14.970000267028809,0.97
S,25,3.911,14.029999732971191,0.97
S,26,3.911,13.180000305175781,0.97
S,27,3.911,13.119999885559082,0.97
S,28,3.911,12.300000190734863,0.97
S,29,3.918,12.239999771118164,0.97
S,30,3.911,11.479999542236328,0.97
S,31,3.91,11.260000228881836,0.97
S,32,3.911,11.100000381469727,0.97
S,33,3.911,10.34000015258789,0.97
S,34,3.911,10.239999771118164,0.97
S,35,3.911,10.079999923706055,0.97
S,36,3.911,9.529999732971191,0.97
S,37,3.917,9.710000038146973,0.97
S,38,3.911,9.130000114440918,0.97
S,39,3.911,8.720000267028809,0.97
S,40,3.918,9.399999618530273,0.97
S,41,3.911,8.859999656677246,0.97
S,42,3.911,8.720000267028809,0.97
S,43,3.911,8.899999618530273,0.97
S,44,3.911,8.029999732971191,0.97
S,45,3.911,7.739999771118164,0.97
S,46,3.911,7.510000228881836,0.97
S,47,3.911,7.349999904632568,0.97
S,48,3.911,7.460000038146973,0.97
S,49,3.871,4.070000171661377,0.97
S,50,3.911,6.960000038146973,0.97
S,51,3.911,6.420000076293945,0.97
S,52,3.911,6.349999904632568,0.97
S,53,3.911,6.449999809265137,0.97
S,54,3.911,6.289999961853027,0.97
S,55,3.911,6.320000171661377,0.97
S,56,3.911,6.050000190734863,0.97
S,57,3.911,6.170000076293945,0.97
S,58,3.918,6.010000228881836,0.97
S,59,3.911,6.199999809265137,0.97
S,60,3.911,5.380000114440918,0.97
S,61,3.911,5.349999904632568,0.97
S,62,3.911,5.099999904632568,0.97
S,63,3.911,5.130000114440918,0.97
S,64,3.911,4.929999828338623,0.97
S,65,3.911,4.860000133514404,0.97
S,66,3.911,4.699999809265137,0.97
S,67,3.911,4.710000038146973,0.97
