10.6839,0.14,18
10.6344,0.12,18
10.6177,0.12,18
10.5426,0.1,18
7.9449,0.11,18
7.9099,0.1,18
7.9053,0.1,18
7.8636,0.1,18
7.8401,0.13,18
7.7284,0.1,18
7.7243,0.11,18
7.6959,0.28,18
7.6813,0.3,18
7.6383,0.13,18
7.5368,0.54,18
7.5194,0.5,18
7.5042,0.45,18
7.4896,0.23,18
7.4462,0.17,18
7.4235,0.16,18
7.4138,0.15,18
7.4035,0.17,18
7.37,0.19,18
7.3578,0.2,18
7.2876,0.36,18
7.2641,0.3,18
7.2521,0.39,18
7.2389,0.35,18
7.2236,0.65,18
7.204,0.28,18
7.1932,0.44,18
7.1811,2.03,18
7.1762,11.22,18
7.1728,3.37,18
7.1651,3.35,18
7.1616,13.52,18
7.1567,2.57,18
7.1416,0.82,18
7.1259,0.35,18
7.113,0.31,18
7.0286,0.29,18
6.9353,0.27,18
6.9278,0.32,18
6.924,0.32,18
6.9109,0.86,18
6.9012,2.32,18
6.8964,15.0,18
6.8929,3.45,18
6.8854,3.13,18
6.8818,12.15,18
6.8769,1.98,18
6.8662,0.5,18
6.8625,0.65,18
6.8562,0.39,18
6.8519,0.35,18
6.8456,0.35,18
6.8414,0.35,18
6.7618,0.2,18
6.7507,0.18,18
6.6628,0.1,18
4.712,0.13,18
4.7064,0.41,18
4.7029,0.41,18
4.7002,0.27,18
4.698,0.16,18
4.6838,0.11,18
4.6794,0.24,18
4.6731,0.16,18
4.1315,0.18,18
4.123,0.22,18
4.0855,0.14,18
4.0787,0.15,18
4.0616,0.13,18
4.0325,0.21,18
4.0203,1.12,18
4.0043,0.37,18
3.9829,4.17,18
3.9699,6.06,18
3.9583,4.09,18
3.9453,4.04,18
3.9323,0.4,18
3.9289,0.39,18
3.9172,13.07,18
3.8894,13.06,18
3.8613,4.28,18
3.8419,0.34,18
3.8243,2.54,18
3.8126,0.45,18
3.7999,3.38,18
3.7696,0.59,18
3.7404,8.36,18
3.7105,0.41,18
3.6798,0.21,18
3.645,0.15,18
3.6338,0.15,18
3.6161,0.24,18
3.5867,0.14,18
3.4502,0.93,18
3.2176,0.13,18
3.1985,0.27,18
3.1856,0.19,18
3.1733,0.1,18
3.1613,0.12,18
3.0979,0.14,18
3.0874,0.18,18
3.0659,1.79,18
3.0544,1.92,18
3.0429,5.31,18
3.0313,5.38,18
3.0206,5.63,18
3.0074,5.55,18
2.9975,1.96,18
2.9843,1.84,18
2.7417,0.15,18
2.7338,0.15,18
2.6716,4.05,18
2.6465,8.89,18
2.6187,0.32,18
2.6068,0.33,18
2.5897,0.09,18
2.5795,0.25,18
2.5737,0.19,18
2.5615,9.37,18
2.5364,4.29,18
2.368,0.2,18
2.359,0.14,18
2.3205,0.13,18
2.3105,0.36,18
2.3029,0.34,18
2.2844,0.12,18
2.2117,0.18,18
2.1987,0.2,18
2.1867,0.19,18
2.1615,0.19,18
2.148,0.27,18
2.1347,0.39,18
2.1297,0.51,18
2.1153,0.51,18
2.0985,0.34,18
2.0806,2.11,18
2.0646,0.49,18
2.0449,0.61,18
2.0254,0.37,18
2.0129,0.39,18
1.9888,0.28,18
1.9408,0.19,18
1.9205,0.25,18
1.9078,0.19,18
1.8838,0.19,18
1.8575,0.28,18
1.8107,0.21,18
1.8011,0.22,18
1.776,0.22,18
1.7685,0.22,18
1.6884,0.38,18
1.6797,0.41,18
1.666,0.37,18
1.6564,0.37,18
1.5776,0.13,18
1.5441,0.12,18
1.5028,0.14,18
1.4904,0.19,18
1.4781,0.2,18
1.448,0.15,18
1.436,0.19,18
1.424,0.26,18
1.4122,0.22,18
1.386,0.11,18
1.3604,0.12,18
1.3372,0.52,18
1.3255,0.47,18
1.308,0.12,18
1.2925,0.1,18
1.282,0.1,18
1.2532,0.19,18
1.2405,0.21,18
1.2293,0.21,18
1.2142,0.22,18
1.2025,0.24,18
1.1833,0.19,18
1.1617,0.19,18
1.1521,0.19,18
1.1334,0.11,18
1.1086,0.26,18
1.0967,0.27,18
1.0502,0.17,18
1.0441,0.15,18
1.0378,0.21,18
1.0181,0.23,18
1.0002,0.41,18
0.9836,0.6,18
0.972,0.7,18
0.9472,1.94,18
0.941,1.08,18
0.9358,1.86,18
0.9295,1.13,18
0.9194,1.1,18
0.9108,1.06,18
0.9084,1.07,18
0.8982,1.07,18
0.8924,0.97,18
0.8856,0.94,18
0.8792,0.95,18
0.8157,0.43,18
0.7401,0.24,18
0.0969,0.34,18
0.0417,0.1,18
0.0314,0.24,18
0.0281,0.25,18
0.0209,0.18,18
0.0194,0.11,18
0.0179,0.15,18
0.0165,0.34,18
0.015,0.22,18
0.0135,0.24,18
0.0121,0.32,18
0.0106,0.4,18
0.0091,0.56,18
0.0076,0.92,18
0.0049,3.76,18
0.003,4.05,18
-2.0E-4,109.46,18
-0.0052,3.66,18
-0.0061,3.34,18
-0.0079,1.16,18
-0.0094,0.74,18
-0.0109,0.5,18
-0.0123,0.36,18
-0.0138,0.26,18
-0.0153,0.22,18
-0.0168,0.19,18
-0.0242,0.2,18
-0.0257,0.28,18
-0.0302,0.19,18
-0.1007,0.36,18
-0.9562,0.1,18
-0.9906,0.12,18
-1.0632,0.14,18
-1.1049,0.15,18
-1.1836,0.18,18
-1.1961,0.18,18
