10.6684,0.13,3
10.5732,0.12,3
10.5238,0.11,3
10.5142,0.1,3
10.5016,0.11,3
10.4798,0.11,3
10.4446,0.08,3
10.3792,0.08,3
10.3618,0.06,3
10.3447,0.09,3
10.3243,0.06,3
8.4814,0.06,3
8.4588,0.07,3
8.4393,0.08,3
8.417,0.06,3
8.3772,0.07,3
8.2587,0.07,3
8.2329,0.08,3
8.1991,0.08,3
8.1831,0.08,3
8.1336,0.07,3
8.1141,0.07,3
8.0825,0.08,3
8.0507,0.07,3
8.0278,0.08,3
8.0057,0.08,3
7.9949,0.08,3
7.9572,0.11,3
7.9144,0.11,3
7.8627,0.12,3
7.8407,0.12,3
7.7739,0.11,3
7.745,0.12,3
7.7224,0.14,3
7.7092,0.14,3
7.6962,0.32,3
7.6819,0.31,3
7.6372,0.15,3
7.6061,0.14,3
7.5315,0.67,3
7.5184,0.58,3
7.5041,0.51,3
7.4897,0.25,3
7.4731,0.19,3
7.4653,0.2,3
7.4298,0.17,3
7.4004,0.2,3
7.3559,0.23,3
7.3058,0.31,3
7.2886,0.39,3
7.2768,0.33,3
7.2662,0.34,3
7.253,0.44,3
7.2398,0.44,3
7.2234,0.78,3
7.2022,0.51,3
7.1762,11.88,3
7.1616,14.09,3
7.1568,2.42,3
7.1415,0.56,3
7.1239,0.26,3
7.1055,0.25,3
7.0847,0.2,3
7.0452,0.24,3
7.0281,0.32,3
6.9377,0.38,3
6.9231,0.57,3
6.911,0.86,3
6.901,2.77,3
6.8964,15.0,3
6.8929,3.15,3
6.8818,12.16,3
6.8768,1.55,3
6.8639,0.27,3
6.8386,0.28,3
6.8321,0.26,3
6.7858,0.2,3
6.7638,0.22,3
6.749,0.18,3
6.7188,0.11,3
6.7059,0.1,3
6.6838,0.08,3
6.6663,0.09,3
6.6593,0.06,3
6.6348,0.07,3
6.555,0.06,3
4.7092,0.28,3
4.7037,0.4,3
4.6795,0.15,3
4.6738,0.22,3
4.6657,0.1,3
4.23,0.07,3
4.2182,0.07,3
4.1375,0.22,3
4.1221,0.23,3
4.0731,0.18,3
4.061,0.18,3
4.0333,0.25,3
4.0204,0.8,3
4.007,0.44,3
3.994,0.6,3
3.981,4.54,3
3.9682,6.71,3
3.9564,4.5,3
3.945,4.25,3
3.932,0.46,3
3.9169,13.75,3
3.8895,13.41,3
3.8614,4.25,3
3.8452,0.29,3
3.8244,1.13,3
3.8119,0.43,3
3.799,1.5,3
3.7696,0.67,3
3.7408,9.74,3
3.7101,0.38,3
3.678,0.2,3
3.6168,0.28,3
3.5969,0.09,3
3.587,0.13,3
3.2187,0.11,3
3.198,0.22,3
3.1858,0.15,3
3.1766,0.11,3
3.1625,0.11,3
3.1509,0.07,3
3.1357,0.06,3
3.0981,0.11,3
3.0652,1.94,3
3.0536,2.16,3
3.042,5.85,3
3.0305,5.98,3
3.0199,6.12,3
3.0067,6.02,3
2.9968,2.14,3
2.9835,1.99,3
2.9709,0.19,3
2.9527,0.12,3
2.9343,0.07,3
2.7421,0.09,3
2.7335,0.13,3
2.6716,3.79,3
2.6465,8.31,3
2.6185,0.1,3
2.6066,0.15,3
2.5881,0.12,3
2.5794,0.24,3
2.5616,8.56,3
2.5365,3.88,3
2.3684,0.24,3
2.3595,0.15,3
2.3476,0.06,3
2.3197,0.14,3
2.31,0.37,3
2.3028,0.33,3
2.2802,0.11,3
2.2436,0.13,3
2.2186,0.17,3
2.2088,0.19,3
2.1984,0.2,3
2.1863,0.18,3
2.1642,0.2,3
2.1484,0.3,3
2.1161,0.49,3
2.0981,0.33,3
2.0806,2.09,3
2.0446,0.63,3
2.0328,0.4,3
2.0265,0.39,3
2.0111,0.4,3
1.9987,0.29,3
1.9395,0.21,3
1.9286,0.21,3
1.9207,0.22,3
1.9081,0.18,3
1.9,0.17,3
1.8865,0.17,3
1.8569,0.28,3
1.8409,0.2,3
1.8288,0.21,3
1.8153,0.22,3
1.8022,0.26,3
1.7698,0.26,3
1.7505,0.21,3
1.7149,0.32,3
1.6802,0.38,3
1.6689,0.36,3
1.6513,0.33,3
1.6352,0.28,3
1.6297,0.27,3
1.5565,0.13,3
1.5006,0.15,3
1.486,0.16,3
1.471,0.16,3
1.4138,0.21,3
1.3698,0.11,3
1.3371,0.43,3
1.3256,0.45,3
1.3091,0.11,3
1.2832,0.11,3
1.2534,0.18,3
1.227,0.2,3
1.2127,0.21,3
1.1957,0.23,3
1.178,0.19,3
1.1528,0.2,3
1.1214,0.1,3
1.1089,0.12,3
1.0967,0.17,3
1.0749,0.14,3
1.0503,0.17,3
1.018,0.23,3
1.0049,0.3,3
0.983,0.51,3
0.9472,1.24,3
0.9418,0.94,3
0.9358,1.28,3
0.9292,0.98,3
0.9105,0.93,3
0.8983,0.89,3
0.8913,0.9,3
0.8757,0.94,3
0.8147,0.49,3
0.746,0.32,3
0.6906,0.13,3
0.6472,0.1,3
0.0969,0.28,3
0.0412,0.27,3
0.0265,0.59,3
0.0049,3.23,3
-2.0E-4,99.48,3
-0.0053,4.09,3
-0.0109,0.53,3
-0.0124,0.41,3
-0.0139,0.31,3
-0.0154,0.26,3
-0.0182,0.2,3
-0.0198,0.12,3
-0.0213,0.08,3
-0.0377,0.14,3
-0.1005,0.34,3
-0.8634,0.07,3
-0.8907,0.07,3
-1.0262,0.12,3
-1.0316,0.12,3
-1.0795,0.16,3
-1.1006,0.17,3
-1.1131,0.16,3
-1.1216,0.17,3
-1.1363,0.18,3
-1.1764,0.19,3
-1.1883,0.2,3
