10.5701,0.14,42
10.5204,0.14,42
10.437,0.12,42
10.4017,0.13,42
10.3901,0.11,42
10.3837,0.1,42
10.3625,0.11,42
8.495,0.1,42
8.4678,0.1,42
8.2309,0.12,42
8.1973,0.14,42
8.1506,0.13,42
8.0641,0.13,42
8.0162,0.18,42
7.9906,0.18,42
7.9638,0.2,42
7.8847,0.22,42
7.8472,0.21,42
7.7219,0.24,42
7.7095,0.24,42
7.6957,0.48,42
7.6822,0.43,42
7.6385,0.23,42
7.5383,0.73,42
7.5191,0.63,42
7.5043,0.64,42
7.49,0.32,42
7.3906,0.44,42
7.3529,0.37,42
7.3046,0.62,42
7.2883,0.58,42
7.2527,0.72,42
7.2396,0.67,42
7.2236,1.13,42
7.2086,1.07,42
7.194,1.59,42
7.1815,4.76,42
7.1765,12.12,42
7.1657,5.3,42
7.1619,14.14,42
7.1569,2.27,42
7.142,0.76,42
7.1231,0.25,42
7.1132,0.26,42
7.0832,0.26,42
7.0593,0.27,42
7.0254,0.33,42
6.9326,0.5,42
6.9153,1.36,42
6.9112,1.49,42
6.9009,3.66,42
6.8966,15.0,42
6.8932,3.01,42
6.8853,3.71,42
6.8821,12.16,42
6.8773,3.81,42
6.8628,2.41,42
6.8309,0.27,42
6.7621,0.16,42
4.7055,1.55,42
4.7031,1.64,42
4.7013,0.93,42
4.698,4.36,42
4.692,18.25,42
4.6844,2.71,42
4.6807,2.29,42
4.6759,1.08,42
4.245,0.19,42
4.1222,0.41,42
4.0786,0.34,42
4.0677,0.34,42
4.0205,1.53,42
4.0055,0.67,42
3.9977,0.87,42
3.9849,4.86,42
3.9721,6.81,42
3.9602,4.75,42
3.9457,4.54,42
3.9321,0.87,42
3.9176,13.84,42
3.8895,13.66,42
3.8614,4.69,42
3.8395,0.74,42
3.8243,10.5,42
3.8126,0.74,42
3.8007,14.2,42
3.7686,1.17,42
3.7406,9.51,42
3.711,0.47,42
3.6883,0.24,42
3.6786,0.58,42
3.6714,0.37,42
3.656,0.23,42
3.6345,0.21,42
3.6167,0.38,42
3.6107,0.28,42
3.5931,0.17,42
3.5863,0.24,42
3.5655,0.52,42
3.5401,0.26,42
3.4503,7.32,42
3.2596,0.13,42
3.2476,0.34,42
3.2359,0.27,42
3.2191,0.46,42
3.2103,0.34,42
3.1978,0.47,42
3.1857,0.57,42
3.173,0.23,42
3.1616,0.28,42
3.1382,0.22,42
3.104,0.23,42
3.0741,0.66,42
3.0669,2.09,42
3.0614,0.77,42
3.0554,2.29,42
3.0438,6.01,42
3.0322,6.24,42
3.0217,6.32,42
3.0084,6.2,42
2.9985,2.21,42
2.9853,2.05,42
2.782,0.1,42
2.7681,0.14,42
2.7519,0.22,42
2.7394,0.45,42
2.7333,0.26,42
2.7268,0.32,42
2.7017,0.15,42
2.6863,0.15,42
2.6718,4.92,42
2.6467,10.64,42
2.6188,0.72,42
2.6068,0.72,42
2.5794,0.41,42
2.5615,11.06,42
2.5364,4.94,42
2.4884,0.13,42
2.4277,0.08,42
2.3681,0.28,42
2.3592,0.28,42
2.3448,0.13,42
2.3257,0.15,42
2.3196,0.21,42
2.3101,0.55,42
2.3031,0.5,42
2.2787,0.2,42
2.2597,0.21,42
2.2472,0.23,42
2.2115,0.33,42
2.1988,0.36,42
2.1869,0.34,42
2.1737,0.28,42
2.145,0.55,42
2.1297,1.54,42
2.1153,0.78,42
2.0988,0.57,42
2.0805,2.2,42
2.0644,1.07,42
2.0517,1.04,42
2.0453,0.96,42
1.9923,0.46,42
1.9675,0.37,42
1.956,0.37,42
1.9251,0.45,42
1.9205,0.51,42
1.9067,0.56,42
1.8967,0.4,42
1.8784,0.37,42
1.8577,0.44,42
1.8433,0.35,42
1.8309,0.31,42
1.8024,0.32,42
1.7619,0.4,42
1.7327,0.58,42
1.7182,0.67,42
1.7064,0.67,42
1.6789,0.77,42
1.6659,0.72,42
1.6572,0.68,42
1.5262,0.23,42
1.5139,0.25,42
1.4904,0.71,42
1.4781,0.74,42
1.4369,0.36,42
1.4248,0.48,42
1.4118,0.38,42
1.3735,0.25,42
1.3568,0.29,42
1.3378,0.89,42
1.3261,0.73,42
1.2749,0.19,42
1.269,0.24,42
1.2534,0.32,42
1.2405,0.49,42
1.2299,0.4,42
1.2115,0.41,42
1.1829,0.34,42
1.1086,0.55,42
1.0966,0.59,42
1.0559,0.33,42
1.0502,0.66,42
1.0443,0.29,42
1.038,0.78,42
1.0247,0.46,42
1.018,1.09,42
1.0058,1.23,42
1.0003,1.2,42
0.9882,1.45,42
0.9839,1.36,42
0.9737,1.72,42
0.9641,2.2,42
0.9538,2.38,42
0.9472,4.07,42
0.9414,2.68,42
0.9357,3.72,42
0.9291,2.47,42
0.9195,3.12,42
0.9083,2.89,42
0.8982,2.03,42
0.8928,1.7,42
0.8854,1.75,42
0.8621,1.18,42
0.8491,0.95,42
0.8197,0.55,42
0.097,0.39,42
0.0411,0.3,42
0.0052,3.88,42
-2.0E-4,121.8,42
-0.0056,5.04,42
-0.0161,0.2,42
-0.1005,0.45,42
-0.8347,0.09,42
-0.9352,0.12,42
-0.9519,0.15,42
