##TITLE= Audit trail, TOPSPIN		Version 2.1
##JCAMPDX= 5.01
##ORIGIN= Bruker BioSpin GmbH
##OWNER= Administrator
$$ T:/data/MJD/nmr/C03519/50/audita.txt
##AUDIT TRAIL=  $$ (NUMBER, WHEN, WHO, WHERE, PROCESS, VERSION, WHAT)
(   1,<2014-12-16 20:15:03.812 +0000>,<Administrator>,<GH001606>,<go>,<TOPSPIN 2.1>,
      <created by zg
	started at 2014-12-16 20:13:48.140 +0000,
	POWCHK disabled, PULCHK disabled,
       configuration hash MD5:
       4F DB FE 01 64 29 F4 D5 05 17 18 DB FF 7C 08 05
       data hash MD5: 32K
       DC 8E F0 D0 4F FD 02 1C 72 81 3F EE D7 0E 06 33>)
(   2,<2014-12-16 20:15:18.156 +0000>,<Administrator>,<GH001606>,<audit>,<TOPSPIN 2.1>,
      <user comment:
       ICON-NMR User ID: MJD
       data hash MD5: 32K
       DC 8E F0 D0 4F FD 02 1C 72 81 3F EE D7 0E 06 33>)
(   3,<2014-12-16 20:15:19.234 +0000>,<Administrator>,<GH001606>,<dirdata>,<TOPSPIN 2.1>,
      <wrpa from 1 50 "C03519" "MJD" "C:\NMRdata"
       data hash MD5: 32K
       DC 8E F0 D0 4F FD 02 1C 72 81 3F EE D7 0E 06 33>)
##END=

$$ hash MD5
$$ C8 B8 0E 0F 01 4C E5 B1 B6 95 D4 F7 1F B1 BB 67
