##TITLE= Audit trail, TOPSPIN		Version 2.1
##JCAMPDX= 5.01
##ORIGIN= Bruker BioSpin GmbH
##OWNER= Administrator
$$ T:/data/MJD/nmr/C03519/23/audita.txt
##AUDIT TRAIL=  $$ (NUMBER, WHEN, WHO, WHERE, PROCESS, VERSION, WHAT)
(   1,<2014-12-16 18:23:12.734 +0000>,<Administrator>,<GH001606>,<go>,<TOPSPIN 2.1>,
      <created by zg
	started at 2014-12-16 18:21:57.125 +0000,
	POWCHK disabled, PULCHK disabled,
       configuration hash MD5:
       4F DB FE 01 64 29 F4 D5 05 17 18 DB FF 7C 08 05
       data hash MD5: 32K
       AB 23 01 BD 87 12 78 89 E2 54 D4 76 20 A0 96 D5>)
(   2,<2014-12-16 18:23:29.468 +0000>,<Administrator>,<GH001606>,<audit>,<TOPSPIN 2.1>,
      <user comment:
       ICON-NMR User ID: MJD
       data hash MD5: 32K
       AB 23 01 BD 87 12 78 89 E2 54 D4 76 20 A0 96 D5>)
(   3,<2014-12-16 18:23:30.187 +0000>,<Administrator>,<GH001606>,<dirdata>,<TOPSPIN 2.1>,
      <wrpa from 1 23 "C03519" "MJD" "C:\NMRdata"
       data hash MD5: 32K
       AB 23 01 BD 87 12 78 89 E2 54 D4 76 20 A0 96 D5>)
##END=

$$ hash MD5
$$ 38 2F AE 6C F5 C1 0F 84 7F BB 5A BE C0 FC C7 08
